%!PS-Adobe-3.0 EPSF-3.0
%%Title: C:/Repos/thesis_repo/thesis_figs/cauchy_plots.eps
%%Creator: matplotlib version 2.1.2, http://matplotlib.org/
%%CreationDate: Tue Jul 31 12:03:23 2018
%%Orientation: portrait
%%BoundingBox: -82 223 694 568
%%EndComments
%%BeginProlog
/mpldict 8 dict def
mpldict begin
/m { moveto } bind def
/l { lineto } bind def
/r { rlineto } bind def
/c { curveto } bind def
/cl { closepath } bind def
/box {
m
1 index 0 r
0 exch r
neg 0 r
cl
} bind def
/clipbox {
box
clip
newpath
} bind def
%!PS-Adobe-3.0 Resource-Font
%%Title: DejaVu Sans
%%Copyright: Copyright (c) 2003 by Bitstream, Inc. All Rights Reserved. Copyright (c) 2006 by Tavmjong Bah. All Rights Reserved. DejaVu changes are in public domain 
%%Creator: Converted from TrueType to type 3 by PPR
25 dict begin
/_d{bind def}bind def
/_m{moveto}_d
/_l{lineto}_d
/_cl{closepath eofill}_d
/_c{curveto}_d
/_sc{7 -1 roll{setcachedevice}{pop pop pop pop pop pop}ifelse}_d
/_e{exec}_d
/FontName /DejaVuSans def
/PaintType 0 def
/FontMatrix[.001 0 0 .001 0 0]def
/FontBBox[-1021 -463 1793 1232]def
/FontType 3 def
/Encoding [ /space /parenleft /parenright /plus /comma /hyphen /period /zero /one /two /three /four /five /C /D /H /a /b /c /d /e /f /h /i /l /n /o /p /r /s /t /u /x /y /asciitilde /minus ] def
/FontInfo 10 dict dup begin
/FamilyName (DejaVu Sans) def
/FullName (DejaVu Sans) def
/Notice (Copyright (c) 2003 by Bitstream, Inc. All Rights Reserved. Copyright (c) 2006 by Tavmjong Bah. All Rights Reserved. DejaVu changes are in public domain ) def
/Weight (Book) def
/Version (Version 2.35) def
/ItalicAngle 0.0 def
/isFixedPitch false def
/UnderlinePosition -130 def
/UnderlineThickness 90 def
end readonly def
/CharStrings 37 dict dup begin
/.notdef 0 def
/space{318 0 0 0 0 0 _sc
}_d
/parenleft{390 0 86 -131 310 759 _sc
310 759 _m
266 683 234 609 213 536 _c
191 463 181 389 181 314 _c
181 238 191 164 213 91 _c
234 17 266 -56 310 -131 _c
232 -131 _l
183 -54 146 20 122 94 _c
98 168 86 241 86 314 _c
86 386 98 459 122 533 _c
146 607 182 682 232 759 _c
310 759 _l
_cl}_d
/parenright{390 0 80 -131 304 759 _sc
80 759 _m
158 759 _l
206 682 243 607 267 533 _c
291 459 304 386 304 314 _c
304 241 291 168 267 94 _c
243 20 206 -54 158 -131 _c
80 -131 _l
123 -56 155 17 177 91 _c
198 164 209 238 209 314 _c
209 389 198 463 177 536 _c
155 609 123 683 80 759 _c
_cl}_d
/plus{838 0 106 0 732 627 _sc
460 627 _m
460 355 _l
732 355 _l
732 272 _l
460 272 _l
460 0 _l
378 0 _l
378 272 _l
106 272 _l
106 355 _l
378 355 _l
378 627 _l
460 627 _l
_cl}_d
/comma{318 0 77 -115 220 124 _sc
117 124 _m
220 124 _l
220 40 _l
140 -115 _l
77 -115 _l
117 40 _l
117 124 _l
_cl}_d
/hyphen{361 0 49 234 312 314 _sc
49 314 _m
312 314 _l
312 234 _l
49 234 _l
49 314 _l
_cl}_d
/period{318 0 107 0 210 124 _sc
107 124 _m
210 124 _l
210 0 _l
107 0 _l
107 124 _l
_cl}_d
/zero{636 0 66 -13 570 742 _sc
318 664 _m
267 664 229 639 203 589 _c
177 539 165 464 165 364 _c
165 264 177 189 203 139 _c
229 89 267 64 318 64 _c
369 64 407 89 433 139 _c
458 189 471 264 471 364 _c
471 464 458 539 433 589 _c
407 639 369 664 318 664 _c
318 742 _m
399 742 461 709 505 645 _c
548 580 570 486 570 364 _c
570 241 548 147 505 83 _c
461 19 399 -13 318 -13 _c
236 -13 173 19 130 83 _c
87 147 66 241 66 364 _c
66 486 87 580 130 645 _c
173 709 236 742 318 742 _c
_cl}_d
/one{636 0 110 0 544 729 _sc
124 83 _m
285 83 _l
285 639 _l
110 604 _l
110 694 _l
284 729 _l
383 729 _l
383 83 _l
544 83 _l
544 0 _l
124 0 _l
124 83 _l
_cl}_d
/two{{636 0 73 0 536 742 _sc
192 83 _m
536 83 _l
536 0 _l
73 0 _l
73 83 _l
110 121 161 173 226 239 _c
290 304 331 346 348 365 _c
380 400 402 430 414 455 _c
426 479 433 504 433 528 _c
433 566 419 598 392 622 _c
365 646 330 659 286 659 _c
255 659 222 653 188 643 _c
154 632 117 616 78 594 _c
78 694 _l
118 710 155 722 189 730 _c
223 738 255 742 284 742 _c
}_e{359 742 419 723 464 685 _c
509 647 532 597 532 534 _c
532 504 526 475 515 449 _c
504 422 484 390 454 354 _c
446 344 420 317 376 272 _c
332 227 271 164 192 83 _c
_cl}_e}_d
/three{{636 0 76 -13 556 742 _sc
406 393 _m
453 383 490 362 516 330 _c
542 298 556 258 556 212 _c
556 140 531 84 482 45 _c
432 6 362 -13 271 -13 _c
240 -13 208 -10 176 -4 _c
144 1 110 10 76 22 _c
76 117 _l
103 101 133 89 166 81 _c
198 73 232 69 268 69 _c
330 69 377 81 409 105 _c
441 129 458 165 458 212 _c
458 254 443 288 413 312 _c
383 336 341 349 287 349 _c
}_e{202 349 _l
202 430 _l
291 430 _l
339 430 376 439 402 459 _c
428 478 441 506 441 543 _c
441 580 427 609 401 629 _c
374 649 336 659 287 659 _c
260 659 231 656 200 650 _c
169 644 135 635 98 623 _c
98 711 _l
135 721 170 729 203 734 _c
235 739 266 742 296 742 _c
370 742 429 725 473 691 _c
517 657 539 611 539 553 _c
539 513 527 479 504 451 _c
481 423 448 403 406 393 _c
_cl}_e}_d
/four{636 0 49 0 580 729 _sc
378 643 _m
129 254 _l
378 254 _l
378 643 _l
352 729 _m
476 729 _l
476 254 _l
580 254 _l
580 172 _l
476 172 _l
476 0 _l
378 0 _l
378 172 _l
49 172 _l
49 267 _l
352 729 _l
_cl}_d
/five{{636 0 77 -13 549 729 _sc
108 729 _m
495 729 _l
495 646 _l
198 646 _l
198 467 _l
212 472 227 476 241 478 _c
255 480 270 482 284 482 _c
365 482 429 459 477 415 _c
525 370 549 310 549 234 _c
549 155 524 94 475 51 _c
426 8 357 -13 269 -13 _c
238 -13 207 -10 175 -6 _c
143 -1 111 6 77 17 _c
77 116 _l
106 100 136 88 168 80 _c
199 72 232 69 267 69 _c
}_e{323 69 368 83 401 113 _c
433 143 450 183 450 234 _c
450 284 433 324 401 354 _c
368 384 323 399 267 399 _c
241 399 214 396 188 390 _c
162 384 135 375 108 363 _c
108 729 _l
_cl}_e}_d
/C{{698 0 56 -13 644 742 _sc
644 673 _m
644 569 _l
610 599 575 622 537 638 _c
499 653 460 661 418 661 _c
334 661 270 635 226 584 _c
182 533 160 460 160 364 _c
160 268 182 194 226 143 _c
270 92 334 67 418 67 _c
460 67 499 74 537 90 _c
575 105 610 128 644 159 _c
644 56 _l
609 32 572 15 534 4 _c
496 -7 455 -13 412 -13 _c
302 -13 215 20 151 87 _c
}_e{87 154 56 246 56 364 _c
56 481 87 573 151 641 _c
215 708 302 742 412 742 _c
456 742 497 736 535 725 _c
573 713 610 696 644 673 _c
_cl}_e}_d
/D{770 0 98 0 711 729 _sc
197 648 _m
197 81 _l
316 81 _l
416 81 490 103 537 149 _c
583 195 607 267 607 365 _c
607 463 583 534 537 580 _c
490 625 416 648 316 648 _c
197 648 _l
98 729 _m
301 729 _l
442 729 546 699 612 641 _c
678 582 711 490 711 365 _c
711 239 677 147 611 88 _c
545 29 441 0 301 0 _c
98 0 _l
98 729 _l
_cl}_d
/H{752 0 98 0 654 729 _sc
98 729 _m
197 729 _l
197 430 _l
555 430 _l
555 729 _l
654 729 _l
654 0 _l
555 0 _l
555 347 _l
197 347 _l
197 0 _l
98 0 _l
98 729 _l
_cl}_d
/a{{613 0 60 -13 522 560 _sc
343 275 _m
270 275 220 266 192 250 _c
164 233 150 205 150 165 _c
150 133 160 107 181 89 _c
202 70 231 61 267 61 _c
317 61 357 78 387 114 _c
417 149 432 196 432 255 _c
432 275 _l
343 275 _l
522 312 _m
522 0 _l
432 0 _l
432 83 _l
411 49 385 25 355 10 _c
325 -5 287 -13 243 -13 _c
187 -13 142 2 109 33 _c
76 64 60 106 60 159 _c
}_e{60 220 80 266 122 298 _c
163 329 224 345 306 345 _c
432 345 _l
432 354 _l
432 395 418 427 391 450 _c
364 472 326 484 277 484 _c
245 484 215 480 185 472 _c
155 464 127 453 100 439 _c
100 522 _l
132 534 164 544 195 550 _c
226 556 256 560 286 560 _c
365 560 424 539 463 498 _c
502 457 522 395 522 312 _c
_cl}_e}_d
/b{{635 0 91 -13 580 760 _sc
487 273 _m
487 339 473 390 446 428 _c
418 466 381 485 334 485 _c
286 485 249 466 222 428 _c
194 390 181 339 181 273 _c
181 207 194 155 222 117 _c
249 79 286 61 334 61 _c
381 61 418 79 446 117 _c
473 155 487 207 487 273 _c
181 464 _m
199 496 223 520 252 536 _c
281 552 316 560 356 560 _c
422 560 476 533 518 481 _c
559 428 580 359 580 273 _c
}_e{580 187 559 117 518 65 _c
476 13 422 -13 356 -13 _c
316 -13 281 -5 252 10 _c
223 25 199 49 181 82 _c
181 0 _l
91 0 _l
91 760 _l
181 760 _l
181 464 _l
_cl}_e}_d
/c{{550 0 55 -13 488 560 _sc
488 526 _m
488 442 _l
462 456 437 466 411 473 _c
385 480 360 484 334 484 _c
276 484 230 465 198 428 _c
166 391 150 339 150 273 _c
150 206 166 154 198 117 _c
230 80 276 62 334 62 _c
360 62 385 65 411 72 _c
437 79 462 90 488 104 _c
488 21 _l
462 9 436 0 410 -5 _c
383 -10 354 -13 324 -13 _c
242 -13 176 12 128 64 _c
}_e{79 115 55 185 55 273 _c
55 362 79 432 128 483 _c
177 534 244 560 330 560 _c
358 560 385 557 411 551 _c
437 545 463 537 488 526 _c
_cl}_e}_d
/d{{635 0 55 -13 544 760 _sc
454 464 _m
454 760 _l
544 760 _l
544 0 _l
454 0 _l
454 82 _l
435 49 411 25 382 10 _c
353 -5 319 -13 279 -13 _c
213 -13 159 13 117 65 _c
75 117 55 187 55 273 _c
55 359 75 428 117 481 _c
159 533 213 560 279 560 _c
319 560 353 552 382 536 _c
411 520 435 496 454 464 _c
148 273 _m
148 207 161 155 188 117 _c
215 79 253 61 301 61 _c
}_e{348 61 385 79 413 117 _c
440 155 454 207 454 273 _c
454 339 440 390 413 428 _c
385 466 348 485 301 485 _c
253 485 215 466 188 428 _c
161 390 148 339 148 273 _c
_cl}_e}_d
/e{{615 0 55 -13 562 560 _sc
562 296 _m
562 252 _l
149 252 _l
153 190 171 142 205 110 _c
238 78 284 62 344 62 _c
378 62 412 66 444 74 _c
476 82 509 95 541 113 _c
541 28 _l
509 14 476 3 442 -3 _c
408 -9 373 -13 339 -13 _c
251 -13 182 12 131 62 _c
80 112 55 181 55 268 _c
55 357 79 428 127 481 _c
175 533 241 560 323 560 _c
397 560 455 536 498 489 _c
}_e{540 441 562 377 562 296 _c
472 322 _m
471 371 457 410 431 440 _c
404 469 368 484 324 484 _c
274 484 234 469 204 441 _c
174 413 156 373 152 322 _c
472 322 _l
_cl}_e}_d
/f{352 0 23 0 371 760 _sc
371 760 _m
371 685 _l
285 685 _l
253 685 230 678 218 665 _c
205 652 199 629 199 595 _c
199 547 _l
347 547 _l
347 477 _l
199 477 _l
199 0 _l
109 0 _l
109 477 _l
23 477 _l
23 547 _l
109 547 _l
109 585 _l
109 645 123 690 151 718 _c
179 746 224 760 286 760 _c
371 760 _l
_cl}_d
/h{634 0 91 0 549 760 _sc
549 330 _m
549 0 _l
459 0 _l
459 327 _l
459 379 448 417 428 443 _c
408 469 378 482 338 482 _c
289 482 251 466 223 435 _c
195 404 181 362 181 309 _c
181 0 _l
91 0 _l
91 760 _l
181 760 _l
181 462 _l
202 494 227 519 257 535 _c
286 551 320 560 358 560 _c
420 560 468 540 500 501 _c
532 462 549 405 549 330 _c
_cl}_d
/i{278 0 94 0 184 760 _sc
94 547 _m
184 547 _l
184 0 _l
94 0 _l
94 547 _l
94 760 _m
184 760 _l
184 646 _l
94 646 _l
94 760 _l
_cl}_d
/l{278 0 94 0 184 760 _sc
94 760 _m
184 760 _l
184 0 _l
94 0 _l
94 760 _l
_cl}_d
/n{634 0 91 0 549 560 _sc
549 330 _m
549 0 _l
459 0 _l
459 327 _l
459 379 448 417 428 443 _c
408 469 378 482 338 482 _c
289 482 251 466 223 435 _c
195 404 181 362 181 309 _c
181 0 _l
91 0 _l
91 547 _l
181 547 _l
181 462 _l
202 494 227 519 257 535 _c
286 551 320 560 358 560 _c
420 560 468 540 500 501 _c
532 462 549 405 549 330 _c
_cl}_d
/o{612 0 55 -13 557 560 _sc
306 484 _m
258 484 220 465 192 427 _c
164 389 150 338 150 273 _c
150 207 163 156 191 118 _c
219 80 257 62 306 62 _c
354 62 392 80 420 118 _c
448 156 462 207 462 273 _c
462 337 448 389 420 427 _c
392 465 354 484 306 484 _c
306 560 _m
384 560 445 534 490 484 _c
534 433 557 363 557 273 _c
557 183 534 113 490 63 _c
445 12 384 -13 306 -13 _c
227 -13 165 12 121 63 _c
77 113 55 183 55 273 _c
55 363 77 433 121 484 _c
165 534 227 560 306 560 _c
_cl}_d
/p{{635 0 91 -207 580 560 _sc
181 82 _m
181 -207 _l
91 -207 _l
91 547 _l
181 547 _l
181 464 _l
199 496 223 520 252 536 _c
281 552 316 560 356 560 _c
422 560 476 533 518 481 _c
559 428 580 359 580 273 _c
580 187 559 117 518 65 _c
476 13 422 -13 356 -13 _c
316 -13 281 -5 252 10 _c
223 25 199 49 181 82 _c
487 273 _m
487 339 473 390 446 428 _c
418 466 381 485 334 485 _c
}_e{286 485 249 466 222 428 _c
194 390 181 339 181 273 _c
181 207 194 155 222 117 _c
249 79 286 61 334 61 _c
381 61 418 79 446 117 _c
473 155 487 207 487 273 _c
_cl}_e}_d
/r{411 0 91 0 411 560 _sc
411 463 _m
401 469 390 473 378 476 _c
366 478 353 480 339 480 _c
288 480 249 463 222 430 _c
194 397 181 350 181 288 _c
181 0 _l
91 0 _l
91 547 _l
181 547 _l
181 462 _l
199 495 224 520 254 536 _c
284 552 321 560 365 560 _c
371 560 378 559 386 559 _c
393 558 401 557 411 555 _c
411 463 _l
_cl}_d
/s{{521 0 54 -13 472 560 _sc
443 531 _m
443 446 _l
417 458 391 468 364 475 _c
336 481 308 485 279 485 _c
234 485 200 478 178 464 _c
156 450 145 430 145 403 _c
145 382 153 366 169 354 _c
185 342 217 330 265 320 _c
296 313 _l
360 299 405 279 432 255 _c
458 230 472 195 472 151 _c
472 100 452 60 412 31 _c
372 1 316 -13 246 -13 _c
216 -13 186 -10 154 -5 _c
}_e{122 0 89 8 54 20 _c
54 113 _l
87 95 120 82 152 74 _c
184 65 216 61 248 61 _c
290 61 323 68 346 82 _c
368 96 380 117 380 144 _c
380 168 371 187 355 200 _c
339 213 303 226 247 238 _c
216 245 _l
160 257 119 275 95 299 _c
70 323 58 356 58 399 _c
58 450 76 490 112 518 _c
148 546 200 560 268 560 _c
301 560 332 557 362 552 _c
391 547 418 540 443 531 _c
}_e{_cl}_e}_d
/t{392 0 27 0 368 702 _sc
183 702 _m
183 547 _l
368 547 _l
368 477 _l
183 477 _l
183 180 _l
183 135 189 106 201 94 _c
213 81 238 75 276 75 _c
368 75 _l
368 0 _l
276 0 _l
206 0 158 13 132 39 _c
106 65 93 112 93 180 _c
93 477 _l
27 477 _l
27 547 _l
93 547 _l
93 702 _l
183 702 _l
_cl}_d
/u{634 0 85 -13 543 560 _sc
85 216 _m
85 547 _l
175 547 _l
175 219 _l
175 167 185 129 205 103 _c
225 77 255 64 296 64 _c
344 64 383 79 411 110 _c
439 141 453 183 453 237 _c
453 547 _l
543 547 _l
543 0 _l
453 0 _l
453 84 _l
431 50 405 26 377 10 _c
348 -5 315 -13 277 -13 _c
214 -13 166 6 134 45 _c
101 83 85 140 85 216 _c
311 560 _m
311 560 _l
_cl}_d
/x{592 0 29 0 559 547 _sc
549 547 _m
351 281 _l
559 0 _l
453 0 _l
294 215 _l
135 0 _l
29 0 _l
241 286 _l
47 547 _l
153 547 _l
298 352 _l
443 547 _l
549 547 _l
_cl}_d
/y{592 0 30 -207 562 547 _sc
322 -50 _m
296 -114 271 -157 247 -177 _c
223 -197 191 -207 151 -207 _c
79 -207 _l
79 -132 _l
132 -132 _l
156 -132 175 -126 189 -114 _c
203 -102 218 -75 235 -31 _c
251 9 _l
30 547 _l
125 547 _l
296 119 _l
467 547 _l
562 547 _l
322 -50 _l
_cl}_d
/asciitilde{{838 0 106 228 732 399 _sc
732 399 _m
732 312 _l
698 286 666 267 637 256 _c
607 245 577 240 546 240 _c
510 240 468 249 421 269 _c
417 270 415 271 413 272 _c
411 272 407 274 402 276 _c
352 296 311 306 281 306 _c
252 306 224 299 196 287 _c
168 275 138 255 106 228 _c
106 315 _l
140 341 171 359 201 370 _c
230 381 260 387 292 387 _c
328 387 369 377 417 358 _c
}_e{420 356 423 355 425 355 _c
427 354 431 353 436 351 _c
486 331 526 321 557 321 _c
585 321 612 327 640 339 _c
668 351 698 371 732 399 _c
_cl}_e}_d
/minus{838 0 106 272 732 355 _sc
106 355 _m
732 355 _l
732 272 _l
106 272 _l
106 355 _l
_cl}_d
end readonly def

/BuildGlyph
 {exch begin
 CharStrings exch
 2 copy known not{pop /.notdef}if
 true 3 1 roll get exec
 end}_d

/BuildChar {
 1 index /Encoding get exch get
 1 index /BuildGlyph get exec
}_d

FontName currentdict end definefont pop
end
%%EndProlog
mpldict begin
-82.08 223.92 translate
776.16 344.16 0 0 clipbox
gsave
0 0 m
776.16 0 l
776.16 344.16 l
0 344.16 l
cl
1.000 setgray
fill
grestore
gsave
97.02 37.8576 m
370.44 37.8576 l
370.44 302.8608 l
97.02 302.8608 l
cl
1.000 setgray
fill
grestore
0.800 setlinewidth
1 setlinejoin
0 setlinecap
[] 0 setdash
0.000 setgray
gsave
/o {
gsave
newpath
translate
0.8 setlinewidth
1 setlinejoin
0 setlinecap
0 0 m
0 -3.5 l

gsave
0.000 setgray
fill
grestore
stroke
grestore
} bind def
109.448 37.8576 o
grestore
/DejaVuSans findfont
10.000 scalefont
setfont
gsave
102.080994 23.263850 translate
0.000000 rotate
0.000000 0.000000 m /minus glyphshow
8.378906 0.000000 m /four glyphshow
grestore
gsave
/o {
gsave
newpath
translate
0.8 setlinewidth
1 setlinejoin
0 setlinecap
0 0 m
0 -3.5 l

gsave
0.000 setgray
fill
grestore
stroke
grestore
} bind def
140.519 37.8576 o
grestore
gsave
133.151449 23.263850 translate
0.000000 rotate
0.000000 0.000000 m /minus glyphshow
8.378906 0.000000 m /three glyphshow
grestore
gsave
/o {
gsave
newpath
translate
0.8 setlinewidth
1 setlinejoin
0 setlinecap
0 0 m
0 -3.5 l

gsave
0.000 setgray
fill
grestore
stroke
grestore
} bind def
171.589 37.8576 o
grestore
gsave
164.221903 23.263850 translate
0.000000 rotate
0.000000 0.000000 m /minus glyphshow
8.378906 0.000000 m /two glyphshow
grestore
gsave
/o {
gsave
newpath
translate
0.8 setlinewidth
1 setlinejoin
0 setlinecap
0 0 m
0 -3.5 l

gsave
0.000 setgray
fill
grestore
stroke
grestore
} bind def
202.66 37.8576 o
grestore
gsave
195.292358 23.263850 translate
0.000000 rotate
0.000000 0.000000 m /minus glyphshow
8.378906 0.000000 m /one glyphshow
grestore
gsave
/o {
gsave
newpath
translate
0.8 setlinewidth
1 setlinejoin
0 setlinecap
0 0 m
0 -3.5 l

gsave
0.000 setgray
fill
grestore
stroke
grestore
} bind def
233.73 37.8576 o
grestore
gsave
230.550312 23.263850 translate
0.000000 rotate
0.000000 0.000000 m /zero glyphshow
grestore
gsave
/o {
gsave
newpath
translate
0.8 setlinewidth
1 setlinejoin
0 setlinecap
0 0 m
0 -3.5 l

gsave
0.000 setgray
fill
grestore
stroke
grestore
} bind def
264.8 37.8576 o
grestore
gsave
261.620767 23.263850 translate
0.000000 rotate
0.000000 0.000000 m /one glyphshow
grestore
gsave
/o {
gsave
newpath
translate
0.8 setlinewidth
1 setlinejoin
0 setlinecap
0 0 m
0 -3.5 l

gsave
0.000 setgray
fill
grestore
stroke
grestore
} bind def
295.871 37.8576 o
grestore
gsave
292.691222 23.263850 translate
0.000000 rotate
0.000000 0.000000 m /two glyphshow
grestore
gsave
/o {
gsave
newpath
translate
0.8 setlinewidth
1 setlinejoin
0 setlinecap
0 0 m
0 -3.5 l

gsave
0.000 setgray
fill
grestore
stroke
grestore
} bind def
326.941 37.8576 o
grestore
gsave
323.761676 23.263850 translate
0.000000 rotate
0.000000 0.000000 m /three glyphshow
grestore
gsave
/o {
gsave
newpath
translate
0.8 setlinewidth
1 setlinejoin
0 setlinecap
0 0 m
0 -3.5 l

gsave
0.000 setgray
fill
grestore
stroke
grestore
} bind def
358.012 37.8576 o
grestore
gsave
354.832131 23.263850 translate
0.000000 rotate
0.000000 0.000000 m /four glyphshow
grestore
/DejaVuSans findfont
12.000 scalefont
setfont
gsave
230.175312 8.060725 translate
0.000000 rotate
0.000000 0.000000 m /x glyphshow
grestore
gsave
/o {
gsave
newpath
translate
0.8 setlinewidth
1 setlinejoin
0 setlinecap
0 0 m
-3.5 0 l

gsave
0.000 setgray
fill
grestore
stroke
grestore
} bind def
97.02 75.0537 o
grestore
/DejaVuSans findfont
10.000 scalefont
setfont
gsave
67.754375 71.256859 translate
0.000000 rotate
0.000000 0.000000 m /zero glyphshow
6.362305 0.000000 m /period glyphshow
9.541016 0.000000 m /zero glyphshow
15.903320 0.000000 m /five glyphshow
grestore
gsave
/o {
gsave
newpath
translate
0.8 setlinewidth
1 setlinejoin
0 setlinecap
0 0 m
-3.5 0 l

gsave
0.000 setgray
fill
grestore
stroke
grestore
} bind def
97.02 115.261 o
grestore
gsave
67.754375 111.464402 translate
0.000000 rotate
0.000000 0.000000 m /zero glyphshow
6.362305 0.000000 m /period glyphshow
9.541016 0.000000 m /one glyphshow
15.903320 0.000000 m /zero glyphshow
grestore
gsave
/o {
gsave
newpath
translate
0.8 setlinewidth
1 setlinejoin
0 setlinecap
0 0 m
-3.5 0 l

gsave
0.000 setgray
fill
grestore
stroke
grestore
} bind def
97.02 155.469 o
grestore
gsave
67.754375 151.671946 translate
0.000000 rotate
0.000000 0.000000 m /zero glyphshow
6.362305 0.000000 m /period glyphshow
9.541016 0.000000 m /one glyphshow
15.903320 0.000000 m /five glyphshow
grestore
gsave
/o {
gsave
newpath
translate
0.8 setlinewidth
1 setlinejoin
0 setlinecap
0 0 m
-3.5 0 l

gsave
0.000 setgray
fill
grestore
stroke
grestore
} bind def
97.02 195.676 o
grestore
gsave
67.754375 191.879490 translate
0.000000 rotate
0.000000 0.000000 m /zero glyphshow
6.362305 0.000000 m /period glyphshow
9.541016 0.000000 m /two glyphshow
15.903320 0.000000 m /zero glyphshow
grestore
gsave
/o {
gsave
newpath
translate
0.8 setlinewidth
1 setlinejoin
0 setlinecap
0 0 m
-3.5 0 l

gsave
0.000 setgray
fill
grestore
stroke
grestore
} bind def
97.02 235.884 o
grestore
gsave
67.754375 232.087034 translate
0.000000 rotate
0.000000 0.000000 m /zero glyphshow
6.362305 0.000000 m /period glyphshow
9.541016 0.000000 m /two glyphshow
15.903320 0.000000 m /five glyphshow
grestore
gsave
/o {
gsave
newpath
translate
0.8 setlinewidth
1 setlinejoin
0 setlinecap
0 0 m
-3.5 0 l

gsave
0.000 setgray
fill
grestore
stroke
grestore
} bind def
97.02 276.091 o
grestore
gsave
67.754375 272.294578 translate
0.000000 rotate
0.000000 0.000000 m /zero glyphshow
6.362305 0.000000 m /period glyphshow
9.541016 0.000000 m /three glyphshow
15.903320 0.000000 m /zero glyphshow
grestore
/DejaVuSans findfont
12.000 scalefont
setfont
gsave
61.254375 158.304513 translate
90.000000 rotate
0.000000 0.000000 m /p glyphshow
7.617188 0.000000 m /parenleft glyphshow
12.298828 0.000000 m /x glyphshow
19.400391 0.000000 m /parenright glyphshow
grestore
1.500 setlinewidth
2 setlinecap
0.122 0.467 0.706 setrgbcolor
gsave
273.4 265 97.02 37.86 clipbox
109.448182 49.9032 m
115.912129 51.490317 l
121.829127 53.167721 l
127.298621 54.94751 l
132.320611 56.812636 l
136.994542 58.783306 l
141.370137 60.869054 l
145.447396 63.057215 l
149.276042 65.361196 l
152.905797 67.802744 l
156.336661 70.374895 l
159.618358 73.110244 l
162.750886 76.007106 l
165.783969 79.114223 l
168.717607 82.439893 l
171.551799 85.990901 l
174.286546 89.772041 l
176.97157 93.865084 l
179.606872 98.293091 l
182.192451 103.079326 l
184.728307 108.246724 l
187.214441 113.817173 l
189.700574 119.938777 l
192.186708 126.665485 l
194.672841 134.052194 l
197.158975 142.152239 l
199.645108 151.01356 l
202.180965 160.874601 l
204.816266 172.022221 l
207.600736 184.778858 l
210.733264 200.220278 l
214.711078 221.047046 l
221.025857 254.151035 l
223.412546 265.393364 l
225.302007 273.272245 l
226.893133 278.993887 l
228.235645 283.053729 l
229.428989 286.002648 l
230.473165 288.033485 l
231.417896 289.405721 l
232.213459 290.206994 l
232.959299 290.657966 l
233.655416 290.813889 l
234.301811 290.728698 l
234.948205 290.422478 l
235.644323 289.847359 l
236.439886 288.882936 l
237.334894 287.415432 l
238.329347 285.326645 l
239.472969 282.359157 l
240.765758 278.330124 l
242.207716 273.079021 l
243.898286 266.052544 l
245.936916 256.588626 l
248.62194 242.997828 l
260.058155 183.835687 l
262.991792 170.497424 l
265.726539 159.072899 l
268.361841 148.99664 l
270.94742 139.974788 l
273.483276 131.914244 l
276.019132 124.580667 l
278.554989 117.916648 l
281.090845 111.864022 l
283.676424 106.263662 l
286.262003 101.183585 l
288.897304 96.486951 l
291.582329 92.149199 l
294.317076 88.145774 l
297.151268 84.389911 l
300.035183 80.932961 l
303.018543 77.699809 l
306.101349 74.682777 l
309.333322 71.83123 l
312.714464 69.147766 l
316.244774 66.632121 l
319.973974 64.251654 l
323.902065 62.011492 l
328.07877 59.889686 l
332.504088 57.89346 l
337.227741 56.007659 l
342.299454 54.222932 l
347.81867 52.519833 l
353.785391 50.914274 l
358.011818 49.9032 l
358.011818 49.9032 l
stroke
grestore
0.800 setlinewidth
0 setlinejoin
[] 0 setdash
0.000 setgray
gsave
97.02 37.8576 m
97.02 302.8608 l
stroke
grestore
gsave
370.44 37.8576 m
370.44 302.8608 l
stroke
grestore
gsave
97.02 37.8576 m
370.44 37.8576 l
stroke
grestore
gsave
97.02 302.8608 m
370.44 302.8608 l
stroke
grestore
/DejaVuSans findfont
14.000 scalefont
setfont
gsave
114.042500 308.860800 translate
0.000000 rotate
0.000000 0.000000 m /D glyphshow
10.780273 0.000000 m /e glyphshow
19.393555 0.000000 m /n glyphshow
28.266602 0.000000 m /s glyphshow
35.560547 0.000000 m /i glyphshow
39.450195 0.000000 m /t glyphshow
44.939453 0.000000 m /y glyphshow
53.224609 0.000000 m /space glyphshow
57.674805 0.000000 m /o glyphshow
66.240234 0.000000 m /f glyphshow
71.168945 0.000000 m /space glyphshow
75.619141 0.000000 m /t glyphshow
81.108398 0.000000 m /h glyphshow
89.981445 0.000000 m /e glyphshow
98.594727 0.000000 m /space glyphshow
103.044922 0.000000 m /C glyphshow
112.820312 0.000000 m /a glyphshow
121.399414 0.000000 m /u glyphshow
130.272461 0.000000 m /c glyphshow
137.969727 0.000000 m /h glyphshow
146.842773 0.000000 m /y glyphshow
155.127930 0.000000 m /space glyphshow
159.578125 0.000000 m /d glyphshow
168.464844 0.000000 m /i glyphshow
172.354492 0.000000 m /s glyphshow
179.648438 0.000000 m /t glyphshow
185.137695 0.000000 m /r glyphshow
190.893555 0.000000 m /i glyphshow
194.783203 0.000000 m /b glyphshow
203.669922 0.000000 m /u glyphshow
212.542969 0.000000 m /t glyphshow
218.032227 0.000000 m /i glyphshow
221.921875 0.000000 m /o glyphshow
230.487305 0.000000 m /n glyphshow
grestore
1.000 setlinewidth
0 setlinecap
0.800 setgray
gsave
280.065 280.188925 m
363.44 280.188925 l
364.773333 280.188925 365.44 280.855592 365.44 282.188925 c
365.44 295.8608 l
365.44 297.194133 364.773333 297.8608 363.44 297.8608 c
280.065 297.8608 l
278.731667 297.8608 278.065 297.194133 278.065 295.8608 c
278.065 282.188925 l
278.065 280.855592 278.731667 280.188925 280.065 280.188925 c
cl
gsave
1.000 setgray
fill
grestore
stroke
grestore
1.500 setlinewidth
1 setlinejoin
2 setlinecap
[] 0 setdash
0.122 0.467 0.706 setrgbcolor
gsave
282.065 289.76705 m
302.065 289.76705 l
stroke
grestore
0.000 setgray
/DejaVuSans findfont
10.000 scalefont
setfont
gsave
310.065000 286.267050 translate
0.000000 rotate
0.000000 0.000000 m /x glyphshow
5.917969 0.000000 m /space glyphshow
9.096680 0.000000 m /asciitilde glyphshow
17.475586 0.000000 m /space glyphshow
20.654297 0.000000 m /C glyphshow
27.636719 0.000000 m /parenleft glyphshow
31.538086 0.000000 m /zero glyphshow
37.900391 0.000000 m /comma glyphshow
41.079102 0.000000 m /one glyphshow
47.441406 0.000000 m /parenright glyphshow
grestore
gsave
425.124 37.8576 m
698.544 37.8576 l
698.544 302.8608 l
425.124 302.8608 l
cl
1.000 setgray
fill
grestore
0.800 setlinewidth
0 setlinecap
gsave
/o {
gsave
newpath
translate
0.8 setlinewidth
1 setlinejoin
0 setlinecap
0 0 m
0 -3.5 l

gsave
0.000 setgray
fill
grestore
stroke
grestore
} bind def
425.124 37.8576 o
grestore
gsave
417.756812 23.263850 translate
0.000000 rotate
0.000000 0.000000 m /minus glyphshow
8.378906 0.000000 m /four glyphshow
grestore
gsave
/o {
gsave
newpath
translate
0.8 setlinewidth
1 setlinejoin
0 setlinecap
0 0 m
0 -3.5 l

gsave
0.000 setgray
fill
grestore
stroke
grestore
} bind def
458.468 37.8576 o
grestore
gsave
451.100715 23.263850 translate
0.000000 rotate
0.000000 0.000000 m /minus glyphshow
8.378906 0.000000 m /three glyphshow
grestore
gsave
/o {
gsave
newpath
translate
0.8 setlinewidth
1 setlinejoin
0 setlinecap
0 0 m
0 -3.5 l

gsave
0.000 setgray
fill
grestore
stroke
grestore
} bind def
491.812 37.8576 o
grestore
gsave
484.444617 23.263850 translate
0.000000 rotate
0.000000 0.000000 m /minus glyphshow
8.378906 0.000000 m /two glyphshow
grestore
gsave
/o {
gsave
newpath
translate
0.8 setlinewidth
1 setlinejoin
0 setlinecap
0 0 m
0 -3.5 l

gsave
0.000 setgray
fill
grestore
stroke
grestore
} bind def
525.156 37.8576 o
grestore
gsave
517.788520 23.263850 translate
0.000000 rotate
0.000000 0.000000 m /minus glyphshow
8.378906 0.000000 m /one glyphshow
grestore
gsave
/o {
gsave
newpath
translate
0.8 setlinewidth
1 setlinejoin
0 setlinecap
0 0 m
0 -3.5 l

gsave
0.000 setgray
fill
grestore
stroke
grestore
} bind def
558.5 37.8576 o
grestore
gsave
555.319922 23.263850 translate
0.000000 rotate
0.000000 0.000000 m /zero glyphshow
grestore
gsave
/o {
gsave
newpath
translate
0.8 setlinewidth
1 setlinejoin
0 setlinecap
0 0 m
0 -3.5 l

gsave
0.000 setgray
fill
grestore
stroke
grestore
} bind def
591.844 37.8576 o
grestore
gsave
588.663825 23.263850 translate
0.000000 rotate
0.000000 0.000000 m /one glyphshow
grestore
gsave
/o {
gsave
newpath
translate
0.8 setlinewidth
1 setlinejoin
0 setlinecap
0 0 m
0 -3.5 l

gsave
0.000 setgray
fill
grestore
stroke
grestore
} bind def
625.187 37.8576 o
grestore
gsave
622.007727 23.263850 translate
0.000000 rotate
0.000000 0.000000 m /two glyphshow
grestore
gsave
/o {
gsave
newpath
translate
0.8 setlinewidth
1 setlinejoin
0 setlinecap
0 0 m
0 -3.5 l

gsave
0.000 setgray
fill
grestore
stroke
grestore
} bind def
658.531 37.8576 o
grestore
gsave
655.351630 23.263850 translate
0.000000 rotate
0.000000 0.000000 m /three glyphshow
grestore
gsave
/o {
gsave
newpath
translate
0.8 setlinewidth
1 setlinejoin
0 setlinecap
0 0 m
0 -3.5 l

gsave
0.000 setgray
fill
grestore
stroke
grestore
} bind def
691.875 37.8576 o
grestore
gsave
688.695532 23.263850 translate
0.000000 rotate
0.000000 0.000000 m /four glyphshow
grestore
/DejaVuSans findfont
12.000 scalefont
setfont
gsave
558.279312 8.060725 translate
0.000000 rotate
0.000000 0.000000 m /x glyphshow
grestore
gsave
/o {
gsave
newpath
translate
0.8 setlinewidth
1 setlinejoin
0 setlinecap
0 0 m
-3.5 0 l

gsave
0.000 setgray
fill
grestore
stroke
grestore
} bind def
425.124 75.0537 o
grestore
/DejaVuSans findfont
10.000 scalefont
setfont
gsave
395.858375 71.256841 translate
0.000000 rotate
0.000000 0.000000 m /zero glyphshow
6.362305 0.000000 m /period glyphshow
9.541016 0.000000 m /zero glyphshow
15.903320 0.000000 m /five glyphshow
grestore
gsave
/o {
gsave
newpath
translate
0.8 setlinewidth
1 setlinejoin
0 setlinecap
0 0 m
-3.5 0 l

gsave
0.000 setgray
fill
grestore
stroke
grestore
} bind def
425.124 115.261 o
grestore
gsave
395.858375 111.464358 translate
0.000000 rotate
0.000000 0.000000 m /zero glyphshow
6.362305 0.000000 m /period glyphshow
9.541016 0.000000 m /one glyphshow
15.903320 0.000000 m /zero glyphshow
grestore
gsave
/o {
gsave
newpath
translate
0.8 setlinewidth
1 setlinejoin
0 setlinecap
0 0 m
-3.5 0 l

gsave
0.000 setgray
fill
grestore
stroke
grestore
} bind def
425.124 155.469 o
grestore
gsave
395.858375 151.671874 translate
0.000000 rotate
0.000000 0.000000 m /zero glyphshow
6.362305 0.000000 m /period glyphshow
9.541016 0.000000 m /one glyphshow
15.903320 0.000000 m /five glyphshow
grestore
gsave
/o {
gsave
newpath
translate
0.8 setlinewidth
1 setlinejoin
0 setlinecap
0 0 m
-3.5 0 l

gsave
0.000 setgray
fill
grestore
stroke
grestore
} bind def
425.124 195.676 o
grestore
gsave
395.858375 191.879391 translate
0.000000 rotate
0.000000 0.000000 m /zero glyphshow
6.362305 0.000000 m /period glyphshow
9.541016 0.000000 m /two glyphshow
15.903320 0.000000 m /zero glyphshow
grestore
gsave
/o {
gsave
newpath
translate
0.8 setlinewidth
1 setlinejoin
0 setlinecap
0 0 m
-3.5 0 l

gsave
0.000 setgray
fill
grestore
stroke
grestore
} bind def
425.124 235.884 o
grestore
gsave
395.858375 232.086907 translate
0.000000 rotate
0.000000 0.000000 m /zero glyphshow
6.362305 0.000000 m /period glyphshow
9.541016 0.000000 m /two glyphshow
15.903320 0.000000 m /five glyphshow
grestore
gsave
/o {
gsave
newpath
translate
0.8 setlinewidth
1 setlinejoin
0 setlinecap
0 0 m
-3.5 0 l

gsave
0.000 setgray
fill
grestore
stroke
grestore
} bind def
425.124 276.091 o
grestore
gsave
395.858375 272.294424 translate
0.000000 rotate
0.000000 0.000000 m /zero glyphshow
6.362305 0.000000 m /period glyphshow
9.541016 0.000000 m /three glyphshow
15.903320 0.000000 m /zero glyphshow
grestore
/DejaVuSans findfont
12.000 scalefont
setfont
gsave
389.358375 158.304513 translate
90.000000 rotate
0.000000 0.000000 m /p glyphshow
7.617188 0.000000 m /parenleft glyphshow
12.298828 0.000000 m /x glyphshow
19.400391 0.000000 m /parenright glyphshow
grestore
1.500 setlinewidth
2 setlinecap
0.122 0.467 0.706 setrgbcolor
gsave
273.4 265 425.1 37.86 clipbox
558.49961 290.8152 m
559.193302 290.704461 l
559.913674 290.355671 l
560.687407 289.717956 l
561.541182 288.702917 l
562.474998 287.227766 l
563.515536 285.151 l
564.689476 282.28807 l
566.023499 278.41378 l
567.544285 273.272093 l
569.305195 266.48858 l
571.412951 257.431069 l
574.134358 244.680698 l
579.096923 220.11854 l
583.872725 196.949544 l
587.234463 181.730983 l
590.249355 169.095678 l
593.077483 158.181909 l
595.825571 148.453178 l
598.493616 139.809342 l
601.134982 131.989592 l
603.776347 124.855213 l
606.417712 118.353739 l
609.059078 112.431946 l
611.727124 106.986006 l
614.44853 101.933386 l
617.196617 97.295341 l
619.998066 92.99855 l
622.852875 89.0213 l
625.787725 85.309906 l
628.802617 81.852302 l
631.92423 78.6092 l
635.152566 75.574749 l
638.514303 72.720043 l
642.009443 70.042918 l
645.691347 67.504379 l
649.560013 65.109497 l
653.642123 62.846279 l
657.964357 60.706177 l
662.553396 58.683225 l
667.4626 56.76348 l
672.745331 54.938856 l
678.428269 53.213152 l
684.591454 51.576016 l
691.31493 50.022958 l
691.87522 49.9032 l
691.87522 49.9032 l
stroke
grestore
2.000 setlinewidth
0 setlinecap
[2 3.3] 0 setdash
gsave
273.4 265 425.1 37.86 clipbox
558.49961 37.8576 m
558.49961 302.8608 l
stroke
grestore
0.800 setlinewidth
0 setlinejoin
2 setlinecap
[] 0 setdash
0.000 setgray
gsave
425.124 37.8576 m
425.124 302.8608 l
stroke
grestore
gsave
698.544 37.8576 m
698.544 302.8608 l
stroke
grestore
gsave
425.124 37.8576 m
698.544 37.8576 l
stroke
grestore
gsave
425.124 302.8608 m
698.544 302.8608 l
stroke
grestore
/DejaVuSans findfont
14.000 scalefont
setfont
gsave
425.654312 308.860800 translate
0.000000 rotate
0.000000 0.000000 m /D glyphshow
10.780273 0.000000 m /e glyphshow
19.393555 0.000000 m /n glyphshow
28.266602 0.000000 m /s glyphshow
35.560547 0.000000 m /i glyphshow
39.450195 0.000000 m /t glyphshow
44.939453 0.000000 m /y glyphshow
53.224609 0.000000 m /space glyphshow
57.674805 0.000000 m /o glyphshow
66.240234 0.000000 m /f glyphshow
71.168945 0.000000 m /space glyphshow
75.619141 0.000000 m /t glyphshow
81.108398 0.000000 m /h glyphshow
89.981445 0.000000 m /e glyphshow
98.594727 0.000000 m /space glyphshow
103.044922 0.000000 m /H glyphshow
113.572266 0.000000 m /a glyphshow
122.151367 0.000000 m /l glyphshow
126.041016 0.000000 m /f glyphshow
130.969727 0.000000 m /hyphen glyphshow
136.021484 0.000000 m /C glyphshow
145.796875 0.000000 m /a glyphshow
154.375977 0.000000 m /u glyphshow
163.249023 0.000000 m /c glyphshow
170.946289 0.000000 m /h glyphshow
179.819336 0.000000 m /y glyphshow
188.104492 0.000000 m /space glyphshow
192.554688 0.000000 m /d glyphshow
201.441406 0.000000 m /i glyphshow
205.331055 0.000000 m /s glyphshow
212.625000 0.000000 m /t glyphshow
218.114258 0.000000 m /r glyphshow
223.870117 0.000000 m /i glyphshow
227.759766 0.000000 m /b glyphshow
236.646484 0.000000 m /u glyphshow
245.519531 0.000000 m /t glyphshow
251.008789 0.000000 m /i glyphshow
254.898438 0.000000 m /o glyphshow
263.463867 0.000000 m /n glyphshow
grestore
1.000 setlinewidth
0 setlinecap
0.800 setgray
gsave
599.794 280.188925 m
691.544 280.188925 l
692.877333 280.188925 693.544 280.855592 693.544 282.188925 c
693.544 295.8608 l
693.544 297.194133 692.877333 297.8608 691.544 297.8608 c
599.794 297.8608 l
598.460667 297.8608 597.794 297.194133 597.794 295.8608 c
597.794 282.188925 l
597.794 280.855592 598.460667 280.188925 599.794 280.188925 c
cl
gsave
1.000 setgray
fill
grestore
stroke
grestore
1.500 setlinewidth
1 setlinejoin
2 setlinecap
[] 0 setdash
0.122 0.467 0.706 setrgbcolor
gsave
601.794 289.76705 m
621.794 289.76705 l
stroke
grestore
0.000 setgray
/DejaVuSans findfont
10.000 scalefont
setfont
gsave
629.794000 286.267050 translate
0.000000 rotate
0.000000 0.000000 m /x glyphshow
5.917969 0.000000 m /space glyphshow
9.096680 0.000000 m /asciitilde glyphshow
17.475586 0.000000 m /space glyphshow
20.654297 0.000000 m /C glyphshow
27.636719 0.000000 m /plus glyphshow
36.015625 0.000000 m /parenleft glyphshow
39.916992 0.000000 m /zero glyphshow
46.279297 0.000000 m /comma glyphshow
49.458008 0.000000 m /one glyphshow
55.820312 0.000000 m /parenright glyphshow
grestore

end
showpage
