%!PS-Adobe-3.0 EPSF-3.0
%%Title: C:/Repos/thesis_repo/thesis_figs/HS_density.eps
%%Creator: matplotlib version 2.1.2, http://matplotlib.org/
%%CreationDate: Thu Aug  2 11:04:53 2018
%%Orientation: portrait
%%BoundingBox: 75 223 536 568
%%EndComments
%%BeginProlog
/mpldict 8 dict def
mpldict begin
/m { moveto } bind def
/l { lineto } bind def
/r { rlineto } bind def
/c { curveto } bind def
/cl { closepath } bind def
/box {
m
1 index 0 r
0 exch r
neg 0 r
cl
} bind def
/clipbox {
box
clip
newpath
} bind def
%!PS-Adobe-3.0 Resource-Font
%%Title: DejaVu Sans
%%Copyright: Copyright (c) 2003 by Bitstream, Inc. All Rights Reserved. Copyright (c) 2006 by Tavmjong Bah. All Rights Reserved. DejaVu changes are in public domain 
%%Creator: Converted from TrueType to type 3 by PPR
25 dict begin
/_d{bind def}bind def
/_m{moveto}_d
/_l{lineto}_d
/_cl{closepath eofill}_d
/_c{curveto}_d
/_sc{7 -1 roll{setcachedevice}{pop pop pop pop pop pop}ifelse}_d
/_e{exec}_d
/FontName /DejaVuSans def
/PaintType 0 def
/FontMatrix[.001 0 0 .001 0 0]def
/FontBBox[-1021 -463 1793 1232]def
/FontType 3 def
/Encoding [ /space /quotesingle /parenleft /parenright /comma /period /zero /one /two /three /four /equal /H /d /e /f /h /n /o /p /r /s /t /u /x /minus ] def
/FontInfo 10 dict dup begin
/FamilyName (DejaVu Sans) def
/FullName (DejaVu Sans) def
/Notice (Copyright (c) 2003 by Bitstream, Inc. All Rights Reserved. Copyright (c) 2006 by Tavmjong Bah. All Rights Reserved. DejaVu changes are in public domain ) def
/Weight (Book) def
/Version (Version 2.35) def
/ItalicAngle 0.0 def
/isFixedPitch false def
/UnderlinePosition -130 def
/UnderlineThickness 90 def
end readonly def
/CharStrings 27 dict dup begin
/.notdef 0 def
/space{318 0 0 0 0 0 _sc
}_d
/quotesingle{275 0 96 458 179 729 _sc
179 729 _m
179 458 _l
96 458 _l
96 729 _l
179 729 _l
_cl}_d
/parenleft{390 0 86 -131 310 759 _sc
310 759 _m
266 683 234 609 213 536 _c
191 463 181 389 181 314 _c
181 238 191 164 213 91 _c
234 17 266 -56 310 -131 _c
232 -131 _l
183 -54 146 20 122 94 _c
98 168 86 241 86 314 _c
86 386 98 459 122 533 _c
146 607 182 682 232 759 _c
310 759 _l
_cl}_d
/parenright{390 0 80 -131 304 759 _sc
80 759 _m
158 759 _l
206 682 243 607 267 533 _c
291 459 304 386 304 314 _c
304 241 291 168 267 94 _c
243 20 206 -54 158 -131 _c
80 -131 _l
123 -56 155 17 177 91 _c
198 164 209 238 209 314 _c
209 389 198 463 177 536 _c
155 609 123 683 80 759 _c
_cl}_d
/comma{318 0 77 -115 220 124 _sc
117 124 _m
220 124 _l
220 40 _l
140 -115 _l
77 -115 _l
117 40 _l
117 124 _l
_cl}_d
/period{318 0 107 0 210 124 _sc
107 124 _m
210 124 _l
210 0 _l
107 0 _l
107 124 _l
_cl}_d
/zero{636 0 66 -13 570 742 _sc
318 664 _m
267 664 229 639 203 589 _c
177 539 165 464 165 364 _c
165 264 177 189 203 139 _c
229 89 267 64 318 64 _c
369 64 407 89 433 139 _c
458 189 471 264 471 364 _c
471 464 458 539 433 589 _c
407 639 369 664 318 664 _c
318 742 _m
399 742 461 709 505 645 _c
548 580 570 486 570 364 _c
570 241 548 147 505 83 _c
461 19 399 -13 318 -13 _c
236 -13 173 19 130 83 _c
87 147 66 241 66 364 _c
66 486 87 580 130 645 _c
173 709 236 742 318 742 _c
_cl}_d
/one{636 0 110 0 544 729 _sc
124 83 _m
285 83 _l
285 639 _l
110 604 _l
110 694 _l
284 729 _l
383 729 _l
383 83 _l
544 83 _l
544 0 _l
124 0 _l
124 83 _l
_cl}_d
/two{{636 0 73 0 536 742 _sc
192 83 _m
536 83 _l
536 0 _l
73 0 _l
73 83 _l
110 121 161 173 226 239 _c
290 304 331 346 348 365 _c
380 400 402 430 414 455 _c
426 479 433 504 433 528 _c
433 566 419 598 392 622 _c
365 646 330 659 286 659 _c
255 659 222 653 188 643 _c
154 632 117 616 78 594 _c
78 694 _l
118 710 155 722 189 730 _c
223 738 255 742 284 742 _c
}_e{359 742 419 723 464 685 _c
509 647 532 597 532 534 _c
532 504 526 475 515 449 _c
504 422 484 390 454 354 _c
446 344 420 317 376 272 _c
332 227 271 164 192 83 _c
_cl}_e}_d
/three{{636 0 76 -13 556 742 _sc
406 393 _m
453 383 490 362 516 330 _c
542 298 556 258 556 212 _c
556 140 531 84 482 45 _c
432 6 362 -13 271 -13 _c
240 -13 208 -10 176 -4 _c
144 1 110 10 76 22 _c
76 117 _l
103 101 133 89 166 81 _c
198 73 232 69 268 69 _c
330 69 377 81 409 105 _c
441 129 458 165 458 212 _c
458 254 443 288 413 312 _c
383 336 341 349 287 349 _c
}_e{202 349 _l
202 430 _l
291 430 _l
339 430 376 439 402 459 _c
428 478 441 506 441 543 _c
441 580 427 609 401 629 _c
374 649 336 659 287 659 _c
260 659 231 656 200 650 _c
169 644 135 635 98 623 _c
98 711 _l
135 721 170 729 203 734 _c
235 739 266 742 296 742 _c
370 742 429 725 473 691 _c
517 657 539 611 539 553 _c
539 513 527 479 504 451 _c
481 423 448 403 406 393 _c
_cl}_e}_d
/four{636 0 49 0 580 729 _sc
378 643 _m
129 254 _l
378 254 _l
378 643 _l
352 729 _m
476 729 _l
476 254 _l
580 254 _l
580 172 _l
476 172 _l
476 0 _l
378 0 _l
378 172 _l
49 172 _l
49 267 _l
352 729 _l
_cl}_d
/equal{838 0 106 172 732 454 _sc
106 454 _m
732 454 _l
732 372 _l
106 372 _l
106 454 _l
106 255 _m
732 255 _l
732 172 _l
106 172 _l
106 255 _l
_cl}_d
/H{752 0 98 0 654 729 _sc
98 729 _m
197 729 _l
197 430 _l
555 430 _l
555 729 _l
654 729 _l
654 0 _l
555 0 _l
555 347 _l
197 347 _l
197 0 _l
98 0 _l
98 729 _l
_cl}_d
/d{{635 0 55 -13 544 760 _sc
454 464 _m
454 760 _l
544 760 _l
544 0 _l
454 0 _l
454 82 _l
435 49 411 25 382 10 _c
353 -5 319 -13 279 -13 _c
213 -13 159 13 117 65 _c
75 117 55 187 55 273 _c
55 359 75 428 117 481 _c
159 533 213 560 279 560 _c
319 560 353 552 382 536 _c
411 520 435 496 454 464 _c
148 273 _m
148 207 161 155 188 117 _c
215 79 253 61 301 61 _c
}_e{348 61 385 79 413 117 _c
440 155 454 207 454 273 _c
454 339 440 390 413 428 _c
385 466 348 485 301 485 _c
253 485 215 466 188 428 _c
161 390 148 339 148 273 _c
_cl}_e}_d
/e{{615 0 55 -13 562 560 _sc
562 296 _m
562 252 _l
149 252 _l
153 190 171 142 205 110 _c
238 78 284 62 344 62 _c
378 62 412 66 444 74 _c
476 82 509 95 541 113 _c
541 28 _l
509 14 476 3 442 -3 _c
408 -9 373 -13 339 -13 _c
251 -13 182 12 131 62 _c
80 112 55 181 55 268 _c
55 357 79 428 127 481 _c
175 533 241 560 323 560 _c
397 560 455 536 498 489 _c
}_e{540 441 562 377 562 296 _c
472 322 _m
471 371 457 410 431 440 _c
404 469 368 484 324 484 _c
274 484 234 469 204 441 _c
174 413 156 373 152 322 _c
472 322 _l
_cl}_e}_d
/f{352 0 23 0 371 760 _sc
371 760 _m
371 685 _l
285 685 _l
253 685 230 678 218 665 _c
205 652 199 629 199 595 _c
199 547 _l
347 547 _l
347 477 _l
199 477 _l
199 0 _l
109 0 _l
109 477 _l
23 477 _l
23 547 _l
109 547 _l
109 585 _l
109 645 123 690 151 718 _c
179 746 224 760 286 760 _c
371 760 _l
_cl}_d
/h{634 0 91 0 549 760 _sc
549 330 _m
549 0 _l
459 0 _l
459 327 _l
459 379 448 417 428 443 _c
408 469 378 482 338 482 _c
289 482 251 466 223 435 _c
195 404 181 362 181 309 _c
181 0 _l
91 0 _l
91 760 _l
181 760 _l
181 462 _l
202 494 227 519 257 535 _c
286 551 320 560 358 560 _c
420 560 468 540 500 501 _c
532 462 549 405 549 330 _c
_cl}_d
/n{634 0 91 0 549 560 _sc
549 330 _m
549 0 _l
459 0 _l
459 327 _l
459 379 448 417 428 443 _c
408 469 378 482 338 482 _c
289 482 251 466 223 435 _c
195 404 181 362 181 309 _c
181 0 _l
91 0 _l
91 547 _l
181 547 _l
181 462 _l
202 494 227 519 257 535 _c
286 551 320 560 358 560 _c
420 560 468 540 500 501 _c
532 462 549 405 549 330 _c
_cl}_d
/o{612 0 55 -13 557 560 _sc
306 484 _m
258 484 220 465 192 427 _c
164 389 150 338 150 273 _c
150 207 163 156 191 118 _c
219 80 257 62 306 62 _c
354 62 392 80 420 118 _c
448 156 462 207 462 273 _c
462 337 448 389 420 427 _c
392 465 354 484 306 484 _c
306 560 _m
384 560 445 534 490 484 _c
534 433 557 363 557 273 _c
557 183 534 113 490 63 _c
445 12 384 -13 306 -13 _c
227 -13 165 12 121 63 _c
77 113 55 183 55 273 _c
55 363 77 433 121 484 _c
165 534 227 560 306 560 _c
_cl}_d
/p{{635 0 91 -207 580 560 _sc
181 82 _m
181 -207 _l
91 -207 _l
91 547 _l
181 547 _l
181 464 _l
199 496 223 520 252 536 _c
281 552 316 560 356 560 _c
422 560 476 533 518 481 _c
559 428 580 359 580 273 _c
580 187 559 117 518 65 _c
476 13 422 -13 356 -13 _c
316 -13 281 -5 252 10 _c
223 25 199 49 181 82 _c
487 273 _m
487 339 473 390 446 428 _c
418 466 381 485 334 485 _c
}_e{286 485 249 466 222 428 _c
194 390 181 339 181 273 _c
181 207 194 155 222 117 _c
249 79 286 61 334 61 _c
381 61 418 79 446 117 _c
473 155 487 207 487 273 _c
_cl}_e}_d
/r{411 0 91 0 411 560 _sc
411 463 _m
401 469 390 473 378 476 _c
366 478 353 480 339 480 _c
288 480 249 463 222 430 _c
194 397 181 350 181 288 _c
181 0 _l
91 0 _l
91 547 _l
181 547 _l
181 462 _l
199 495 224 520 254 536 _c
284 552 321 560 365 560 _c
371 560 378 559 386 559 _c
393 558 401 557 411 555 _c
411 463 _l
_cl}_d
/s{{521 0 54 -13 472 560 _sc
443 531 _m
443 446 _l
417 458 391 468 364 475 _c
336 481 308 485 279 485 _c
234 485 200 478 178 464 _c
156 450 145 430 145 403 _c
145 382 153 366 169 354 _c
185 342 217 330 265 320 _c
296 313 _l
360 299 405 279 432 255 _c
458 230 472 195 472 151 _c
472 100 452 60 412 31 _c
372 1 316 -13 246 -13 _c
216 -13 186 -10 154 -5 _c
}_e{122 0 89 8 54 20 _c
54 113 _l
87 95 120 82 152 74 _c
184 65 216 61 248 61 _c
290 61 323 68 346 82 _c
368 96 380 117 380 144 _c
380 168 371 187 355 200 _c
339 213 303 226 247 238 _c
216 245 _l
160 257 119 275 95 299 _c
70 323 58 356 58 399 _c
58 450 76 490 112 518 _c
148 546 200 560 268 560 _c
301 560 332 557 362 552 _c
391 547 418 540 443 531 _c
}_e{_cl}_e}_d
/t{392 0 27 0 368 702 _sc
183 702 _m
183 547 _l
368 547 _l
368 477 _l
183 477 _l
183 180 _l
183 135 189 106 201 94 _c
213 81 238 75 276 75 _c
368 75 _l
368 0 _l
276 0 _l
206 0 158 13 132 39 _c
106 65 93 112 93 180 _c
93 477 _l
27 477 _l
27 547 _l
93 547 _l
93 702 _l
183 702 _l
_cl}_d
/u{634 0 85 -13 543 560 _sc
85 216 _m
85 547 _l
175 547 _l
175 219 _l
175 167 185 129 205 103 _c
225 77 255 64 296 64 _c
344 64 383 79 411 110 _c
439 141 453 183 453 237 _c
453 547 _l
543 547 _l
543 0 _l
453 0 _l
453 84 _l
431 50 405 26 377 10 _c
348 -5 315 -13 277 -13 _c
214 -13 166 6 134 45 _c
101 83 85 140 85 216 _c
311 560 _m
311 560 _l
_cl}_d
/x{592 0 29 0 559 547 _sc
549 547 _m
351 281 _l
559 0 _l
453 0 _l
294 215 _l
135 0 _l
29 0 _l
241 286 _l
47 547 _l
153 547 _l
298 352 _l
443 547 _l
549 547 _l
_cl}_d
/minus{838 0 106 272 732 355 _sc
106 355 _m
732 355 _l
732 272 _l
106 272 _l
106 355 _l
_cl}_d
end readonly def

/BuildGlyph
 {exch begin
 CharStrings exch
 2 copy known not{pop /.notdef}if
 true 3 1 roll get exec
 end}_d

/BuildChar {
 1 index /Encoding get exch get
 1 index /BuildGlyph get exec
}_d

FontName currentdict end definefont pop
end
%%EndProlog
mpldict begin
75.6 223.92 translate
460.8 344.16 0 0 clipbox
gsave
0 0 m
460.8 0 l
460.8 344.16 l
0 344.16 l
cl
1.000 setgray
fill
grestore
gsave
57.6 37.8576 m
414.72 37.8576 l
414.72 302.8608 l
57.6 302.8608 l
cl
1.000 setgray
fill
grestore
0.800 setlinewidth
1 setlinejoin
0 setlinecap
[] 0 setdash
0.000 setgray
gsave
/o {
gsave
newpath
translate
0.8 setlinewidth
1 setlinejoin
0 setlinecap
0 0 m
0 -3.5 l

gsave
0.000 setgray
fill
grestore
stroke
grestore
} bind def
64.4541 37.8576 o
grestore
/DejaVuSans findfont
10.000 scalefont
setfont
gsave
57.086914 23.263850 translate
0.000000 rotate
0.000000 0.000000 m /minus glyphshow
8.378906 0.000000 m /four glyphshow
grestore
gsave
/o {
gsave
newpath
translate
0.8 setlinewidth
1 setlinejoin
0 setlinecap
0 0 m
0 -3.5 l

gsave
0.000 setgray
fill
grestore
stroke
grestore
} bind def
107.007 37.8576 o
grestore
gsave
99.639766 23.263850 translate
0.000000 rotate
0.000000 0.000000 m /minus glyphshow
8.378906 0.000000 m /three glyphshow
grestore
gsave
/o {
gsave
newpath
translate
0.8 setlinewidth
1 setlinejoin
0 setlinecap
0 0 m
0 -3.5 l

gsave
0.000 setgray
fill
grestore
stroke
grestore
} bind def
149.56 37.8576 o
grestore
gsave
142.192619 23.263850 translate
0.000000 rotate
0.000000 0.000000 m /minus glyphshow
8.378906 0.000000 m /two glyphshow
grestore
gsave
/o {
gsave
newpath
translate
0.8 setlinewidth
1 setlinejoin
0 setlinecap
0 0 m
0 -3.5 l

gsave
0.000 setgray
fill
grestore
stroke
grestore
} bind def
192.113 37.8576 o
grestore
gsave
184.745471 23.263850 translate
0.000000 rotate
0.000000 0.000000 m /minus glyphshow
8.378906 0.000000 m /one glyphshow
grestore
gsave
/o {
gsave
newpath
translate
0.8 setlinewidth
1 setlinejoin
0 setlinecap
0 0 m
0 -3.5 l

gsave
0.000 setgray
fill
grestore
stroke
grestore
} bind def
234.666 37.8576 o
grestore
gsave
231.485824 23.263850 translate
0.000000 rotate
0.000000 0.000000 m /zero glyphshow
grestore
gsave
/o {
gsave
newpath
translate
0.8 setlinewidth
1 setlinejoin
0 setlinecap
0 0 m
0 -3.5 l

gsave
0.000 setgray
fill
grestore
stroke
grestore
} bind def
277.218 37.8576 o
grestore
gsave
274.038676 23.263850 translate
0.000000 rotate
0.000000 0.000000 m /one glyphshow
grestore
gsave
/o {
gsave
newpath
translate
0.8 setlinewidth
1 setlinejoin
0 setlinecap
0 0 m
0 -3.5 l

gsave
0.000 setgray
fill
grestore
stroke
grestore
} bind def
319.771 37.8576 o
grestore
gsave
316.591528 23.263850 translate
0.000000 rotate
0.000000 0.000000 m /two glyphshow
grestore
gsave
/o {
gsave
newpath
translate
0.8 setlinewidth
1 setlinejoin
0 setlinecap
0 0 m
0 -3.5 l

gsave
0.000 setgray
fill
grestore
stroke
grestore
} bind def
362.324 37.8576 o
grestore
gsave
359.144381 23.263850 translate
0.000000 rotate
0.000000 0.000000 m /three glyphshow
grestore
gsave
/o {
gsave
newpath
translate
0.8 setlinewidth
1 setlinejoin
0 setlinecap
0 0 m
0 -3.5 l

gsave
0.000 setgray
fill
grestore
stroke
grestore
} bind def
404.877 37.8576 o
grestore
gsave
401.697233 23.263850 translate
0.000000 rotate
0.000000 0.000000 m /four glyphshow
grestore
/DejaVuSans findfont
12.000 scalefont
setfont
gsave
232.605312 8.060725 translate
0.000000 rotate
0.000000 0.000000 m /x glyphshow
grestore
gsave
/o {
gsave
newpath
translate
0.8 setlinewidth
1 setlinejoin
0 setlinecap
0 0 m
-3.5 0 l

gsave
0.000 setgray
fill
grestore
stroke
grestore
} bind def
57.6 91.5829 o
grestore
/DejaVuSans findfont
10.000 scalefont
setfont
gsave
34.693750 87.786008 translate
0.000000 rotate
0.000000 0.000000 m /zero glyphshow
6.362305 0.000000 m /period glyphshow
9.541016 0.000000 m /one glyphshow
grestore
gsave
/o {
gsave
newpath
translate
0.8 setlinewidth
1 setlinejoin
0 setlinecap
0 0 m
-3.5 0 l

gsave
0.000 setgray
fill
grestore
stroke
grestore
} bind def
57.6 149.929 o
grestore
gsave
34.693750 146.131700 translate
0.000000 rotate
0.000000 0.000000 m /zero glyphshow
6.362305 0.000000 m /period glyphshow
9.541016 0.000000 m /two glyphshow
grestore
gsave
/o {
gsave
newpath
translate
0.8 setlinewidth
1 setlinejoin
0 setlinecap
0 0 m
-3.5 0 l

gsave
0.000 setgray
fill
grestore
stroke
grestore
} bind def
57.6 208.274 o
grestore
gsave
34.693750 204.477392 translate
0.000000 rotate
0.000000 0.000000 m /zero glyphshow
6.362305 0.000000 m /period glyphshow
9.541016 0.000000 m /three glyphshow
grestore
gsave
/o {
gsave
newpath
translate
0.8 setlinewidth
1 setlinejoin
0 setlinecap
0 0 m
-3.5 0 l

gsave
0.000 setgray
fill
grestore
stroke
grestore
} bind def
57.6 266.62 o
grestore
gsave
34.693750 262.823084 translate
0.000000 rotate
0.000000 0.000000 m /zero glyphshow
6.362305 0.000000 m /period glyphshow
9.541016 0.000000 m /four glyphshow
grestore
/DejaVuSans findfont
12.000 scalefont
setfont
gsave
28.193750 158.304513 translate
90.000000 rotate
0.000000 0.000000 m /p glyphshow
7.617188 0.000000 m /parenleft glyphshow
12.298828 0.000000 m /x glyphshow
19.400391 0.000000 m /parenright glyphshow
grestore
1.500 setlinewidth
2 setlinecap
0.122 0.467 0.706 setrgbcolor
gsave
357.1 265 57.6 37.86 clipbox
64.454102 40.109324 m
77.188462 41.190114 l
88.356564 42.356711 l
98.162702 43.599938 l
106.87927 44.924269 l
114.710561 46.335082 l
121.792772 47.834079 l
128.194001 49.412065 l
134.050445 51.080342 l
139.430202 52.839412 l
144.401369 54.693975 l
149.032045 56.654858 l
153.390329 58.741225 l
157.47622 60.94426 l
161.289718 63.250351 l
164.898922 65.689089 l
168.37193 68.305855 l
171.640642 71.045522 l
174.773159 73.958413 l
177.769479 77.043985 l
180.697701 80.38059 l
183.489726 83.897289 l
186.213654 87.685716 l
188.869483 91.764555 l
191.457214 96.153428 l
193.976847 100.872972 l
196.428381 105.94495 l
198.811818 111.392432 l
201.127156 117.240033 l
203.374396 123.51425 l
205.621636 130.465477 l
207.800778 137.952474 l
209.911821 146.019939 l
211.954767 154.719619 l
213.929614 164.112521 l
215.836363 174.271931 l
217.675014 185.287648 l
219.445567 197.271997 l
221.148022 210.368627 l
222.71428 224.12414 l
224.21244 239.231023 l
225.642502 255.961203 l
226.936367 273.680142 l
228.162135 293.552848 l
229.251706 314.743309 l
230.273178 338.982218 l
230.500653 345.16 l
238.830369 345.16 m
239.806924 320.72146 l
240.964593 297.235691 l
242.19036 276.756578 l
243.552324 257.697564 l
244.982386 240.717167 l
246.548644 224.765787 l
248.183001 210.368627 l
249.885455 197.271997 l
251.724106 184.85547 l
253.630855 173.506395 l
255.605703 163.090964 l
257.648648 153.503615 l
259.759692 144.659178 l
261.938834 136.487465 l
264.186074 128.92947 l
266.501412 121.934634 l
268.81675 115.634615 l
271.200187 109.780069 l
273.651721 104.341198 l
276.171354 99.290553 l
278.759085 94.602623 l
281.414914 90.25353 l
284.138841 86.220813 l
286.930867 82.483277 l
289.790991 79.020886 l
292.787311 75.743869 l
295.851729 72.718758 l
299.052344 69.869002 l
302.389155 67.1939 l
305.862162 64.690704 l
309.539464 62.313303 l
313.42106 60.069135 l
317.506951 57.962187 l
321.865235 55.964095 l
326.56401 54.057607 l
331.603275 52.256853 l
337.05113 50.550859 l
342.907574 48.951893 l
349.308803 47.436917 l
356.322916 46.008118 l
364.086109 44.65786 l
372.66648 43.394546 l
382.268324 42.209161 l
393.095935 41.100837 l
404.876921 40.109324 l
404.876921 40.109324 l
stroke
grestore
2.000 setlinewidth
0 setlinecap
[2 3.3] 0 setdash
1.000 0.498 0.055 setrgbcolor
gsave
357.1 265 57.6 37.86 clipbox
57.248991 43.339877 m
68.083587 44.613666 l
77.834724 45.972314 l
86.502402 47.389069 l
94.628349 48.936244 l
102.212567 50.612547 l
108.713325 52.263926 l
115.214083 54.151655 l
121.173111 56.127778 l
126.590409 58.164363 l
131.465978 60.224977 l
136.341546 62.53512 l
140.675385 64.829047 l
145.009224 67.381974 l
148.801333 69.856712 l
152.593441 72.585351 l
156.38555 75.599338 l
160.177659 78.93407 l
163.428038 82.077607 l
166.678417 85.513316 l
169.928796 89.270999 l
173.179175 93.38258 l
176.429554 97.88169 l
179.679933 102.80292 l
182.930312 108.180608 l
186.180691 114.046981 l
189.43107 120.429446 l
192.681449 127.346769 l
195.931828 134.803904 l
199.182207 142.785269 l
202.974316 152.698146 l
207.849884 166.168146 l
216.517562 190.376039 l
219.767941 198.679527 l
221.93486 203.700132 l
224.101779 208.176175 l
225.726969 211.108866 l
227.352158 213.628951 l
228.977348 215.697023 l
230.060808 216.80774 l
231.144267 217.694219 l
232.227727 218.349765 l
233.311187 218.769362 l
234.394646 218.949772 l
235.478106 218.889596 l
236.561566 218.589302 l
237.645025 218.051213 l
238.728485 217.279466 l
239.811945 216.27993 l
241.437134 214.370325 l
243.062324 211.996789 l
244.687513 209.196956 l
246.312703 206.01329 l
248.479622 201.250788 l
251.188271 194.625222 l
254.43865 185.977527 l
259.855948 170.762785 l
265.814977 154.160468 l
269.607085 144.163854 l
273.399194 134.803904 l
276.649573 127.346769 l
279.899952 120.429446 l
283.150331 114.046981 l
286.40071 108.180608 l
289.651089 102.80292 l
292.901468 97.88169 l
296.151847 93.38258 l
299.402226 89.270999 l
302.652605 85.513316 l
305.902984 82.077607 l
309.153363 78.93407 l
312.945472 75.599338 l
316.737581 72.585351 l
320.52969 69.856712 l
324.321799 67.381974 l
328.655637 64.829047 l
332.989476 62.53512 l
337.865044 60.224977 l
342.740613 58.164363 l
348.157911 56.127778 l
353.57521 54.320971 l
359.534238 52.561037 l
366.034996 50.873005 l
373.077484 49.275052 l
380.661701 47.779141 l
389.329379 46.306377 l
398.538786 44.968903 l
408.831653 43.699039 l
414.790681 43.054261 l
414.790681 43.054261 l
stroke
grestore
0.800 setlinewidth
0 setlinejoin
2 setlinecap
[] 0 setdash
0.000 setgray
gsave
57.6 37.8576 m
57.6 302.8608 l
stroke
grestore
gsave
414.72 37.8576 m
414.72 302.8608 l
stroke
grestore
gsave
57.6 37.8576 m
414.72 37.8576 l
stroke
grestore
gsave
57.6 302.8608 m
414.72 302.8608 l
stroke
grestore
1.000 setlinewidth
0 setlinecap
0.800 setgray
gsave
285.048125 265.51705 m
407.72 265.51705 l
409.053333 265.51705 409.72 266.183717 409.72 267.51705 c
409.72 295.8608 l
409.72 297.194133 409.053333 297.8608 407.72 297.8608 c
285.048125 297.8608 l
283.714792 297.8608 283.048125 297.194133 283.048125 295.8608 c
283.048125 267.51705 l
283.048125 266.183717 283.714792 265.51705 285.048125 265.51705 c
cl
gsave
1.000 setgray
fill
grestore
stroke
grestore
1.500 setlinewidth
1 setlinejoin
2 setlinecap
[] 0 setdash
0.122 0.467 0.706 setrgbcolor
gsave
287.048125 289.76705 m
307.048125 289.76705 l
stroke
grestore
0.000 setgray
/DejaVuSans findfont
10.000 scalefont
setfont
gsave
315.048125 286.267050 translate
0.000000 rotate
0.000000 0.000000 m /H glyphshow
7.519531 0.000000 m /o glyphshow
13.637695 0.000000 m /r glyphshow
17.749023 0.000000 m /s glyphshow
22.958984 0.000000 m /e glyphshow
29.111328 0.000000 m /s glyphshow
34.321289 0.000000 m /h glyphshow
40.659180 0.000000 m /o glyphshow
46.777344 0.000000 m /e glyphshow
grestore
2.000 setlinewidth
0 setlinecap
[2 3.3] 0 setdash
1.000 0.498 0.055 setrgbcolor
gsave
287.048125 275.095175 m
307.048125 275.095175 l
stroke
grestore
0.000 setgray
gsave
315.048125 271.595175 translate
0.000000 rotate
0.000000 0.000000 m /s glyphshow
5.209961 0.000000 m /t glyphshow
9.130859 0.000000 m /u glyphshow
15.468750 0.000000 m /d glyphshow
21.816406 0.000000 m /e glyphshow
27.968750 0.000000 m /n glyphshow
34.306641 0.000000 m /t glyphshow
38.227539 0.000000 m /quotesingle glyphshow
40.976562 0.000000 m /s glyphshow
46.186523 0.000000 m /space glyphshow
49.365234 0.000000 m /t glyphshow
53.286133 0.000000 m /comma glyphshow
56.464844 0.000000 m /space glyphshow
59.643555 0.000000 m /d glyphshow
65.991211 0.000000 m /f glyphshow
69.511719 0.000000 m /space glyphshow
72.690430 0.000000 m /equal glyphshow
81.069336 0.000000 m /space glyphshow
84.248047 0.000000 m /one glyphshow
grestore

end
showpage
