%!PS-Adobe-3.0 EPSF-3.0
%%Title: D:/DTU MMC/Github Repos/thesis_repo/thesis_figs/MNIST_benchmark_all_optims_2.eps
%%Creator: matplotlib version 2.1.0, http://matplotlib.org/
%%CreationDate: Sat Jul 28 18:37:14 2018
%%Orientation: portrait
%%BoundingBox: -45 121 657 670
%%EndComments
%%BeginProlog
/mpldict 8 dict def
mpldict begin
/m { moveto } bind def
/l { lineto } bind def
/r { rlineto } bind def
/c { curveto } bind def
/cl { closepath } bind def
/box {
m
1 index 0 r
0 exch r
neg 0 r
cl
} bind def
/clipbox {
box
clip
newpath
} bind def
%!PS-Adobe-3.0 Resource-Font
%%Title: DejaVu Sans
%%Copyright: Copyright (c) 2003 by Bitstream, Inc. All Rights Reserved. Copyright (c) 2006 by Tavmjong Bah. All Rights Reserved. DejaVu changes are in public domain 
%%Creator: Converted from TrueType to type 3 by PPR
25 dict begin
/_d{bind def}bind def
/_m{moveto}_d
/_l{lineto}_d
/_cl{closepath eofill}_d
/_c{curveto}_d
/_sc{7 -1 roll{setcachedevice}{pop pop pop pop pop pop}ifelse}_d
/_e{exec}_d
/FontName /DejaVuSans def
/PaintType 0 def
/FontMatrix[.001 0 0 .001 0 0]def
/FontBBox[-1021 -463 1793 1232]def
/FontType 3 def
/Encoding [ /space /period /zero /one /two /three /four /five /A /B /C /E /F /I /K /M /N /S /T /V /a /c /d /e /g /h /i /l /m /n /o /p /r /s /t /y ] def
/FontInfo 10 dict dup begin
/FamilyName (DejaVu Sans) def
/FullName (DejaVu Sans) def
/Notice (Copyright (c) 2003 by Bitstream, Inc. All Rights Reserved. Copyright (c) 2006 by Tavmjong Bah. All Rights Reserved. DejaVu changes are in public domain ) def
/Weight (Book) def
/Version (Version 2.35) def
/ItalicAngle 0.0 def
/isFixedPitch false def
/UnderlinePosition -130 def
/UnderlineThickness 90 def
end readonly def
/CharStrings 37 dict dup begin
/.notdef 0 def
/space{318 0 0 0 0 0 _sc
}_d
/period{318 0 107 0 210 124 _sc
107 124 _m
210 124 _l
210 0 _l
107 0 _l
107 124 _l
_cl}_d
/zero{636 0 66 -13 570 742 _sc
318 664 _m
267 664 229 639 203 589 _c
177 539 165 464 165 364 _c
165 264 177 189 203 139 _c
229 89 267 64 318 64 _c
369 64 407 89 433 139 _c
458 189 471 264 471 364 _c
471 464 458 539 433 589 _c
407 639 369 664 318 664 _c
318 742 _m
399 742 461 709 505 645 _c
548 580 570 486 570 364 _c
570 241 548 147 505 83 _c
461 19 399 -13 318 -13 _c
236 -13 173 19 130 83 _c
87 147 66 241 66 364 _c
66 486 87 580 130 645 _c
173 709 236 742 318 742 _c
_cl}_d
/one{636 0 110 0 544 729 _sc
124 83 _m
285 83 _l
285 639 _l
110 604 _l
110 694 _l
284 729 _l
383 729 _l
383 83 _l
544 83 _l
544 0 _l
124 0 _l
124 83 _l
_cl}_d
/two{{636 0 73 0 536 742 _sc
192 83 _m
536 83 _l
536 0 _l
73 0 _l
73 83 _l
110 121 161 173 226 239 _c
290 304 331 346 348 365 _c
380 400 402 430 414 455 _c
426 479 433 504 433 528 _c
433 566 419 598 392 622 _c
365 646 330 659 286 659 _c
255 659 222 653 188 643 _c
154 632 117 616 78 594 _c
78 694 _l
118 710 155 722 189 730 _c
223 738 255 742 284 742 _c
}_e{359 742 419 723 464 685 _c
509 647 532 597 532 534 _c
532 504 526 475 515 449 _c
504 422 484 390 454 354 _c
446 344 420 317 376 272 _c
332 227 271 164 192 83 _c
_cl}_e}_d
/three{{636 0 76 -13 556 742 _sc
406 393 _m
453 383 490 362 516 330 _c
542 298 556 258 556 212 _c
556 140 531 84 482 45 _c
432 6 362 -13 271 -13 _c
240 -13 208 -10 176 -4 _c
144 1 110 10 76 22 _c
76 117 _l
103 101 133 89 166 81 _c
198 73 232 69 268 69 _c
330 69 377 81 409 105 _c
441 129 458 165 458 212 _c
458 254 443 288 413 312 _c
383 336 341 349 287 349 _c
}_e{202 349 _l
202 430 _l
291 430 _l
339 430 376 439 402 459 _c
428 478 441 506 441 543 _c
441 580 427 609 401 629 _c
374 649 336 659 287 659 _c
260 659 231 656 200 650 _c
169 644 135 635 98 623 _c
98 711 _l
135 721 170 729 203 734 _c
235 739 266 742 296 742 _c
370 742 429 725 473 691 _c
517 657 539 611 539 553 _c
539 513 527 479 504 451 _c
481 423 448 403 406 393 _c
_cl}_e}_d
/four{636 0 49 0 580 729 _sc
378 643 _m
129 254 _l
378 254 _l
378 643 _l
352 729 _m
476 729 _l
476 254 _l
580 254 _l
580 172 _l
476 172 _l
476 0 _l
378 0 _l
378 172 _l
49 172 _l
49 267 _l
352 729 _l
_cl}_d
/five{{636 0 77 -13 549 729 _sc
108 729 _m
495 729 _l
495 646 _l
198 646 _l
198 467 _l
212 472 227 476 241 478 _c
255 480 270 482 284 482 _c
365 482 429 459 477 415 _c
525 370 549 310 549 234 _c
549 155 524 94 475 51 _c
426 8 357 -13 269 -13 _c
238 -13 207 -10 175 -6 _c
143 -1 111 6 77 17 _c
77 116 _l
106 100 136 88 168 80 _c
199 72 232 69 267 69 _c
}_e{323 69 368 83 401 113 _c
433 143 450 183 450 234 _c
450 284 433 324 401 354 _c
368 384 323 399 267 399 _c
241 399 214 396 188 390 _c
162 384 135 375 108 363 _c
108 729 _l
_cl}_e}_d
/A{684 0 8 0 676 729 _sc
342 632 _m
208 269 _l
476 269 _l
342 632 _l
286 729 _m
398 729 _l
676 0 _l
573 0 _l
507 187 _l
178 187 _l
112 0 _l
8 0 _l
286 729 _l
_cl}_d
/B{{686 0 98 0 615 729 _sc
197 348 _m
197 81 _l
355 81 _l
408 81 447 92 473 114 _c
498 136 511 169 511 215 _c
511 260 498 293 473 315 _c
447 337 408 348 355 348 _c
197 348 _l
197 648 _m
197 428 _l
343 428 _l
391 428 426 437 450 455 _c
474 473 486 500 486 538 _c
486 574 474 602 450 620 _c
426 638 391 648 343 648 _c
197 648 _l
98 729 _m
350 729 _l
}_e{425 729 483 713 524 682 _c
564 650 585 606 585 549 _c
585 504 574 468 553 442 _c
532 416 502 399 462 393 _c
510 382 548 360 575 327 _c
601 294 615 253 615 204 _c
615 138 592 88 548 53 _c
504 17 441 0 360 0 _c
98 0 _l
98 729 _l
_cl}_e}_d
/C{{698 0 56 -13 644 742 _sc
644 673 _m
644 569 _l
610 599 575 622 537 638 _c
499 653 460 661 418 661 _c
334 661 270 635 226 584 _c
182 533 160 460 160 364 _c
160 268 182 194 226 143 _c
270 92 334 67 418 67 _c
460 67 499 74 537 90 _c
575 105 610 128 644 159 _c
644 56 _l
609 32 572 15 534 4 _c
496 -7 455 -13 412 -13 _c
302 -13 215 20 151 87 _c
}_e{87 154 56 246 56 364 _c
56 481 87 573 151 641 _c
215 708 302 742 412 742 _c
456 742 497 736 535 725 _c
573 713 610 696 644 673 _c
_cl}_e}_d
/E{632 0 98 0 568 729 _sc
98 729 _m
559 729 _l
559 646 _l
197 646 _l
197 430 _l
544 430 _l
544 347 _l
197 347 _l
197 83 _l
568 83 _l
568 0 _l
98 0 _l
98 729 _l
_cl}_d
/F{575 0 98 0 517 729 _sc
98 729 _m
517 729 _l
517 646 _l
197 646 _l
197 431 _l
486 431 _l
486 348 _l
197 348 _l
197 0 _l
98 0 _l
98 729 _l
_cl}_d
/I{295 0 98 0 197 729 _sc
98 729 _m
197 729 _l
197 0 _l
98 0 _l
98 729 _l
_cl}_d
/K{656 0 98 0 677 729 _sc
98 729 _m
197 729 _l
197 421 _l
524 729 _l
651 729 _l
289 389 _l
677 0 _l
547 0 _l
197 351 _l
197 0 _l
98 0 _l
98 729 _l
_cl}_d
/M{863 0 98 0 765 729 _sc
98 729 _m
245 729 _l
431 233 _l
618 729 _l
765 729 _l
765 0 _l
669 0 _l
669 640 _l
481 140 _l
382 140 _l
194 640 _l
194 0 _l
98 0 _l
98 729 _l
_cl}_d
/N{748 0 98 0 650 729 _sc
98 729 _m
231 729 _l
554 119 _l
554 729 _l
650 729 _l
650 0 _l
517 0 _l
194 610 _l
194 0 _l
98 0 _l
98 729 _l
_cl}_d
/S{{635 0 66 -13 579 742 _sc
535 705 _m
535 609 _l
497 627 462 640 429 649 _c
395 657 363 662 333 662 _c
279 662 237 651 208 631 _c
179 610 165 580 165 542 _c
165 510 174 485 194 469 _c
213 452 250 439 304 429 _c
364 417 _l
437 403 491 378 526 343 _c
561 307 579 260 579 201 _c
579 130 555 77 508 41 _c
460 5 391 -13 300 -13 _c
265 -13 228 -9 189 -2 _c
}_e{150 5 110 16 69 32 _c
69 134 _l
109 111 148 94 186 83 _c
224 71 262 66 300 66 _c
356 66 399 77 430 99 _c
460 121 476 152 476 194 _c
476 230 465 258 443 278 _c
421 298 385 313 335 323 _c
275 335 _l
201 349 148 372 115 404 _c
82 435 66 478 66 534 _c
66 598 88 649 134 686 _c
179 723 242 742 322 742 _c
356 742 390 739 426 733 _c
461 727 497 717 535 705 _c
}_e{_cl}_e}_d
/T{611 0 -2 0 614 729 _sc
-2 729 _m
614 729 _l
614 646 _l
355 646 _l
355 0 _l
256 0 _l
256 646 _l
-2 646 _l
-2 729 _l
_cl}_d
/V{684 0 8 0 676 729 _sc
286 0 _m
8 729 _l
111 729 _l
342 115 _l
573 729 _l
676 729 _l
398 0 _l
286 0 _l
_cl}_d
/a{{613 0 60 -13 522 560 _sc
343 275 _m
270 275 220 266 192 250 _c
164 233 150 205 150 165 _c
150 133 160 107 181 89 _c
202 70 231 61 267 61 _c
317 61 357 78 387 114 _c
417 149 432 196 432 255 _c
432 275 _l
343 275 _l
522 312 _m
522 0 _l
432 0 _l
432 83 _l
411 49 385 25 355 10 _c
325 -5 287 -13 243 -13 _c
187 -13 142 2 109 33 _c
76 64 60 106 60 159 _c
}_e{60 220 80 266 122 298 _c
163 329 224 345 306 345 _c
432 345 _l
432 354 _l
432 395 418 427 391 450 _c
364 472 326 484 277 484 _c
245 484 215 480 185 472 _c
155 464 127 453 100 439 _c
100 522 _l
132 534 164 544 195 550 _c
226 556 256 560 286 560 _c
365 560 424 539 463 498 _c
502 457 522 395 522 312 _c
_cl}_e}_d
/c{{550 0 55 -13 488 560 _sc
488 526 _m
488 442 _l
462 456 437 466 411 473 _c
385 480 360 484 334 484 _c
276 484 230 465 198 428 _c
166 391 150 339 150 273 _c
150 206 166 154 198 117 _c
230 80 276 62 334 62 _c
360 62 385 65 411 72 _c
437 79 462 90 488 104 _c
488 21 _l
462 9 436 0 410 -5 _c
383 -10 354 -13 324 -13 _c
242 -13 176 12 128 64 _c
}_e{79 115 55 185 55 273 _c
55 362 79 432 128 483 _c
177 534 244 560 330 560 _c
358 560 385 557 411 551 _c
437 545 463 537 488 526 _c
_cl}_e}_d
/d{{635 0 55 -13 544 760 _sc
454 464 _m
454 760 _l
544 760 _l
544 0 _l
454 0 _l
454 82 _l
435 49 411 25 382 10 _c
353 -5 319 -13 279 -13 _c
213 -13 159 13 117 65 _c
75 117 55 187 55 273 _c
55 359 75 428 117 481 _c
159 533 213 560 279 560 _c
319 560 353 552 382 536 _c
411 520 435 496 454 464 _c
148 273 _m
148 207 161 155 188 117 _c
215 79 253 61 301 61 _c
}_e{348 61 385 79 413 117 _c
440 155 454 207 454 273 _c
454 339 440 390 413 428 _c
385 466 348 485 301 485 _c
253 485 215 466 188 428 _c
161 390 148 339 148 273 _c
_cl}_e}_d
/e{{615 0 55 -13 562 560 _sc
562 296 _m
562 252 _l
149 252 _l
153 190 171 142 205 110 _c
238 78 284 62 344 62 _c
378 62 412 66 444 74 _c
476 82 509 95 541 113 _c
541 28 _l
509 14 476 3 442 -3 _c
408 -9 373 -13 339 -13 _c
251 -13 182 12 131 62 _c
80 112 55 181 55 268 _c
55 357 79 428 127 481 _c
175 533 241 560 323 560 _c
397 560 455 536 498 489 _c
}_e{540 441 562 377 562 296 _c
472 322 _m
471 371 457 410 431 440 _c
404 469 368 484 324 484 _c
274 484 234 469 204 441 _c
174 413 156 373 152 322 _c
472 322 _l
_cl}_e}_d
/g{{635 0 55 -207 544 560 _sc
454 280 _m
454 344 440 395 414 431 _c
387 467 349 485 301 485 _c
253 485 215 467 188 431 _c
161 395 148 344 148 280 _c
148 215 161 165 188 129 _c
215 93 253 75 301 75 _c
349 75 387 93 414 129 _c
440 165 454 215 454 280 _c
544 68 _m
544 -24 523 -93 482 -139 _c
440 -184 377 -207 292 -207 _c
260 -207 231 -204 203 -200 _c
175 -195 147 -188 121 -178 _c
}_e{121 -91 _l
147 -105 173 -115 199 -122 _c
225 -129 251 -133 278 -133 _c
336 -133 380 -117 410 -87 _c
439 -56 454 -10 454 52 _c
454 96 _l
435 64 411 40 382 24 _c
353 8 319 0 279 0 _c
211 0 157 25 116 76 _c
75 127 55 195 55 280 _c
55 364 75 432 116 483 _c
157 534 211 560 279 560 _c
319 560 353 552 382 536 _c
411 520 435 496 454 464 _c
454 547 _l
544 547 _l
}_e{544 68 _l
_cl}_e}_d
/h{634 0 91 0 549 760 _sc
549 330 _m
549 0 _l
459 0 _l
459 327 _l
459 379 448 417 428 443 _c
408 469 378 482 338 482 _c
289 482 251 466 223 435 _c
195 404 181 362 181 309 _c
181 0 _l
91 0 _l
91 760 _l
181 760 _l
181 462 _l
202 494 227 519 257 535 _c
286 551 320 560 358 560 _c
420 560 468 540 500 501 _c
532 462 549 405 549 330 _c
_cl}_d
/i{278 0 94 0 184 760 _sc
94 547 _m
184 547 _l
184 0 _l
94 0 _l
94 547 _l
94 760 _m
184 760 _l
184 646 _l
94 646 _l
94 760 _l
_cl}_d
/l{278 0 94 0 184 760 _sc
94 760 _m
184 760 _l
184 0 _l
94 0 _l
94 760 _l
_cl}_d
/m{{974 0 91 0 889 560 _sc
520 442 _m
542 482 569 511 600 531 _c
631 550 668 560 711 560 _c
767 560 811 540 842 500 _c
873 460 889 403 889 330 _c
889 0 _l
799 0 _l
799 327 _l
799 379 789 418 771 444 _c
752 469 724 482 686 482 _c
639 482 602 466 575 435 _c
548 404 535 362 535 309 _c
535 0 _l
445 0 _l
445 327 _l
445 379 435 418 417 444 _c
398 469 369 482 331 482 _c
}_e{285 482 248 466 221 435 _c
194 404 181 362 181 309 _c
181 0 _l
91 0 _l
91 547 _l
181 547 _l
181 462 _l
201 495 226 520 255 536 _c
283 552 317 560 357 560 _c
397 560 430 550 458 530 _c
486 510 506 480 520 442 _c
_cl}_e}_d
/n{634 0 91 0 549 560 _sc
549 330 _m
549 0 _l
459 0 _l
459 327 _l
459 379 448 417 428 443 _c
408 469 378 482 338 482 _c
289 482 251 466 223 435 _c
195 404 181 362 181 309 _c
181 0 _l
91 0 _l
91 547 _l
181 547 _l
181 462 _l
202 494 227 519 257 535 _c
286 551 320 560 358 560 _c
420 560 468 540 500 501 _c
532 462 549 405 549 330 _c
_cl}_d
/o{612 0 55 -13 557 560 _sc
306 484 _m
258 484 220 465 192 427 _c
164 389 150 338 150 273 _c
150 207 163 156 191 118 _c
219 80 257 62 306 62 _c
354 62 392 80 420 118 _c
448 156 462 207 462 273 _c
462 337 448 389 420 427 _c
392 465 354 484 306 484 _c
306 560 _m
384 560 445 534 490 484 _c
534 433 557 363 557 273 _c
557 183 534 113 490 63 _c
445 12 384 -13 306 -13 _c
227 -13 165 12 121 63 _c
77 113 55 183 55 273 _c
55 363 77 433 121 484 _c
165 534 227 560 306 560 _c
_cl}_d
/p{{635 0 91 -207 580 560 _sc
181 82 _m
181 -207 _l
91 -207 _l
91 547 _l
181 547 _l
181 464 _l
199 496 223 520 252 536 _c
281 552 316 560 356 560 _c
422 560 476 533 518 481 _c
559 428 580 359 580 273 _c
580 187 559 117 518 65 _c
476 13 422 -13 356 -13 _c
316 -13 281 -5 252 10 _c
223 25 199 49 181 82 _c
487 273 _m
487 339 473 390 446 428 _c
418 466 381 485 334 485 _c
}_e{286 485 249 466 222 428 _c
194 390 181 339 181 273 _c
181 207 194 155 222 117 _c
249 79 286 61 334 61 _c
381 61 418 79 446 117 _c
473 155 487 207 487 273 _c
_cl}_e}_d
/r{411 0 91 0 411 560 _sc
411 463 _m
401 469 390 473 378 476 _c
366 478 353 480 339 480 _c
288 480 249 463 222 430 _c
194 397 181 350 181 288 _c
181 0 _l
91 0 _l
91 547 _l
181 547 _l
181 462 _l
199 495 224 520 254 536 _c
284 552 321 560 365 560 _c
371 560 378 559 386 559 _c
393 558 401 557 411 555 _c
411 463 _l
_cl}_d
/s{{521 0 54 -13 472 560 _sc
443 531 _m
443 446 _l
417 458 391 468 364 475 _c
336 481 308 485 279 485 _c
234 485 200 478 178 464 _c
156 450 145 430 145 403 _c
145 382 153 366 169 354 _c
185 342 217 330 265 320 _c
296 313 _l
360 299 405 279 432 255 _c
458 230 472 195 472 151 _c
472 100 452 60 412 31 _c
372 1 316 -13 246 -13 _c
216 -13 186 -10 154 -5 _c
}_e{122 0 89 8 54 20 _c
54 113 _l
87 95 120 82 152 74 _c
184 65 216 61 248 61 _c
290 61 323 68 346 82 _c
368 96 380 117 380 144 _c
380 168 371 187 355 200 _c
339 213 303 226 247 238 _c
216 245 _l
160 257 119 275 95 299 _c
70 323 58 356 58 399 _c
58 450 76 490 112 518 _c
148 546 200 560 268 560 _c
301 560 332 557 362 552 _c
391 547 418 540 443 531 _c
}_e{_cl}_e}_d
/t{392 0 27 0 368 702 _sc
183 702 _m
183 547 _l
368 547 _l
368 477 _l
183 477 _l
183 180 _l
183 135 189 106 201 94 _c
213 81 238 75 276 75 _c
368 75 _l
368 0 _l
276 0 _l
206 0 158 13 132 39 _c
106 65 93 112 93 180 _c
93 477 _l
27 477 _l
27 547 _l
93 547 _l
93 702 _l
183 702 _l
_cl}_d
/y{592 0 30 -207 562 547 _sc
322 -50 _m
296 -114 271 -157 247 -177 _c
223 -197 191 -207 151 -207 _c
79 -207 _l
79 -132 _l
132 -132 _l
156 -132 175 -126 189 -114 _c
203 -102 218 -75 235 -31 _c
251 9 _l
30 547 _l
125 547 _l
296 119 _l
467 547 _l
562 547 _l
322 -50 _l
_cl}_d
end readonly def

/BuildGlyph
 {exch begin
 CharStrings exch
 2 copy known not{pop /.notdef}if
 true 3 1 roll get exec
 end}_d

/BuildChar {
 1 index /Encoding get exch get
 1 index /BuildGlyph get exec
}_d

FontName currentdict end definefont pop
end
%%EndProlog
mpldict begin
-45 121.32 translate
702 549.36 0 0 clipbox
gsave
0 0 m
702 0 l
702 549.36 l
0 549.36 l
cl
1.000 setgray
fill
grestore
gsave
46.855714 328.191733 m
675.925714 328.191733 l
675.925714 530.5902 l
46.855714 530.5902 l
cl
1.000 setgray
fill
grestore
0.800 setlinewidth
1 setlinejoin
0 setlinecap
[] 0 setdash
0.000 setgray
gsave
/o {
gsave
newpath
translate
0.8 setlinewidth
1 setlinejoin
0 setlinecap
0 0 m
0 -3.5 l

gsave
0.000 setgray
fill
grestore
stroke
grestore
} bind def
73.5563 328.192 o
grestore
/DejaVuSans findfont
10.000 scalefont
setfont
gsave
70.376596 313.597983 translate
0.000000 rotate
0.000000 0.000000 m /zero glyphshow
grestore
gsave
/o {
gsave
newpath
translate
0.8 setlinewidth
1 setlinejoin
0 setlinecap
0 0 m
0 -3.5 l

gsave
0.000 setgray
fill
grestore
stroke
grestore
} bind def
188.315 328.192 o
grestore
gsave
181.955802 313.597983 translate
0.000000 rotate
0.000000 0.000000 m /one glyphshow
6.362305 0.000000 m /zero glyphshow
grestore
gsave
/o {
gsave
newpath
translate
0.8 setlinewidth
1 setlinejoin
0 setlinecap
0 0 m
0 -3.5 l

gsave
0.000 setgray
fill
grestore
stroke
grestore
} bind def
303.074 328.192 o
grestore
gsave
296.714695 313.597983 translate
0.000000 rotate
0.000000 0.000000 m /two glyphshow
6.362305 0.000000 m /zero glyphshow
grestore
gsave
/o {
gsave
newpath
translate
0.8 setlinewidth
1 setlinejoin
0 setlinecap
0 0 m
0 -3.5 l

gsave
0.000 setgray
fill
grestore
stroke
grestore
} bind def
417.833 328.192 o
grestore
gsave
411.473588 313.597983 translate
0.000000 rotate
0.000000 0.000000 m /three glyphshow
6.362305 0.000000 m /zero glyphshow
grestore
gsave
/o {
gsave
newpath
translate
0.8 setlinewidth
1 setlinejoin
0 setlinecap
0 0 m
0 -3.5 l

gsave
0.000 setgray
fill
grestore
stroke
grestore
} bind def
532.592 328.192 o
grestore
gsave
526.232482 313.597983 translate
0.000000 rotate
0.000000 0.000000 m /four glyphshow
6.362305 0.000000 m /zero glyphshow
grestore
gsave
/o {
gsave
newpath
translate
0.8 setlinewidth
1 setlinejoin
0 setlinecap
0 0 m
0 -3.5 l

gsave
0.000 setgray
fill
grestore
stroke
grestore
} bind def
647.351 328.192 o
grestore
gsave
640.991375 313.597983 translate
0.000000 rotate
0.000000 0.000000 m /five glyphshow
6.362305 0.000000 m /zero glyphshow
grestore
/DejaVuSans findfont
14.000 scalefont
setfont
gsave
336.304777 296.879233 translate
0.000000 rotate
0.000000 0.000000 m /E glyphshow
8.845703 0.000000 m /p glyphshow
17.732422 0.000000 m /o glyphshow
26.297852 0.000000 m /c glyphshow
33.995117 0.000000 m /h glyphshow
42.868164 0.000000 m /s glyphshow
grestore
gsave
/o {
gsave
newpath
translate
0.8 setlinewidth
1 setlinejoin
0 setlinecap
0 0 m
-3.5 0 l

gsave
0.000 setgray
fill
grestore
stroke
grestore
} bind def
46.8557 337.379 o
grestore
/DejaVuSans findfont
10.000 scalefont
setfont
gsave
23.949464 333.581684 translate
0.000000 rotate
0.000000 0.000000 m /zero glyphshow
6.362305 0.000000 m /period glyphshow
9.541016 0.000000 m /zero glyphshow
grestore
gsave
/o {
gsave
newpath
translate
0.8 setlinewidth
1 setlinejoin
0 setlinecap
0 0 m
-3.5 0 l

gsave
0.000 setgray
fill
grestore
stroke
grestore
} bind def
46.8557 364.13 o
grestore
gsave
23.949464 360.332873 translate
0.000000 rotate
0.000000 0.000000 m /zero glyphshow
6.362305 0.000000 m /period glyphshow
9.541016 0.000000 m /five glyphshow
grestore
gsave
/o {
gsave
newpath
translate
0.8 setlinewidth
1 setlinejoin
0 setlinecap
0 0 m
-3.5 0 l

gsave
0.000 setgray
fill
grestore
stroke
grestore
} bind def
46.8557 390.881 o
grestore
gsave
23.949464 387.084062 translate
0.000000 rotate
0.000000 0.000000 m /one glyphshow
6.362305 0.000000 m /period glyphshow
9.541016 0.000000 m /zero glyphshow
grestore
gsave
/o {
gsave
newpath
translate
0.8 setlinewidth
1 setlinejoin
0 setlinecap
0 0 m
-3.5 0 l

gsave
0.000 setgray
fill
grestore
stroke
grestore
} bind def
46.8557 417.632 o
grestore
gsave
23.949464 413.835251 translate
0.000000 rotate
0.000000 0.000000 m /one glyphshow
6.362305 0.000000 m /period glyphshow
9.541016 0.000000 m /five glyphshow
grestore
gsave
/o {
gsave
newpath
translate
0.8 setlinewidth
1 setlinejoin
0 setlinecap
0 0 m
-3.5 0 l

gsave
0.000 setgray
fill
grestore
stroke
grestore
} bind def
46.8557 444.383 o
grestore
gsave
23.949464 440.586440 translate
0.000000 rotate
0.000000 0.000000 m /two glyphshow
6.362305 0.000000 m /period glyphshow
9.541016 0.000000 m /zero glyphshow
grestore
gsave
/o {
gsave
newpath
translate
0.8 setlinewidth
1 setlinejoin
0 setlinecap
0 0 m
-3.5 0 l

gsave
0.000 setgray
fill
grestore
stroke
grestore
} bind def
46.8557 471.135 o
grestore
gsave
23.949464 467.337629 translate
0.000000 rotate
0.000000 0.000000 m /two glyphshow
6.362305 0.000000 m /period glyphshow
9.541016 0.000000 m /five glyphshow
grestore
gsave
/o {
gsave
newpath
translate
0.8 setlinewidth
1 setlinejoin
0 setlinecap
0 0 m
-3.5 0 l

gsave
0.000 setgray
fill
grestore
stroke
grestore
} bind def
46.8557 497.886 o
grestore
gsave
23.949464 494.088818 translate
0.000000 rotate
0.000000 0.000000 m /three glyphshow
6.362305 0.000000 m /period glyphshow
9.541016 0.000000 m /zero glyphshow
grestore
gsave
/o {
gsave
newpath
translate
0.8 setlinewidth
1 setlinejoin
0 setlinecap
0 0 m
-3.5 0 l

gsave
0.000 setgray
fill
grestore
stroke
grestore
} bind def
46.8557 524.637 o
grestore
gsave
23.949464 520.840007 translate
0.000000 rotate
0.000000 0.000000 m /three glyphshow
6.362305 0.000000 m /period glyphshow
9.541016 0.000000 m /five glyphshow
grestore
/DejaVuSans findfont
14.000 scalefont
setfont
gsave
17.043214 397.351904 translate
90.000000 rotate
0.000000 0.000000 m /t glyphshow
5.489258 0.000000 m /r glyphshow
11.245117 0.000000 m /a glyphshow
19.824219 0.000000 m /i glyphshow
23.713867 0.000000 m /n glyphshow
32.586914 0.000000 m /space glyphshow
37.037109 0.000000 m /l glyphshow
40.926758 0.000000 m /o glyphshow
49.492188 0.000000 m /s glyphshow
56.786133 0.000000 m /s glyphshow
grestore
1.500 setlinewidth
[9.6 2.4 1.5 2.4] 0 setdash
0.122 0.467 0.706 setrgbcolor
gsave
629.1 202.4 46.86 328.2 clipbox
79.275102 521.39027 m
81.18775 497.504446 l
83.100398 486.89195 l
85.013046 481.499824 l
86.925695 388.006629 l
88.838343 364.701501 l
90.750991 360.111103 l
92.663639 357.717575 l
94.576287 354.602772 l
96.488936 354.668109 l
98.401584 351.30012 l
100.314232 350.893403 l
102.22688 350.187149 l
104.139529 349.173385 l
106.052177 349.184087 l
107.964825 349.914387 l
109.877473 346.894771 l
113.70277 347.565708 l
115.615418 347.289442 l
117.528066 346.478981 l
119.440714 346.203171 l
121.353363 344.869315 l
123.266011 345.407579 l
125.178659 345.443398 l
127.091307 345.633604 l
129.003955 345.566387 l
130.916604 345.135071 l
132.829252 344.262187 l
134.7419 344.037465 l
136.654548 344.53012 l
138.567196 344.488828 l
140.479845 344.981889 l
142.392493 343.90461 l
144.305141 343.565904 l
146.217789 344.014371 l
148.130438 343.149683 l
151.955734 344.200272 l
153.868382 344.251827 l
155.78103 343.060158 l
157.693679 343.102314 l
159.606327 343.998693 l
161.518975 343.270037 l
165.344272 343.429755 l
167.25692 342.855671 l
169.169568 342.834108 l
171.082216 343.45093 l
172.994864 343.288741 l
174.907513 343.284947 l
176.820161 342.814472 l
178.732809 342.584061 l
180.645457 342.034581 l
182.558106 342.597876 l
184.470754 342.699879 l
186.383402 343.427482 l
188.29605 343.493604 l
190.208698 341.893974 l
192.121347 342.61515 l
195.946643 342.310682 l
197.859291 342.584251 l
199.77194 343.165191 l
201.684588 342.42831 l
203.597236 342.466638 l
205.509884 341.933892 l
207.422532 342.401957 l
209.335181 342.14762 l
211.247829 342.559785 l
213.160477 341.938097 l
215.073125 341.769228 l
216.985774 342.196145 l
220.81107 342.470903 l
222.723718 342.682643 l
224.636366 341.682939 l
226.549015 341.968361 l
230.374311 341.913721 l
232.286959 342.115239 l
234.199608 341.975118 l
236.112256 341.493339 l
238.024904 341.863132 l
239.937552 341.730254 l
241.8502 341.757827 l
243.762849 341.959905 l
245.675497 341.917613 l
247.588145 341.267955 l
251.413442 341.488399 l
253.32609 341.891688 l
255.238738 342.012774 l
257.151386 342.33629 l
259.064034 341.254163 l
260.976683 341.817165 l
262.889331 341.07967 l
264.801979 341.532048 l
266.714627 342.180054 l
268.627276 342.200211 l
270.539924 340.936076 l
272.452572 341.113468 l
276.277868 342.072991 l
278.190517 341.633278 l
280.103165 341.971573 l
282.015813 340.994721 l
283.928461 341.233328 l
285.84111 341.703587 l
287.753758 341.517692 l
291.579054 342.001726 l
293.491702 341.271412 l
295.404351 341.288385 l
297.316999 341.544162 l
299.229647 341.552253 l
301.142295 341.364327 l
303.054944 341.7878 l
304.967592 341.039727 l
306.88024 340.908755 l
308.792888 341.417199 l
310.705536 341.526685 l
312.618185 341.876024 l
314.530833 341.718212 l
316.443481 340.936877 l
318.356129 340.93989 l
322.181426 341.539746 l
324.094074 341.478481 l
326.006722 341.851014 l
327.91937 340.677292 l
329.832019 341.323753 l
331.744667 340.941648 l
333.657315 341.448927 l
335.569963 341.604532 l
337.482612 341.506853 l
339.39526 340.958416 l
341.307908 340.950355 l
347.045853 341.234703 l
348.958501 341.605328 l
350.871149 340.639695 l
352.783797 341.086476 l
354.696446 340.997962 l
356.609094 341.544314 l
358.521742 341.47684 l
360.43439 341.714487 l
362.347038 340.764628 l
366.172335 341.253398 l
369.997631 341.148221 l
371.91028 341.422837 l
373.822928 340.794186 l
375.735576 340.36469 l
377.648224 340.90824 l
379.560872 341.169175 l
381.473521 340.888163 l
383.386169 341.886977 l
385.298817 340.556089 l
387.211465 340.669117 l
391.036762 341.246236 l
392.94941 341.099614 l
394.862058 341.677521 l
396.774706 340.738546 l
398.687355 340.666544 l
400.600003 341.071656 l
406.337947 340.968294 l
408.250596 340.598752 l
410.163244 340.85339 l
413.98854 340.881101 l
415.901189 341.402206 l
417.813837 341.313083 l
419.726485 340.88037 l
423.551781 340.676204 l
425.46443 340.843914 l
427.377078 340.668493 l
429.289726 341.264078 l
431.202374 340.363193 l
435.027671 340.973357 l
436.940319 340.854488 l
438.852967 341.208846 l
440.765615 341.219877 l
442.678264 340.663504 l
444.590912 340.708603 l
446.50356 340.538508 l
448.416208 340.970048 l
452.241505 341.349639 l
454.154153 340.7129 l
456.066801 340.60831 l
457.979449 340.642404 l
459.892098 341.10121 l
461.804746 341.121913 l
463.717394 340.880677 l
465.630042 340.258206 l
467.542691 340.985286 l
469.455339 340.470068 l
471.367987 341.217109 l
475.193283 341.227385 l
477.105932 340.632806 l
479.01858 340.851542 l
480.931228 340.648906 l
482.843876 340.958003 l
490.494469 340.447969 l
492.407117 340.796417 l
494.319766 340.94604 l
496.232414 340.690422 l
498.145062 341.043286 l
500.05771 340.579059 l
501.970359 340.724364 l
503.883007 340.396942 l
505.795655 340.520498 l
507.708303 340.899552 l
509.620951 341.074073 l
511.5336 340.348497 l
513.446248 340.868695 l
521.096841 340.9737 l
523.009489 340.427148 l
524.922137 340.704201 l
526.834785 340.444742 l
528.747434 340.779829 l
530.660082 340.873619 l
532.57273 341.516316 l
534.485378 340.137409 l
536.398027 340.517647 l
540.223323 340.402511 l
542.135971 341.052918 l
544.048619 340.825356 l
545.961268 340.258841 l
547.873916 340.498465 l
549.786564 340.597871 l
551.699212 341.017496 l
553.611861 341.156812 l
555.524509 341.110141 l
557.437157 340.335771 l
559.349805 340.478456 l
561.262453 340.749994 l
563.175102 340.760878 l
565.08775 341.0396 l
567.000398 340.903487 l
568.913046 340.360242 l
576.563639 340.909383 l
578.476287 340.612705 l
580.388936 340.05258 l
584.214232 340.720286 l
586.12688 340.697752 l
588.039529 340.816537 l
589.952177 340.808353 l
591.864825 340.094445 l
593.777473 340.493145 l
595.690121 340.254169 l
599.515418 341.032047 l
601.428066 340.97403 l
603.340714 340.539349 l
610.991307 340.746687 l
612.903955 340.974159 l
614.816604 340.198235 l
618.6419 340.560568 l
620.554548 340.664586 l
622.467196 341.052226 l
626.292493 340.421316 l
628.205141 340.532954 l
630.117789 340.526441 l
632.030438 340.718146 l
633.943086 340.628623 l
635.855734 341.000912 l
637.768382 340.228945 l
639.68103 340.482523 l
641.593679 340.471483 l
643.506327 340.832619 l
645.418975 340.332683 l
647.331623 340.944439 l
647.331623 340.944439 l
stroke
grestore
[5.55 2.4] 0 setdash
1.000 0.498 0.055 setrgbcolor
gsave
629.1 202.4 46.86 328.2 clipbox
75.449805 463.187876 m
77.362453 457.997223 l
79.275102 448.719024 l
81.18775 429.926818 l
83.100398 404.464572 l
85.013046 389.980935 l
86.925695 382.053867 l
90.750991 372.919172 l
92.663639 370.771431 l
94.576287 368.222073 l
96.488936 367.889262 l
98.401584 366.76215 l
100.314232 365.170272 l
102.22688 364.042165 l
104.139529 362.657421 l
106.052177 363.545064 l
107.964825 363.676103 l
109.877473 361.1816 l
111.790121 361.10363 l
113.70277 361.686072 l
115.615418 360.877576 l
117.528066 360.663018 l
119.440714 359.93074 l
121.353363 359.398493 l
123.266011 359.128212 l
125.178659 358.148996 l
127.091307 358.478548 l
129.003955 357.716801 l
130.916604 357.247975 l
132.829252 357.781214 l
134.7419 356.131089 l
136.654548 355.310514 l
138.567196 355.427045 l
140.479845 355.78481 l
142.392493 355.084234 l
144.305141 355.280337 l
146.217789 354.234226 l
148.130438 353.409566 l
150.043086 354.153753 l
151.955734 353.209369 l
153.868382 354.242312 l
155.78103 353.102391 l
157.693679 352.869224 l
159.606327 353.533076 l
161.518975 351.663747 l
163.431623 351.794422 l
165.344272 352.21169 l
167.25692 351.776245 l
171.082216 350.568162 l
174.907513 351.46192 l
176.820161 350.079094 l
178.732809 350.416837 l
180.645457 349.633473 l
184.470754 349.381976 l
186.383402 350.36679 l
190.208698 349.622717 l
192.121347 349.457248 l
194.033995 348.95869 l
195.946643 348.286323 l
197.859291 348.729216 l
199.77194 348.740923 l
201.684588 349.317209 l
205.509884 347.904926 l
207.422532 347.454382 l
209.335181 347.243867 l
211.247829 348.091019 l
213.160477 347.782692 l
215.073125 347.26358 l
216.985774 347.395167 l
218.898422 346.714907 l
220.81107 347.867519 l
222.723718 347.749793 l
224.636366 346.664495 l
226.549015 347.373411 l
228.461663 347.310362 l
230.374311 346.96808 l
232.286959 346.441081 l
234.199608 346.967797 l
236.112256 346.688915 l
238.024904 347.169253 l
239.937552 346.082384 l
241.8502 346.071855 l
243.762849 346.684863 l
247.588145 346.017823 l
249.500793 346.351499 l
251.413442 346.994432 l
253.32609 346.942311 l
255.238738 346.353019 l
257.151386 346.769108 l
259.064034 345.780325 l
260.976683 345.965238 l
262.889331 345.344344 l
264.801979 345.631404 l
266.714627 345.587208 l
268.627276 346.428341 l
270.539924 345.156157 l
272.452572 345.718689 l
274.36522 345.411409 l
276.277868 345.506041 l
278.190517 345.483183 l
280.103165 345.619071 l
282.015813 344.903343 l
283.928461 345.345342 l
285.84111 345.494088 l
287.753758 345.242288 l
289.666406 345.972606 l
291.579054 345.550963 l
293.491702 344.625836 l
295.404351 345.305451 l
297.316999 345.060611 l
299.229647 345.78202 l
301.142295 345.125902 l
303.054944 345.380602 l
304.967592 344.280262 l
308.792888 344.831554 l
310.705536 344.981434 l
312.618185 345.31489 l
314.530833 345.318899 l
316.443481 344.652025 l
318.356129 344.746736 l
320.268778 345.194229 l
322.181426 344.863602 l
324.094074 344.803976 l
326.006722 344.965684 l
327.91937 344.533225 l
329.832019 344.850396 l
333.657315 344.795421 l
335.569963 345.163567 l
337.482612 344.153519 l
339.39526 344.719081 l
341.307908 344.565778 l
343.220556 344.688265 l
345.133204 343.928765 l
347.045853 344.239737 l
348.958501 345.050962 l
350.871149 344.089299 l
352.783797 344.441618 l
354.696446 343.763164 l
356.609094 344.922267 l
360.43439 344.192059 l
362.347038 344.400843 l
364.259687 344.396798 l
366.172335 344.524152 l
368.084983 344.235656 l
369.997631 344.302219 l
371.91028 345.02727 l
373.822928 344.15712 l
375.735576 343.947528 l
377.648224 344.315016 l
381.473521 343.985763 l
383.386169 345.324758 l
385.298817 344.037536 l
387.211465 343.786385 l
389.124113 344.567287 l
391.036762 344.774377 l
392.94941 343.773084 l
394.862058 344.735687 l
398.687355 344.150731 l
400.600003 344.515167 l
402.512651 344.163301 l
406.337947 344.049206 l
408.250596 344.297172 l
413.98854 343.518252 l
415.901189 344.160467 l
417.813837 344.334272 l
419.726485 343.743127 l
421.639133 344.249421 l
423.551781 343.90879 l
425.46443 344.012028 l
429.289726 343.69363 l
431.202374 343.887876 l
433.115023 344.464891 l
435.027671 344.163856 l
436.940319 343.615926 l
438.852967 343.993671 l
440.765615 344.249008 l
442.678264 344.095907 l
444.590912 344.199595 l
446.50356 343.718704 l
448.416208 344.022093 l
450.328857 343.958639 l
452.241505 344.285628 l
456.066801 343.744672 l
461.804746 344.250367 l
463.717394 344.124804 l
465.630042 343.438527 l
467.542691 344.501787 l
471.367987 344.215596 l
473.280635 344.355606 l
477.105932 343.892524 l
479.01858 344.69936 l
480.931228 344.012938 l
482.843876 344.355417 l
484.756525 343.52033 l
486.669173 343.906002 l
488.581821 344.14251 l
490.494469 343.383324 l
492.407117 343.945163 l
494.319766 344.013142 l
496.232414 343.516666 l
498.145062 343.869276 l
500.05771 343.739366 l
501.970359 343.782305 l
503.883007 343.275565 l
505.795655 343.002339 l
507.708303 344.118738 l
509.620951 344.125526 l
511.5336 343.863347 l
513.446248 343.758623 l
515.358896 343.893846 l
517.271544 344.144365 l
519.184193 343.284973 l
521.096841 343.867571 l
523.009489 343.244171 l
524.922137 343.658858 l
526.834785 343.245209 l
528.747434 343.779645 l
530.660082 343.698459 l
532.57273 344.317618 l
534.485378 343.697842 l
536.398027 343.252364 l
540.223323 344.076554 l
542.135971 343.612426 l
544.048619 343.87425 l
545.961268 343.098566 l
547.873916 343.664737 l
553.611861 343.855753 l
555.524509 343.662011 l
557.437157 343.208322 l
561.262453 343.802306 l
563.175102 343.686426 l
567.000398 344.07462 l
568.913046 343.840406 l
570.825695 343.758502 l
572.738343 343.375529 l
574.650991 343.534725 l
576.563639 343.989856 l
578.476287 343.586619 l
580.388936 343.323374 l
582.301584 343.263059 l
584.214232 343.871337 l
586.12688 343.714548 l
588.039529 343.849815 l
589.952177 344.149298 l
591.864825 343.566435 l
595.690121 343.330332 l
597.60277 343.801311 l
599.515418 343.944704 l
603.340714 343.278003 l
605.253363 343.962888 l
607.166011 343.520274 l
609.078659 343.440792 l
610.991307 343.89909 l
612.903955 343.451178 l
614.816604 343.372997 l
618.6419 343.705684 l
620.554548 343.631676 l
622.467196 344.235566 l
624.379845 343.567411 l
626.292493 343.405487 l
628.205141 343.549435 l
630.117789 343.48708 l
632.030438 343.895836 l
635.855734 343.298678 l
637.768382 343.359507 l
639.68103 343.582474 l
643.506327 343.513198 l
645.418975 343.409247 l
647.331623 343.072861 l
647.331623 343.072861 l
stroke
grestore
[1.5 2.475] 0 setdash
0.173 0.627 0.173 setrgbcolor
gsave
629.1 202.4 46.86 328.2 clipbox
75.449805 466.077103 m
77.362453 449.138125 l
79.275102 419.709873 l
81.18775 399.881728 l
83.100398 385.145661 l
85.013046 379.252313 l
86.925695 374.68179 l
90.750991 368.884641 l
92.663639 368.054191 l
94.576287 365.13149 l
96.488936 365.888085 l
98.401584 363.579239 l
100.314232 362.405591 l
102.22688 361.027565 l
104.139529 360.519048 l
106.052177 360.450357 l
107.964825 361.144828 l
109.877473 358.266573 l
111.790121 358.85123 l
113.70277 359.195897 l
115.615418 357.809808 l
117.528066 357.502494 l
119.440714 356.860696 l
121.353363 356.992661 l
123.266011 356.637427 l
125.178659 356.157561 l
127.091307 356.525611 l
129.003955 355.49181 l
130.916604 355.726434 l
132.829252 354.636834 l
134.7419 355.007667 l
136.654548 354.940482 l
138.567196 353.919007 l
140.479845 355.658023 l
142.392493 354.584411 l
144.305141 354.348989 l
146.217789 353.99734 l
148.130438 353.520749 l
150.043086 353.369555 l
151.955734 353.876147 l
153.868382 354.513514 l
155.78103 354.043123 l
157.693679 353.267798 l
159.606327 353.43642 l
161.518975 352.833764 l
163.431623 352.94614 l
165.344272 353.682627 l
167.25692 352.965612 l
169.169568 352.617869 l
171.082216 353.132911 l
172.994864 352.957835 l
174.907513 352.522603 l
176.820161 351.71041 l
178.732809 352.08199 l
180.645457 351.098344 l
182.558106 351.907163 l
184.470754 352.38531 l
186.383402 352.346567 l
188.29605 352.730202 l
190.208698 352.059515 l
194.033995 352.486067 l
195.946643 351.431268 l
197.859291 351.384683 l
199.77194 351.735265 l
201.684588 352.347606 l
203.597236 352.000576 l
205.509884 350.861113 l
207.422532 350.833263 l
209.335181 351.573317 l
211.247829 351.285857 l
213.160477 351.662893 l
215.073125 350.854196 l
216.985774 352.20438 l
218.898422 351.390616 l
220.81107 351.034727 l
222.723718 351.166701 l
224.636366 350.650739 l
226.549015 351.676406 l
228.461663 351.210422 l
230.374311 351.001855 l
232.286959 350.448179 l
236.112256 350.663348 l
241.8502 350.479242 l
243.762849 351.082012 l
245.675497 349.875986 l
247.588145 350.752919 l
249.500793 349.989315 l
251.413442 350.026846 l
253.32609 350.811144 l
255.238738 351.022472 l
257.151386 350.688914 l
259.064034 350.923178 l
260.976683 350.490423 l
262.889331 349.555879 l
264.801979 350.844968 l
266.714627 350.445314 l
268.627276 350.916352 l
270.539924 349.082725 l
272.452572 350.531594 l
274.36522 349.903306 l
276.277868 350.620413 l
280.103165 349.853059 l
282.015813 348.905363 l
283.928461 350.718668 l
285.84111 350.523961 l
287.753758 349.713342 l
289.666406 350.163496 l
291.579054 349.956767 l
293.491702 349.48774 l
295.404351 350.168954 l
297.316999 350.701548 l
301.142295 349.162714 l
303.054944 350.380709 l
304.967592 349.923695 l
306.88024 349.127843 l
308.792888 350.325746 l
310.705536 350.397937 l
312.618185 349.863407 l
314.530833 350.578298 l
316.443481 349.177289 l
318.356129 349.956705 l
322.181426 350.056091 l
324.094074 350.612119 l
326.006722 349.621474 l
327.91937 349.963954 l
329.832019 350.092129 l
331.744667 349.478384 l
333.657315 350.391898 l
335.569963 350.045417 l
337.482612 349.887137 l
339.39526 349.579092 l
341.307908 350.228864 l
343.220556 348.978199 l
345.133204 350.01427 l
347.045853 350.068631 l
348.958501 350.011746 l
350.871149 348.657166 l
352.783797 349.862371 l
354.696446 349.457535 l
356.609094 350.096346 l
358.521742 350.256594 l
360.43439 349.744234 l
362.347038 349.378076 l
364.259687 348.84058 l
366.172335 350.091886 l
368.084983 349.611771 l
369.997631 349.575615 l
371.91028 349.736922 l
373.822928 349.602801 l
375.735576 348.827202 l
377.648224 350.086995 l
379.560872 350.250993 l
381.473521 349.466829 l
383.386169 349.922875 l
385.298817 348.827266 l
387.211465 348.624549 l
389.124113 350.135067 l
392.94941 349.294414 l
394.862058 349.522321 l
396.774706 349.184514 l
398.687355 349.18514 l
400.600003 350.38074 l
402.512651 349.100691 l
406.337947 349.326233 l
408.250596 348.998171 l
410.163244 350.189722 l
412.075892 349.107851 l
413.98854 349.249848 l
415.901189 350.436469 l
417.813837 349.731264 l
419.726485 349.262885 l
421.639133 349.521317 l
427.377078 349.180226 l
429.289726 350.16041 l
431.202374 349.488181 l
433.115023 349.938127 l
435.027671 349.229245 l
436.940319 348.998114 l
438.852967 349.661031 l
442.678264 348.982636 l
444.590912 349.773774 l
446.50356 348.875633 l
448.416208 349.121507 l
450.328857 349.673988 l
452.241505 349.158747 l
454.154153 349.419227 l
456.066801 348.583474 l
457.979449 350.151311 l
459.892098 349.193358 l
461.804746 349.042012 l
463.717394 349.249804 l
465.630042 348.877995 l
467.542691 349.995824 l
469.455339 349.238298 l
473.280635 348.481479 l
475.193283 349.459788 l
477.105932 349.885256 l
479.01858 349.437782 l
480.931228 348.699381 l
482.843876 349.121208 l
484.756525 349.108338 l
486.669173 348.976382 l
488.581821 349.624542 l
490.494469 349.179454 l
492.407117 349.02764 l
498.145062 349.486649 l
500.05771 348.627182 l
501.970359 348.564539 l
503.883007 349.206538 l
505.795655 348.760084 l
507.708303 349.674874 l
509.620951 349.649705 l
511.5336 349.434488 l
513.446248 348.57058 l
515.358896 349.62284 l
517.271544 349.450893 l
519.184193 349.039178 l
521.096841 349.232539 l
523.009489 348.718777 l
524.922137 348.544368 l
526.834785 348.878533 l
528.747434 348.843509 l
530.660082 349.265043 l
532.57273 350.15487 l
534.485378 349.569793 l
536.398027 348.362225 l
538.310675 348.940115 l
540.223323 349.267282 l
542.135971 348.912619 l
545.961268 349.296468 l
547.873916 348.939466 l
549.786564 349.788046 l
551.699212 348.990372 l
553.611861 349.457396 l
555.524509 348.590132 l
559.349805 348.471528 l
561.262453 349.163862 l
563.175102 349.144895 l
565.08775 349.507088 l
567.000398 349.59674 l
568.913046 349.201777 l
570.825695 349.435626 l
572.738343 348.992208 l
574.650991 349.028658 l
576.563639 349.665567 l
578.476287 349.207251 l
580.388936 348.433359 l
582.301584 348.592557 l
584.214232 349.090707 l
586.12688 349.791683 l
588.039529 349.410761 l
589.952177 349.99738 l
591.864825 348.911675 l
593.777473 349.208866 l
595.690121 349.273928 l
597.60277 348.437655 l
599.515418 349.896125 l
601.428066 349.397132 l
603.340714 349.516224 l
605.253363 349.142699 l
607.166011 349.456249 l
609.078659 349.503268 l
610.991307 349.368839 l
612.903955 348.578534 l
616.729252 349.351625 l
618.6419 349.299073 l
620.554548 349.393932 l
622.467196 349.315775 l
624.379845 348.000515 l
626.292493 349.159979 l
628.205141 348.453031 l
630.117789 348.425914 l
632.030438 350.052605 l
633.943086 348.694985 l
635.855734 349.21387 l
637.768382 348.832236 l
639.68103 349.086904 l
641.593679 349.098144 l
643.506327 348.588625 l
645.418975 348.796249 l
647.331623 349.587652 l
647.331623 349.587652 l
stroke
grestore
2 setlinecap
[] 0 setdash
0.839 0.153 0.157 setrgbcolor
gsave
629.1 202.4 46.86 328.2 clipbox
75.449805 387.788673 m
77.362453 357.748424 l
79.275102 355.244008 l
81.18775 354.171097 l
83.100398 351.610033 l
85.013046 350.85797 l
86.925695 349.659366 l
90.750991 348.375104 l
92.663639 348.214677 l
94.576287 346.791517 l
96.488936 347.266261 l
98.401584 346.089329 l
100.314232 345.635716 l
102.22688 345.441729 l
104.139529 344.654269 l
106.052177 345.082474 l
107.964825 345.318866 l
109.877473 343.90406 l
111.790121 343.81632 l
113.70277 343.890348 l
115.615418 343.721318 l
117.528066 343.436752 l
121.353363 342.557713 l
123.266011 342.440028 l
125.178659 342.54378 l
127.091307 342.225784 l
129.003955 342.57029 l
130.916604 342.333709 l
132.829252 341.637663 l
134.7419 341.373571 l
140.479845 341.869136 l
144.305141 340.982476 l
148.130438 340.58296 l
150.043086 340.992581 l
151.955734 340.995711 l
153.868382 341.155263 l
155.78103 340.434142 l
157.693679 340.25222 l
159.606327 340.456135 l
161.518975 340.343138 l
163.431623 340.361863 l
165.344272 340.534871 l
167.25692 339.821221 l
169.169568 340.043819 l
171.082216 339.963257 l
172.994864 340.22794 l
174.907513 339.848316 l
176.820161 339.833371 l
178.732809 339.680741 l
180.645457 339.302889 l
184.470754 339.659202 l
186.383402 339.93873 l
188.29605 339.689998 l
190.208698 339.25472 l
192.121347 339.344135 l
195.946643 339.246569 l
197.859291 339.428845 l
203.597236 338.931478 l
205.509884 339.198061 l
207.422532 339.127689 l
209.335181 338.868258 l
211.247829 339.214669 l
213.160477 338.848474 l
215.073125 338.680169 l
216.985774 338.799309 l
220.81107 338.826385 l
222.723718 339.058692 l
224.636366 338.417157 l
230.374311 338.654845 l
234.199608 338.678572 l
236.112256 338.350188 l
239.937552 338.32942 l
241.8502 338.586118 l
243.762849 338.681038 l
245.675497 338.644777 l
247.588145 338.190046 l
251.413442 338.273159 l
253.32609 338.47057 l
257.151386 338.418618 l
259.064034 338.191463 l
260.976683 338.259611 l
262.889331 338.072893 l
264.801979 338.059453 l
266.714627 338.358219 l
268.627276 338.321089 l
270.539924 337.988462 l
272.452572 337.952259 l
274.36522 338.107061 l
280.103165 338.186631 l
282.015813 337.886162 l
283.928461 337.989198 l
287.753758 337.976021 l
291.579054 338.065978 l
293.491702 337.811288 l
297.316999 337.997583 l
301.142295 337.898923 l
303.054944 338.08187 l
304.967592 337.807371 l
306.88024 337.683306 l
314.530833 338.037655 l
316.443481 337.812516 l
320.268778 337.709588 l
322.181426 337.852661 l
324.094074 337.875467 l
329.832019 337.631403 l
333.657315 337.795811 l
335.569963 337.717832 l
337.482612 337.892296 l
341.307908 337.743772 l
345.133204 337.708094 l
354.696446 337.630452 l
356.609094 337.783823 l
364.259687 337.53431 l
366.172335 337.669476 l
377.648224 337.572245 l
383.386169 337.636385 l
387.211465 337.602912 l
402.512651 337.533172 l
404.425299 337.835313 l
406.337947 337.945495 l
408.250596 337.648402 l
410.163244 337.652667 l
412.075892 337.542194 l
429.289726 337.464233 l
436.940319 337.444537 l
446.50356 337.481714 l
448.416208 338.909558 l
450.328857 338.499237 l
452.241505 337.793816 l
454.154153 337.538504 l
463.717394 337.474211 l
469.455339 337.426322 l
515.358896 337.542404 l
517.271544 338.371164 l
519.184193 338.389053 l
521.096841 337.880708 l
523.009489 337.582947 l
524.922137 337.484629 l
526.834785 337.555853 l
528.747434 337.464647 l
532.57273 337.505627 l
536.398027 337.414997 l
544.048619 337.434205 l
553.611861 337.407161 l
595.690121 337.39207 l
597.60277 337.500706 l
599.515418 339.345605 l
601.428066 338.363626 l
603.340714 337.830617 l
605.253363 337.615184 l
622.467196 337.407078 l
637.768382 337.392737 l
647.331623 337.392609 l
647.331623 337.392609 l
stroke
grestore
0 setlinecap
[9.6 2.4 1.5 2.4] 0 setdash
0.580 0.404 0.741 setrgbcolor
gsave
629.1 202.4 46.86 328.2 clipbox
75.449805 403.507133 m
77.362453 366.314584 l
79.275102 360.20121 l
81.18775 358.168261 l
83.100398 354.937157 l
85.013046 353.877357 l
86.925695 352.527779 l
88.838343 351.524338 l
92.663639 350.512285 l
94.576287 349.131293 l
96.488936 349.611307 l
98.401584 348.224356 l
100.314232 347.662954 l
102.22688 347.456886 l
104.139529 346.724698 l
107.964825 347.325497 l
109.877473 345.692952 l
111.790121 346.194841 l
113.70277 345.739523 l
117.528066 345.522715 l
119.440714 345.176036 l
121.353363 344.50942 l
123.266011 344.761689 l
125.178659 344.513197 l
127.091307 344.413868 l
129.003955 344.550907 l
130.916604 344.168268 l
132.829252 344.114691 l
134.7419 343.447829 l
138.567196 344.20879 l
142.392493 343.675575 l
146.217789 343.274267 l
148.130438 343.059484 l
150.043086 343.473751 l
153.868382 343.740496 l
155.78103 343.075617 l
157.693679 342.743656 l
159.606327 343.108567 l
161.518975 343.19395 l
163.431623 342.819053 l
165.344272 343.363016 l
167.25692 342.544825 l
169.169568 342.883256 l
171.082216 342.877697 l
172.994864 343.230685 l
176.820161 342.691061 l
178.732809 343.00028 l
180.645457 341.969942 l
182.558106 342.562187 l
184.470754 342.581434 l
186.383402 343.218611 l
188.29605 343.026281 l
190.208698 342.195131 l
192.121347 342.619996 l
194.033995 342.528755 l
195.946643 342.117764 l
197.859291 342.883696 l
199.77194 343.083722 l
201.684588 342.824393 l
203.597236 342.432792 l
205.509884 342.255625 l
207.422532 342.66766 l
209.335181 342.37181 l
211.247829 342.920771 l
213.160477 342.374686 l
218.898422 342.471547 l
220.81107 342.576699 l
222.723718 342.918783 l
224.636366 342.212246 l
228.461663 342.926397 l
230.374311 342.214714 l
232.286959 342.376527 l
236.112256 342.161171 l
238.024904 342.500459 l
239.937552 341.982063 l
241.8502 342.651302 l
243.762849 342.60223 l
245.675497 342.666636 l
247.588145 342.210435 l
249.500793 342.450524 l
251.413442 342.189845 l
253.32609 342.634632 l
255.238738 342.267518 l
257.151386 342.604119 l
259.064034 342.459799 l
260.976683 342.482401 l
262.889331 341.82185 l
266.714627 342.759333 l
268.627276 342.804117 l
270.539924 341.815887 l
272.452572 342.531673 l
276.277868 342.809117 l
278.190517 342.530734 l
280.103165 342.549646 l
282.015813 342.163411 l
285.84111 342.799556 l
287.753758 342.365526 l
289.666406 342.571109 l
291.579054 342.63179 l
293.491702 342.059361 l
295.404351 342.579807 l
297.316999 342.462916 l
299.229647 342.461743 l
301.142295 342.308115 l
303.054944 342.60383 l
304.967592 342.478257 l
306.88024 342.047903 l
308.792888 342.585791 l
310.705536 342.655199 l
312.618185 342.84694 l
314.530833 342.77165 l
318.356129 342.332834 l
320.268778 342.796146 l
322.181426 342.480105 l
326.006722 342.829157 l
327.91937 341.866684 l
329.832019 342.635295 l
331.744667 342.350805 l
335.569963 343.060024 l
337.482612 342.799606 l
341.307908 342.564644 l
343.220556 342.481585 l
345.133204 342.28068 l
347.045853 342.338704 l
348.958501 342.655382 l
350.871149 341.957224 l
352.783797 342.286943 l
354.696446 342.466449 l
356.609094 343.319331 l
358.521742 342.819535 l
360.43439 342.901603 l
362.347038 342.415534 l
364.259687 342.343373 l
366.172335 342.754854 l
368.084983 342.466764 l
369.997631 343.155647 l
371.91028 342.921559 l
373.822928 342.525822 l
375.735576 341.979744 l
379.560872 342.936556 l
383.386169 342.551439 l
385.298817 342.20452 l
387.211465 342.304982 l
389.124113 342.792322 l
391.036762 343.552187 l
392.94941 342.824347 l
394.862058 342.81396 l
396.774706 342.620691 l
402.512651 342.782139 l
404.425299 342.486172 l
406.337947 342.48118 l
408.250596 342.882115 l
410.163244 342.836886 l
412.075892 342.431295 l
415.901189 342.976735 l
417.813837 343.11413 l
419.726485 342.487074 l
421.639133 342.731196 l
423.551781 342.147631 l
425.46443 342.751698 l
427.377078 342.669464 l
429.289726 343.169959 l
433.115023 342.793815 l
435.027671 342.837217 l
436.940319 342.456312 l
442.678264 342.883739 l
444.590912 342.959615 l
446.50356 342.387856 l
448.416208 342.453027 l
450.328857 343.336403 l
452.241505 343.181114 l
454.154153 342.503855 l
456.066801 342.421862 l
457.979449 342.902838 l
461.804746 342.74923 l
463.717394 343.03695 l
465.630042 342.303193 l
467.542691 343.112825 l
469.455339 342.584662 l
471.367987 342.79491 l
473.280635 342.586063 l
475.193283 343.004992 l
477.105932 342.862109 l
479.01858 343.102418 l
480.931228 342.740984 l
482.843876 342.808167 l
484.756525 342.571392 l
486.669173 342.975812 l
490.494469 342.776441 l
492.407117 342.671553 l
494.319766 343.112184 l
496.232414 342.473256 l
498.145062 342.600664 l
500.05771 343.027637 l
501.970359 342.663963 l
503.883007 342.960156 l
505.795655 342.87711 l
507.708303 342.681042 l
509.620951 343.013035 l
511.5336 342.5489 l
515.358896 343.244553 l
517.271544 342.554367 l
519.184193 342.143989 l
521.096841 342.687212 l
523.009489 342.290128 l
524.922137 342.870036 l
526.834785 342.719877 l
528.747434 343.090581 l
530.660082 343.205409 l
532.57273 343.159483 l
534.485378 342.874821 l
536.398027 342.843748 l
538.310675 342.460752 l
540.223323 342.581129 l
542.135971 343.044774 l
544.048619 342.763183 l
545.961268 343.010826 l
547.873916 342.33088 l
549.786564 342.589521 l
551.699212 343.050576 l
553.611861 343.210107 l
557.437157 342.966545 l
559.349805 342.830435 l
563.175102 343.038615 l
565.08775 342.787491 l
567.000398 343.008922 l
568.913046 343.440233 l
570.825695 342.66649 l
572.738343 342.822576 l
574.650991 342.850995 l
576.563639 343.330618 l
578.476287 342.649056 l
580.388936 342.56891 l
584.214232 342.860021 l
586.12688 343.411411 l
588.039529 342.888401 l
589.952177 343.234834 l
593.777473 342.7274 l
595.690121 342.697343 l
597.60277 342.888272 l
599.515418 343.530336 l
601.428066 342.700648 l
603.340714 343.046483 l
605.253363 342.744093 l
607.166011 342.997986 l
609.078659 343.391716 l
610.991307 342.937823 l
612.903955 343.115686 l
614.816604 342.655345 l
618.6419 343.165304 l
620.554548 343.07121 l
622.467196 343.172332 l
626.292493 342.726875 l
628.205141 342.756858 l
630.117789 343.063082 l
632.030438 343.098048 l
633.943086 342.801645 l
635.855734 343.343105 l
643.506327 342.894781 l
645.418975 342.895888 l
647.331623 343.067315 l
647.331623 343.067315 l
stroke
grestore
0.800 setlinewidth
0 setlinejoin
2 setlinecap
[] 0 setdash
0.000 setgray
gsave
46.855714 328.191733 m
46.855714 530.5902 l
stroke
grestore
gsave
675.925714 328.191733 m
675.925714 530.5902 l
stroke
grestore
gsave
46.855714 328.191733 m
675.925714 328.191733 l
stroke
grestore
gsave
46.855714 530.5902 m
675.925714 530.5902 l
stroke
grestore
gsave
239.382902 536.590200 translate
0.000000 rotate
0.000000 0.000000 m /T glyphshow
8.520508 0.000000 m /r glyphshow
14.276367 0.000000 m /a glyphshow
22.855469 0.000000 m /i glyphshow
26.745117 0.000000 m /n glyphshow
35.618164 0.000000 m /i glyphshow
39.507812 0.000000 m /n glyphshow
48.380859 0.000000 m /g glyphshow
57.267578 0.000000 m /space glyphshow
61.717773 0.000000 m /l glyphshow
65.607422 0.000000 m /o glyphshow
74.172852 0.000000 m /s glyphshow
81.466797 0.000000 m /s glyphshow
88.760742 0.000000 m /space glyphshow
93.210938 0.000000 m /o glyphshow
101.776367 0.000000 m /n glyphshow
110.649414 0.000000 m /space glyphshow
115.099609 0.000000 m /t glyphshow
120.588867 0.000000 m /h glyphshow
129.461914 0.000000 m /e glyphshow
138.075195 0.000000 m /space glyphshow
142.525391 0.000000 m /M glyphshow
154.604492 0.000000 m /N glyphshow
165.077148 0.000000 m /I glyphshow
169.206055 0.000000 m /S glyphshow
178.092773 0.000000 m /T glyphshow
186.644531 0.000000 m /space glyphshow
191.094727 0.000000 m /d glyphshow
199.981445 0.000000 m /a glyphshow
208.560547 0.000000 m /t glyphshow
214.049805 0.000000 m /a glyphshow
222.628906 0.000000 m /s glyphshow
229.922852 0.000000 m /e glyphshow
238.536133 0.000000 m /t glyphshow
grestore
1.000 setlinewidth
0 setlinecap
0.800 setgray
gsave
577.144464 449.230825 m
668.925714 449.230825 l
670.259048 449.230825 670.925714 449.897492 670.925714 451.230825 c
670.925714 523.5902 l
670.925714 524.923533 670.259048 525.5902 668.925714 525.5902 c
577.144464 525.5902 l
575.811131 525.5902 575.144464 524.923533 575.144464 523.5902 c
575.144464 451.230825 l
575.144464 449.897492 575.811131 449.230825 577.144464 449.230825 c
cl
gsave
1.000 setgray
fill
grestore
stroke
grestore
1.500 setlinewidth
1 setlinejoin
[9.6 2.4 1.5 2.4] 0 setdash
0.122 0.467 0.706 setrgbcolor
gsave
579.144464 517.49645 m
599.144464 517.49645 l
stroke
grestore
0.000 setgray
/DejaVuSans findfont
10.000 scalefont
setfont
gsave
607.144464 513.996450 translate
0.000000 rotate
0.000000 0.000000 m /N glyphshow
7.480469 0.000000 m /o glyphshow
13.598633 0.000000 m /i glyphshow
16.376953 0.000000 m /s glyphshow
21.586914 0.000000 m /y glyphshow
27.504883 0.000000 m /space glyphshow
30.683594 0.000000 m /K glyphshow
37.241211 0.000000 m /F glyphshow
42.993164 0.000000 m /A glyphshow
49.833984 0.000000 m /C glyphshow
grestore
[5.55 2.4] 0 setdash
1.000 0.498 0.055 setrgbcolor
gsave
579.144464 502.824575 m
599.144464 502.824575 l
stroke
grestore
0.000 setgray
gsave
607.144464 499.324575 translate
0.000000 rotate
0.000000 0.000000 m /N glyphshow
7.480469 0.000000 m /o glyphshow
13.598633 0.000000 m /i glyphshow
16.376953 0.000000 m /s glyphshow
21.586914 0.000000 m /y glyphshow
27.504883 0.000000 m /space glyphshow
30.683594 0.000000 m /A glyphshow
37.524414 0.000000 m /d glyphshow
43.872070 0.000000 m /a glyphshow
50.000000 0.000000 m /m glyphshow
grestore
[1.5 2.475] 0 setdash
0.173 0.627 0.173 setrgbcolor
gsave
579.144464 488.1527 m
599.144464 488.1527 l
stroke
grestore
0.000 setgray
gsave
607.144464 484.652700 translate
0.000000 rotate
0.000000 0.000000 m /V glyphshow
6.840820 0.000000 m /p glyphshow
13.188477 0.000000 m /r glyphshow
17.299805 0.000000 m /o glyphshow
23.417969 0.000000 m /p glyphshow
grestore
2 setlinecap
[] 0 setdash
0.839 0.153 0.157 setrgbcolor
gsave
579.144464 473.480825 m
599.144464 473.480825 l
stroke
grestore
0.000 setgray
gsave
607.144464 469.980825 translate
0.000000 rotate
0.000000 0.000000 m /A glyphshow
6.840820 0.000000 m /d glyphshow
13.188477 0.000000 m /a glyphshow
19.316406 0.000000 m /m glyphshow
grestore
0 setlinecap
[9.6 2.4 1.5 2.4] 0 setdash
0.580 0.404 0.741 setrgbcolor
gsave
579.144464 458.80895 m
599.144464 458.80895 l
stroke
grestore
0.000 setgray
gsave
607.144464 455.308950 translate
0.000000 rotate
0.000000 0.000000 m /B glyphshow
6.860352 0.000000 m /B glyphshow
13.720703 0.000000 m /B glyphshow
grestore
gsave
46.855714 35.454067 m
675.925714 35.454067 l
675.925714 237.852533 l
46.855714 237.852533 l
cl
1.000 setgray
fill
grestore
0.800 setlinewidth
[] 0 setdash
gsave
/o {
gsave
newpath
translate
0.8 setlinewidth
1 setlinejoin
0 setlinecap
0 0 m
0 -3.5 l

gsave
0.000 setgray
fill
grestore
stroke
grestore
} bind def
73.5563 35.4541 o
grestore
gsave
70.376596 20.860317 translate
0.000000 rotate
0.000000 0.000000 m /zero glyphshow
grestore
gsave
/o {
gsave
newpath
translate
0.8 setlinewidth
1 setlinejoin
0 setlinecap
0 0 m
0 -3.5 l

gsave
0.000 setgray
fill
grestore
stroke
grestore
} bind def
188.315 35.4541 o
grestore
gsave
181.955802 20.860317 translate
0.000000 rotate
0.000000 0.000000 m /one glyphshow
6.362305 0.000000 m /zero glyphshow
grestore
gsave
/o {
gsave
newpath
translate
0.8 setlinewidth
1 setlinejoin
0 setlinecap
0 0 m
0 -3.5 l

gsave
0.000 setgray
fill
grestore
stroke
grestore
} bind def
303.074 35.4541 o
grestore
gsave
296.714695 20.860317 translate
0.000000 rotate
0.000000 0.000000 m /two glyphshow
6.362305 0.000000 m /zero glyphshow
grestore
gsave
/o {
gsave
newpath
translate
0.8 setlinewidth
1 setlinejoin
0 setlinecap
0 0 m
0 -3.5 l

gsave
0.000 setgray
fill
grestore
stroke
grestore
} bind def
417.833 35.4541 o
grestore
gsave
411.473588 20.860317 translate
0.000000 rotate
0.000000 0.000000 m /three glyphshow
6.362305 0.000000 m /zero glyphshow
grestore
gsave
/o {
gsave
newpath
translate
0.8 setlinewidth
1 setlinejoin
0 setlinecap
0 0 m
0 -3.5 l

gsave
0.000 setgray
fill
grestore
stroke
grestore
} bind def
532.592 35.4541 o
grestore
gsave
526.232482 20.860317 translate
0.000000 rotate
0.000000 0.000000 m /four glyphshow
6.362305 0.000000 m /zero glyphshow
grestore
gsave
/o {
gsave
newpath
translate
0.8 setlinewidth
1 setlinejoin
0 setlinecap
0 0 m
0 -3.5 l

gsave
0.000 setgray
fill
grestore
stroke
grestore
} bind def
647.351 35.4541 o
grestore
gsave
640.991375 20.860317 translate
0.000000 rotate
0.000000 0.000000 m /five glyphshow
6.362305 0.000000 m /zero glyphshow
grestore
/DejaVuSans findfont
14.000 scalefont
setfont
gsave
336.304777 4.141567 translate
0.000000 rotate
0.000000 0.000000 m /E glyphshow
8.845703 0.000000 m /p glyphshow
17.732422 0.000000 m /o glyphshow
26.297852 0.000000 m /c glyphshow
33.995117 0.000000 m /h glyphshow
42.868164 0.000000 m /s glyphshow
grestore
gsave
/o {
gsave
newpath
translate
0.8 setlinewidth
1 setlinejoin
0 setlinecap
0 0 m
-3.5 0 l

gsave
0.000 setgray
fill
grestore
stroke
grestore
} bind def
46.8557 39.732 o
grestore
/DejaVuSans findfont
10.000 scalefont
setfont
gsave
23.949464 35.935115 translate
0.000000 rotate
0.000000 0.000000 m /zero glyphshow
6.362305 0.000000 m /period glyphshow
9.541016 0.000000 m /zero glyphshow
grestore
gsave
/o {
gsave
newpath
translate
0.8 setlinewidth
1 setlinejoin
0 setlinecap
0 0 m
-3.5 0 l

gsave
0.000 setgray
fill
grestore
stroke
grestore
} bind def
46.8557 80.7498 o
grestore
gsave
23.949464 76.952882 translate
0.000000 rotate
0.000000 0.000000 m /zero glyphshow
6.362305 0.000000 m /period glyphshow
9.541016 0.000000 m /five glyphshow
grestore
gsave
/o {
gsave
newpath
translate
0.8 setlinewidth
1 setlinejoin
0 setlinecap
0 0 m
-3.5 0 l

gsave
0.000 setgray
fill
grestore
stroke
grestore
} bind def
46.8557 121.768 o
grestore
gsave
23.949464 117.970648 translate
0.000000 rotate
0.000000 0.000000 m /one glyphshow
6.362305 0.000000 m /period glyphshow
9.541016 0.000000 m /zero glyphshow
grestore
gsave
/o {
gsave
newpath
translate
0.8 setlinewidth
1 setlinejoin
0 setlinecap
0 0 m
-3.5 0 l

gsave
0.000 setgray
fill
grestore
stroke
grestore
} bind def
46.8557 162.785 o
grestore
gsave
23.949464 158.988414 translate
0.000000 rotate
0.000000 0.000000 m /one glyphshow
6.362305 0.000000 m /period glyphshow
9.541016 0.000000 m /five glyphshow
grestore
gsave
/o {
gsave
newpath
translate
0.8 setlinewidth
1 setlinejoin
0 setlinecap
0 0 m
-3.5 0 l

gsave
0.000 setgray
fill
grestore
stroke
grestore
} bind def
46.8557 203.803 o
grestore
gsave
23.949464 200.006181 translate
0.000000 rotate
0.000000 0.000000 m /two glyphshow
6.362305 0.000000 m /period glyphshow
9.541016 0.000000 m /zero glyphshow
grestore
/DejaVuSans findfont
14.000 scalefont
setfont
gsave
17.043214 107.465800 translate
90.000000 rotate
0.000000 0.000000 m /t glyphshow
5.489258 0.000000 m /e glyphshow
14.102539 0.000000 m /s glyphshow
21.396484 0.000000 m /t glyphshow
26.885742 0.000000 m /space glyphshow
31.335938 0.000000 m /l glyphshow
35.225586 0.000000 m /o glyphshow
43.791016 0.000000 m /s glyphshow
51.084961 0.000000 m /s glyphshow
grestore
1.500 setlinewidth
[9.6 2.4 1.5 2.4] 0 setdash
0.122 0.467 0.706 setrgbcolor
gsave
629.1 202.4 46.86 35.45 clipbox
75.449805 228.652603 m
77.362453 226.028126 l
79.275102 224.709687 l
81.18775 223.742817 l
83.100398 222.959448 l
85.013046 222.298791 l
86.925695 68.04375 l
88.838343 63.065938 l
90.750991 59.050036 l
92.663639 57.856898 l
94.576287 56.087718 l
96.488936 54.789316 l
98.401584 54.096184 l
100.314232 53.083875 l
102.22688 52.447585 l
104.139529 51.633879 l
106.052177 51.14487 l
107.964825 50.466164 l
109.877473 50.364391 l
111.790121 49.976781 l
119.440714 49.285195 l
123.266011 48.839225 l
127.091307 48.622288 l
130.916604 48.204474 l
132.829252 48.318886 l
134.7419 48.017183 l
138.567196 47.794099 l
140.479845 47.768591 l
144.305141 47.387626 l
146.217789 47.640569 l
148.130438 47.452763 l
161.518975 46.964653 l
176.820161 46.383023 l
180.645457 46.807725 l
186.383402 46.189365 l
188.29605 46.245565 l
190.208698 46.11177 l
192.121347 46.379358 l
199.77194 46.284096 l
201.684588 46.351609 l
203.597236 46.241586 l
205.509884 46.330776 l
207.422532 46.0497 l
209.335181 46.158747 l
213.160477 46.162657 l
215.073125 46.266471 l
220.81107 46.140329 l
222.723718 45.892516 l
224.636366 46.022047 l
228.461663 45.860151 l
234.199608 46.18513 l
238.024904 45.959606 l
239.937552 45.990319 l
243.762849 45.850196 l
247.588145 45.907952 l
259.064034 45.805616 l
260.976683 45.97827 l
270.539924 45.739129 l
272.452572 45.862709 l
276.277868 45.777993 l
278.190517 45.555713 l
280.103165 45.452204 l
282.015813 45.609099 l
283.928461 45.384141 l
287.753758 45.441933 l
291.579054 45.475422 l
295.404351 45.789725 l
297.316999 45.547456 l
299.229647 45.778897 l
303.054944 45.588829 l
304.967592 45.55626 l
306.88024 45.667592 l
310.705536 45.527248 l
316.443481 45.541183 l
320.268778 45.59944 l
322.181426 45.434535 l
327.91937 45.751578 l
337.482612 45.377878 l
339.39526 45.532323 l
345.133204 45.530488 l
347.045853 45.345547 l
354.696446 45.338161 l
362.347038 45.34107 l
371.91028 45.191033 l
373.822928 45.361053 l
379.560872 45.219171 l
383.386169 45.231173 l
385.298817 45.439962 l
387.211465 45.473422 l
394.862058 45.2259 l
398.687355 45.341823 l
402.512651 45.400085 l
404.425299 45.183916 l
410.163244 45.272798 l
412.075892 45.192029 l
415.901189 45.338651 l
419.726485 45.191976 l
421.639133 45.133047 l
423.551781 45.320009 l
425.46443 45.115145 l
429.289726 45.081885 l
431.202374 45.241508 l
433.115023 45.227037 l
435.027671 45.067431 l
438.852967 45.152235 l
440.765615 45.059096 l
448.416208 45.142003 l
461.804746 44.897764 l
463.717394 45.07363 l
475.193283 45.06786 l
477.105932 45.298977 l
479.01858 45.138676 l
498.145062 45.090536 l
500.05771 45.301633 l
511.5336 45.020229 l
515.358896 45.040089 l
521.096841 44.916903 l
530.660082 45.048755 l
534.485378 44.943606 l
536.398027 45.119911 l
538.310675 45.086506 l
540.223323 44.881843 l
542.135971 45.034732 l
568.913046 44.717945 l
570.825695 44.96467 l
574.650991 44.878199 l
578.476287 44.999047 l
580.388936 44.936144 l
582.301584 45.004795 l
584.214232 44.919987 l
586.12688 44.987184 l
591.864825 44.840969 l
595.690121 44.985868 l
597.60277 44.840633 l
603.340714 44.886255 l
607.166011 44.653997 l
614.816604 44.962688 l
616.729252 44.91116 l
620.554548 44.931517 l
630.117789 44.863123 l
635.855734 44.8555 l
639.68103 44.87073 l
641.593679 45.00844 l
647.331623 44.920063 l
647.331623 44.920063 l
stroke
grestore
[5.55 2.4] 0 setdash
1.000 0.498 0.055 setrgbcolor
gsave
629.1 202.4 46.86 35.45 clipbox
75.449805 222.878553 m
77.362453 212.426177 l
79.275102 186.280175 l
81.18775 140.254017 l
83.100398 109.881247 l
85.013046 93.077792 l
86.925695 85.520337 l
88.838343 80.481109 l
90.750991 76.316604 l
94.576287 72.470291 l
96.488936 71.413617 l
100.314232 68.807014 l
102.22688 68.967595 l
104.139529 68.752389 l
106.052177 67.501871 l
107.964825 66.009471 l
111.790121 65.359923 l
115.615418 63.501178 l
117.528066 63.357081 l
119.440714 63.39545 l
121.353363 62.513317 l
123.266011 62.912883 l
125.178659 61.655319 l
130.916604 59.980469 l
132.829252 60.663155 l
134.7419 58.799908 l
136.654548 58.333981 l
138.567196 58.764396 l
140.479845 57.733774 l
142.392493 57.602774 l
144.305141 57.238289 l
146.217789 56.745459 l
148.130438 56.437102 l
150.043086 55.96988 l
151.955734 55.791291 l
153.868382 56.594258 l
155.78103 54.902043 l
159.606327 54.868547 l
161.518975 54.163556 l
163.431623 54.091982 l
165.344272 53.331113 l
167.25692 53.296171 l
169.169568 53.059166 l
171.082216 53.297513 l
172.994864 52.569039 l
174.907513 52.667834 l
178.732809 52.582897 l
182.558106 51.628415 l
184.470754 51.536508 l
186.383402 51.666987 l
188.29605 51.116851 l
192.121347 51.034468 l
194.033995 50.643857 l
195.946643 50.807882 l
197.859291 50.439041 l
199.77194 50.399696 l
201.684588 50.143504 l
203.597236 50.270363 l
205.509884 49.897395 l
207.422532 50.147786 l
209.335181 49.688779 l
211.247829 49.578988 l
213.160477 49.318984 l
215.073125 49.572263 l
216.985774 49.313846 l
218.898422 49.43438 l
220.81107 49.780454 l
222.723718 48.939831 l
224.636366 48.808435 l
226.549015 48.80592 l
228.461663 48.677369 l
230.374311 48.81686 l
234.199608 48.537922 l
236.112256 48.557887 l
238.024904 49.092694 l
239.937552 48.179638 l
241.8502 48.23555 l
243.762849 48.652335 l
245.675497 48.48162 l
247.588145 48.507794 l
249.500793 48.152499 l
251.413442 47.994076 l
253.32609 48.419659 l
255.238738 48.524047 l
257.151386 48.272011 l
259.064034 47.827503 l
260.976683 48.474066 l
262.889331 48.201715 l
264.801979 47.735581 l
268.627276 47.788694 l
270.539924 47.489525 l
272.452572 47.944045 l
274.36522 47.661275 l
276.277868 47.640404 l
278.190517 47.43769 l
280.103165 47.653595 l
283.928461 47.199907 l
285.84111 47.396828 l
289.666406 47.583081 l
293.491702 47.372542 l
295.404351 47.42331 l
297.316999 47.053928 l
299.229647 47.290922 l
301.142295 47.070438 l
303.054944 47.27635 l
308.792888 46.960879 l
310.705536 47.15896 l
312.618185 46.870765 l
314.530833 46.751595 l
316.443481 46.933667 l
318.356129 46.85457 l
320.268778 47.126135 l
322.181426 46.761062 l
326.006722 46.536321 l
327.91937 46.948196 l
329.832019 46.500443 l
331.744667 46.921864 l
333.657315 46.679961 l
337.482612 46.828288 l
339.39526 46.603896 l
341.307908 46.783008 l
343.220556 46.802955 l
345.133204 46.56609 l
350.871149 46.81783 l
352.783797 46.72435 l
354.696446 46.891527 l
356.609094 46.504261 l
358.521742 46.639242 l
360.43439 46.395237 l
362.347038 46.562375 l
368.084983 46.297147 l
369.997631 46.740584 l
371.91028 46.418305 l
373.822928 46.398973 l
375.735576 46.194695 l
377.648224 46.339195 l
381.473521 46.422195 l
383.386169 46.20233 l
385.298817 46.332667 l
389.124113 46.186534 l
391.036762 46.103645 l
392.94941 46.356141 l
394.862058 46.049542 l
396.774706 46.41144 l
398.687355 46.066707 l
400.600003 45.989223 l
402.512651 46.173588 l
406.337947 46.021005 l
408.250596 45.932264 l
410.163244 46.231012 l
412.075892 45.925006 l
415.901189 46.203121 l
417.813837 46.20345 l
419.726485 46.023106 l
421.639133 46.245554 l
429.289726 45.89122 l
431.202374 46.081029 l
436.940319 45.893357 l
438.852967 45.996606 l
440.765615 45.971984 l
442.678264 46.088421 l
444.590912 45.926301 l
448.416208 46.100588 l
450.328857 45.845659 l
452.241505 45.84658 l
454.154153 46.115783 l
456.066801 45.886827 l
457.979449 45.790851 l
463.717394 46.037969 l
465.630042 45.93438 l
467.542691 46.130856 l
469.455339 45.784501 l
471.367987 45.945506 l
475.193283 45.80231 l
477.105932 46.028622 l
480.931228 46.104611 l
482.843876 45.824745 l
484.756525 45.9767 l
486.669173 45.897345 l
488.581821 45.614449 l
492.407117 46.255418 l
494.319766 45.845984 l
496.232414 45.919962 l
498.145062 45.800667 l
503.883007 46.023016 l
505.795655 45.747178 l
507.708303 45.956105 l
509.620951 45.758934 l
511.5336 45.816037 l
515.358896 45.659438 l
517.271544 45.707176 l
519.184193 45.889156 l
521.096841 45.720179 l
523.009489 46.054915 l
526.834785 45.752225 l
530.660082 45.903542 l
532.57273 45.99629 l
534.485378 45.764727 l
538.310675 45.878811 l
540.223323 46.146262 l
544.048619 45.833471 l
545.961268 45.881171 l
549.786564 45.782221 l
551.699212 45.95099 l
553.611861 45.938279 l
555.524509 45.579995 l
557.437157 45.900135 l
559.349805 45.892769 l
561.262453 45.750105 l
563.175102 45.857936 l
565.08775 45.625471 l
568.913046 45.805639 l
570.825695 45.715551 l
574.650991 45.94297 l
578.476287 45.630334 l
580.388936 45.900286 l
582.301584 45.716815 l
584.214232 45.892007 l
586.12688 45.688203 l
591.864825 45.840465 l
593.777473 46.093667 l
595.690121 45.664611 l
599.515418 45.646382 l
603.340714 45.495003 l
605.253363 45.671414 l
609.078659 45.631217 l
610.991307 45.833283 l
612.903955 45.757422 l
614.816604 45.818193 l
620.554548 45.675118 l
624.379845 45.605606 l
628.205141 45.341093 l
630.117789 45.592748 l
632.030438 45.682286 l
635.855734 45.461756 l
641.593679 45.691754 l
647.331623 45.442596 l
647.331623 45.442596 l
stroke
grestore
[1.5 2.475] 0 setdash
0.173 0.627 0.173 setrgbcolor
gsave
629.1 202.4 46.86 35.45 clipbox
75.449805 215.321054 m
77.362453 171.261367 l
79.275102 120.581854 l
81.18775 98.595949 l
83.100398 89.659619 l
85.013046 78.932128 l
86.925695 76.628144 l
88.838343 71.554025 l
90.750991 69.399641 l
92.663639 67.93612 l
94.576287 65.988915 l
96.488936 65.226819 l
100.314232 63.382779 l
102.22688 62.591283 l
104.139529 62.269688 l
106.052177 60.537783 l
107.964825 59.403676 l
109.877473 59.288452 l
111.790121 59.797875 l
113.70277 58.891849 l
115.615418 58.177257 l
119.440714 57.565605 l
121.353363 57.603457 l
123.266011 57.044284 l
125.178659 56.336839 l
127.091307 57.060815 l
129.003955 56.227071 l
130.916604 56.180685 l
132.829252 56.367589 l
134.7419 55.482322 l
136.654548 55.040499 l
138.567196 55.170179 l
140.479845 54.717841 l
142.392493 54.689007 l
144.305141 54.825548 l
146.217789 54.255799 l
148.130438 53.864457 l
150.043086 53.997686 l
151.955734 54.009123 l
153.868382 53.698037 l
155.78103 53.049407 l
157.693679 53.380653 l
159.606327 52.8706 l
161.518975 53.516721 l
163.431623 52.768805 l
167.25692 52.789911 l
169.169568 52.382515 l
171.082216 52.49454 l
172.994864 52.028435 l
174.907513 51.741033 l
176.820161 52.361124 l
178.732809 51.768401 l
180.645457 52.130808 l
182.558106 51.185491 l
184.470754 51.571039 l
186.383402 51.719969 l
190.208698 51.810106 l
192.121347 51.503425 l
194.033995 50.997794 l
195.946643 51.518523 l
197.859291 50.901693 l
199.77194 50.790347 l
201.684588 51.138943 l
205.509884 50.414271 l
209.335181 51.010641 l
211.247829 50.976376 l
213.160477 51.305511 l
215.073125 50.451947 l
216.985774 50.397034 l
218.898422 50.639502 l
220.81107 50.573477 l
224.636366 49.937774 l
226.549015 50.064726 l
230.374311 49.762133 l
232.286959 50.145477 l
234.199608 49.760134 l
236.112256 49.806234 l
238.024904 50.13641 l
239.937552 49.696766 l
243.762849 49.81943 l
245.675497 50.134568 l
247.588145 50.152027 l
249.500793 49.903039 l
253.32609 49.678538 l
255.238738 49.799116 l
257.151386 49.271478 l
259.064034 49.609168 l
260.976683 49.810129 l
262.889331 49.644527 l
264.801979 49.265688 l
268.627276 49.499101 l
270.539924 49.231111 l
272.452572 49.814121 l
276.277868 49.516733 l
278.190517 49.443334 l
280.103165 49.122822 l
282.015813 49.737205 l
283.928461 49.360399 l
285.84111 49.298491 l
287.753758 49.366847 l
289.666406 49.23504 l
291.579054 49.99107 l
293.491702 49.134603 l
295.404351 49.491512 l
297.316999 49.053393 l
299.229647 49.224237 l
301.142295 49.274116 l
303.054944 49.453606 l
306.88024 49.391984 l
308.792888 48.992256 l
310.705536 49.193511 l
312.618185 48.96598 l
314.530833 49.310405 l
316.443481 49.283706 l
318.356129 48.957704 l
320.268778 49.013186 l
322.181426 48.922104 l
324.094074 49.129263 l
326.006722 48.913626 l
327.91937 49.152954 l
331.744667 48.734039 l
337.482612 48.991895 l
339.39526 48.741279 l
341.307908 49.060853 l
343.220556 49.10512 l
345.133204 48.847941 l
347.045853 48.852478 l
348.958501 49.190707 l
350.871149 48.822034 l
352.783797 48.991666 l
354.696446 48.802411 l
356.609094 49.238244 l
358.521742 49.284707 l
360.43439 48.720173 l
362.347038 49.001065 l
364.259687 48.75284 l
366.172335 49.197253 l
369.997631 49.057501 l
371.91028 49.432972 l
373.822928 48.773226 l
375.735576 48.889919 l
377.648224 48.6243 l
379.560872 49.048081 l
381.473521 48.902727 l
383.386169 48.984016 l
389.124113 48.75974 l
391.036762 48.884661 l
392.94941 48.639025 l
394.862058 48.790427 l
396.774706 49.131124 l
398.687355 49.001856 l
400.600003 48.746586 l
402.512651 48.873317 l
404.425299 48.639304 l
408.250596 48.758162 l
410.163244 48.85795 l
412.075892 48.7489 l
415.901189 48.83526 l
419.726485 48.545043 l
421.639133 48.714625 l
423.551781 48.764598 l
425.46443 48.545989 l
427.377078 48.9377 l
429.289726 48.953166 l
436.940319 48.604008 l
438.852967 49.021479 l
442.678264 48.66965 l
444.590912 48.806723 l
450.328857 48.556679 l
452.241505 48.931752 l
454.154153 48.937079 l
456.066801 48.649998 l
459.892098 48.725773 l
461.804746 49.016863 l
467.542691 48.605622 l
469.455339 48.605756 l
471.367987 48.842152 l
473.280635 48.788221 l
475.193283 48.597488 l
479.01858 48.881566 l
480.931228 48.647437 l
482.843876 48.705455 l
484.756525 49.079212 l
486.669173 48.58324 l
488.581821 48.642624 l
490.494469 48.85325 l
492.407117 48.547213 l
494.319766 49.088477 l
496.232414 48.515299 l
498.145062 48.917269 l
500.05771 48.512384 l
505.795655 48.830451 l
513.446248 48.596567 l
515.358896 48.559563 l
517.271544 48.775586 l
519.184193 48.465926 l
521.096841 48.592894 l
523.009489 48.555322 l
524.922137 48.732976 l
526.834785 48.629392 l
528.747434 48.924975 l
530.660082 48.592794 l
532.57273 48.82553 l
534.485378 48.635362 l
536.398027 49.11731 l
538.310675 48.364611 l
542.135971 48.921188 l
544.048619 48.913676 l
545.961268 49.088326 l
547.873916 48.634338 l
551.699212 48.821817 l
553.611861 48.439836 l
555.524509 48.875088 l
557.437157 49.050647 l
559.349805 48.66361 l
561.262453 48.636526 l
563.175102 48.886036 l
565.08775 48.556433 l
567.000398 48.57864 l
568.913046 48.766605 l
570.825695 48.791928 l
574.650991 48.560019 l
576.563639 48.752972 l
578.476287 48.481997 l
584.214232 48.477092 l
586.12688 48.73182 l
589.952177 49.017031 l
597.60277 48.258765 l
599.515418 48.676947 l
601.428066 48.448269 l
603.340714 48.401132 l
605.253363 48.873317 l
607.166011 48.867864 l
609.078659 48.605218 l
610.991307 48.75207 l
612.903955 48.561938 l
614.816604 48.559268 l
616.729252 48.334228 l
620.554548 48.614029 l
622.467196 48.746064 l
624.379845 48.647936 l
626.292493 48.762799 l
628.205141 48.331838 l
630.117789 48.134818 l
632.030438 48.365154 l
633.943086 48.759083 l
635.855734 48.438525 l
639.68103 48.297928 l
641.593679 48.543057 l
643.506327 48.490009 l
645.418975 48.998737 l
647.331623 48.49596 l
647.331623 48.49596 l
stroke
grestore
2 setlinecap
[] 0 setdash
0.839 0.153 0.157 setrgbcolor
gsave
629.1 202.4 46.86 35.45 clipbox
75.449805 74.49312 m
77.362453 67.715115 l
79.275102 63.958294 l
83.100398 60.313192 l
86.925695 57.498107 l
88.838343 56.905176 l
90.750991 55.221742 l
92.663639 54.847828 l
96.488936 53.313633 l
98.401584 53.289378 l
100.314232 52.840388 l
102.22688 52.589993 l
104.139529 51.184215 l
106.052177 50.727609 l
107.964825 50.935979 l
109.877473 50.395994 l
111.790121 50.091307 l
113.70277 50.157983 l
115.615418 49.537629 l
117.528066 49.352064 l
119.440714 48.964579 l
125.178659 48.52996 l
127.091307 48.637801 l
130.916604 48.15963 l
134.7419 47.661163 l
138.567196 47.461396 l
140.479845 47.660963 l
144.305141 47.070228 l
146.217789 47.162613 l
148.130438 46.955666 l
151.955734 47.356054 l
153.868382 46.961616 l
155.78103 47.272687 l
157.693679 46.969241 l
159.606327 46.426183 l
161.518975 46.634877 l
163.431623 46.582445 l
165.344272 47.075516 l
167.25692 46.609744 l
169.169568 46.45302 l
171.082216 46.613693 l
172.994864 46.630089 l
174.907513 46.286061 l
176.820161 46.821698 l
178.732809 46.630756 l
180.645457 46.019502 l
182.558106 46.997458 l
184.470754 46.491715 l
186.383402 46.141783 l
188.29605 46.028414 l
190.208698 46.407546 l
195.946643 46.222263 l
197.859291 46.020701 l
199.77194 46.540279 l
201.684588 46.314958 l
203.597236 45.934494 l
205.509884 46.366642 l
207.422532 46.199032 l
209.335181 46.389611 l
213.160477 46.037593 l
215.073125 46.339131 l
216.985774 46.055627 l
220.81107 46.130792 l
222.723718 46.457257 l
224.636366 46.190786 l
226.549015 46.145428 l
228.461663 46.412877 l
230.374311 46.113438 l
232.286959 46.186121 l
234.199608 46.415993 l
239.937552 46.061165 l
243.762849 46.379013 l
245.675497 46.531676 l
247.588145 46.468159 l
249.500793 46.222911 l
251.413442 46.465962 l
253.32609 46.848514 l
255.238738 46.638327 l
257.151386 46.824053 l
259.064034 46.569851 l
260.976683 46.686617 l
262.889331 46.439239 l
264.801979 46.747105 l
266.714627 46.890816 l
268.627276 46.466358 l
270.539924 46.391073 l
272.452572 46.457174 l
274.36522 46.20179 l
276.277868 46.585694 l
278.190517 46.647866 l
280.103165 46.871272 l
282.015813 46.687769 l
283.928461 47.095538 l
285.84111 46.699249 l
287.753758 46.936968 l
289.666406 47.016265 l
291.579054 47.316077 l
293.491702 47.013559 l
295.404351 47.101206 l
297.316999 46.843119 l
299.229647 46.953254 l
301.142295 46.716467 l
303.054944 46.917759 l
304.967592 47.006465 l
306.88024 46.899204 l
316.443481 47.087197 l
318.356129 46.903509 l
320.268778 47.095331 l
326.006722 47.214156 l
327.91937 46.962025 l
329.832019 46.851566 l
331.744667 47.20224 l
337.482612 47.580177 l
341.307908 47.389876 l
343.220556 47.810346 l
345.133204 47.268271 l
347.045853 47.818441 l
348.958501 47.431504 l
350.871149 47.47592 l
352.783797 47.790467 l
354.696446 47.585058 l
356.609094 48.17839 l
362.347038 47.71145 l
364.259687 47.879503 l
366.172335 48.2553 l
368.084983 47.742548 l
369.997631 47.969727 l
371.91028 47.573534 l
373.822928 47.900852 l
377.648224 47.937275 l
379.560872 48.692625 l
381.473521 47.811341 l
383.386169 48.670382 l
385.298817 48.0598 l
389.124113 48.012561 l
391.036762 47.89301 l
394.862058 48.323703 l
396.774706 47.9468 l
398.687355 48.15085 l
400.600003 48.518175 l
404.425299 48.679334 l
406.337947 49.313183 l
408.250596 48.57026 l
410.163244 48.770606 l
412.075892 48.487286 l
413.98854 48.486658 l
415.901189 49.14468 l
417.813837 48.307755 l
423.551781 48.228908 l
425.46443 48.28155 l
427.377078 47.947145 l
429.289726 48.294792 l
431.202374 48.15403 l
435.027671 48.353313 l
436.940319 48.218709 l
438.852967 48.405438 l
440.765615 48.73292 l
442.678264 48.62688 l
444.590912 48.311212 l
446.50356 48.610766 l
448.416208 51.871966 l
450.328857 49.996046 l
452.241505 49.145669 l
454.154153 49.078237 l
457.979449 48.573724 l
461.804746 48.953661 l
465.630042 48.336748 l
471.367987 48.564015 l
477.105932 48.585528 l
479.01858 48.518089 l
482.843876 48.68302 l
492.407117 48.549224 l
494.319766 48.713629 l
501.970359 48.575127 l
505.795655 48.754663 l
507.708303 48.861472 l
513.446248 48.82585 l
515.358896 51.816508 l
517.271544 51.660528 l
521.096841 49.959528 l
524.922137 49.349761 l
526.834785 49.83673 l
528.747434 49.194448 l
534.485378 48.937238 l
538.310675 49.363283 l
540.223323 49.841934 l
547.873916 48.974868 l
561.262453 49.068444 l
563.175102 49.200709 l
565.08775 49.087324 l
572.738343 49.209248 l
574.650991 49.120077 l
576.563639 49.476886 l
578.476287 49.231344 l
584.214232 49.230615 l
586.12688 49.404223 l
588.039529 49.239394 l
589.952177 49.523918 l
595.690121 49.381562 l
597.60277 53.100511 l
599.515418 53.69631 l
601.428066 51.330552 l
603.340714 51.818146 l
605.253363 49.836191 l
607.166011 50.128172 l
609.078659 50.047181 l
610.991307 49.784953 l
612.903955 49.879042 l
614.816604 49.848374 l
620.554548 49.447433 l
628.205141 49.640249 l
630.117789 49.493103 l
632.030438 49.602235 l
639.68103 49.582408 l
641.593679 49.634417 l
645.418975 49.537008 l
647.331623 49.622235 l
647.331623 49.622235 l
stroke
grestore
0 setlinecap
[9.6 2.4 1.5 2.4] 0 setdash
0.580 0.404 0.741 setrgbcolor
gsave
629.1 202.4 46.86 35.45 clipbox
75.449805 82.945011 m
77.362453 72.839124 l
79.275102 65.734609 l
81.18775 63.587889 l
86.925695 58.233879 l
88.838343 57.584046 l
90.750991 56.138978 l
92.663639 55.441222 l
94.576287 54.618938 l
96.488936 54.016266 l
98.401584 53.105128 l
102.22688 52.913266 l
104.139529 51.151245 l
106.052177 50.849709 l
107.964825 50.775948 l
109.877473 50.49825 l
111.790121 49.907172 l
113.70277 50.188149 l
115.615418 49.420605 l
119.440714 49.197421 l
121.353363 48.712285 l
125.178659 48.642768 l
127.091307 48.55692 l
129.003955 48.048544 l
130.916604 47.832348 l
132.829252 48.224057 l
134.7419 47.567989 l
136.654548 47.653375 l
138.567196 47.262234 l
140.479845 47.509214 l
142.392493 47.054918 l
144.305141 46.948712 l
146.217789 47.053218 l
148.130438 46.850717 l
150.043086 47.057624 l
151.955734 46.887364 l
153.868382 46.398222 l
155.78103 47.159211 l
157.693679 46.810412 l
159.606327 46.12354 l
161.518975 46.358805 l
163.431623 46.364301 l
165.344272 46.653513 l
169.169568 45.857106 l
171.082216 46.32245 l
172.994864 46.063012 l
174.907513 46.177493 l
176.820161 45.984443 l
178.732809 45.907168 l
182.558106 46.176067 l
186.383402 45.784742 l
190.208698 45.921881 l
192.121347 45.804917 l
194.033995 45.501066 l
195.946643 45.935171 l
197.859291 45.465123 l
199.77194 45.946423 l
201.684588 45.921036 l
203.597236 45.681562 l
205.509884 45.782391 l
207.422532 45.396982 l
213.160477 45.623812 l
215.073125 45.458227 l
218.898422 45.690435 l
220.81107 45.543121 l
222.723718 45.556994 l
224.636366 45.198429 l
226.549015 45.833843 l
230.374311 45.184623 l
232.286959 45.416948 l
236.112256 45.678089 l
238.024904 45.18717 l
239.937552 45.799935 l
243.762849 45.32507 l
247.588145 45.246825 l
249.500793 45.110071 l
251.413442 45.398155 l
255.238738 45.083754 l
257.151386 45.398826 l
259.064034 45.496826 l
266.714627 45.248936 l
268.627276 45.437068 l
270.539924 45.147788 l
272.452572 45.433519 l
274.36522 45.217459 l
276.277868 45.235413 l
278.190517 45.13002 l
280.103165 45.139643 l
282.015813 45.319966 l
283.928461 45.059687 l
285.84111 45.285029 l
287.753758 45.227834 l
291.579054 45.261829 l
293.491702 45.305995 l
295.404351 45.206964 l
297.316999 45.292264 l
303.054944 45.03543 l
306.88024 45.166362 l
308.792888 45.336655 l
312.618185 45.17369 l
314.530833 45.372429 l
316.443481 45.233266 l
318.356129 45.459783 l
320.268778 45.208827 l
324.094074 45.340982 l
326.006722 45.238801 l
327.91937 45.304319 l
329.832019 45.155028 l
335.569963 45.149029 l
337.482612 45.213992 l
339.39526 45.118535 l
343.220556 45.495839 l
345.133204 45.214501 l
350.871149 45.292425 l
352.783797 45.304624 l
354.696446 45.42869 l
356.609094 45.318182 l
358.521742 45.583781 l
360.43439 45.356402 l
362.347038 45.29733 l
366.172335 45.536158 l
368.084983 45.255281 l
369.997631 45.36865 l
371.91028 45.342239 l
373.822928 45.179975 l
379.560872 45.47262 l
381.473521 45.40286 l
383.386169 45.556691 l
385.298817 45.380958 l
387.211465 45.377218 l
389.124113 45.14911 l
402.512651 45.144368 l
406.337947 45.410379 l
410.163244 45.210106 l
415.901189 45.416528 l
419.726485 45.395974 l
421.639133 45.467393 l
423.551781 45.150895 l
425.46443 45.332383 l
427.377078 45.353177 l
429.289726 45.06133 l
431.202374 45.29482 l
440.765615 45.231205 l
442.678264 45.398528 l
444.590912 45.375952 l
446.50356 45.178042 l
448.416208 45.284559 l
450.328857 45.141149 l
452.241505 45.152578 l
454.154153 45.519639 l
456.066801 45.175313 l
459.892098 45.269243 l
463.717394 45.529508 l
465.630042 45.234493 l
467.542691 45.337189 l
469.455339 45.319839 l
471.367987 45.431916 l
473.280635 45.210901 l
475.193283 45.278064 l
477.105932 45.524015 l
484.756525 45.100366 l
486.669173 45.406998 l
492.407117 45.374635 l
496.232414 45.391466 l
500.05771 45.171962 l
501.970359 45.326716 l
503.883007 45.369068 l
505.795655 45.112401 l
509.620951 45.495619 l
511.5336 45.538791 l
515.358896 45.127117 l
517.271544 45.174177 l
519.184193 45.400287 l
521.096841 45.302669 l
523.009489 45.554531 l
528.747434 45.227485 l
530.660082 45.683519 l
532.57273 45.045474 l
534.485378 45.322551 l
536.398027 45.35357 l
538.310675 45.264697 l
540.223323 45.423775 l
542.135971 45.756465 l
544.048619 45.492513 l
553.611861 45.367938 l
555.524509 45.148781 l
559.349805 45.382103 l
561.262453 45.248895 l
563.175102 45.559556 l
565.08775 45.160874 l
567.000398 45.398268 l
568.913046 45.211764 l
570.825695 45.384534 l
574.650991 45.505855 l
576.563639 45.623651 l
578.476287 45.439037 l
580.388936 45.405119 l
582.301584 45.490162 l
584.214232 45.772598 l
586.12688 45.676126 l
588.039529 45.360318 l
591.864825 45.618985 l
593.777473 45.674117 l
595.690121 45.942266 l
597.60277 45.442501 l
601.428066 45.494086 l
603.340714 45.679779 l
605.253363 45.553952 l
607.166011 45.693604 l
609.078659 45.467801 l
612.903955 45.824222 l
614.816604 45.870885 l
616.729252 45.573988 l
618.6419 45.722059 l
622.467196 45.384249 l
628.205141 45.605813 l
632.030438 45.481167 l
637.768382 45.448209 l
645.418975 45.544326 l
647.331623 45.756593 l
647.331623 45.756593 l
stroke
grestore
0.800 setlinewidth
0 setlinejoin
2 setlinecap
[] 0 setdash
0.000 setgray
gsave
46.855714 35.454067 m
46.855714 237.852533 l
stroke
grestore
gsave
675.925714 35.454067 m
675.925714 237.852533 l
stroke
grestore
gsave
46.855714 35.454067 m
675.925714 35.454067 l
stroke
grestore
gsave
46.855714 237.852533 m
675.925714 237.852533 l
stroke
grestore
gsave
253.062589 243.852533 translate
0.000000 rotate
0.000000 0.000000 m /T glyphshow
8.520508 0.000000 m /e glyphshow
17.133789 0.000000 m /s glyphshow
24.427734 0.000000 m /t glyphshow
29.916992 0.000000 m /space glyphshow
34.367188 0.000000 m /l glyphshow
38.256836 0.000000 m /o glyphshow
46.822266 0.000000 m /s glyphshow
54.116211 0.000000 m /s glyphshow
61.410156 0.000000 m /space glyphshow
65.860352 0.000000 m /o glyphshow
74.425781 0.000000 m /n glyphshow
83.298828 0.000000 m /space glyphshow
87.749023 0.000000 m /t glyphshow
93.238281 0.000000 m /h glyphshow
102.111328 0.000000 m /e glyphshow
110.724609 0.000000 m /space glyphshow
115.174805 0.000000 m /M glyphshow
127.253906 0.000000 m /N glyphshow
137.726562 0.000000 m /I glyphshow
141.855469 0.000000 m /S glyphshow
150.742188 0.000000 m /T glyphshow
159.293945 0.000000 m /space glyphshow
163.744141 0.000000 m /d glyphshow
172.630859 0.000000 m /a glyphshow
181.209961 0.000000 m /t glyphshow
186.699219 0.000000 m /a glyphshow
195.278320 0.000000 m /s glyphshow
202.572266 0.000000 m /e glyphshow
211.185547 0.000000 m /t glyphshow
grestore
1.000 setlinewidth
0 setlinecap
0.800 setgray
gsave
577.144464 156.493158 m
668.925714 156.493158 l
670.259048 156.493158 670.925714 157.159825 670.925714 158.493158 c
670.925714 230.852533 l
670.925714 232.185867 670.259048 232.852533 668.925714 232.852533 c
577.144464 232.852533 l
575.811131 232.852533 575.144464 232.185867 575.144464 230.852533 c
575.144464 158.493158 l
575.144464 157.159825 575.811131 156.493158 577.144464 156.493158 c
cl
gsave
1.000 setgray
fill
grestore
stroke
grestore
1.500 setlinewidth
1 setlinejoin
[9.6 2.4 1.5 2.4] 0 setdash
0.122 0.467 0.706 setrgbcolor
gsave
579.144464 224.758783 m
599.144464 224.758783 l
stroke
grestore
0.000 setgray
/DejaVuSans findfont
10.000 scalefont
setfont
gsave
607.144464 221.258783 translate
0.000000 rotate
0.000000 0.000000 m /N glyphshow
7.480469 0.000000 m /o glyphshow
13.598633 0.000000 m /i glyphshow
16.376953 0.000000 m /s glyphshow
21.586914 0.000000 m /y glyphshow
27.504883 0.000000 m /space glyphshow
30.683594 0.000000 m /K glyphshow
37.241211 0.000000 m /F glyphshow
42.993164 0.000000 m /A glyphshow
49.833984 0.000000 m /C glyphshow
grestore
[5.55 2.4] 0 setdash
1.000 0.498 0.055 setrgbcolor
gsave
579.144464 210.086908 m
599.144464 210.086908 l
stroke
grestore
0.000 setgray
gsave
607.144464 206.586908 translate
0.000000 rotate
0.000000 0.000000 m /N glyphshow
7.480469 0.000000 m /o glyphshow
13.598633 0.000000 m /i glyphshow
16.376953 0.000000 m /s glyphshow
21.586914 0.000000 m /y glyphshow
27.504883 0.000000 m /space glyphshow
30.683594 0.000000 m /A glyphshow
37.524414 0.000000 m /d glyphshow
43.872070 0.000000 m /a glyphshow
50.000000 0.000000 m /m glyphshow
grestore
[1.5 2.475] 0 setdash
0.173 0.627 0.173 setrgbcolor
gsave
579.144464 195.415033 m
599.144464 195.415033 l
stroke
grestore
0.000 setgray
gsave
607.144464 191.915033 translate
0.000000 rotate
0.000000 0.000000 m /V glyphshow
6.840820 0.000000 m /p glyphshow
13.188477 0.000000 m /r glyphshow
17.299805 0.000000 m /o glyphshow
23.417969 0.000000 m /p glyphshow
grestore
2 setlinecap
[] 0 setdash
0.839 0.153 0.157 setrgbcolor
gsave
579.144464 180.743158 m
599.144464 180.743158 l
stroke
grestore
0.000 setgray
gsave
607.144464 177.243158 translate
0.000000 rotate
0.000000 0.000000 m /A glyphshow
6.840820 0.000000 m /d glyphshow
13.188477 0.000000 m /a glyphshow
19.316406 0.000000 m /m glyphshow
grestore
0 setlinecap
[9.6 2.4 1.5 2.4] 0 setdash
0.580 0.404 0.741 setrgbcolor
gsave
579.144464 166.071283 m
599.144464 166.071283 l
stroke
grestore
0.000 setgray
gsave
607.144464 162.571283 translate
0.000000 rotate
0.000000 0.000000 m /B glyphshow
6.860352 0.000000 m /B glyphshow
13.720703 0.000000 m /B glyphshow
grestore

end
showpage
