%!PS-Adobe-3.0 EPSF-3.0
%%Title: C:/Repos/thesis_repo/thesis_figs/t_dist_vs_normal.eps
%%Creator: matplotlib version 2.1.2, http://matplotlib.org/
%%CreationDate: Thu Jul 26 10:39:41 2018
%%Orientation: portrait
%%BoundingBox: 78 224 534 567
%%EndComments
%%BeginProlog
/mpldict 8 dict def
mpldict begin
/m { moveto } bind def
/l { lineto } bind def
/r { rlineto } bind def
/c { curveto } bind def
/cl { closepath } bind def
/box {
m
1 index 0 r
0 exch r
neg 0 r
cl
} bind def
/clipbox {
box
clip
newpath
} bind def
%!PS-Adobe-3.0 Resource-Font
%%Title: DejaVu Sans
%%Copyright: Copyright (c) 2003 by Bitstream, Inc. All Rights Reserved. Copyright (c) 2006 by Tavmjong Bah. All Rights Reserved. DejaVu changes are in public domain 
%%Creator: Converted from TrueType to type 3 by PPR
25 dict begin
/_d{bind def}bind def
/_m{moveto}_d
/_l{lineto}_d
/_cl{closepath eofill}_d
/_c{curveto}_d
/_sc{7 -1 roll{setcachedevice}{pop pop pop pop pop pop}ifelse}_d
/_e{exec}_d
/FontName /DejaVuSans def
/PaintType 0 def
/FontMatrix[.001 0 0 .001 0 0]def
/FontBBox[-1021 -463 1793 1232]def
/FontType 3 def
/Encoding [ /space /parenleft /parenright /comma /period /zero /one /two /three /four /five /equal /N /P /S /a /b /d /f /i /l /m /n /o /r /s /t /u /v /x /minus ] def
/FontInfo 10 dict dup begin
/FamilyName (DejaVu Sans) def
/FullName (DejaVu Sans) def
/Notice (Copyright (c) 2003 by Bitstream, Inc. All Rights Reserved. Copyright (c) 2006 by Tavmjong Bah. All Rights Reserved. DejaVu changes are in public domain ) def
/Weight (Book) def
/Version (Version 2.35) def
/ItalicAngle 0.0 def
/isFixedPitch false def
/UnderlinePosition -130 def
/UnderlineThickness 90 def
end readonly def
/CharStrings 32 dict dup begin
/.notdef 0 def
/space{318 0 0 0 0 0 _sc
}_d
/parenleft{390 0 86 -131 310 759 _sc
310 759 _m
266 683 234 609 213 536 _c
191 463 181 389 181 314 _c
181 238 191 164 213 91 _c
234 17 266 -56 310 -131 _c
232 -131 _l
183 -54 146 20 122 94 _c
98 168 86 241 86 314 _c
86 386 98 459 122 533 _c
146 607 182 682 232 759 _c
310 759 _l
_cl}_d
/parenright{390 0 80 -131 304 759 _sc
80 759 _m
158 759 _l
206 682 243 607 267 533 _c
291 459 304 386 304 314 _c
304 241 291 168 267 94 _c
243 20 206 -54 158 -131 _c
80 -131 _l
123 -56 155 17 177 91 _c
198 164 209 238 209 314 _c
209 389 198 463 177 536 _c
155 609 123 683 80 759 _c
_cl}_d
/comma{318 0 77 -115 220 124 _sc
117 124 _m
220 124 _l
220 40 _l
140 -115 _l
77 -115 _l
117 40 _l
117 124 _l
_cl}_d
/period{318 0 107 0 210 124 _sc
107 124 _m
210 124 _l
210 0 _l
107 0 _l
107 124 _l
_cl}_d
/zero{636 0 66 -13 570 742 _sc
318 664 _m
267 664 229 639 203 589 _c
177 539 165 464 165 364 _c
165 264 177 189 203 139 _c
229 89 267 64 318 64 _c
369 64 407 89 433 139 _c
458 189 471 264 471 364 _c
471 464 458 539 433 589 _c
407 639 369 664 318 664 _c
318 742 _m
399 742 461 709 505 645 _c
548 580 570 486 570 364 _c
570 241 548 147 505 83 _c
461 19 399 -13 318 -13 _c
236 -13 173 19 130 83 _c
87 147 66 241 66 364 _c
66 486 87 580 130 645 _c
173 709 236 742 318 742 _c
_cl}_d
/one{636 0 110 0 544 729 _sc
124 83 _m
285 83 _l
285 639 _l
110 604 _l
110 694 _l
284 729 _l
383 729 _l
383 83 _l
544 83 _l
544 0 _l
124 0 _l
124 83 _l
_cl}_d
/two{{636 0 73 0 536 742 _sc
192 83 _m
536 83 _l
536 0 _l
73 0 _l
73 83 _l
110 121 161 173 226 239 _c
290 304 331 346 348 365 _c
380 400 402 430 414 455 _c
426 479 433 504 433 528 _c
433 566 419 598 392 622 _c
365 646 330 659 286 659 _c
255 659 222 653 188 643 _c
154 632 117 616 78 594 _c
78 694 _l
118 710 155 722 189 730 _c
223 738 255 742 284 742 _c
}_e{359 742 419 723 464 685 _c
509 647 532 597 532 534 _c
532 504 526 475 515 449 _c
504 422 484 390 454 354 _c
446 344 420 317 376 272 _c
332 227 271 164 192 83 _c
_cl}_e}_d
/three{{636 0 76 -13 556 742 _sc
406 393 _m
453 383 490 362 516 330 _c
542 298 556 258 556 212 _c
556 140 531 84 482 45 _c
432 6 362 -13 271 -13 _c
240 -13 208 -10 176 -4 _c
144 1 110 10 76 22 _c
76 117 _l
103 101 133 89 166 81 _c
198 73 232 69 268 69 _c
330 69 377 81 409 105 _c
441 129 458 165 458 212 _c
458 254 443 288 413 312 _c
383 336 341 349 287 349 _c
}_e{202 349 _l
202 430 _l
291 430 _l
339 430 376 439 402 459 _c
428 478 441 506 441 543 _c
441 580 427 609 401 629 _c
374 649 336 659 287 659 _c
260 659 231 656 200 650 _c
169 644 135 635 98 623 _c
98 711 _l
135 721 170 729 203 734 _c
235 739 266 742 296 742 _c
370 742 429 725 473 691 _c
517 657 539 611 539 553 _c
539 513 527 479 504 451 _c
481 423 448 403 406 393 _c
_cl}_e}_d
/four{636 0 49 0 580 729 _sc
378 643 _m
129 254 _l
378 254 _l
378 643 _l
352 729 _m
476 729 _l
476 254 _l
580 254 _l
580 172 _l
476 172 _l
476 0 _l
378 0 _l
378 172 _l
49 172 _l
49 267 _l
352 729 _l
_cl}_d
/five{{636 0 77 -13 549 729 _sc
108 729 _m
495 729 _l
495 646 _l
198 646 _l
198 467 _l
212 472 227 476 241 478 _c
255 480 270 482 284 482 _c
365 482 429 459 477 415 _c
525 370 549 310 549 234 _c
549 155 524 94 475 51 _c
426 8 357 -13 269 -13 _c
238 -13 207 -10 175 -6 _c
143 -1 111 6 77 17 _c
77 116 _l
106 100 136 88 168 80 _c
199 72 232 69 267 69 _c
}_e{323 69 368 83 401 113 _c
433 143 450 183 450 234 _c
450 284 433 324 401 354 _c
368 384 323 399 267 399 _c
241 399 214 396 188 390 _c
162 384 135 375 108 363 _c
108 729 _l
_cl}_e}_d
/equal{838 0 106 172 732 454 _sc
106 454 _m
732 454 _l
732 372 _l
106 372 _l
106 454 _l
106 255 _m
732 255 _l
732 172 _l
106 172 _l
106 255 _l
_cl}_d
/N{748 0 98 0 650 729 _sc
98 729 _m
231 729 _l
554 119 _l
554 729 _l
650 729 _l
650 0 _l
517 0 _l
194 610 _l
194 0 _l
98 0 _l
98 729 _l
_cl}_d
/P{603 0 98 0 569 729 _sc
197 648 _m
197 374 _l
321 374 _l
367 374 402 385 427 409 _c
452 433 465 467 465 511 _c
465 555 452 588 427 612 _c
402 636 367 648 321 648 _c
197 648 _l
98 729 _m
321 729 _l
402 729 464 710 506 673 _c
548 636 569 582 569 511 _c
569 439 548 384 506 348 _c
464 311 402 293 321 293 _c
197 293 _l
197 0 _l
98 0 _l
98 729 _l
_cl}_d
/S{{635 0 66 -13 579 742 _sc
535 705 _m
535 609 _l
497 627 462 640 429 649 _c
395 657 363 662 333 662 _c
279 662 237 651 208 631 _c
179 610 165 580 165 542 _c
165 510 174 485 194 469 _c
213 452 250 439 304 429 _c
364 417 _l
437 403 491 378 526 343 _c
561 307 579 260 579 201 _c
579 130 555 77 508 41 _c
460 5 391 -13 300 -13 _c
265 -13 228 -9 189 -2 _c
}_e{150 5 110 16 69 32 _c
69 134 _l
109 111 148 94 186 83 _c
224 71 262 66 300 66 _c
356 66 399 77 430 99 _c
460 121 476 152 476 194 _c
476 230 465 258 443 278 _c
421 298 385 313 335 323 _c
275 335 _l
201 349 148 372 115 404 _c
82 435 66 478 66 534 _c
66 598 88 649 134 686 _c
179 723 242 742 322 742 _c
356 742 390 739 426 733 _c
461 727 497 717 535 705 _c
}_e{_cl}_e}_d
/a{{613 0 60 -13 522 560 _sc
343 275 _m
270 275 220 266 192 250 _c
164 233 150 205 150 165 _c
150 133 160 107 181 89 _c
202 70 231 61 267 61 _c
317 61 357 78 387 114 _c
417 149 432 196 432 255 _c
432 275 _l
343 275 _l
522 312 _m
522 0 _l
432 0 _l
432 83 _l
411 49 385 25 355 10 _c
325 -5 287 -13 243 -13 _c
187 -13 142 2 109 33 _c
76 64 60 106 60 159 _c
}_e{60 220 80 266 122 298 _c
163 329 224 345 306 345 _c
432 345 _l
432 354 _l
432 395 418 427 391 450 _c
364 472 326 484 277 484 _c
245 484 215 480 185 472 _c
155 464 127 453 100 439 _c
100 522 _l
132 534 164 544 195 550 _c
226 556 256 560 286 560 _c
365 560 424 539 463 498 _c
502 457 522 395 522 312 _c
_cl}_e}_d
/b{{635 0 91 -13 580 760 _sc
487 273 _m
487 339 473 390 446 428 _c
418 466 381 485 334 485 _c
286 485 249 466 222 428 _c
194 390 181 339 181 273 _c
181 207 194 155 222 117 _c
249 79 286 61 334 61 _c
381 61 418 79 446 117 _c
473 155 487 207 487 273 _c
181 464 _m
199 496 223 520 252 536 _c
281 552 316 560 356 560 _c
422 560 476 533 518 481 _c
559 428 580 359 580 273 _c
}_e{580 187 559 117 518 65 _c
476 13 422 -13 356 -13 _c
316 -13 281 -5 252 10 _c
223 25 199 49 181 82 _c
181 0 _l
91 0 _l
91 760 _l
181 760 _l
181 464 _l
_cl}_e}_d
/d{{635 0 55 -13 544 760 _sc
454 464 _m
454 760 _l
544 760 _l
544 0 _l
454 0 _l
454 82 _l
435 49 411 25 382 10 _c
353 -5 319 -13 279 -13 _c
213 -13 159 13 117 65 _c
75 117 55 187 55 273 _c
55 359 75 428 117 481 _c
159 533 213 560 279 560 _c
319 560 353 552 382 536 _c
411 520 435 496 454 464 _c
148 273 _m
148 207 161 155 188 117 _c
215 79 253 61 301 61 _c
}_e{348 61 385 79 413 117 _c
440 155 454 207 454 273 _c
454 339 440 390 413 428 _c
385 466 348 485 301 485 _c
253 485 215 466 188 428 _c
161 390 148 339 148 273 _c
_cl}_e}_d
/f{352 0 23 0 371 760 _sc
371 760 _m
371 685 _l
285 685 _l
253 685 230 678 218 665 _c
205 652 199 629 199 595 _c
199 547 _l
347 547 _l
347 477 _l
199 477 _l
199 0 _l
109 0 _l
109 477 _l
23 477 _l
23 547 _l
109 547 _l
109 585 _l
109 645 123 690 151 718 _c
179 746 224 760 286 760 _c
371 760 _l
_cl}_d
/i{278 0 94 0 184 760 _sc
94 547 _m
184 547 _l
184 0 _l
94 0 _l
94 547 _l
94 760 _m
184 760 _l
184 646 _l
94 646 _l
94 760 _l
_cl}_d
/l{278 0 94 0 184 760 _sc
94 760 _m
184 760 _l
184 0 _l
94 0 _l
94 760 _l
_cl}_d
/m{{974 0 91 0 889 560 _sc
520 442 _m
542 482 569 511 600 531 _c
631 550 668 560 711 560 _c
767 560 811 540 842 500 _c
873 460 889 403 889 330 _c
889 0 _l
799 0 _l
799 327 _l
799 379 789 418 771 444 _c
752 469 724 482 686 482 _c
639 482 602 466 575 435 _c
548 404 535 362 535 309 _c
535 0 _l
445 0 _l
445 327 _l
445 379 435 418 417 444 _c
398 469 369 482 331 482 _c
}_e{285 482 248 466 221 435 _c
194 404 181 362 181 309 _c
181 0 _l
91 0 _l
91 547 _l
181 547 _l
181 462 _l
201 495 226 520 255 536 _c
283 552 317 560 357 560 _c
397 560 430 550 458 530 _c
486 510 506 480 520 442 _c
_cl}_e}_d
/n{634 0 91 0 549 560 _sc
549 330 _m
549 0 _l
459 0 _l
459 327 _l
459 379 448 417 428 443 _c
408 469 378 482 338 482 _c
289 482 251 466 223 435 _c
195 404 181 362 181 309 _c
181 0 _l
91 0 _l
91 547 _l
181 547 _l
181 462 _l
202 494 227 519 257 535 _c
286 551 320 560 358 560 _c
420 560 468 540 500 501 _c
532 462 549 405 549 330 _c
_cl}_d
/o{612 0 55 -13 557 560 _sc
306 484 _m
258 484 220 465 192 427 _c
164 389 150 338 150 273 _c
150 207 163 156 191 118 _c
219 80 257 62 306 62 _c
354 62 392 80 420 118 _c
448 156 462 207 462 273 _c
462 337 448 389 420 427 _c
392 465 354 484 306 484 _c
306 560 _m
384 560 445 534 490 484 _c
534 433 557 363 557 273 _c
557 183 534 113 490 63 _c
445 12 384 -13 306 -13 _c
227 -13 165 12 121 63 _c
77 113 55 183 55 273 _c
55 363 77 433 121 484 _c
165 534 227 560 306 560 _c
_cl}_d
/r{411 0 91 0 411 560 _sc
411 463 _m
401 469 390 473 378 476 _c
366 478 353 480 339 480 _c
288 480 249 463 222 430 _c
194 397 181 350 181 288 _c
181 0 _l
91 0 _l
91 547 _l
181 547 _l
181 462 _l
199 495 224 520 254 536 _c
284 552 321 560 365 560 _c
371 560 378 559 386 559 _c
393 558 401 557 411 555 _c
411 463 _l
_cl}_d
/s{{521 0 54 -13 472 560 _sc
443 531 _m
443 446 _l
417 458 391 468 364 475 _c
336 481 308 485 279 485 _c
234 485 200 478 178 464 _c
156 450 145 430 145 403 _c
145 382 153 366 169 354 _c
185 342 217 330 265 320 _c
296 313 _l
360 299 405 279 432 255 _c
458 230 472 195 472 151 _c
472 100 452 60 412 31 _c
372 1 316 -13 246 -13 _c
216 -13 186 -10 154 -5 _c
}_e{122 0 89 8 54 20 _c
54 113 _l
87 95 120 82 152 74 _c
184 65 216 61 248 61 _c
290 61 323 68 346 82 _c
368 96 380 117 380 144 _c
380 168 371 187 355 200 _c
339 213 303 226 247 238 _c
216 245 _l
160 257 119 275 95 299 _c
70 323 58 356 58 399 _c
58 450 76 490 112 518 _c
148 546 200 560 268 560 _c
301 560 332 557 362 552 _c
391 547 418 540 443 531 _c
}_e{_cl}_e}_d
/t{392 0 27 0 368 702 _sc
183 702 _m
183 547 _l
368 547 _l
368 477 _l
183 477 _l
183 180 _l
183 135 189 106 201 94 _c
213 81 238 75 276 75 _c
368 75 _l
368 0 _l
276 0 _l
206 0 158 13 132 39 _c
106 65 93 112 93 180 _c
93 477 _l
27 477 _l
27 547 _l
93 547 _l
93 702 _l
183 702 _l
_cl}_d
/u{634 0 85 -13 543 560 _sc
85 216 _m
85 547 _l
175 547 _l
175 219 _l
175 167 185 129 205 103 _c
225 77 255 64 296 64 _c
344 64 383 79 411 110 _c
439 141 453 183 453 237 _c
453 547 _l
543 547 _l
543 0 _l
453 0 _l
453 84 _l
431 50 405 26 377 10 _c
348 -5 315 -13 277 -13 _c
214 -13 166 6 134 45 _c
101 83 85 140 85 216 _c
311 560 _m
311 560 _l
_cl}_d
/v{592 0 30 0 562 547 _sc
30 547 _m
125 547 _l
296 88 _l
467 547 _l
562 547 _l
357 0 _l
235 0 _l
30 547 _l
_cl}_d
/x{592 0 29 0 559 547 _sc
549 547 _m
351 281 _l
559 0 _l
453 0 _l
294 215 _l
135 0 _l
29 0 _l
241 286 _l
47 547 _l
153 547 _l
298 352 _l
443 547 _l
549 547 _l
_cl}_d
/minus{838 0 106 272 732 355 _sc
106 355 _m
732 355 _l
732 272 _l
106 272 _l
106 355 _l
_cl}_d
end readonly def

/BuildGlyph
 {exch begin
 CharStrings exch
 2 copy known not{pop /.notdef}if
 true 3 1 roll get exec
 end}_d

/BuildChar {
 1 index /Encoding get exch get
 1 index /BuildGlyph get exec
}_d

FontName currentdict end definefont pop
end
%%EndProlog
mpldict begin
78 224.25 translate
456 343.5 0 0 clipbox
gsave
0 0 m
456 0 l
456 343.5 l
0 343.5 l
cl
1.000 setgray
fill
grestore
gsave
57 37.785 m
410.4 37.785 l
410.4 302.28 l
57 302.28 l
cl
1.000 setgray
fill
grestore
0.800 setlinewidth
1 setlinejoin
0 setlinecap
[] 0 setdash
0.000 setgray
gsave
/o {
gsave
newpath
translate
0.8 setlinewidth
1 setlinejoin
0 setlinecap
0 0 m
0 -3.5 l

gsave
0.000 setgray
fill
grestore
stroke
grestore
} bind def
62.5534 37.785 o
grestore
/DejaVuSans findfont
10.000 scalefont
setfont
gsave
55.186239 23.191250 translate
0.000000 rotate
0.000000 0.000000 m /minus glyphshow
8.378906 0.000000 m /four glyphshow
grestore
gsave
/o {
gsave
newpath
translate
0.8 setlinewidth
1 setlinejoin
0 setlinecap
0 0 m
0 -3.5 l

gsave
0.000 setgray
fill
grestore
stroke
grestore
} bind def
105.507 37.785 o
grestore
gsave
98.139996 23.191250 translate
0.000000 rotate
0.000000 0.000000 m /minus glyphshow
8.378906 0.000000 m /three glyphshow
grestore
gsave
/o {
gsave
newpath
translate
0.8 setlinewidth
1 setlinejoin
0 setlinecap
0 0 m
0 -3.5 l

gsave
0.000 setgray
fill
grestore
stroke
grestore
} bind def
148.461 37.785 o
grestore
gsave
141.093753 23.191250 translate
0.000000 rotate
0.000000 0.000000 m /minus glyphshow
8.378906 0.000000 m /two glyphshow
grestore
gsave
/o {
gsave
newpath
translate
0.8 setlinewidth
1 setlinejoin
0 setlinecap
0 0 m
0 -3.5 l

gsave
0.000 setgray
fill
grestore
stroke
grestore
} bind def
191.415 37.785 o
grestore
gsave
184.047509 23.191250 translate
0.000000 rotate
0.000000 0.000000 m /minus glyphshow
8.378906 0.000000 m /one glyphshow
grestore
gsave
/o {
gsave
newpath
translate
0.8 setlinewidth
1 setlinejoin
0 setlinecap
0 0 m
0 -3.5 l

gsave
0.000 setgray
fill
grestore
stroke
grestore
} bind def
234.368 37.785 o
grestore
gsave
231.188766 23.191250 translate
0.000000 rotate
0.000000 0.000000 m /zero glyphshow
grestore
gsave
/o {
gsave
newpath
translate
0.8 setlinewidth
1 setlinejoin
0 setlinecap
0 0 m
0 -3.5 l

gsave
0.000 setgray
fill
grestore
stroke
grestore
} bind def
277.322 37.785 o
grestore
gsave
274.142523 23.191250 translate
0.000000 rotate
0.000000 0.000000 m /one glyphshow
grestore
gsave
/o {
gsave
newpath
translate
0.8 setlinewidth
1 setlinejoin
0 setlinecap
0 0 m
0 -3.5 l

gsave
0.000 setgray
fill
grestore
stroke
grestore
} bind def
320.276 37.785 o
grestore
gsave
317.096279 23.191250 translate
0.000000 rotate
0.000000 0.000000 m /two glyphshow
grestore
gsave
/o {
gsave
newpath
translate
0.8 setlinewidth
1 setlinejoin
0 setlinecap
0 0 m
0 -3.5 l

gsave
0.000 setgray
fill
grestore
stroke
grestore
} bind def
363.23 37.785 o
grestore
gsave
360.050036 23.191250 translate
0.000000 rotate
0.000000 0.000000 m /three glyphshow
grestore
gsave
/o {
gsave
newpath
translate
0.8 setlinewidth
1 setlinejoin
0 setlinecap
0 0 m
0 -3.5 l

gsave
0.000 setgray
fill
grestore
stroke
grestore
} bind def
406.183 37.785 o
grestore
gsave
403.003793 23.191250 translate
0.000000 rotate
0.000000 0.000000 m /four glyphshow
grestore
/DejaVuSans findfont
14.000 scalefont
setfont
gsave
229.559375 6.472500 translate
0.000000 rotate
0.000000 0.000000 m /x glyphshow
grestore
gsave
/o {
gsave
newpath
translate
0.8 setlinewidth
1 setlinejoin
0 setlinecap
0 0 m
-3.5 0 l

gsave
0.000 setgray
fill
grestore
stroke
grestore
} bind def
57 37.8242 o
grestore
/DejaVuSans findfont
10.000 scalefont
setfont
gsave
27.734375 34.027299 translate
0.000000 rotate
0.000000 0.000000 m /zero glyphshow
6.362305 0.000000 m /period glyphshow
9.541016 0.000000 m /zero glyphshow
15.903320 0.000000 m /zero glyphshow
grestore
gsave
/o {
gsave
newpath
translate
0.8 setlinewidth
1 setlinejoin
0 setlinecap
0 0 m
-3.5 0 l

gsave
0.000 setgray
fill
grestore
stroke
grestore
} bind def
57 68.3853 o
grestore
gsave
27.734375 64.588409 translate
0.000000 rotate
0.000000 0.000000 m /zero glyphshow
6.362305 0.000000 m /period glyphshow
9.541016 0.000000 m /zero glyphshow
15.903320 0.000000 m /five glyphshow
grestore
gsave
/o {
gsave
newpath
translate
0.8 setlinewidth
1 setlinejoin
0 setlinecap
0 0 m
-3.5 0 l

gsave
0.000 setgray
fill
grestore
stroke
grestore
} bind def
57 98.9464 o
grestore
gsave
27.734375 95.149519 translate
0.000000 rotate
0.000000 0.000000 m /zero glyphshow
6.362305 0.000000 m /period glyphshow
9.541016 0.000000 m /one glyphshow
15.903320 0.000000 m /zero glyphshow
grestore
gsave
/o {
gsave
newpath
translate
0.8 setlinewidth
1 setlinejoin
0 setlinecap
0 0 m
-3.5 0 l

gsave
0.000 setgray
fill
grestore
stroke
grestore
} bind def
57 129.508 o
grestore
gsave
27.734375 125.710628 translate
0.000000 rotate
0.000000 0.000000 m /zero glyphshow
6.362305 0.000000 m /period glyphshow
9.541016 0.000000 m /one glyphshow
15.903320 0.000000 m /five glyphshow
grestore
gsave
/o {
gsave
newpath
translate
0.8 setlinewidth
1 setlinejoin
0 setlinecap
0 0 m
-3.5 0 l

gsave
0.000 setgray
fill
grestore
stroke
grestore
} bind def
57 160.069 o
grestore
gsave
27.734375 156.271738 translate
0.000000 rotate
0.000000 0.000000 m /zero glyphshow
6.362305 0.000000 m /period glyphshow
9.541016 0.000000 m /two glyphshow
15.903320 0.000000 m /zero glyphshow
grestore
gsave
/o {
gsave
newpath
translate
0.8 setlinewidth
1 setlinejoin
0 setlinecap
0 0 m
-3.5 0 l

gsave
0.000 setgray
fill
grestore
stroke
grestore
} bind def
57 190.63 o
grestore
gsave
27.734375 186.832848 translate
0.000000 rotate
0.000000 0.000000 m /zero glyphshow
6.362305 0.000000 m /period glyphshow
9.541016 0.000000 m /two glyphshow
15.903320 0.000000 m /five glyphshow
grestore
gsave
/o {
gsave
newpath
translate
0.8 setlinewidth
1 setlinejoin
0 setlinecap
0 0 m
-3.5 0 l

gsave
0.000 setgray
fill
grestore
stroke
grestore
} bind def
57 221.191 o
grestore
gsave
27.734375 217.393957 translate
0.000000 rotate
0.000000 0.000000 m /zero glyphshow
6.362305 0.000000 m /period glyphshow
9.541016 0.000000 m /three glyphshow
15.903320 0.000000 m /zero glyphshow
grestore
gsave
/o {
gsave
newpath
translate
0.8 setlinewidth
1 setlinejoin
0 setlinecap
0 0 m
-3.5 0 l

gsave
0.000 setgray
fill
grestore
stroke
grestore
} bind def
57 251.752 o
grestore
gsave
27.734375 247.955067 translate
0.000000 rotate
0.000000 0.000000 m /zero glyphshow
6.362305 0.000000 m /period glyphshow
9.541016 0.000000 m /three glyphshow
15.903320 0.000000 m /five glyphshow
grestore
gsave
/o {
gsave
newpath
translate
0.8 setlinewidth
1 setlinejoin
0 setlinecap
0 0 m
-3.5 0 l

gsave
0.000 setgray
fill
grestore
stroke
grestore
} bind def
57 282.313 o
grestore
gsave
27.734375 278.516177 translate
0.000000 rotate
0.000000 0.000000 m /zero glyphshow
6.362305 0.000000 m /period glyphshow
9.541016 0.000000 m /four glyphshow
15.903320 0.000000 m /zero glyphshow
grestore
/DejaVuSans findfont
14.000 scalefont
setfont
gsave
20.828125 156.204375 translate
90.000000 rotate
0.000000 0.000000 m /P glyphshow
8.442383 0.000000 m /parenleft glyphshow
13.904297 0.000000 m /x glyphshow
22.189453 0.000000 m /parenright glyphshow
grestore
2.000 setlinewidth
[2 3.3] 0 setdash
0.122 0.467 0.706 setrgbcolor
gsave
353.4 264.5 57 37.78 clipbox
56.920935 48.593332 m
67.857608 49.963294 l
77.700614 51.426552 l
86.449952 52.954456 l
94.105623 54.5057 l
101.214461 56.162071 l
107.776464 57.911099 l
113.791635 59.733906 l
119.259971 61.604553 l
124.728308 63.712309 l
129.64981 65.844156 l
134.571313 68.233315 l
138.945982 70.604907 l
143.320651 73.243433 l
147.148487 75.800405 l
150.976323 78.61897 l
154.804158 81.731511 l
158.08516 84.660912 l
161.366162 87.858539 l
164.647164 91.352368 l
167.928166 95.172825 l
171.209167 99.352648 l
174.490169 103.926539 l
177.771171 108.930513 l
181.052173 114.400809 l
184.333175 120.372192 l
187.614177 126.875437 l
190.895179 133.933749 l
194.176181 141.557839 l
197.457182 149.73944 l
201.285018 159.940107 l
205.659687 172.307185 l
217.690027 206.892262 l
220.424196 213.833123 l
222.61153 218.822261 l
224.798865 223.182081 l
226.439366 225.971015 l
228.079867 228.299585 l
229.720368 230.130392 l
230.814035 231.059057 l
231.907702 231.745798 l
233.00137 232.185363 l
234.095037 232.374358 l
235.188704 232.311319 l
236.282371 231.996734 l
237.376039 231.433039 l
238.469706 230.624566 l
239.563373 229.577465 l
240.657041 228.299585 l
242.297541 225.971015 l
243.938042 223.182081 l
245.578543 219.975754 l
247.765878 215.132975 l
249.953213 209.749474 l
252.687381 202.440872 l
256.515216 191.523115 l
266.905056 161.44921 l
270.732891 151.15524 l
274.013893 142.883294 l
277.294895 135.16509 l
280.575897 128.012802 l
283.856899 121.418388 l
287.1379 115.360345 l
290.418902 109.808878 l
293.699904 104.729685 l
296.980906 100.086636 l
300.261908 95.843591 l
303.54291 91.965572 l
306.823912 88.419483 l
310.104914 85.174498 l
313.932749 81.731511 l
317.760585 78.61897 l
321.58842 75.800405 l
325.416256 73.243433 l
329.790925 70.604907 l
334.165594 68.233315 l
338.540263 66.096242 l
343.461766 63.937569 l
348.930103 61.804068 l
354.398439 59.911279 l
360.413609 58.067593 l
366.975613 56.299232 l
374.08445 54.625237 l
381.740121 53.05814 l
389.942626 51.604877 l
399.238798 50.190639 l
409.628637 48.848492 l
410.722305 48.719814 l
410.722305 48.719814 l
stroke
grestore
[12.8 3.2 2 3.2] 0 setdash
1.000 0.498 0.055 setrgbcolor
gsave
353.4 264.5 57 37.78 clipbox
56.963373 42.849717 m
66.561273 43.88668 l
74.988697 45.015514 l
82.557772 46.24964 l
89.424562 47.592931 l
95.667099 49.039285 l
101.363413 50.583823 l
106.669569 52.25123 l
111.585566 54.026587 l
116.189437 55.922405 l
120.559212 57.961591 l
124.694893 60.136778 l
128.596478 62.436261 l
132.342 64.897736 l
135.931458 67.517293 l
139.442885 70.354034 l
142.87628 73.417448 l
146.231643 76.715724 l
149.508975 80.255395 l
152.708275 84.040959 l
155.829543 88.074508 l
158.950811 92.469852 l
162.072079 97.252372 l
165.193347 102.446641 l
168.314616 108.07551 l
171.513916 114.316995 l
174.713215 121.052801 l
177.990547 128.4759 l
181.423942 136.821037 l
185.0134 146.152105 l
188.836954 156.729875 l
193.128698 169.28412 l
198.512885 185.771856 l
209.437324 219.408624 l
213.026782 229.617466 l
215.913955 237.191857 l
218.41097 243.153542 l
220.673889 247.996926 l
222.702714 251.827807 l
224.575475 254.893301 l
226.292172 257.277841 l
227.852806 259.073528 l
229.335409 260.438208 l
230.661948 261.369413 l
231.910455 261.990838 l
233.158962 262.361777 l
234.329438 262.480355 l
235.499913 262.376594 l
236.670389 262.050954 l
237.918896 261.460694 l
239.167403 260.622616 l
240.493942 259.465336 l
241.898513 257.947455 l
243.459147 255.919379 l
245.097813 253.419276 l
246.892542 250.269348 l
248.843335 246.391596 l
251.028223 241.538391 l
253.447205 235.611283 l
256.256347 228.114375 l
259.61171 218.488336 l
264.059517 204.991376 l
277.949161 162.355696 l
282.162873 150.393705 l
285.986426 140.198716 l
289.575885 131.255815 l
293.00928 123.293606 l
296.364643 116.075087 l
299.641975 109.553055 l
302.841274 103.674479 l
306.040574 98.257523 l
309.239874 93.278134 l
312.439174 88.710121 l
315.638474 84.52624 l
318.915806 80.609921 l
322.193137 77.038852 l
325.5485 73.711132 l
328.981895 70.620263 l
332.493322 67.758058 l
336.082781 65.114995 l
339.828302 62.631486 l
343.729888 60.311504 l
347.787536 58.156122 l
352.07928 56.12915 l
356.605119 54.239074 l
361.443085 52.463649 l
366.593177 50.814303 l
372.133428 49.277405 l
378.141869 47.846501 l
384.618501 46.534599 l
391.797418 45.311682 l
399.756652 44.187469 l
408.652266 43.161661 l
410.446995 42.979533 l
410.446995 42.979533 l
stroke
grestore
[7.4 3.2] 0 setdash
0.173 0.627 0.173 setrgbcolor
gsave
353.4 264.5 57 37.78 clipbox
56.950625 38.820545 m
67.916848 39.358817 l
76.818004 40.012551 l
84.294974 40.779364 l
90.775015 41.662879 l
96.471755 42.658021 l
101.59882 43.773216 l
106.29863 45.019011 l
110.642394 46.398163 l
114.701321 47.919663 l
118.475411 49.568364 l
122.107082 51.398647 l
125.525126 53.368604 l
128.800751 55.508898 l
132.005167 57.868446 l
135.138374 60.456123 l
138.200371 63.278904 l
141.191159 66.341547 l
144.110738 69.646292 l
147.030317 73.285528 l
149.949896 77.282021 l
152.869475 81.657699 l
155.789054 86.433049 l
158.779842 91.758428 l
161.77063 97.538911 l
164.832628 103.941227 l
167.965835 111.006991 l
171.24146 118.950216 l
174.659503 127.832982 l
178.291175 137.904641 l
182.207683 149.434673 l
186.693865 163.363351 l
192.390605 181.831629 l
204.282548 220.578998 l
208.199057 232.456356 l
211.474682 241.697781 l
214.323052 249.079472 l
216.815375 254.949396 l
219.094071 259.77387 l
221.230348 263.781826 l
223.152998 266.932203 l
224.933229 269.442117 l
226.571042 271.391108 l
228.137645 272.922132 l
229.633039 274.072302 l
230.986015 274.846357 l
232.33899 275.364059 l
233.620757 275.616223 l
234.902523 275.635633 l
236.184289 275.422223 l
237.466056 274.976733 l
238.819031 274.256431 l
240.172007 273.282047 l
241.596192 271.986004 l
243.162795 270.246546 l
244.800608 268.085865 l
246.580839 265.354324 l
248.503488 261.975963 l
250.568556 257.879792 l
252.847252 252.838151 l
255.339576 246.754531 l
258.116736 239.358447 l
261.249943 230.356477 l
264.952823 219.016436 l
269.866261 203.196929 l
284.321738 156.202972 l
288.736711 142.85559 l
292.653219 131.707274 l
296.28489 122.027854 l
299.702934 113.534979 l
302.978559 105.97451 l
306.182975 99.129688 l
309.316182 92.958303 l
312.378179 87.413035 l
315.368967 82.444172 l
318.359756 77.898171 l
321.350544 73.753329 l
324.341332 69.986244 l
327.33212 66.572518 l
330.394118 63.4177 l
333.456115 60.580771 l
336.589322 57.979847 l
339.793738 55.607984 l
343.069363 53.456323 l
346.487407 51.475735 l
350.047869 49.6691 l
353.821959 48.006656 l
357.809676 46.497177 l
362.082231 45.123298 l
366.639622 43.894471 l
371.624269 42.785092 l
377.107381 41.797834 l
383.231376 40.927134 l
390.138673 40.174412 l
398.185317 39.528172 l
407.727356 38.992402 l
410.433307 38.874713 l
410.433307 38.874713 l
stroke
grestore
2 setlinecap
[] 0 setdash
0.839 0.153 0.157 setrgbcolor
gsave
353.4 264.5 57 37.78 clipbox
74.622724 38.066125 m
84.720674 38.38837 l
92.134359 38.83834 l
98.142 39.420043 l
103.254886 40.135546 l
107.728661 40.983436 l
111.755058 41.970866 l
115.461901 43.109477 l
118.849188 44.378474 l
122.044741 45.80811 l
125.112473 47.423014 l
128.052382 49.221642 l
130.928381 51.245885 l
133.676557 53.449633 l
136.424733 55.940908 l
139.108998 58.674684 l
141.793263 61.727451 l
144.477528 65.120374 l
147.161793 68.873408 l
149.90997 73.107915 l
152.658146 77.756133 l
155.470233 82.95531 l
158.346231 88.747253 l
161.286141 95.170552 l
164.353872 102.415079 l
167.549426 110.540826 l
170.936713 119.77622 l
174.579644 130.377168 l
178.542131 142.611453 l
183.079817 157.364355 l
189.087458 177.71666 l
200.52754 216.607024 l
204.745671 230.059039 l
208.196869 240.356751 l
211.2646 248.825832 l
214.012777 255.766966 l
216.505308 261.466589 l
218.806107 266.17649 l
220.915173 269.995064 l
222.832505 273.029293 l
224.622015 275.469418 l
226.347614 277.452145 l
227.945391 278.955511 l
229.415345 280.050743 l
230.821389 280.836556 l
232.163522 281.345494 l
233.505654 281.617363 l
234.783876 281.655146 l
236.062097 281.477075 l
237.40423 281.058311 l
238.746362 280.403319 l
240.152406 279.465859 l
241.622361 278.214095 l
243.156226 276.616473 l
244.817914 274.55679 l
246.607424 271.966327 l
248.524756 268.777022 l
250.569911 264.923673 l
252.742887 260.346488 l
255.107597 254.838218 l
257.727951 248.14772 l
260.603949 240.172999 l
263.863414 230.453105 l
267.698079 218.278734 l
272.55532 202.066231 l
289.619577 144.4416 l
293.901619 131.145433 l
297.736283 119.956397 l
301.251392 110.372631 l
304.574768 101.946192 l
307.770322 94.447685 l
310.838054 87.81444 l
313.777963 81.97614 l
316.653961 76.748272 l
319.466048 72.08681 l
322.278136 67.854607 l
325.026312 64.115066 l
327.774488 60.747166 l
330.522664 57.729053 l
333.27084 55.037707 l
336.082928 52.597322 l
338.895015 50.448689 l
341.771013 48.526537 l
344.774834 46.787676 l
347.906476 45.236214 l
351.165941 43.87169 l
354.617139 42.669164 l
358.323981 41.615173 l
362.350379 40.703995 l
366.824154 39.924256 l
371.873129 39.275676 l
377.752948 38.751939 l
384.847077 38.351504 l
394.050272 38.067467 l
394.114183 38.066125 l
394.114183 38.066125 l
stroke
grestore
0.800 setlinewidth
0 setlinejoin
[] 0 setdash
0.000 setgray
gsave
57 37.785 m
57 302.28 l
stroke
grestore
gsave
410.4 37.785 m
410.4 302.28 l
stroke
grestore
gsave
57 37.785 m
410.4 37.785 l
stroke
grestore
gsave
57 302.28 m
410.4 302.28 l
stroke
grestore
gsave
74.207813 308.280000 translate
0.000000 rotate
0.000000 0.000000 m /t glyphshow
5.489258 0.000000 m /space glyphshow
9.939453 0.000000 m /d glyphshow
18.826172 0.000000 m /i glyphshow
22.715820 0.000000 m /s glyphshow
30.009766 0.000000 m /t glyphshow
35.499023 0.000000 m /r glyphshow
41.254883 0.000000 m /i glyphshow
45.144531 0.000000 m /b glyphshow
54.031250 0.000000 m /u glyphshow
62.904297 0.000000 m /t glyphshow
68.393555 0.000000 m /i glyphshow
72.283203 0.000000 m /o glyphshow
80.848633 0.000000 m /n glyphshow
89.721680 0.000000 m /space glyphshow
94.171875 0.000000 m /v glyphshow
102.457031 0.000000 m /s glyphshow
109.750977 0.000000 m /period glyphshow
114.201172 0.000000 m /space glyphshow
118.651367 0.000000 m /s glyphshow
125.945312 0.000000 m /t glyphshow
131.434570 0.000000 m /a glyphshow
140.013672 0.000000 m /n glyphshow
148.886719 0.000000 m /d glyphshow
157.773438 0.000000 m /a glyphshow
166.352539 0.000000 m /r glyphshow
172.108398 0.000000 m /d glyphshow
180.995117 0.000000 m /space glyphshow
185.445312 0.000000 m /n glyphshow
194.318359 0.000000 m /o glyphshow
202.883789 0.000000 m /r glyphshow
208.639648 0.000000 m /m glyphshow
222.277344 0.000000 m /a glyphshow
230.856445 0.000000 m /l glyphshow
234.746094 0.000000 m /space glyphshow
239.196289 0.000000 m /d glyphshow
248.083008 0.000000 m /i glyphshow
251.972656 0.000000 m /s glyphshow
259.266602 0.000000 m /t glyphshow
264.755859 0.000000 m /r glyphshow
270.511719 0.000000 m /i glyphshow
274.401367 0.000000 m /b glyphshow
283.288086 0.000000 m /u glyphshow
292.161133 0.000000 m /t glyphshow
297.650391 0.000000 m /i glyphshow
301.540039 0.000000 m /o glyphshow
310.105469 0.000000 m /n glyphshow
grestore
1.000 setlinewidth
0 setlinecap
0.800 setgray
gsave
264.728125 235.5925 m
403.4 235.5925 l
404.733333 235.5925 405.4 236.259167 405.4 237.5925 c
405.4 295.28 l
405.4 296.613333 404.733333 297.28 403.4 297.28 c
264.728125 297.28 l
263.394792 297.28 262.728125 296.613333 262.728125 295.28 c
262.728125 237.5925 l
262.728125 236.259167 263.394792 235.5925 264.728125 235.5925 c
cl
gsave
1.000 setgray
fill
grestore
stroke
grestore
2.000 setlinewidth
1 setlinejoin
[2 3.3] 0 setdash
0.122 0.467 0.706 setrgbcolor
gsave
266.728125 289.18625 m
286.728125 289.18625 l
stroke
grestore
0.000 setgray
/DejaVuSans findfont
10.000 scalefont
setfont
gsave
294.728125 285.686250 translate
0.000000 rotate
0.000000 0.000000 m /t glyphshow
3.920898 0.000000 m /space glyphshow
7.099609 0.000000 m /d glyphshow
13.447266 0.000000 m /i glyphshow
16.225586 0.000000 m /s glyphshow
21.435547 0.000000 m /t glyphshow
25.356445 0.000000 m /comma glyphshow
28.535156 0.000000 m /space glyphshow
31.713867 0.000000 m /d glyphshow
38.061523 0.000000 m /f glyphshow
41.582031 0.000000 m /space glyphshow
44.760742 0.000000 m /equal glyphshow
53.139648 0.000000 m /space glyphshow
56.318359 0.000000 m /one glyphshow
grestore
[12.8 3.2 2 3.2] 0 setdash
1.000 0.498 0.055 setrgbcolor
gsave
266.728125 274.514375 m
286.728125 274.514375 l
stroke
grestore
0.000 setgray
gsave
294.728125 271.014375 translate
0.000000 rotate
0.000000 0.000000 m /t glyphshow
3.920898 0.000000 m /space glyphshow
7.099609 0.000000 m /d glyphshow
13.447266 0.000000 m /i glyphshow
16.225586 0.000000 m /s glyphshow
21.435547 0.000000 m /t glyphshow
25.356445 0.000000 m /comma glyphshow
28.535156 0.000000 m /space glyphshow
31.713867 0.000000 m /d glyphshow
38.061523 0.000000 m /f glyphshow
41.582031 0.000000 m /space glyphshow
44.760742 0.000000 m /equal glyphshow
53.139648 0.000000 m /space glyphshow
56.318359 0.000000 m /three glyphshow
grestore
[7.4 3.2] 0 setdash
0.173 0.627 0.173 setrgbcolor
gsave
266.728125 259.8425 m
286.728125 259.8425 l
stroke
grestore
0.000 setgray
gsave
294.728125 256.342500 translate
0.000000 rotate
0.000000 0.000000 m /t glyphshow
3.920898 0.000000 m /space glyphshow
7.099609 0.000000 m /d glyphshow
13.447266 0.000000 m /i glyphshow
16.225586 0.000000 m /s glyphshow
21.435547 0.000000 m /t glyphshow
25.356445 0.000000 m /comma glyphshow
28.535156 0.000000 m /space glyphshow
31.713867 0.000000 m /d glyphshow
38.061523 0.000000 m /f glyphshow
41.582031 0.000000 m /space glyphshow
44.760742 0.000000 m /equal glyphshow
53.139648 0.000000 m /space glyphshow
56.318359 0.000000 m /one glyphshow
62.680664 0.000000 m /zero glyphshow
grestore
2 setlinecap
[] 0 setdash
0.839 0.153 0.157 setrgbcolor
gsave
266.728125 245.170625 m
286.728125 245.170625 l
stroke
grestore
0.000 setgray
gsave
294.728125 241.670625 translate
0.000000 rotate
0.000000 0.000000 m /S glyphshow
6.347656 0.000000 m /t glyphshow
10.268555 0.000000 m /a glyphshow
16.396484 0.000000 m /n glyphshow
22.734375 0.000000 m /d glyphshow
29.082031 0.000000 m /a glyphshow
35.209961 0.000000 m /r glyphshow
39.321289 0.000000 m /d glyphshow
45.668945 0.000000 m /space glyphshow
48.847656 0.000000 m /N glyphshow
56.328125 0.000000 m /o glyphshow
62.446289 0.000000 m /r glyphshow
66.557617 0.000000 m /m glyphshow
76.298828 0.000000 m /a glyphshow
82.426758 0.000000 m /l glyphshow
85.205078 0.000000 m /space glyphshow
88.383789 0.000000 m /d glyphshow
94.731445 0.000000 m /i glyphshow
97.509766 0.000000 m /s glyphshow
102.719727 0.000000 m /t glyphshow
grestore

end
showpage
