%!PS-Adobe-3.0 EPSF-3.0
%%Title: D:/DTU MMC/Github Repos/thesis_repo/thesis_figs/t_dist_vs_normal_simulation_hist_2.eps
%%Creator: matplotlib version 2.1.0, http://matplotlib.org/
%%CreationDate: Fri Jul 27 12:00:05 2018
%%Orientation: portrait
%%BoundingBox: 86 227 525 564
%%EndComments
%%BeginProlog
/mpldict 8 dict def
mpldict begin
/m { moveto } bind def
/l { lineto } bind def
/r { rlineto } bind def
/c { curveto } bind def
/cl { closepath } bind def
/box {
m
1 index 0 r
0 exch r
neg 0 r
cl
} bind def
/clipbox {
box
clip
newpath
} bind def
%!PS-Adobe-3.0 Resource-Font
%%Title: DejaVu Sans
%%Copyright: Copyright (c) 2003 by Bitstream, Inc. All Rights Reserved. Copyright (c) 2006 by Tavmjong Bah. All Rights Reserved. DejaVu changes are in public domain 
%%Creator: Converted from TrueType to type 3 by PPR
25 dict begin
/_d{bind def}bind def
/_m{moveto}_d
/_l{lineto}_d
/_cl{closepath eofill}_d
/_c{curveto}_d
/_sc{7 -1 roll{setcachedevice}{pop pop pop pop pop pop}ifelse}_d
/_e{exec}_d
/FontName /DejaVuSans def
/PaintType 0 def
/FontMatrix[.001 0 0 .001 0 0]def
/FontBBox[-1021 -463 1793 1232]def
/FontType 3 def
/Encoding [ /space /period /zero /one /two /three /four /five /six /eight /N /T /a /b /c /d /e /g /h /i /l /m /n /o /r /s /t /u /v /w /z ] def
/FontInfo 10 dict dup begin
/FamilyName (DejaVu Sans) def
/FullName (DejaVu Sans) def
/Notice (Copyright (c) 2003 by Bitstream, Inc. All Rights Reserved. Copyright (c) 2006 by Tavmjong Bah. All Rights Reserved. DejaVu changes are in public domain ) def
/Weight (Book) def
/Version (Version 2.35) def
/ItalicAngle 0.0 def
/isFixedPitch false def
/UnderlinePosition -130 def
/UnderlineThickness 90 def
end readonly def
/CharStrings 32 dict dup begin
/.notdef 0 def
/space{318 0 0 0 0 0 _sc
}_d
/period{318 0 107 0 210 124 _sc
107 124 _m
210 124 _l
210 0 _l
107 0 _l
107 124 _l
_cl}_d
/zero{636 0 66 -13 570 742 _sc
318 664 _m
267 664 229 639 203 589 _c
177 539 165 464 165 364 _c
165 264 177 189 203 139 _c
229 89 267 64 318 64 _c
369 64 407 89 433 139 _c
458 189 471 264 471 364 _c
471 464 458 539 433 589 _c
407 639 369 664 318 664 _c
318 742 _m
399 742 461 709 505 645 _c
548 580 570 486 570 364 _c
570 241 548 147 505 83 _c
461 19 399 -13 318 -13 _c
236 -13 173 19 130 83 _c
87 147 66 241 66 364 _c
66 486 87 580 130 645 _c
173 709 236 742 318 742 _c
_cl}_d
/one{636 0 110 0 544 729 _sc
124 83 _m
285 83 _l
285 639 _l
110 604 _l
110 694 _l
284 729 _l
383 729 _l
383 83 _l
544 83 _l
544 0 _l
124 0 _l
124 83 _l
_cl}_d
/two{{636 0 73 0 536 742 _sc
192 83 _m
536 83 _l
536 0 _l
73 0 _l
73 83 _l
110 121 161 173 226 239 _c
290 304 331 346 348 365 _c
380 400 402 430 414 455 _c
426 479 433 504 433 528 _c
433 566 419 598 392 622 _c
365 646 330 659 286 659 _c
255 659 222 653 188 643 _c
154 632 117 616 78 594 _c
78 694 _l
118 710 155 722 189 730 _c
223 738 255 742 284 742 _c
}_e{359 742 419 723 464 685 _c
509 647 532 597 532 534 _c
532 504 526 475 515 449 _c
504 422 484 390 454 354 _c
446 344 420 317 376 272 _c
332 227 271 164 192 83 _c
_cl}_e}_d
/three{{636 0 76 -13 556 742 _sc
406 393 _m
453 383 490 362 516 330 _c
542 298 556 258 556 212 _c
556 140 531 84 482 45 _c
432 6 362 -13 271 -13 _c
240 -13 208 -10 176 -4 _c
144 1 110 10 76 22 _c
76 117 _l
103 101 133 89 166 81 _c
198 73 232 69 268 69 _c
330 69 377 81 409 105 _c
441 129 458 165 458 212 _c
458 254 443 288 413 312 _c
383 336 341 349 287 349 _c
}_e{202 349 _l
202 430 _l
291 430 _l
339 430 376 439 402 459 _c
428 478 441 506 441 543 _c
441 580 427 609 401 629 _c
374 649 336 659 287 659 _c
260 659 231 656 200 650 _c
169 644 135 635 98 623 _c
98 711 _l
135 721 170 729 203 734 _c
235 739 266 742 296 742 _c
370 742 429 725 473 691 _c
517 657 539 611 539 553 _c
539 513 527 479 504 451 _c
481 423 448 403 406 393 _c
_cl}_e}_d
/four{636 0 49 0 580 729 _sc
378 643 _m
129 254 _l
378 254 _l
378 643 _l
352 729 _m
476 729 _l
476 254 _l
580 254 _l
580 172 _l
476 172 _l
476 0 _l
378 0 _l
378 172 _l
49 172 _l
49 267 _l
352 729 _l
_cl}_d
/five{{636 0 77 -13 549 729 _sc
108 729 _m
495 729 _l
495 646 _l
198 646 _l
198 467 _l
212 472 227 476 241 478 _c
255 480 270 482 284 482 _c
365 482 429 459 477 415 _c
525 370 549 310 549 234 _c
549 155 524 94 475 51 _c
426 8 357 -13 269 -13 _c
238 -13 207 -10 175 -6 _c
143 -1 111 6 77 17 _c
77 116 _l
106 100 136 88 168 80 _c
199 72 232 69 267 69 _c
}_e{323 69 368 83 401 113 _c
433 143 450 183 450 234 _c
450 284 433 324 401 354 _c
368 384 323 399 267 399 _c
241 399 214 396 188 390 _c
162 384 135 375 108 363 _c
108 729 _l
_cl}_e}_d
/six{{636 0 70 -13 573 742 _sc
330 404 _m
286 404 251 388 225 358 _c
199 328 186 286 186 234 _c
186 181 199 139 225 109 _c
251 79 286 64 330 64 _c
374 64 409 79 435 109 _c
461 139 474 181 474 234 _c
474 286 461 328 435 358 _c
409 388 374 404 330 404 _c
526 713 _m
526 623 _l
501 635 476 644 451 650 _c
425 656 400 659 376 659 _c
310 659 260 637 226 593 _c
}_e{192 549 172 482 168 394 _c
187 422 211 444 240 459 _c
269 474 301 482 336 482 _c
409 482 467 459 509 415 _c
551 371 573 310 573 234 _c
573 159 550 99 506 54 _c
462 9 403 -13 330 -13 _c
246 -13 181 19 137 83 _c
92 147 70 241 70 364 _c
70 479 97 571 152 639 _c
206 707 280 742 372 742 _c
396 742 421 739 447 735 _c
472 730 498 723 526 713 _c
_cl}_e}_d
/eight{{636 0 68 -13 568 742 _sc
318 346 _m
271 346 234 333 207 308 _c
180 283 167 249 167 205 _c
167 161 180 126 207 101 _c
234 76 271 64 318 64 _c
364 64 401 76 428 102 _c
455 127 469 161 469 205 _c
469 249 455 283 429 308 _c
402 333 365 346 318 346 _c
219 388 _m
177 398 144 418 120 447 _c
96 476 85 511 85 553 _c
85 611 105 657 147 691 _c
188 725 245 742 318 742 _c
}_e{390 742 447 725 489 691 _c
530 657 551 611 551 553 _c
551 511 539 476 515 447 _c
491 418 459 398 417 388 _c
464 377 501 355 528 323 _c
554 291 568 251 568 205 _c
568 134 546 80 503 43 _c
459 5 398 -13 318 -13 _c
237 -13 175 5 132 43 _c
89 80 68 134 68 205 _c
68 251 81 291 108 323 _c
134 355 171 377 219 388 _c
183 544 _m
183 506 194 476 218 455 _c
}_e{242 434 275 424 318 424 _c
360 424 393 434 417 455 _c
441 476 453 506 453 544 _c
453 582 441 611 417 632 _c
393 653 360 664 318 664 _c
275 664 242 653 218 632 _c
194 611 183 582 183 544 _c
_cl}_e}_d
/N{748 0 98 0 650 729 _sc
98 729 _m
231 729 _l
554 119 _l
554 729 _l
650 729 _l
650 0 _l
517 0 _l
194 610 _l
194 0 _l
98 0 _l
98 729 _l
_cl}_d
/T{611 0 -2 0 614 729 _sc
-2 729 _m
614 729 _l
614 646 _l
355 646 _l
355 0 _l
256 0 _l
256 646 _l
-2 646 _l
-2 729 _l
_cl}_d
/a{{613 0 60 -13 522 560 _sc
343 275 _m
270 275 220 266 192 250 _c
164 233 150 205 150 165 _c
150 133 160 107 181 89 _c
202 70 231 61 267 61 _c
317 61 357 78 387 114 _c
417 149 432 196 432 255 _c
432 275 _l
343 275 _l
522 312 _m
522 0 _l
432 0 _l
432 83 _l
411 49 385 25 355 10 _c
325 -5 287 -13 243 -13 _c
187 -13 142 2 109 33 _c
76 64 60 106 60 159 _c
}_e{60 220 80 266 122 298 _c
163 329 224 345 306 345 _c
432 345 _l
432 354 _l
432 395 418 427 391 450 _c
364 472 326 484 277 484 _c
245 484 215 480 185 472 _c
155 464 127 453 100 439 _c
100 522 _l
132 534 164 544 195 550 _c
226 556 256 560 286 560 _c
365 560 424 539 463 498 _c
502 457 522 395 522 312 _c
_cl}_e}_d
/b{{635 0 91 -13 580 760 _sc
487 273 _m
487 339 473 390 446 428 _c
418 466 381 485 334 485 _c
286 485 249 466 222 428 _c
194 390 181 339 181 273 _c
181 207 194 155 222 117 _c
249 79 286 61 334 61 _c
381 61 418 79 446 117 _c
473 155 487 207 487 273 _c
181 464 _m
199 496 223 520 252 536 _c
281 552 316 560 356 560 _c
422 560 476 533 518 481 _c
559 428 580 359 580 273 _c
}_e{580 187 559 117 518 65 _c
476 13 422 -13 356 -13 _c
316 -13 281 -5 252 10 _c
223 25 199 49 181 82 _c
181 0 _l
91 0 _l
91 760 _l
181 760 _l
181 464 _l
_cl}_e}_d
/c{{550 0 55 -13 488 560 _sc
488 526 _m
488 442 _l
462 456 437 466 411 473 _c
385 480 360 484 334 484 _c
276 484 230 465 198 428 _c
166 391 150 339 150 273 _c
150 206 166 154 198 117 _c
230 80 276 62 334 62 _c
360 62 385 65 411 72 _c
437 79 462 90 488 104 _c
488 21 _l
462 9 436 0 410 -5 _c
383 -10 354 -13 324 -13 _c
242 -13 176 12 128 64 _c
}_e{79 115 55 185 55 273 _c
55 362 79 432 128 483 _c
177 534 244 560 330 560 _c
358 560 385 557 411 551 _c
437 545 463 537 488 526 _c
_cl}_e}_d
/d{{635 0 55 -13 544 760 _sc
454 464 _m
454 760 _l
544 760 _l
544 0 _l
454 0 _l
454 82 _l
435 49 411 25 382 10 _c
353 -5 319 -13 279 -13 _c
213 -13 159 13 117 65 _c
75 117 55 187 55 273 _c
55 359 75 428 117 481 _c
159 533 213 560 279 560 _c
319 560 353 552 382 536 _c
411 520 435 496 454 464 _c
148 273 _m
148 207 161 155 188 117 _c
215 79 253 61 301 61 _c
}_e{348 61 385 79 413 117 _c
440 155 454 207 454 273 _c
454 339 440 390 413 428 _c
385 466 348 485 301 485 _c
253 485 215 466 188 428 _c
161 390 148 339 148 273 _c
_cl}_e}_d
/e{{615 0 55 -13 562 560 _sc
562 296 _m
562 252 _l
149 252 _l
153 190 171 142 205 110 _c
238 78 284 62 344 62 _c
378 62 412 66 444 74 _c
476 82 509 95 541 113 _c
541 28 _l
509 14 476 3 442 -3 _c
408 -9 373 -13 339 -13 _c
251 -13 182 12 131 62 _c
80 112 55 181 55 268 _c
55 357 79 428 127 481 _c
175 533 241 560 323 560 _c
397 560 455 536 498 489 _c
}_e{540 441 562 377 562 296 _c
472 322 _m
471 371 457 410 431 440 _c
404 469 368 484 324 484 _c
274 484 234 469 204 441 _c
174 413 156 373 152 322 _c
472 322 _l
_cl}_e}_d
/g{{635 0 55 -207 544 560 _sc
454 280 _m
454 344 440 395 414 431 _c
387 467 349 485 301 485 _c
253 485 215 467 188 431 _c
161 395 148 344 148 280 _c
148 215 161 165 188 129 _c
215 93 253 75 301 75 _c
349 75 387 93 414 129 _c
440 165 454 215 454 280 _c
544 68 _m
544 -24 523 -93 482 -139 _c
440 -184 377 -207 292 -207 _c
260 -207 231 -204 203 -200 _c
175 -195 147 -188 121 -178 _c
}_e{121 -91 _l
147 -105 173 -115 199 -122 _c
225 -129 251 -133 278 -133 _c
336 -133 380 -117 410 -87 _c
439 -56 454 -10 454 52 _c
454 96 _l
435 64 411 40 382 24 _c
353 8 319 0 279 0 _c
211 0 157 25 116 76 _c
75 127 55 195 55 280 _c
55 364 75 432 116 483 _c
157 534 211 560 279 560 _c
319 560 353 552 382 536 _c
411 520 435 496 454 464 _c
454 547 _l
544 547 _l
}_e{544 68 _l
_cl}_e}_d
/h{634 0 91 0 549 760 _sc
549 330 _m
549 0 _l
459 0 _l
459 327 _l
459 379 448 417 428 443 _c
408 469 378 482 338 482 _c
289 482 251 466 223 435 _c
195 404 181 362 181 309 _c
181 0 _l
91 0 _l
91 760 _l
181 760 _l
181 462 _l
202 494 227 519 257 535 _c
286 551 320 560 358 560 _c
420 560 468 540 500 501 _c
532 462 549 405 549 330 _c
_cl}_d
/i{278 0 94 0 184 760 _sc
94 547 _m
184 547 _l
184 0 _l
94 0 _l
94 547 _l
94 760 _m
184 760 _l
184 646 _l
94 646 _l
94 760 _l
_cl}_d
/l{278 0 94 0 184 760 _sc
94 760 _m
184 760 _l
184 0 _l
94 0 _l
94 760 _l
_cl}_d
/m{{974 0 91 0 889 560 _sc
520 442 _m
542 482 569 511 600 531 _c
631 550 668 560 711 560 _c
767 560 811 540 842 500 _c
873 460 889 403 889 330 _c
889 0 _l
799 0 _l
799 327 _l
799 379 789 418 771 444 _c
752 469 724 482 686 482 _c
639 482 602 466 575 435 _c
548 404 535 362 535 309 _c
535 0 _l
445 0 _l
445 327 _l
445 379 435 418 417 444 _c
398 469 369 482 331 482 _c
}_e{285 482 248 466 221 435 _c
194 404 181 362 181 309 _c
181 0 _l
91 0 _l
91 547 _l
181 547 _l
181 462 _l
201 495 226 520 255 536 _c
283 552 317 560 357 560 _c
397 560 430 550 458 530 _c
486 510 506 480 520 442 _c
_cl}_e}_d
/n{634 0 91 0 549 560 _sc
549 330 _m
549 0 _l
459 0 _l
459 327 _l
459 379 448 417 428 443 _c
408 469 378 482 338 482 _c
289 482 251 466 223 435 _c
195 404 181 362 181 309 _c
181 0 _l
91 0 _l
91 547 _l
181 547 _l
181 462 _l
202 494 227 519 257 535 _c
286 551 320 560 358 560 _c
420 560 468 540 500 501 _c
532 462 549 405 549 330 _c
_cl}_d
/o{612 0 55 -13 557 560 _sc
306 484 _m
258 484 220 465 192 427 _c
164 389 150 338 150 273 _c
150 207 163 156 191 118 _c
219 80 257 62 306 62 _c
354 62 392 80 420 118 _c
448 156 462 207 462 273 _c
462 337 448 389 420 427 _c
392 465 354 484 306 484 _c
306 560 _m
384 560 445 534 490 484 _c
534 433 557 363 557 273 _c
557 183 534 113 490 63 _c
445 12 384 -13 306 -13 _c
227 -13 165 12 121 63 _c
77 113 55 183 55 273 _c
55 363 77 433 121 484 _c
165 534 227 560 306 560 _c
_cl}_d
/r{411 0 91 0 411 560 _sc
411 463 _m
401 469 390 473 378 476 _c
366 478 353 480 339 480 _c
288 480 249 463 222 430 _c
194 397 181 350 181 288 _c
181 0 _l
91 0 _l
91 547 _l
181 547 _l
181 462 _l
199 495 224 520 254 536 _c
284 552 321 560 365 560 _c
371 560 378 559 386 559 _c
393 558 401 557 411 555 _c
411 463 _l
_cl}_d
/s{{521 0 54 -13 472 560 _sc
443 531 _m
443 446 _l
417 458 391 468 364 475 _c
336 481 308 485 279 485 _c
234 485 200 478 178 464 _c
156 450 145 430 145 403 _c
145 382 153 366 169 354 _c
185 342 217 330 265 320 _c
296 313 _l
360 299 405 279 432 255 _c
458 230 472 195 472 151 _c
472 100 452 60 412 31 _c
372 1 316 -13 246 -13 _c
216 -13 186 -10 154 -5 _c
}_e{122 0 89 8 54 20 _c
54 113 _l
87 95 120 82 152 74 _c
184 65 216 61 248 61 _c
290 61 323 68 346 82 _c
368 96 380 117 380 144 _c
380 168 371 187 355 200 _c
339 213 303 226 247 238 _c
216 245 _l
160 257 119 275 95 299 _c
70 323 58 356 58 399 _c
58 450 76 490 112 518 _c
148 546 200 560 268 560 _c
301 560 332 557 362 552 _c
391 547 418 540 443 531 _c
}_e{_cl}_e}_d
/t{392 0 27 0 368 702 _sc
183 702 _m
183 547 _l
368 547 _l
368 477 _l
183 477 _l
183 180 _l
183 135 189 106 201 94 _c
213 81 238 75 276 75 _c
368 75 _l
368 0 _l
276 0 _l
206 0 158 13 132 39 _c
106 65 93 112 93 180 _c
93 477 _l
27 477 _l
27 547 _l
93 547 _l
93 702 _l
183 702 _l
_cl}_d
/u{634 0 85 -13 543 560 _sc
85 216 _m
85 547 _l
175 547 _l
175 219 _l
175 167 185 129 205 103 _c
225 77 255 64 296 64 _c
344 64 383 79 411 110 _c
439 141 453 183 453 237 _c
453 547 _l
543 547 _l
543 0 _l
453 0 _l
453 84 _l
431 50 405 26 377 10 _c
348 -5 315 -13 277 -13 _c
214 -13 166 6 134 45 _c
101 83 85 140 85 216 _c
311 560 _m
311 560 _l
_cl}_d
/v{592 0 30 0 562 547 _sc
30 547 _m
125 547 _l
296 88 _l
467 547 _l
562 547 _l
357 0 _l
235 0 _l
30 547 _l
_cl}_d
/w{818 0 42 0 776 547 _sc
42 547 _m
132 547 _l
244 120 _l
356 547 _l
462 547 _l
574 120 _l
686 547 _l
776 547 _l
633 0 _l
527 0 _l
409 448 _l
291 0 _l
185 0 _l
42 547 _l
_cl}_d
/z{525 0 43 0 482 547 _sc
55 547 _m
482 547 _l
482 465 _l
144 72 _l
482 72 _l
482 0 _l
43 0 _l
43 82 _l
381 475 _l
55 475 _l
55 547 _l
_cl}_d
end readonly def

/BuildGlyph
 {exch begin
 CharStrings exch
 2 copy known not{pop /.notdef}if
 true 3 1 roll get exec
 end}_d

/BuildChar {
 1 index /Encoding get exch get
 1 index /BuildGlyph get exec
}_d

FontName currentdict end definefont pop
end
%%EndProlog
mpldict begin
86.04 227.52 translate
439.92 336.96 0 0 clipbox
gsave
0 0 m
439.92 0 l
439.92 336.96 l
0 336.96 l
cl
1.000 setgray
fill
grestore
gsave
54.99 37.0656 m
395.928 37.0656 l
395.928 296.5248 l
54.99 296.5248 l
cl
1.000 setgray
fill
grestore
1.000 setlinewidth
0 setlinejoin
0 setlinecap
[] 0 setdash
0.000 setgray
gsave
340.9 259.5 54.99 37.07 clipbox
-31.152666 37.0656 m
-20.898253 37.0656 l
-20.898253 11296.159461 l
-31.152666 11296.159461 l
cl
gsave
0.122 0.467 0.706 setrgbcolor
fill
grestore
stroke
grestore
gsave
340.9 259.5 54.99 37.07 clipbox
-20.898253 37.0656 m
-10.643839 37.0656 l
-10.643839 37.0656 l
-20.898253 37.0656 l
cl
gsave
0.122 0.467 0.706 setrgbcolor
fill
grestore
stroke
grestore
gsave
340.9 259.5 54.99 37.07 clipbox
-10.643839 37.0656 m
-0.389425 37.0656 l
-0.389425 37.0656 l
-10.643839 37.0656 l
cl
gsave
0.122 0.467 0.706 setrgbcolor
fill
grestore
stroke
grestore
gsave
340.9 259.5 54.99 37.07 clipbox
-0.389425 37.0656 m
9.864988 37.0656 l
9.864988 37.0656 l
-0.389425 37.0656 l
cl
gsave
0.122 0.467 0.706 setrgbcolor
fill
grestore
stroke
grestore
gsave
340.9 259.5 54.99 37.07 clipbox
9.864988 37.0656 m
20.119402 37.0656 l
20.119402 37.0656 l
9.864988 37.0656 l
cl
gsave
0.122 0.467 0.706 setrgbcolor
fill
grestore
stroke
grestore
gsave
340.9 259.5 54.99 37.07 clipbox
20.119402 37.0656 m
30.373816 37.0656 l
30.373816 37.0656 l
20.119402 37.0656 l
cl
gsave
0.122 0.467 0.706 setrgbcolor
fill
grestore
stroke
grestore
gsave
340.9 259.5 54.99 37.07 clipbox
30.373816 37.0656 m
40.628229 37.0656 l
40.628229 37.0656 l
30.373816 37.0656 l
cl
gsave
0.122 0.467 0.706 setrgbcolor
fill
grestore
stroke
grestore
gsave
340.9 259.5 54.99 37.07 clipbox
40.628229 37.0656 m
50.882643 37.0656 l
50.882643 37.0656 l
40.628229 37.0656 l
cl
gsave
0.122 0.467 0.706 setrgbcolor
fill
grestore
stroke
grestore
gsave
340.9 259.5 54.99 37.07 clipbox
50.882643 37.0656 m
61.137057 37.0656 l
61.137057 37.0656 l
50.882643 37.0656 l
cl
gsave
0.122 0.467 0.706 setrgbcolor
fill
grestore
stroke
grestore
gsave
340.9 259.5 54.99 37.07 clipbox
61.137057 37.0656 m
71.39147 37.0656 l
71.39147 37.0656 l
61.137057 37.0656 l
cl
gsave
0.122 0.467 0.706 setrgbcolor
fill
grestore
stroke
grestore
gsave
340.9 259.5 54.99 37.07 clipbox
71.39147 37.0656 m
81.645884 37.0656 l
81.645884 37.0656 l
71.39147 37.0656 l
cl
gsave
0.122 0.467 0.706 setrgbcolor
fill
grestore
stroke
grestore
gsave
340.9 259.5 54.99 37.07 clipbox
81.645884 37.0656 m
91.900297 37.0656 l
91.900297 37.0656 l
81.645884 37.0656 l
cl
gsave
0.122 0.467 0.706 setrgbcolor
fill
grestore
stroke
grestore
gsave
340.9 259.5 54.99 37.07 clipbox
91.900297 37.0656 m
102.154711 37.0656 l
102.154711 37.0656 l
91.900297 37.0656 l
cl
gsave
0.122 0.467 0.706 setrgbcolor
fill
grestore
stroke
grestore
gsave
340.9 259.5 54.99 37.07 clipbox
102.154711 37.0656 m
112.409125 37.0656 l
112.409125 37.0656 l
102.154711 37.0656 l
cl
gsave
0.122 0.467 0.706 setrgbcolor
fill
grestore
stroke
grestore
gsave
340.9 259.5 54.99 37.07 clipbox
112.409125 37.0656 m
122.663538 37.0656 l
122.663538 37.0656 l
112.409125 37.0656 l
cl
gsave
0.122 0.467 0.706 setrgbcolor
fill
grestore
stroke
grestore
gsave
340.9 259.5 54.99 37.07 clipbox
122.663538 37.0656 m
132.917952 37.0656 l
132.917952 37.0656 l
122.663538 37.0656 l
cl
gsave
0.122 0.467 0.706 setrgbcolor
fill
grestore
stroke
grestore
gsave
340.9 259.5 54.99 37.07 clipbox
132.917952 37.0656 m
143.172366 37.0656 l
143.172366 37.0656 l
132.917952 37.0656 l
cl
gsave
0.122 0.467 0.706 setrgbcolor
fill
grestore
stroke
grestore
gsave
340.9 259.5 54.99 37.07 clipbox
143.172366 37.0656 m
153.426779 37.0656 l
153.426779 37.0656 l
143.172366 37.0656 l
cl
gsave
0.122 0.467 0.706 setrgbcolor
fill
grestore
stroke
grestore
gsave
340.9 259.5 54.99 37.07 clipbox
153.426779 37.0656 m
163.681193 37.0656 l
163.681193 37.0656 l
153.426779 37.0656 l
cl
gsave
0.122 0.467 0.706 setrgbcolor
fill
grestore
stroke
grestore
gsave
340.9 259.5 54.99 37.07 clipbox
163.681193 37.0656 m
173.935607 37.0656 l
173.935607 37.0656 l
163.681193 37.0656 l
cl
gsave
0.122 0.467 0.706 setrgbcolor
fill
grestore
stroke
grestore
gsave
340.9 259.5 54.99 37.07 clipbox
173.935607 37.0656 m
184.19002 37.0656 l
184.19002 37.0656 l
173.935607 37.0656 l
cl
gsave
0.122 0.467 0.706 setrgbcolor
fill
grestore
stroke
grestore
gsave
340.9 259.5 54.99 37.07 clipbox
184.19002 37.0656 m
194.444434 37.0656 l
194.444434 37.0656 l
184.19002 37.0656 l
cl
gsave
0.122 0.467 0.706 setrgbcolor
fill
grestore
stroke
grestore
gsave
340.9 259.5 54.99 37.07 clipbox
194.444434 37.0656 m
204.698848 37.0656 l
204.698848 37.0656 l
194.444434 37.0656 l
cl
gsave
0.122 0.467 0.706 setrgbcolor
fill
grestore
stroke
grestore
gsave
340.9 259.5 54.99 37.07 clipbox
204.698848 37.0656 m
214.953261 37.0656 l
214.953261 37.0656 l
204.698848 37.0656 l
cl
gsave
0.122 0.467 0.706 setrgbcolor
fill
grestore
stroke
grestore
gsave
340.9 259.5 54.99 37.07 clipbox
214.953261 37.0656 m
225.207675 37.0656 l
225.207675 37.0656 l
214.953261 37.0656 l
cl
gsave
0.122 0.467 0.706 setrgbcolor
fill
grestore
stroke
grestore
gsave
340.9 259.5 54.99 37.07 clipbox
225.207675 37.0656 m
235.462089 37.0656 l
235.462089 59.811244 l
225.207675 59.811244 l
cl
gsave
0.122 0.467 0.706 setrgbcolor
fill
grestore
stroke
grestore
gsave
340.9 259.5 54.99 37.07 clipbox
235.462089 37.0656 m
245.716502 37.0656 l
245.716502 37.0656 l
235.462089 37.0656 l
cl
gsave
0.122 0.467 0.706 setrgbcolor
fill
grestore
stroke
grestore
gsave
340.9 259.5 54.99 37.07 clipbox
245.716502 37.0656 m
255.970916 37.0656 l
255.970916 48.438422 l
245.716502 48.438422 l
cl
gsave
0.122 0.467 0.706 setrgbcolor
fill
grestore
stroke
grestore
gsave
340.9 259.5 54.99 37.07 clipbox
255.970916 37.0656 m
266.22533 37.0656 l
266.22533 48.438422 l
255.970916 48.438422 l
cl
gsave
0.122 0.467 0.706 setrgbcolor
fill
grestore
stroke
grestore
gsave
340.9 259.5 54.99 37.07 clipbox
266.22533 37.0656 m
276.479743 37.0656 l
276.479743 37.0656 l
266.22533 37.0656 l
cl
gsave
0.122 0.467 0.706 setrgbcolor
fill
grestore
stroke
grestore
gsave
340.9 259.5 54.99 37.07 clipbox
276.479743 37.0656 m
286.734157 37.0656 l
286.734157 37.0656 l
276.479743 37.0656 l
cl
gsave
0.122 0.467 0.706 setrgbcolor
fill
grestore
stroke
grestore
gsave
340.9 259.5 54.99 37.07 clipbox
286.734157 37.0656 m
296.988571 37.0656 l
296.988571 37.0656 l
286.734157 37.0656 l
cl
gsave
0.122 0.467 0.706 setrgbcolor
fill
grestore
stroke
grestore
gsave
340.9 259.5 54.99 37.07 clipbox
296.988571 37.0656 m
307.242984 37.0656 l
307.242984 48.438422 l
296.988571 48.438422 l
cl
gsave
0.122 0.467 0.706 setrgbcolor
fill
grestore
stroke
grestore
gsave
340.9 259.5 54.99 37.07 clipbox
307.242984 37.0656 m
317.497398 37.0656 l
317.497398 48.438422 l
307.242984 48.438422 l
cl
gsave
0.122 0.467 0.706 setrgbcolor
fill
grestore
stroke
grestore
gsave
340.9 259.5 54.99 37.07 clipbox
317.497398 37.0656 m
327.751812 37.0656 l
327.751812 59.811244 l
317.497398 59.811244 l
cl
gsave
0.122 0.467 0.706 setrgbcolor
fill
grestore
stroke
grestore
gsave
340.9 259.5 54.99 37.07 clipbox
327.751812 37.0656 m
338.006225 37.0656 l
338.006225 37.0656 l
327.751812 37.0656 l
cl
gsave
0.122 0.467 0.706 setrgbcolor
fill
grestore
stroke
grestore
gsave
340.9 259.5 54.99 37.07 clipbox
338.006225 37.0656 m
348.260639 37.0656 l
348.260639 37.0656 l
338.006225 37.0656 l
cl
gsave
0.122 0.467 0.706 setrgbcolor
fill
grestore
stroke
grestore
gsave
340.9 259.5 54.99 37.07 clipbox
348.260639 37.0656 m
358.515052 37.0656 l
358.515052 37.0656 l
348.260639 37.0656 l
cl
gsave
0.122 0.467 0.706 setrgbcolor
fill
grestore
stroke
grestore
gsave
340.9 259.5 54.99 37.07 clipbox
358.515052 37.0656 m
368.769466 37.0656 l
368.769466 37.0656 l
358.515052 37.0656 l
cl
gsave
0.122 0.467 0.706 setrgbcolor
fill
grestore
stroke
grestore
gsave
340.9 259.5 54.99 37.07 clipbox
368.769466 37.0656 m
379.02388 37.0656 l
379.02388 59.811244 l
368.769466 59.811244 l
cl
gsave
0.122 0.467 0.706 setrgbcolor
fill
grestore
stroke
grestore
gsave
340.9 259.5 54.99 37.07 clipbox
-61.182962 37.0656 m
-52.46521 37.0656 l
-52.46521 304.615378 l
-61.182962 304.615378 l
cl
gsave
1.000 0.498 0.055 setrgbcolor
fill
grestore
stroke
grestore
gsave
340.9 259.5 54.99 37.07 clipbox
-52.46521 37.0656 m
-43.747459 37.0656 l
-43.747459 1374.814488 l
-52.46521 1374.814488 l
cl
gsave
1.000 0.498 0.055 setrgbcolor
fill
grestore
stroke
grestore
gsave
340.9 259.5 54.99 37.07 clipbox
-43.747459 37.0656 m
-35.029708 37.0656 l
-35.029708 3261.040421 l
-43.747459 3261.040421 l
cl
gsave
1.000 0.498 0.055 setrgbcolor
fill
grestore
stroke
grestore
gsave
340.9 259.5 54.99 37.07 clipbox
-35.029708 37.0656 m
-26.311956 37.0656 l
-26.311956 3582.100154 l
-35.029708 3582.100154 l
cl
gsave
1.000 0.498 0.055 setrgbcolor
fill
grestore
stroke
grestore
gsave
340.9 259.5 54.99 37.07 clipbox
-26.311956 37.0656 m
-17.594205 37.0656 l
-17.594205 3194.152977 l
-26.311956 3194.152977 l
cl
gsave
1.000 0.498 0.055 setrgbcolor
fill
grestore
stroke
grestore
gsave
340.9 259.5 54.99 37.07 clipbox
-17.594205 37.0656 m
-8.876453 37.0656 l
-8.876453 1374.814488 l
-17.594205 1374.814488 l
cl
gsave
1.000 0.498 0.055 setrgbcolor
fill
grestore
stroke
grestore
gsave
340.9 259.5 54.99 37.07 clipbox
-8.876453 37.0656 m
-0.158702 37.0656 l
-0.158702 384.880311 l
-8.876453 384.880311 l
cl
gsave
1.000 0.498 0.055 setrgbcolor
fill
grestore
stroke
grestore
gsave
340.9 259.5 54.99 37.07 clipbox
-0.158702 37.0656 m
8.559049 37.0656 l
8.559049 63.820578 l
-0.158702 63.820578 l
cl
gsave
1.000 0.498 0.055 setrgbcolor
fill
grestore
stroke
grestore
gsave
340.9 259.5 54.99 37.07 clipbox
8.559049 37.0656 m
17.276801 37.0656 l
17.276801 37.0656 l
8.559049 37.0656 l
cl
gsave
1.000 0.498 0.055 setrgbcolor
fill
grestore
stroke
grestore
gsave
340.9 259.5 54.99 37.07 clipbox
17.276801 37.0656 m
25.994552 37.0656 l
25.994552 37.0656 l
17.276801 37.0656 l
cl
gsave
1.000 0.498 0.055 setrgbcolor
fill
grestore
stroke
grestore
gsave
340.9 259.5 54.99 37.07 clipbox
25.994552 37.0656 m
34.712303 37.0656 l
34.712303 37.0656 l
25.994552 37.0656 l
cl
gsave
1.000 0.498 0.055 setrgbcolor
fill
grestore
stroke
grestore
gsave
340.9 259.5 54.99 37.07 clipbox
34.712303 37.0656 m
43.430055 37.0656 l
43.430055 37.0656 l
34.712303 37.0656 l
cl
gsave
1.000 0.498 0.055 setrgbcolor
fill
grestore
stroke
grestore
gsave
340.9 259.5 54.99 37.07 clipbox
43.430055 37.0656 m
52.147806 37.0656 l
52.147806 37.0656 l
43.430055 37.0656 l
cl
gsave
1.000 0.498 0.055 setrgbcolor
fill
grestore
stroke
grestore
gsave
340.9 259.5 54.99 37.07 clipbox
52.147806 37.0656 m
60.865558 37.0656 l
60.865558 37.0656 l
52.147806 37.0656 l
cl
gsave
1.000 0.498 0.055 setrgbcolor
fill
grestore
stroke
grestore
gsave
340.9 259.5 54.99 37.07 clipbox
60.865558 37.0656 m
69.583309 37.0656 l
69.583309 37.0656 l
60.865558 37.0656 l
cl
gsave
1.000 0.498 0.055 setrgbcolor
fill
grestore
stroke
grestore
gsave
340.9 259.5 54.99 37.07 clipbox
69.583309 37.0656 m
78.30106 37.0656 l
78.30106 37.0656 l
69.583309 37.0656 l
cl
gsave
1.000 0.498 0.055 setrgbcolor
fill
grestore
stroke
grestore
gsave
340.9 259.5 54.99 37.07 clipbox
78.30106 37.0656 m
87.018812 37.0656 l
87.018812 37.0656 l
78.30106 37.0656 l
cl
gsave
1.000 0.498 0.055 setrgbcolor
fill
grestore
stroke
grestore
gsave
340.9 259.5 54.99 37.07 clipbox
87.018812 37.0656 m
95.736563 37.0656 l
95.736563 37.0656 l
87.018812 37.0656 l
cl
gsave
1.000 0.498 0.055 setrgbcolor
fill
grestore
stroke
grestore
gsave
340.9 259.5 54.99 37.07 clipbox
95.736563 37.0656 m
104.454314 37.0656 l
104.454314 37.0656 l
95.736563 37.0656 l
cl
gsave
1.000 0.498 0.055 setrgbcolor
fill
grestore
stroke
grestore
gsave
340.9 259.5 54.99 37.07 clipbox
104.454314 37.0656 m
113.172066 37.0656 l
113.172066 37.0656 l
104.454314 37.0656 l
cl
gsave
1.000 0.498 0.055 setrgbcolor
fill
grestore
stroke
grestore
gsave
340.9 259.5 54.99 37.07 clipbox
113.172066 37.0656 m
121.889817 37.0656 l
121.889817 37.0656 l
113.172066 37.0656 l
cl
gsave
1.000 0.498 0.055 setrgbcolor
fill
grestore
stroke
grestore
gsave
340.9 259.5 54.99 37.07 clipbox
121.889817 37.0656 m
130.607568 37.0656 l
130.607568 37.0656 l
121.889817 37.0656 l
cl
gsave
1.000 0.498 0.055 setrgbcolor
fill
grestore
stroke
grestore
gsave
340.9 259.5 54.99 37.07 clipbox
130.607568 37.0656 m
139.32532 37.0656 l
139.32532 37.0656 l
130.607568 37.0656 l
cl
gsave
1.000 0.498 0.055 setrgbcolor
fill
grestore
stroke
grestore
gsave
340.9 259.5 54.99 37.07 clipbox
139.32532 37.0656 m
148.043071 37.0656 l
148.043071 37.0656 l
139.32532 37.0656 l
cl
gsave
1.000 0.498 0.055 setrgbcolor
fill
grestore
stroke
grestore
gsave
340.9 259.5 54.99 37.07 clipbox
148.043071 37.0656 m
156.760823 37.0656 l
156.760823 37.0656 l
148.043071 37.0656 l
cl
gsave
1.000 0.498 0.055 setrgbcolor
fill
grestore
stroke
grestore
gsave
340.9 259.5 54.99 37.07 clipbox
156.760823 37.0656 m
165.478574 37.0656 l
165.478574 37.0656 l
156.760823 37.0656 l
cl
gsave
1.000 0.498 0.055 setrgbcolor
fill
grestore
stroke
grestore
gsave
340.9 259.5 54.99 37.07 clipbox
165.478574 37.0656 m
174.196325 37.0656 l
174.196325 50.443089 l
165.478574 50.443089 l
cl
gsave
1.000 0.498 0.055 setrgbcolor
fill
grestore
stroke
grestore
gsave
340.9 259.5 54.99 37.07 clipbox
174.196325 37.0656 m
182.914077 37.0656 l
182.914077 37.0656 l
174.196325 37.0656 l
cl
gsave
1.000 0.498 0.055 setrgbcolor
fill
grestore
stroke
grestore
gsave
340.9 259.5 54.99 37.07 clipbox
182.914077 37.0656 m
191.631828 37.0656 l
191.631828 50.443089 l
182.914077 50.443089 l
cl
gsave
1.000 0.498 0.055 setrgbcolor
fill
grestore
stroke
grestore
gsave
340.9 259.5 54.99 37.07 clipbox
191.631828 37.0656 m
200.349579 37.0656 l
200.349579 37.0656 l
191.631828 37.0656 l
cl
gsave
1.000 0.498 0.055 setrgbcolor
fill
grestore
stroke
grestore
gsave
340.9 259.5 54.99 37.07 clipbox
200.349579 37.0656 m
209.067331 37.0656 l
209.067331 63.820578 l
200.349579 63.820578 l
cl
gsave
1.000 0.498 0.055 setrgbcolor
fill
grestore
stroke
grestore
gsave
340.9 259.5 54.99 37.07 clipbox
209.067331 37.0656 m
217.785082 37.0656 l
217.785082 37.0656 l
209.067331 37.0656 l
cl
gsave
1.000 0.498 0.055 setrgbcolor
fill
grestore
stroke
grestore
gsave
340.9 259.5 54.99 37.07 clipbox
217.785082 37.0656 m
226.502834 37.0656 l
226.502834 37.0656 l
217.785082 37.0656 l
cl
gsave
1.000 0.498 0.055 setrgbcolor
fill
grestore
stroke
grestore
gsave
340.9 259.5 54.99 37.07 clipbox
226.502834 37.0656 m
235.220585 37.0656 l
235.220585 37.0656 l
226.502834 37.0656 l
cl
gsave
1.000 0.498 0.055 setrgbcolor
fill
grestore
stroke
grestore
gsave
340.9 259.5 54.99 37.07 clipbox
235.220585 37.0656 m
243.938336 37.0656 l
243.938336 63.820578 l
235.220585 63.820578 l
cl
gsave
1.000 0.498 0.055 setrgbcolor
fill
grestore
stroke
grestore
gsave
340.9 259.5 54.99 37.07 clipbox
243.938336 37.0656 m
252.656088 37.0656 l
252.656088 77.198067 l
243.938336 77.198067 l
cl
gsave
1.000 0.498 0.055 setrgbcolor
fill
grestore
stroke
grestore
gsave
340.9 259.5 54.99 37.07 clipbox
252.656088 37.0656 m
261.373839 37.0656 l
261.373839 37.0656 l
252.656088 37.0656 l
cl
gsave
1.000 0.498 0.055 setrgbcolor
fill
grestore
stroke
grestore
gsave
340.9 259.5 54.99 37.07 clipbox
261.373839 37.0656 m
270.09159 37.0656 l
270.09159 37.0656 l
261.373839 37.0656 l
cl
gsave
1.000 0.498 0.055 setrgbcolor
fill
grestore
stroke
grestore
gsave
340.9 259.5 54.99 37.07 clipbox
270.09159 37.0656 m
278.809342 37.0656 l
278.809342 37.0656 l
270.09159 37.0656 l
cl
gsave
1.000 0.498 0.055 setrgbcolor
fill
grestore
stroke
grestore
gsave
340.9 259.5 54.99 37.07 clipbox
278.809342 37.0656 m
287.527093 37.0656 l
287.527093 50.443089 l
278.809342 50.443089 l
cl
gsave
1.000 0.498 0.055 setrgbcolor
fill
grestore
stroke
grestore
gsave
340.9 259.5 54.99 37.07 clipbox
-74.258525 37.0656 m
-70.634003 37.0656 l
-70.634003 197.944258 l
-74.258525 197.944258 l
cl
gsave
0.173 0.627 0.173 setrgbcolor
fill
grestore
stroke
grestore
gsave
340.9 259.5 54.99 37.07 clipbox
-70.634003 37.0656 m
-67.009482 37.0656 l
-67.009482 230.11999 l
-70.634003 230.11999 l
cl
gsave
0.173 0.627 0.173 setrgbcolor
fill
grestore
stroke
grestore
gsave
340.9 259.5 54.99 37.07 clipbox
-67.009482 37.0656 m
-63.384961 37.0656 l
-63.384961 584.053038 l
-67.009482 584.053038 l
cl
gsave
0.173 0.627 0.173 setrgbcolor
fill
grestore
stroke
grestore
gsave
340.9 259.5 54.99 37.07 clipbox
-63.384961 37.0656 m
-59.76044 37.0656 l
-59.76044 358.822916 l
-63.384961 358.822916 l
cl
gsave
0.173 0.627 0.173 setrgbcolor
fill
grestore
stroke
grestore
gsave
340.9 259.5 54.99 37.07 clipbox
-59.76044 37.0656 m
-56.135918 37.0656 l
-56.135918 809.283159 l
-59.76044 809.283159 l
cl
gsave
0.173 0.627 0.173 setrgbcolor
fill
grestore
stroke
grestore
gsave
340.9 259.5 54.99 37.07 clipbox
-56.135918 37.0656 m
-52.511397 37.0656 l
-52.511397 1388.446329 l
-56.135918 1388.446329 l
cl
gsave
0.173 0.627 0.173 setrgbcolor
fill
grestore
stroke
grestore
gsave
340.9 259.5 54.99 37.07 clipbox
-52.511397 37.0656 m
-48.886876 37.0656 l
-48.886876 1452.797792 l
-52.511397 1452.797792 l
cl
gsave
0.173 0.627 0.173 setrgbcolor
fill
grestore
stroke
grestore
gsave
340.9 259.5 54.99 37.07 clipbox
-48.886876 37.0656 m
-45.262355 37.0656 l
-45.262355 1484.973524 l
-48.886876 1484.973524 l
cl
gsave
0.173 0.627 0.173 setrgbcolor
fill
grestore
stroke
grestore
gsave
340.9 259.5 54.99 37.07 clipbox
-45.262355 37.0656 m
-41.637834 37.0656 l
-41.637834 1774.555109 l
-45.262355 1774.555109 l
cl
gsave
0.173 0.627 0.173 setrgbcolor
fill
grestore
stroke
grestore
gsave
340.9 259.5 54.99 37.07 clipbox
-41.637834 37.0656 m
-38.013312 37.0656 l
-38.013312 1967.609499 l
-41.637834 1967.609499 l
cl
gsave
0.173 0.627 0.173 setrgbcolor
fill
grestore
stroke
grestore
gsave
340.9 259.5 54.99 37.07 clipbox
-38.013312 37.0656 m
-34.388791 37.0656 l
-34.388791 2385.89401 l
-38.013312 2385.89401 l
cl
gsave
0.173 0.627 0.173 setrgbcolor
fill
grestore
stroke
grestore
gsave
340.9 259.5 54.99 37.07 clipbox
-34.388791 37.0656 m
-30.76427 37.0656 l
-30.76427 2578.9484 l
-34.388791 2578.9484 l
cl
gsave
0.173 0.627 0.173 setrgbcolor
fill
grestore
stroke
grestore
gsave
340.9 259.5 54.99 37.07 clipbox
-30.76427 37.0656 m
-27.139749 37.0656 l
-27.139749 2546.772668 l
-30.76427 2546.772668 l
cl
gsave
0.173 0.627 0.173 setrgbcolor
fill
grestore
stroke
grestore
gsave
340.9 259.5 54.99 37.07 clipbox
-27.139749 37.0656 m
-23.515228 37.0656 l
-23.515228 2482.421205 l
-27.139749 2482.421205 l
cl
gsave
0.173 0.627 0.173 setrgbcolor
fill
grestore
stroke
grestore
gsave
340.9 259.5 54.99 37.07 clipbox
-23.515228 37.0656 m
-19.890706 37.0656 l
-19.890706 2257.191084 l
-23.515228 2257.191084 l
cl
gsave
0.173 0.627 0.173 setrgbcolor
fill
grestore
stroke
grestore
gsave
340.9 259.5 54.99 37.07 clipbox
-19.890706 37.0656 m
-16.266185 37.0656 l
-16.266185 1999.78523 l
-19.890706 1999.78523 l
cl
gsave
0.173 0.627 0.173 setrgbcolor
fill
grestore
stroke
grestore
gsave
340.9 259.5 54.99 37.07 clipbox
-16.266185 37.0656 m
-12.641664 37.0656 l
-12.641664 1871.082304 l
-16.266185 1871.082304 l
cl
gsave
0.173 0.627 0.173 setrgbcolor
fill
grestore
stroke
grestore
gsave
340.9 259.5 54.99 37.07 clipbox
-12.641664 37.0656 m
-9.017143 37.0656 l
-9.017143 1484.973524 l
-12.641664 1484.973524 l
cl
gsave
0.173 0.627 0.173 setrgbcolor
fill
grestore
stroke
grestore
gsave
340.9 259.5 54.99 37.07 clipbox
-9.017143 37.0656 m
-5.392621 37.0656 l
-5.392621 1324.094866 l
-9.017143 1324.094866 l
cl
gsave
0.173 0.627 0.173 setrgbcolor
fill
grestore
stroke
grestore
gsave
340.9 259.5 54.99 37.07 clipbox
-5.392621 37.0656 m
-1.7681 37.0656 l
-1.7681 1163.216208 l
-5.392621 1163.216208 l
cl
gsave
0.173 0.627 0.173 setrgbcolor
fill
grestore
stroke
grestore
gsave
340.9 259.5 54.99 37.07 clipbox
-1.7681 37.0656 m
1.856421 37.0656 l
1.856421 712.755965 l
-1.7681 712.755965 l
cl
gsave
0.173 0.627 0.173 setrgbcolor
fill
grestore
stroke
grestore
gsave
340.9 259.5 54.99 37.07 clipbox
1.856421 37.0656 m
5.480942 37.0656 l
5.480942 680.580233 l
1.856421 680.580233 l
cl
gsave
0.173 0.627 0.173 setrgbcolor
fill
grestore
stroke
grestore
gsave
340.9 259.5 54.99 37.07 clipbox
5.480942 37.0656 m
9.105463 37.0656 l
9.105463 487.525843 l
5.480942 487.525843 l
cl
gsave
0.173 0.627 0.173 setrgbcolor
fill
grestore
stroke
grestore
gsave
340.9 259.5 54.99 37.07 clipbox
9.105463 37.0656 m
12.729985 37.0656 l
12.729985 262.295722 l
9.105463 262.295722 l
cl
gsave
0.173 0.627 0.173 setrgbcolor
fill
grestore
stroke
grestore
gsave
340.9 259.5 54.99 37.07 clipbox
12.729985 37.0656 m
16.354506 37.0656 l
16.354506 133.592795 l
12.729985 133.592795 l
cl
gsave
0.173 0.627 0.173 setrgbcolor
fill
grestore
stroke
grestore
gsave
340.9 259.5 54.99 37.07 clipbox
16.354506 37.0656 m
19.979027 37.0656 l
19.979027 165.768527 l
16.354506 165.768527 l
cl
gsave
0.173 0.627 0.173 setrgbcolor
fill
grestore
stroke
grestore
gsave
340.9 259.5 54.99 37.07 clipbox
19.979027 37.0656 m
23.603548 37.0656 l
23.603548 37.0656 l
19.979027 37.0656 l
cl
gsave
0.173 0.627 0.173 setrgbcolor
fill
grestore
stroke
grestore
gsave
340.9 259.5 54.99 37.07 clipbox
23.603548 37.0656 m
27.22807 37.0656 l
27.22807 69.241332 l
23.603548 69.241332 l
cl
gsave
0.173 0.627 0.173 setrgbcolor
fill
grestore
stroke
grestore
gsave
340.9 259.5 54.99 37.07 clipbox
27.22807 37.0656 m
30.852591 37.0656 l
30.852591 37.0656 l
27.22807 37.0656 l
cl
gsave
0.173 0.627 0.173 setrgbcolor
fill
grestore
stroke
grestore
gsave
340.9 259.5 54.99 37.07 clipbox
30.852591 37.0656 m
34.477112 37.0656 l
34.477112 37.0656 l
30.852591 37.0656 l
cl
gsave
0.173 0.627 0.173 setrgbcolor
fill
grestore
stroke
grestore
gsave
340.9 259.5 54.99 37.07 clipbox
34.477112 37.0656 m
38.101633 37.0656 l
38.101633 37.0656 l
34.477112 37.0656 l
cl
gsave
0.173 0.627 0.173 setrgbcolor
fill
grestore
stroke
grestore
gsave
340.9 259.5 54.99 37.07 clipbox
38.101633 37.0656 m
41.726154 37.0656 l
41.726154 37.0656 l
38.101633 37.0656 l
cl
gsave
0.173 0.627 0.173 setrgbcolor
fill
grestore
stroke
grestore
gsave
340.9 259.5 54.99 37.07 clipbox
41.726154 37.0656 m
45.350676 37.0656 l
45.350676 37.0656 l
41.726154 37.0656 l
cl
gsave
0.173 0.627 0.173 setrgbcolor
fill
grestore
stroke
grestore
gsave
340.9 259.5 54.99 37.07 clipbox
45.350676 37.0656 m
48.975197 37.0656 l
48.975197 37.0656 l
45.350676 37.0656 l
cl
gsave
0.173 0.627 0.173 setrgbcolor
fill
grestore
stroke
grestore
gsave
340.9 259.5 54.99 37.07 clipbox
48.975197 37.0656 m
52.599718 37.0656 l
52.599718 37.0656 l
48.975197 37.0656 l
cl
gsave
0.173 0.627 0.173 setrgbcolor
fill
grestore
stroke
grestore
gsave
340.9 259.5 54.99 37.07 clipbox
52.599718 37.0656 m
56.224239 37.0656 l
56.224239 37.0656 l
52.599718 37.0656 l
cl
gsave
0.173 0.627 0.173 setrgbcolor
fill
grestore
stroke
grestore
gsave
340.9 259.5 54.99 37.07 clipbox
56.224239 37.0656 m
59.84876 37.0656 l
59.84876 37.0656 l
56.224239 37.0656 l
cl
gsave
0.173 0.627 0.173 setrgbcolor
fill
grestore
stroke
grestore
gsave
340.9 259.5 54.99 37.07 clipbox
59.84876 37.0656 m
63.473282 37.0656 l
63.473282 69.241332 l
59.84876 69.241332 l
cl
gsave
0.173 0.627 0.173 setrgbcolor
fill
grestore
stroke
grestore
gsave
340.9 259.5 54.99 37.07 clipbox
63.473282 37.0656 m
67.097803 37.0656 l
67.097803 101.417063 l
63.473282 101.417063 l
cl
gsave
0.173 0.627 0.173 setrgbcolor
fill
grestore
stroke
grestore
gsave
340.9 259.5 54.99 37.07 clipbox
67.097803 37.0656 m
70.722324 37.0656 l
70.722324 262.295722 l
67.097803 262.295722 l
cl
gsave
0.173 0.627 0.173 setrgbcolor
fill
grestore
stroke
grestore
0.800 setlinewidth
1 setlinejoin
[] 0 setdash
gsave
/o {
gsave
newpath
translate
0.8 setlinewidth
1 setlinejoin
0 setlinecap
0 0 m
0 -3.5 l

gsave
0.000 setgray
fill
grestore
stroke
grestore
} bind def
110.555 37.0656 o
grestore
/DejaVuSans findfont
10.000 scalefont
setfont
gsave
104.195459 22.471850 translate
0.000000 rotate
0.000000 0.000000 m /two glyphshow
6.362305 0.000000 m /zero glyphshow
grestore
gsave
/o {
gsave
newpath
translate
0.8 setlinewidth
1 setlinejoin
0 setlinecap
0 0 m
0 -3.5 l

gsave
0.000 setgray
fill
grestore
stroke
grestore
} bind def
181.409 37.0656 o
grestore
gsave
175.049210 22.471850 translate
0.000000 rotate
0.000000 0.000000 m /three glyphshow
6.362305 0.000000 m /zero glyphshow
grestore
gsave
/o {
gsave
newpath
translate
0.8 setlinewidth
1 setlinejoin
0 setlinecap
0 0 m
0 -3.5 l

gsave
0.000 setgray
fill
grestore
stroke
grestore
} bind def
252.262 37.0656 o
grestore
gsave
245.902960 22.471850 translate
0.000000 rotate
0.000000 0.000000 m /four glyphshow
6.362305 0.000000 m /zero glyphshow
grestore
gsave
/o {
gsave
newpath
translate
0.8 setlinewidth
1 setlinejoin
0 setlinecap
0 0 m
0 -3.5 l

gsave
0.000 setgray
fill
grestore
stroke
grestore
} bind def
323.116 37.0656 o
grestore
gsave
316.756711 22.471850 translate
0.000000 rotate
0.000000 0.000000 m /five glyphshow
6.362305 0.000000 m /zero glyphshow
grestore
gsave
/o {
gsave
newpath
translate
0.8 setlinewidth
1 setlinejoin
0 setlinecap
0 0 m
0 -3.5 l

gsave
0.000 setgray
fill
grestore
stroke
grestore
} bind def
393.97 37.0656 o
grestore
gsave
387.610461 22.471850 translate
0.000000 rotate
0.000000 0.000000 m /six glyphshow
6.362305 0.000000 m /zero glyphshow
grestore
/DejaVuSans findfont
14.000 scalefont
setfont
gsave
198.209000 5.753100 translate
0.000000 rotate
0.000000 0.000000 m /w glyphshow
11.450195 0.000000 m /e glyphshow
20.063477 0.000000 m /i glyphshow
23.953125 0.000000 m /g glyphshow
32.839844 0.000000 m /h glyphshow
41.712891 0.000000 m /t glyphshow
47.202148 0.000000 m /s glyphshow
grestore
gsave
/o {
gsave
newpath
translate
0.8 setlinewidth
1 setlinejoin
0 setlinecap
0 0 m
-3.5 0 l

gsave
0.000 setgray
fill
grestore
stroke
grestore
} bind def
54.99 37.0656 o
grestore
/DejaVuSans findfont
10.000 scalefont
setfont
gsave
19.365000 33.268725 translate
0.000000 rotate
0.000000 0.000000 m /zero glyphshow
6.362305 0.000000 m /period glyphshow
9.541016 0.000000 m /zero glyphshow
15.903320 0.000000 m /zero glyphshow
22.265625 0.000000 m /zero glyphshow
grestore
gsave
/o {
gsave
newpath
translate
0.8 setlinewidth
1 setlinejoin
0 setlinecap
0 0 m
-3.5 0 l

gsave
0.000 setgray
fill
grestore
stroke
grestore
} bind def
54.99 69.9846 o
grestore
gsave
19.365000 66.187694 translate
0.000000 rotate
0.000000 0.000000 m /zero glyphshow
6.362305 0.000000 m /period glyphshow
9.541016 0.000000 m /zero glyphshow
15.903320 0.000000 m /zero glyphshow
22.265625 0.000000 m /two glyphshow
grestore
gsave
/o {
gsave
newpath
translate
0.8 setlinewidth
1 setlinejoin
0 setlinecap
0 0 m
-3.5 0 l

gsave
0.000 setgray
fill
grestore
stroke
grestore
} bind def
54.99 102.904 o
grestore
gsave
19.365000 99.106664 translate
0.000000 rotate
0.000000 0.000000 m /zero glyphshow
6.362305 0.000000 m /period glyphshow
9.541016 0.000000 m /zero glyphshow
15.903320 0.000000 m /zero glyphshow
22.265625 0.000000 m /four glyphshow
grestore
gsave
/o {
gsave
newpath
translate
0.8 setlinewidth
1 setlinejoin
0 setlinecap
0 0 m
-3.5 0 l

gsave
0.000 setgray
fill
grestore
stroke
grestore
} bind def
54.99 135.823 o
grestore
gsave
19.365000 132.025633 translate
0.000000 rotate
0.000000 0.000000 m /zero glyphshow
6.362305 0.000000 m /period glyphshow
9.541016 0.000000 m /zero glyphshow
15.903320 0.000000 m /zero glyphshow
22.265625 0.000000 m /six glyphshow
grestore
gsave
/o {
gsave
newpath
translate
0.8 setlinewidth
1 setlinejoin
0 setlinecap
0 0 m
-3.5 0 l

gsave
0.000 setgray
fill
grestore
stroke
grestore
} bind def
54.99 168.741 o
grestore
gsave
19.365000 164.944603 translate
0.000000 rotate
0.000000 0.000000 m /zero glyphshow
6.362305 0.000000 m /period glyphshow
9.541016 0.000000 m /zero glyphshow
15.903320 0.000000 m /zero glyphshow
22.265625 0.000000 m /eight glyphshow
grestore
gsave
/o {
gsave
newpath
translate
0.8 setlinewidth
1 setlinejoin
0 setlinecap
0 0 m
-3.5 0 l

gsave
0.000 setgray
fill
grestore
stroke
grestore
} bind def
54.99 201.66 o
grestore
gsave
19.365000 197.863572 translate
0.000000 rotate
0.000000 0.000000 m /zero glyphshow
6.362305 0.000000 m /period glyphshow
9.541016 0.000000 m /zero glyphshow
15.903320 0.000000 m /one glyphshow
22.265625 0.000000 m /zero glyphshow
grestore
gsave
/o {
gsave
newpath
translate
0.8 setlinewidth
1 setlinejoin
0 setlinecap
0 0 m
-3.5 0 l

gsave
0.000 setgray
fill
grestore
stroke
grestore
} bind def
54.99 234.579 o
grestore
gsave
19.365000 230.782541 translate
0.000000 rotate
0.000000 0.000000 m /zero glyphshow
6.362305 0.000000 m /period glyphshow
9.541016 0.000000 m /zero glyphshow
15.903320 0.000000 m /one glyphshow
22.265625 0.000000 m /two glyphshow
grestore
gsave
/o {
gsave
newpath
translate
0.8 setlinewidth
1 setlinejoin
0 setlinecap
0 0 m
-3.5 0 l

gsave
0.000 setgray
fill
grestore
stroke
grestore
} bind def
54.99 267.498 o
grestore
gsave
19.365000 263.701511 translate
0.000000 rotate
0.000000 0.000000 m /zero glyphshow
6.362305 0.000000 m /period glyphshow
9.541016 0.000000 m /zero glyphshow
15.903320 0.000000 m /one glyphshow
22.265625 0.000000 m /four glyphshow
grestore
/DejaVuSans findfont
14.000 scalefont
setfont
gsave
12.458750 105.006137 translate
90.000000 rotate
0.000000 0.000000 m /N glyphshow
10.472656 0.000000 m /o glyphshow
19.038086 0.000000 m /r glyphshow
24.793945 0.000000 m /m glyphshow
38.431641 0.000000 m /a glyphshow
47.010742 0.000000 m /l glyphshow
50.900391 0.000000 m /i glyphshow
54.790039 0.000000 m /z glyphshow
62.138672 0.000000 m /e glyphshow
70.751953 0.000000 m /d glyphshow
79.638672 0.000000 m /space glyphshow
84.088867 0.000000 m /c glyphshow
91.786133 0.000000 m /o glyphshow
100.351562 0.000000 m /u glyphshow
109.224609 0.000000 m /n glyphshow
118.097656 0.000000 m /t glyphshow
grestore
0 setlinejoin
2 setlinecap
[] 0 setdash
gsave
54.99 37.0656 m
54.99 296.5248 l
stroke
grestore
gsave
395.928 37.0656 m
395.928 296.5248 l
stroke
grestore
gsave
54.99 37.0656 m
395.928 37.0656 l
stroke
grestore
gsave
54.99 296.5248 m
395.928 296.5248 l
stroke
grestore
gsave
100.794938 302.524800 translate
0.000000 rotate
0.000000 0.000000 m /t glyphshow
5.489258 0.000000 m /space glyphshow
9.939453 0.000000 m /d glyphshow
18.826172 0.000000 m /i glyphshow
22.715820 0.000000 m /s glyphshow
30.009766 0.000000 m /t glyphshow
35.499023 0.000000 m /r glyphshow
41.254883 0.000000 m /i glyphshow
45.144531 0.000000 m /b glyphshow
54.031250 0.000000 m /u glyphshow
62.904297 0.000000 m /t glyphshow
68.393555 0.000000 m /i glyphshow
72.283203 0.000000 m /o glyphshow
80.848633 0.000000 m /n glyphshow
89.721680 0.000000 m /space glyphshow
94.171875 0.000000 m /v glyphshow
102.457031 0.000000 m /s glyphshow
109.750977 0.000000 m /space glyphshow
114.201172 0.000000 m /N glyphshow
124.673828 0.000000 m /o glyphshow
133.239258 0.000000 m /r glyphshow
138.995117 0.000000 m /m glyphshow
152.632812 0.000000 m /a glyphshow
161.211914 0.000000 m /l glyphshow
165.101562 0.000000 m /space glyphshow
169.551758 0.000000 m /d glyphshow
178.438477 0.000000 m /i glyphshow
182.328125 0.000000 m /s glyphshow
189.622070 0.000000 m /t glyphshow
195.111328 0.000000 m /r glyphshow
200.867188 0.000000 m /i glyphshow
204.756836 0.000000 m /b glyphshow
213.643555 0.000000 m /u glyphshow
222.516602 0.000000 m /t glyphshow
228.005859 0.000000 m /i glyphshow
231.895508 0.000000 m /o glyphshow
240.460938 0.000000 m /n glyphshow
grestore
1.000 setlinewidth
0 setlinecap
0.800 setgray
gsave
217.9905 244.509175 m
388.928 244.509175 l
390.261333 244.509175 390.928 245.175842 390.928 246.509175 c
390.928 289.5248 l
390.928 290.858133 390.261333 291.5248 388.928 291.5248 c
217.9905 291.5248 l
216.657167 291.5248 215.9905 290.858133 215.9905 289.5248 c
215.9905 246.509175 l
215.9905 245.175842 216.657167 244.509175 217.9905 244.509175 c
cl
gsave
1.000 setgray
fill
grestore
stroke
grestore
0.000 setgray
gsave
219.9905 279.93105 m
239.9905 279.93105 l
239.9905 286.93105 l
219.9905 286.93105 l
cl
gsave
0.122 0.467 0.706 setrgbcolor
fill
grestore
stroke
grestore
/DejaVuSans findfont
10.000 scalefont
setfont
gsave
247.990500 279.931050 translate
0.000000 rotate
0.000000 0.000000 m /T glyphshow
6.092773 0.000000 m /r glyphshow
10.204102 0.000000 m /u glyphshow
16.541992 0.000000 m /e glyphshow
22.694336 0.000000 m /space glyphshow
25.873047 0.000000 m /w glyphshow
34.051758 0.000000 m /e glyphshow
40.204102 0.000000 m /i glyphshow
42.982422 0.000000 m /g glyphshow
49.330078 0.000000 m /h glyphshow
55.667969 0.000000 m /t glyphshow
59.588867 0.000000 m /s glyphshow
grestore
gsave
219.9905 265.259175 m
239.9905 265.259175 l
239.9905 272.259175 l
219.9905 272.259175 l
cl
gsave
1.000 0.498 0.055 setrgbcolor
fill
grestore
stroke
grestore
gsave
247.990500 265.259175 translate
0.000000 rotate
0.000000 0.000000 m /t glyphshow
3.920898 0.000000 m /space glyphshow
7.099609 0.000000 m /d glyphshow
13.447266 0.000000 m /i glyphshow
16.225586 0.000000 m /s glyphshow
21.435547 0.000000 m /t glyphshow
25.356445 0.000000 m /space glyphshow
28.535156 0.000000 m /t glyphshow
32.456055 0.000000 m /r glyphshow
36.567383 0.000000 m /a glyphshow
42.695312 0.000000 m /i glyphshow
45.473633 0.000000 m /n glyphshow
51.811523 0.000000 m /e glyphshow
57.963867 0.000000 m /d glyphshow
64.311523 0.000000 m /space glyphshow
67.490234 0.000000 m /w glyphshow
75.668945 0.000000 m /e glyphshow
81.821289 0.000000 m /i glyphshow
84.599609 0.000000 m /g glyphshow
90.947266 0.000000 m /h glyphshow
97.285156 0.000000 m /t glyphshow
101.206055 0.000000 m /s glyphshow
grestore
gsave
219.9905 250.5873 m
239.9905 250.5873 l
239.9905 257.5873 l
219.9905 257.5873 l
cl
gsave
0.173 0.627 0.173 setrgbcolor
fill
grestore
stroke
grestore
gsave
247.990500 250.587300 translate
0.000000 rotate
0.000000 0.000000 m /N glyphshow
7.480469 0.000000 m /o glyphshow
13.598633 0.000000 m /r glyphshow
17.709961 0.000000 m /m glyphshow
27.451172 0.000000 m /a glyphshow
33.579102 0.000000 m /l glyphshow
36.357422 0.000000 m /space glyphshow
39.536133 0.000000 m /d glyphshow
45.883789 0.000000 m /i glyphshow
48.662109 0.000000 m /s glyphshow
53.872070 0.000000 m /t glyphshow
57.792969 0.000000 m /space glyphshow
60.971680 0.000000 m /t glyphshow
64.892578 0.000000 m /r glyphshow
69.003906 0.000000 m /a glyphshow
75.131836 0.000000 m /i glyphshow
77.910156 0.000000 m /n glyphshow
84.248047 0.000000 m /e glyphshow
90.400391 0.000000 m /d glyphshow
96.748047 0.000000 m /space glyphshow
99.926758 0.000000 m /w glyphshow
108.105469 0.000000 m /e glyphshow
114.257812 0.000000 m /i glyphshow
117.036133 0.000000 m /g glyphshow
123.383789 0.000000 m /h glyphshow
129.721680 0.000000 m /t glyphshow
133.642578 0.000000 m /s glyphshow
grestore

end
showpage
