%!PS-Adobe-3.0 EPSF-3.0
%%Title: D:/DTU MMC/Github Repos/thesis_repo/thesis_figs/tanh_softclip.eps
%%Creator: matplotlib version 2.1.0, http://matplotlib.org/
%%CreationDate: Fri Aug 10 09:53:25 2018
%%Orientation: portrait
%%BoundingBox: 89 251 522 540
%%EndComments
%%BeginProlog
/mpldict 8 dict def
mpldict begin
/m { moveto } bind def
/l { lineto } bind def
/r { rlineto } bind def
/c { curveto } bind def
/cl { closepath } bind def
/box {
m
1 index 0 r
0 exch r
neg 0 r
cl
} bind def
/clipbox {
box
clip
newpath
} bind def
%!PS-Adobe-3.0 Resource-Font
%%Title: DejaVu Sans
%%Copyright: Copyright (c) 2003 by Bitstream, Inc. All Rights Reserved. Copyright (c) 2006 by Tavmjong Bah. All Rights Reserved. DejaVu changes are in public domain 
%%Creator: Converted from TrueType to type 3 by PPR
25 dict begin
/_d{bind def}bind def
/_m{moveto}_d
/_l{lineto}_d
/_cl{closepath eofill}_d
/_c{curveto}_d
/_sc{7 -1 roll{setcachedevice}{pop pop pop pop pop pop}ifelse}_d
/_e{exec}_d
/FontName /DejaVuSans def
/PaintType 0 def
/FontMatrix[.001 0 0 .001 0 0]def
/FontBBox[-1021 -463 1793 1232]def
/FontType 3 def
/Encoding [ /space /parenleft /parenright /asterisk /period /zero /one /two /three /four /five /seven /equal /a /c /f /g /h /i /l /m /n /o /p /s /t /x /minus ] def
/FontInfo 10 dict dup begin
/FamilyName (DejaVu Sans) def
/FullName (DejaVu Sans) def
/Notice (Copyright (c) 2003 by Bitstream, Inc. All Rights Reserved. Copyright (c) 2006 by Tavmjong Bah. All Rights Reserved. DejaVu changes are in public domain ) def
/Weight (Book) def
/Version (Version 2.35) def
/ItalicAngle 0.0 def
/isFixedPitch false def
/UnderlinePosition -130 def
/UnderlineThickness 90 def
end readonly def
/CharStrings 29 dict dup begin
/.notdef 0 def
/space{318 0 0 0 0 0 _sc
}_d
/parenleft{390 0 86 -131 310 759 _sc
310 759 _m
266 683 234 609 213 536 _c
191 463 181 389 181 314 _c
181 238 191 164 213 91 _c
234 17 266 -56 310 -131 _c
232 -131 _l
183 -54 146 20 122 94 _c
98 168 86 241 86 314 _c
86 386 98 459 122 533 _c
146 607 182 682 232 759 _c
310 759 _l
_cl}_d
/parenright{390 0 80 -131 304 759 _sc
80 759 _m
158 759 _l
206 682 243 607 267 533 _c
291 459 304 386 304 314 _c
304 241 291 168 267 94 _c
243 20 206 -54 158 -131 _c
80 -131 _l
123 -56 155 17 177 91 _c
198 164 209 238 209 314 _c
209 389 198 463 177 536 _c
155 609 123 683 80 759 _c
_cl}_d
/asterisk{500 0 30 286 470 742 _sc
470 609 _m
295 514 _l
470 419 _l
442 371 _l
278 470 _l
278 286 _l
222 286 _l
222 470 _l
58 371 _l
30 419 _l
205 514 _l
30 609 _l
58 657 _l
222 558 _l
222 742 _l
278 742 _l
278 558 _l
442 657 _l
470 609 _l
_cl}_d
/period{318 0 107 0 210 124 _sc
107 124 _m
210 124 _l
210 0 _l
107 0 _l
107 124 _l
_cl}_d
/zero{636 0 66 -13 570 742 _sc
318 664 _m
267 664 229 639 203 589 _c
177 539 165 464 165 364 _c
165 264 177 189 203 139 _c
229 89 267 64 318 64 _c
369 64 407 89 433 139 _c
458 189 471 264 471 364 _c
471 464 458 539 433 589 _c
407 639 369 664 318 664 _c
318 742 _m
399 742 461 709 505 645 _c
548 580 570 486 570 364 _c
570 241 548 147 505 83 _c
461 19 399 -13 318 -13 _c
236 -13 173 19 130 83 _c
87 147 66 241 66 364 _c
66 486 87 580 130 645 _c
173 709 236 742 318 742 _c
_cl}_d
/one{636 0 110 0 544 729 _sc
124 83 _m
285 83 _l
285 639 _l
110 604 _l
110 694 _l
284 729 _l
383 729 _l
383 83 _l
544 83 _l
544 0 _l
124 0 _l
124 83 _l
_cl}_d
/two{{636 0 73 0 536 742 _sc
192 83 _m
536 83 _l
536 0 _l
73 0 _l
73 83 _l
110 121 161 173 226 239 _c
290 304 331 346 348 365 _c
380 400 402 430 414 455 _c
426 479 433 504 433 528 _c
433 566 419 598 392 622 _c
365 646 330 659 286 659 _c
255 659 222 653 188 643 _c
154 632 117 616 78 594 _c
78 694 _l
118 710 155 722 189 730 _c
223 738 255 742 284 742 _c
}_e{359 742 419 723 464 685 _c
509 647 532 597 532 534 _c
532 504 526 475 515 449 _c
504 422 484 390 454 354 _c
446 344 420 317 376 272 _c
332 227 271 164 192 83 _c
_cl}_e}_d
/three{{636 0 76 -13 556 742 _sc
406 393 _m
453 383 490 362 516 330 _c
542 298 556 258 556 212 _c
556 140 531 84 482 45 _c
432 6 362 -13 271 -13 _c
240 -13 208 -10 176 -4 _c
144 1 110 10 76 22 _c
76 117 _l
103 101 133 89 166 81 _c
198 73 232 69 268 69 _c
330 69 377 81 409 105 _c
441 129 458 165 458 212 _c
458 254 443 288 413 312 _c
383 336 341 349 287 349 _c
}_e{202 349 _l
202 430 _l
291 430 _l
339 430 376 439 402 459 _c
428 478 441 506 441 543 _c
441 580 427 609 401 629 _c
374 649 336 659 287 659 _c
260 659 231 656 200 650 _c
169 644 135 635 98 623 _c
98 711 _l
135 721 170 729 203 734 _c
235 739 266 742 296 742 _c
370 742 429 725 473 691 _c
517 657 539 611 539 553 _c
539 513 527 479 504 451 _c
481 423 448 403 406 393 _c
_cl}_e}_d
/four{636 0 49 0 580 729 _sc
378 643 _m
129 254 _l
378 254 _l
378 643 _l
352 729 _m
476 729 _l
476 254 _l
580 254 _l
580 172 _l
476 172 _l
476 0 _l
378 0 _l
378 172 _l
49 172 _l
49 267 _l
352 729 _l
_cl}_d
/five{{636 0 77 -13 549 729 _sc
108 729 _m
495 729 _l
495 646 _l
198 646 _l
198 467 _l
212 472 227 476 241 478 _c
255 480 270 482 284 482 _c
365 482 429 459 477 415 _c
525 370 549 310 549 234 _c
549 155 524 94 475 51 _c
426 8 357 -13 269 -13 _c
238 -13 207 -10 175 -6 _c
143 -1 111 6 77 17 _c
77 116 _l
106 100 136 88 168 80 _c
199 72 232 69 267 69 _c
}_e{323 69 368 83 401 113 _c
433 143 450 183 450 234 _c
450 284 433 324 401 354 _c
368 384 323 399 267 399 _c
241 399 214 396 188 390 _c
162 384 135 375 108 363 _c
108 729 _l
_cl}_e}_d
/seven{636 0 82 0 551 729 _sc
82 729 _m
551 729 _l
551 687 _l
286 0 _l
183 0 _l
432 646 _l
82 646 _l
82 729 _l
_cl}_d
/equal{838 0 106 172 732 454 _sc
106 454 _m
732 454 _l
732 372 _l
106 372 _l
106 454 _l
106 255 _m
732 255 _l
732 172 _l
106 172 _l
106 255 _l
_cl}_d
/a{{613 0 60 -13 522 560 _sc
343 275 _m
270 275 220 266 192 250 _c
164 233 150 205 150 165 _c
150 133 160 107 181 89 _c
202 70 231 61 267 61 _c
317 61 357 78 387 114 _c
417 149 432 196 432 255 _c
432 275 _l
343 275 _l
522 312 _m
522 0 _l
432 0 _l
432 83 _l
411 49 385 25 355 10 _c
325 -5 287 -13 243 -13 _c
187 -13 142 2 109 33 _c
76 64 60 106 60 159 _c
}_e{60 220 80 266 122 298 _c
163 329 224 345 306 345 _c
432 345 _l
432 354 _l
432 395 418 427 391 450 _c
364 472 326 484 277 484 _c
245 484 215 480 185 472 _c
155 464 127 453 100 439 _c
100 522 _l
132 534 164 544 195 550 _c
226 556 256 560 286 560 _c
365 560 424 539 463 498 _c
502 457 522 395 522 312 _c
_cl}_e}_d
/c{{550 0 55 -13 488 560 _sc
488 526 _m
488 442 _l
462 456 437 466 411 473 _c
385 480 360 484 334 484 _c
276 484 230 465 198 428 _c
166 391 150 339 150 273 _c
150 206 166 154 198 117 _c
230 80 276 62 334 62 _c
360 62 385 65 411 72 _c
437 79 462 90 488 104 _c
488 21 _l
462 9 436 0 410 -5 _c
383 -10 354 -13 324 -13 _c
242 -13 176 12 128 64 _c
}_e{79 115 55 185 55 273 _c
55 362 79 432 128 483 _c
177 534 244 560 330 560 _c
358 560 385 557 411 551 _c
437 545 463 537 488 526 _c
_cl}_e}_d
/f{352 0 23 0 371 760 _sc
371 760 _m
371 685 _l
285 685 _l
253 685 230 678 218 665 _c
205 652 199 629 199 595 _c
199 547 _l
347 547 _l
347 477 _l
199 477 _l
199 0 _l
109 0 _l
109 477 _l
23 477 _l
23 547 _l
109 547 _l
109 585 _l
109 645 123 690 151 718 _c
179 746 224 760 286 760 _c
371 760 _l
_cl}_d
/g{{635 0 55 -207 544 560 _sc
454 280 _m
454 344 440 395 414 431 _c
387 467 349 485 301 485 _c
253 485 215 467 188 431 _c
161 395 148 344 148 280 _c
148 215 161 165 188 129 _c
215 93 253 75 301 75 _c
349 75 387 93 414 129 _c
440 165 454 215 454 280 _c
544 68 _m
544 -24 523 -93 482 -139 _c
440 -184 377 -207 292 -207 _c
260 -207 231 -204 203 -200 _c
175 -195 147 -188 121 -178 _c
}_e{121 -91 _l
147 -105 173 -115 199 -122 _c
225 -129 251 -133 278 -133 _c
336 -133 380 -117 410 -87 _c
439 -56 454 -10 454 52 _c
454 96 _l
435 64 411 40 382 24 _c
353 8 319 0 279 0 _c
211 0 157 25 116 76 _c
75 127 55 195 55 280 _c
55 364 75 432 116 483 _c
157 534 211 560 279 560 _c
319 560 353 552 382 536 _c
411 520 435 496 454 464 _c
454 547 _l
544 547 _l
}_e{544 68 _l
_cl}_e}_d
/h{634 0 91 0 549 760 _sc
549 330 _m
549 0 _l
459 0 _l
459 327 _l
459 379 448 417 428 443 _c
408 469 378 482 338 482 _c
289 482 251 466 223 435 _c
195 404 181 362 181 309 _c
181 0 _l
91 0 _l
91 760 _l
181 760 _l
181 462 _l
202 494 227 519 257 535 _c
286 551 320 560 358 560 _c
420 560 468 540 500 501 _c
532 462 549 405 549 330 _c
_cl}_d
/i{278 0 94 0 184 760 _sc
94 547 _m
184 547 _l
184 0 _l
94 0 _l
94 547 _l
94 760 _m
184 760 _l
184 646 _l
94 646 _l
94 760 _l
_cl}_d
/l{278 0 94 0 184 760 _sc
94 760 _m
184 760 _l
184 0 _l
94 0 _l
94 760 _l
_cl}_d
/m{{974 0 91 0 889 560 _sc
520 442 _m
542 482 569 511 600 531 _c
631 550 668 560 711 560 _c
767 560 811 540 842 500 _c
873 460 889 403 889 330 _c
889 0 _l
799 0 _l
799 327 _l
799 379 789 418 771 444 _c
752 469 724 482 686 482 _c
639 482 602 466 575 435 _c
548 404 535 362 535 309 _c
535 0 _l
445 0 _l
445 327 _l
445 379 435 418 417 444 _c
398 469 369 482 331 482 _c
}_e{285 482 248 466 221 435 _c
194 404 181 362 181 309 _c
181 0 _l
91 0 _l
91 547 _l
181 547 _l
181 462 _l
201 495 226 520 255 536 _c
283 552 317 560 357 560 _c
397 560 430 550 458 530 _c
486 510 506 480 520 442 _c
_cl}_e}_d
/n{634 0 91 0 549 560 _sc
549 330 _m
549 0 _l
459 0 _l
459 327 _l
459 379 448 417 428 443 _c
408 469 378 482 338 482 _c
289 482 251 466 223 435 _c
195 404 181 362 181 309 _c
181 0 _l
91 0 _l
91 547 _l
181 547 _l
181 462 _l
202 494 227 519 257 535 _c
286 551 320 560 358 560 _c
420 560 468 540 500 501 _c
532 462 549 405 549 330 _c
_cl}_d
/o{612 0 55 -13 557 560 _sc
306 484 _m
258 484 220 465 192 427 _c
164 389 150 338 150 273 _c
150 207 163 156 191 118 _c
219 80 257 62 306 62 _c
354 62 392 80 420 118 _c
448 156 462 207 462 273 _c
462 337 448 389 420 427 _c
392 465 354 484 306 484 _c
306 560 _m
384 560 445 534 490 484 _c
534 433 557 363 557 273 _c
557 183 534 113 490 63 _c
445 12 384 -13 306 -13 _c
227 -13 165 12 121 63 _c
77 113 55 183 55 273 _c
55 363 77 433 121 484 _c
165 534 227 560 306 560 _c
_cl}_d
/p{{635 0 91 -207 580 560 _sc
181 82 _m
181 -207 _l
91 -207 _l
91 547 _l
181 547 _l
181 464 _l
199 496 223 520 252 536 _c
281 552 316 560 356 560 _c
422 560 476 533 518 481 _c
559 428 580 359 580 273 _c
580 187 559 117 518 65 _c
476 13 422 -13 356 -13 _c
316 -13 281 -5 252 10 _c
223 25 199 49 181 82 _c
487 273 _m
487 339 473 390 446 428 _c
418 466 381 485 334 485 _c
}_e{286 485 249 466 222 428 _c
194 390 181 339 181 273 _c
181 207 194 155 222 117 _c
249 79 286 61 334 61 _c
381 61 418 79 446 117 _c
473 155 487 207 487 273 _c
_cl}_e}_d
/s{{521 0 54 -13 472 560 _sc
443 531 _m
443 446 _l
417 458 391 468 364 475 _c
336 481 308 485 279 485 _c
234 485 200 478 178 464 _c
156 450 145 430 145 403 _c
145 382 153 366 169 354 _c
185 342 217 330 265 320 _c
296 313 _l
360 299 405 279 432 255 _c
458 230 472 195 472 151 _c
472 100 452 60 412 31 _c
372 1 316 -13 246 -13 _c
216 -13 186 -10 154 -5 _c
}_e{122 0 89 8 54 20 _c
54 113 _l
87 95 120 82 152 74 _c
184 65 216 61 248 61 _c
290 61 323 68 346 82 _c
368 96 380 117 380 144 _c
380 168 371 187 355 200 _c
339 213 303 226 247 238 _c
216 245 _l
160 257 119 275 95 299 _c
70 323 58 356 58 399 _c
58 450 76 490 112 518 _c
148 546 200 560 268 560 _c
301 560 332 557 362 552 _c
391 547 418 540 443 531 _c
}_e{_cl}_e}_d
/t{392 0 27 0 368 702 _sc
183 702 _m
183 547 _l
368 547 _l
368 477 _l
183 477 _l
183 180 _l
183 135 189 106 201 94 _c
213 81 238 75 276 75 _c
368 75 _l
368 0 _l
276 0 _l
206 0 158 13 132 39 _c
106 65 93 112 93 180 _c
93 477 _l
27 477 _l
27 547 _l
93 547 _l
93 702 _l
183 702 _l
_cl}_d
/x{592 0 29 0 559 547 _sc
549 547 _m
351 281 _l
559 0 _l
453 0 _l
294 215 _l
135 0 _l
29 0 _l
241 286 _l
47 547 _l
153 547 _l
298 352 _l
443 547 _l
549 547 _l
_cl}_d
/minus{838 0 106 272 732 355 _sc
106 355 _m
732 355 _l
732 272 _l
106 272 _l
106 355 _l
_cl}_d
end readonly def

/BuildGlyph
 {exch begin
 CharStrings exch
 2 copy known not{pop /.notdef}if
 true 3 1 roll get exec
 end}_d

/BuildChar {
 1 index /Encoding get exch get
 1 index /BuildGlyph get exec
}_d

FontName currentdict end definefont pop
end
%%EndProlog
mpldict begin
89.28 251.28 translate
433.44 289.44 0 0 clipbox
gsave
0 0 m
433.44 0 l
433.44 289.44 l
0 289.44 l
cl
1.000 setgray
fill
grestore
gsave
54.18 31.8384 m
390.096 31.8384 l
390.096 254.7072 l
54.18 254.7072 l
cl
1.000 setgray
fill
grestore
0.800 setlinewidth
1 setlinejoin
0 setlinecap
[] 0 setdash
0.000 setgray
gsave
/o {
gsave
newpath
translate
0.8 setlinewidth
1 setlinejoin
0 setlinecap
0 0 m
0 -3.5 l

gsave
0.000 setgray
fill
grestore
stroke
grestore
} bind def
69.4489 31.8384 o
grestore
/DejaVuSans findfont
10.000 scalefont
setfont
gsave
62.081722 17.244650 translate
0.000000 rotate
0.000000 0.000000 m /minus glyphshow
8.378906 0.000000 m /four glyphshow
grestore
gsave
/o {
gsave
newpath
translate
0.8 setlinewidth
1 setlinejoin
0 setlinecap
0 0 m
0 -3.5 l

gsave
0.000 setgray
fill
grestore
stroke
grestore
} bind def
107.621 31.8384 o
grestore
gsave
100.253994 17.244650 translate
0.000000 rotate
0.000000 0.000000 m /minus glyphshow
8.378906 0.000000 m /three glyphshow
grestore
gsave
/o {
gsave
newpath
translate
0.8 setlinewidth
1 setlinejoin
0 setlinecap
0 0 m
0 -3.5 l

gsave
0.000 setgray
fill
grestore
stroke
grestore
} bind def
145.793 31.8384 o
grestore
gsave
138.426267 17.244650 translate
0.000000 rotate
0.000000 0.000000 m /minus glyphshow
8.378906 0.000000 m /two glyphshow
grestore
gsave
/o {
gsave
newpath
translate
0.8 setlinewidth
1 setlinejoin
0 setlinecap
0 0 m
0 -3.5 l

gsave
0.000 setgray
fill
grestore
stroke
grestore
} bind def
183.966 31.8384 o
grestore
gsave
176.598540 17.244650 translate
0.000000 rotate
0.000000 0.000000 m /minus glyphshow
8.378906 0.000000 m /one glyphshow
grestore
gsave
/o {
gsave
newpath
translate
0.8 setlinewidth
1 setlinejoin
0 setlinecap
0 0 m
0 -3.5 l

gsave
0.000 setgray
fill
grestore
stroke
grestore
} bind def
222.138 31.8384 o
grestore
gsave
218.958312 17.244650 translate
0.000000 rotate
0.000000 0.000000 m /zero glyphshow
grestore
gsave
/o {
gsave
newpath
translate
0.8 setlinewidth
1 setlinejoin
0 setlinecap
0 0 m
0 -3.5 l

gsave
0.000 setgray
fill
grestore
stroke
grestore
} bind def
260.31 31.8384 o
grestore
gsave
257.130585 17.244650 translate
0.000000 rotate
0.000000 0.000000 m /one glyphshow
grestore
gsave
/o {
gsave
newpath
translate
0.8 setlinewidth
1 setlinejoin
0 setlinecap
0 0 m
0 -3.5 l

gsave
0.000 setgray
fill
grestore
stroke
grestore
} bind def
298.483 31.8384 o
grestore
gsave
295.302858 17.244650 translate
0.000000 rotate
0.000000 0.000000 m /two glyphshow
grestore
gsave
/o {
gsave
newpath
translate
0.8 setlinewidth
1 setlinejoin
0 setlinecap
0 0 m
0 -3.5 l

gsave
0.000 setgray
fill
grestore
stroke
grestore
} bind def
336.655 31.8384 o
grestore
gsave
333.475131 17.244650 translate
0.000000 rotate
0.000000 0.000000 m /three glyphshow
grestore
gsave
/o {
gsave
newpath
translate
0.8 setlinewidth
1 setlinejoin
0 setlinecap
0 0 m
0 -3.5 l

gsave
0.000 setgray
fill
grestore
stroke
grestore
} bind def
374.827 31.8384 o
grestore
gsave
371.647403 17.244650 translate
0.000000 rotate
0.000000 0.000000 m /four glyphshow
grestore
/DejaVuSans findfont
12.000 scalefont
setfont
gsave
218.583312 2.041525 translate
0.000000 rotate
0.000000 0.000000 m /x glyphshow
grestore
gsave
/o {
gsave
newpath
translate
0.8 setlinewidth
1 setlinejoin
0 setlinecap
0 0 m
-3.5 0 l

gsave
0.000 setgray
fill
grestore
stroke
grestore
} bind def
54.18 41.9688 o
grestore
/DejaVuSans findfont
10.000 scalefont
setfont
gsave
16.539375 38.171925 translate
0.000000 rotate
0.000000 0.000000 m /minus glyphshow
8.378906 0.000000 m /one glyphshow
14.741211 0.000000 m /period glyphshow
17.919922 0.000000 m /zero glyphshow
24.282227 0.000000 m /zero glyphshow
grestore
gsave
/o {
gsave
newpath
translate
0.8 setlinewidth
1 setlinejoin
0 setlinecap
0 0 m
-3.5 0 l

gsave
0.000 setgray
fill
grestore
stroke
grestore
} bind def
54.18 67.2948 o
grestore
gsave
16.539375 63.497925 translate
0.000000 rotate
0.000000 0.000000 m /minus glyphshow
8.378906 0.000000 m /zero glyphshow
14.741211 0.000000 m /period glyphshow
17.919922 0.000000 m /seven glyphshow
24.282227 0.000000 m /five glyphshow
grestore
gsave
/o {
gsave
newpath
translate
0.8 setlinewidth
1 setlinejoin
0 setlinecap
0 0 m
-3.5 0 l

gsave
0.000 setgray
fill
grestore
stroke
grestore
} bind def
54.18 92.6208 o
grestore
gsave
16.539375 88.823925 translate
0.000000 rotate
0.000000 0.000000 m /minus glyphshow
8.378906 0.000000 m /zero glyphshow
14.741211 0.000000 m /period glyphshow
17.919922 0.000000 m /five glyphshow
24.282227 0.000000 m /zero glyphshow
grestore
gsave
/o {
gsave
newpath
translate
0.8 setlinewidth
1 setlinejoin
0 setlinecap
0 0 m
-3.5 0 l

gsave
0.000 setgray
fill
grestore
stroke
grestore
} bind def
54.18 117.947 o
grestore
gsave
16.539375 114.149925 translate
0.000000 rotate
0.000000 0.000000 m /minus glyphshow
8.378906 0.000000 m /zero glyphshow
14.741211 0.000000 m /period glyphshow
17.919922 0.000000 m /two glyphshow
24.282227 0.000000 m /five glyphshow
grestore
gsave
/o {
gsave
newpath
translate
0.8 setlinewidth
1 setlinejoin
0 setlinecap
0 0 m
-3.5 0 l

gsave
0.000 setgray
fill
grestore
stroke
grestore
} bind def
54.18 143.273 o
grestore
gsave
24.914375 139.475925 translate
0.000000 rotate
0.000000 0.000000 m /zero glyphshow
6.362305 0.000000 m /period glyphshow
9.541016 0.000000 m /zero glyphshow
15.903320 0.000000 m /zero glyphshow
grestore
gsave
/o {
gsave
newpath
translate
0.8 setlinewidth
1 setlinejoin
0 setlinecap
0 0 m
-3.5 0 l

gsave
0.000 setgray
fill
grestore
stroke
grestore
} bind def
54.18 168.599 o
grestore
gsave
24.914375 164.801925 translate
0.000000 rotate
0.000000 0.000000 m /zero glyphshow
6.362305 0.000000 m /period glyphshow
9.541016 0.000000 m /two glyphshow
15.903320 0.000000 m /five glyphshow
grestore
gsave
/o {
gsave
newpath
translate
0.8 setlinewidth
1 setlinejoin
0 setlinecap
0 0 m
-3.5 0 l

gsave
0.000 setgray
fill
grestore
stroke
grestore
} bind def
54.18 193.925 o
grestore
gsave
24.914375 190.127925 translate
0.000000 rotate
0.000000 0.000000 m /zero glyphshow
6.362305 0.000000 m /period glyphshow
9.541016 0.000000 m /five glyphshow
15.903320 0.000000 m /zero glyphshow
grestore
gsave
/o {
gsave
newpath
translate
0.8 setlinewidth
1 setlinejoin
0 setlinecap
0 0 m
-3.5 0 l

gsave
0.000 setgray
fill
grestore
stroke
grestore
} bind def
54.18 219.251 o
grestore
gsave
24.914375 215.453925 translate
0.000000 rotate
0.000000 0.000000 m /zero glyphshow
6.362305 0.000000 m /period glyphshow
9.541016 0.000000 m /seven glyphshow
15.903320 0.000000 m /five glyphshow
grestore
gsave
/o {
gsave
newpath
translate
0.8 setlinewidth
1 setlinejoin
0 setlinecap
0 0 m
-3.5 0 l

gsave
0.000 setgray
fill
grestore
stroke
grestore
} bind def
54.18 244.577 o
grestore
gsave
24.914375 240.779925 translate
0.000000 rotate
0.000000 0.000000 m /one glyphshow
6.362305 0.000000 m /period glyphshow
9.541016 0.000000 m /zero glyphshow
15.903320 0.000000 m /zero glyphshow
grestore
/DejaVuSans findfont
12.000 scalefont
setfont
gsave
10.039375 95.530612 translate
90.000000 rotate
0.000000 0.000000 m /t glyphshow
4.705078 0.000000 m /a glyphshow
12.058594 0.000000 m /n glyphshow
19.664062 0.000000 m /h glyphshow
27.269531 0.000000 m /parenleft glyphshow
31.951172 0.000000 m /x glyphshow
39.052734 0.000000 m /asterisk glyphshow
45.052734 0.000000 m /g glyphshow
52.669922 0.000000 m /a glyphshow
60.023438 0.000000 m /m glyphshow
71.712891 0.000000 m /m glyphshow
83.402344 0.000000 m /a glyphshow
90.755859 0.000000 m /parenright glyphshow
grestore
1.500 setlinewidth
2 setlinecap
0.122 0.467 0.706 setrgbcolor
gsave
335.9 222.9 54.18 31.84 clipbox
69.448909 42.036745 m
96.050009 42.242331 l
111.045577 42.567934 l
121.64326 43.010436 l
129.919836 43.571434 l
136.69991 44.247297 l
142.502676 45.04458 l
147.57246 45.961936 l
152.092509 47.002463 l
156.184986 48.169397 l
159.941514 49.468254 l
163.453714 50.916514 l
166.752128 52.516614 l
169.867297 54.273083 l
172.860303 56.215214 l
175.761685 58.364882 l
178.571446 60.724615 l
181.320124 63.323687 l
184.038262 66.201226 l
186.756399 69.407811 l
189.474537 72.964979 l
192.192675 76.891357 l
194.971894 81.302741 l
197.812195 86.235247 l
200.744119 91.778384 l
203.828747 98.095103 l
207.127161 105.369963 l
210.730984 113.870182 l
214.915084 124.329707 l
220.626227 139.262857 l
230.521469 165.170441 l
234.827732 175.761546 l
238.492637 184.201556 l
241.821592 191.325027 l
244.936761 197.480244 l
247.929767 202.910023 l
250.831149 207.717063 l
253.64091 211.950308 l
256.420129 215.742287 l
259.168808 219.123857 l
261.917486 222.160012 l
264.696706 224.90272 l
267.506466 227.367169 l
270.377308 229.592741 l
273.339772 231.60911 l
276.4244 233.437916 l
279.631192 235.079909 l
283.021229 236.564291 l
286.625052 237.897502 l
290.503743 239.092586 l
294.718383 240.15552 l
299.360596 241.093683 l
304.552544 241.912335 l
310.477473 242.616519 l
317.410251 243.209548 l
325.747909 243.691341 l
336.253969 244.065221 l
350.424934 244.332999 l
372.108953 244.49846 l
374.827091 244.508855 l
374.827091 244.508855 l
stroke
grestore
0 setlinecap
[1.5 2.475] 0 setdash
1.000 0.498 0.055 setrgbcolor
gsave
335.9 222.9 54.18 31.84 clipbox
69.448909 41.968823 m
150.504384 42.080089 l
161.438016 42.318357 l
168.187549 42.676601 l
173.10463 43.150918 l
177.013861 43.744153 l
180.281735 44.460241 l
183.091495 45.299191 l
185.595846 46.277324 l
187.855871 47.397788 l
189.93265 48.673986 l
191.887266 50.136663 l
193.750259 51.811929 l
195.52163 53.703286 l
197.26246 55.890194 l
198.972748 58.401088 l
200.683037 61.318411 l
202.393326 64.690453 l
204.103615 68.564855 l
205.844445 73.070152 l
207.646356 78.372365 l
209.509349 84.570052 l
211.463965 91.868602 l
213.571285 100.628979 l
215.922932 111.403473 l
218.732693 125.387735 l
223.497069 150.474199 l
227.467382 170.846772 l
230.124438 183.35038 l
232.415004 193.095798 l
234.491783 200.998425 l
236.446399 207.596282 l
238.339933 213.22184 l
240.172385 217.980745 l
241.974297 222.048112 l
243.745667 225.505437 l
245.517038 228.479618 l
247.288408 231.024224 l
249.09032 233.225481 l
250.922772 235.116054 l
252.816306 236.752997 l
254.801463 238.175963 l
256.908783 239.411898 l
259.168808 240.478991 l
261.642618 241.40006 l
264.421838 242.193238 l
267.598088 242.862339 l
271.324075 243.41334 l
275.874665 243.853021 l
281.738512 244.184641 l
289.984548 244.411345 l
303.697399 244.537455 l
340.041037 244.575927 l
374.827091 244.576777 l
374.827091 244.576777 l
stroke
grestore
[9.6 2.4 1.5 2.4] 0 setdash
0.173 0.627 0.173 setrgbcolor
gsave
335.9 222.9 54.18 31.84 clipbox
69.448909 41.9688 m
193.475391 42.079822 l
197.842736 42.316963 l
200.530333 42.671541 l
202.51549 43.1481 l
204.103615 43.751206 l
205.447413 44.493935 l
206.638507 45.402959 l
207.737979 46.523497 l
208.776368 47.905675 l
209.784217 49.631728 l
210.761525 51.759613 l
211.738833 54.440578 l
212.716141 57.795401 l
213.693449 61.957776 l
214.701298 67.244214 l
215.739687 73.900552 l
216.839159 82.430641 l
218.030253 93.480531 l
219.374051 108.119672 l
221.08434 129.37955 l
225.360062 183.657587 l
226.764942 198.11353 l
228.017118 208.813877 l
229.177671 216.909227 l
230.277142 223.099326 l
231.346073 227.913509 l
232.415004 231.725157 l
233.453393 234.635807 l
234.491783 236.913872 l
235.560713 238.73145 l
236.660185 240.162435 l
237.790197 241.275115 l
239.011832 242.168614 l
240.35563 242.877236 l
241.913215 243.443486 l
243.806749 243.885177 l
246.219478 244.208618 l
249.640055 244.42636 l
255.473362 244.544145 l
272.301383 244.576402 l
374.827091 244.5768 l
374.827091 244.5768 l
stroke
grestore
0.800 setlinewidth
0 setlinejoin
2 setlinecap
[] 0 setdash
0.000 setgray
gsave
54.18 31.8384 m
54.18 254.7072 l
stroke
grestore
gsave
390.096 31.8384 m
390.096 254.7072 l
stroke
grestore
gsave
54.18 31.8384 m
390.096 31.8384 l
stroke
grestore
gsave
54.18 254.7072 m
390.096 254.7072 l
stroke
grestore
1.000 setlinewidth
0 setlinecap
0.800 setgray
gsave
61.18 202.691575 m
153.664375 202.691575 l
154.997708 202.691575 155.664375 203.358242 155.664375 204.691575 c
155.664375 247.7072 l
155.664375 249.040533 154.997708 249.7072 153.664375 249.7072 c
61.18 249.7072 l
59.846667 249.7072 59.18 249.040533 59.18 247.7072 c
59.18 204.691575 l
59.18 203.358242 59.846667 202.691575 61.18 202.691575 c
cl
gsave
1.000 setgray
fill
grestore
stroke
grestore
1.500 setlinewidth
1 setlinejoin
2 setlinecap
[] 0 setdash
0.122 0.467 0.706 setrgbcolor
gsave
63.18 241.61345 m
83.18 241.61345 l
stroke
grestore
0.000 setgray
/DejaVuSans findfont
10.000 scalefont
setfont
gsave
91.180000 238.113450 translate
0.000000 rotate
0.000000 0.000000 m /s glyphshow
5.209961 0.000000 m /o glyphshow
11.328125 0.000000 m /f glyphshow
14.848633 0.000000 m /t glyphshow
18.769531 0.000000 m /space glyphshow
21.948242 0.000000 m /c glyphshow
27.446289 0.000000 m /l glyphshow
30.224609 0.000000 m /i glyphshow
33.002930 0.000000 m /p glyphshow
39.350586 0.000000 m /space glyphshow
42.529297 0.000000 m /equal glyphshow
50.908203 0.000000 m /space glyphshow
54.086914 0.000000 m /one glyphshow
grestore
0 setlinecap
[1.5 2.475] 0 setdash
1.000 0.498 0.055 setrgbcolor
gsave
63.18 226.941575 m
83.18 226.941575 l
stroke
grestore
0.000 setgray
gsave
91.180000 223.441575 translate
0.000000 rotate
0.000000 0.000000 m /s glyphshow
5.209961 0.000000 m /o glyphshow
11.328125 0.000000 m /f glyphshow
14.848633 0.000000 m /t glyphshow
18.769531 0.000000 m /space glyphshow
21.948242 0.000000 m /c glyphshow
27.446289 0.000000 m /l glyphshow
30.224609 0.000000 m /i glyphshow
33.002930 0.000000 m /p glyphshow
39.350586 0.000000 m /space glyphshow
42.529297 0.000000 m /equal glyphshow
50.908203 0.000000 m /space glyphshow
54.086914 0.000000 m /two glyphshow
grestore
[9.6 2.4 1.5 2.4] 0 setdash
0.173 0.627 0.173 setrgbcolor
gsave
63.18 212.2697 m
83.18 212.2697 l
stroke
grestore
0.000 setgray
gsave
91.180000 208.769700 translate
0.000000 rotate
0.000000 0.000000 m /s glyphshow
5.209961 0.000000 m /o glyphshow
11.328125 0.000000 m /f glyphshow
14.848633 0.000000 m /t glyphshow
18.769531 0.000000 m /space glyphshow
21.948242 0.000000 m /c glyphshow
27.446289 0.000000 m /l glyphshow
30.224609 0.000000 m /i glyphshow
33.002930 0.000000 m /p glyphshow
39.350586 0.000000 m /space glyphshow
42.529297 0.000000 m /equal glyphshow
50.908203 0.000000 m /space glyphshow
54.086914 0.000000 m /five glyphshow
grestore

end
showpage
