%!PS-Adobe-3.0 EPSF-3.0
%%Title: D:/DTU MMC/Github Repos/thesis_repo/thesis_figs/toy_ipnl_comparison.eps
%%Creator: matplotlib version 2.1.0, http://matplotlib.org/
%%CreationDate: Sun Jul 29 10:44:12 2018
%%Orientation: portrait
%%BoundingBox: 55 246 556 545
%%EndComments
%%BeginProlog
/mpldict 8 dict def
mpldict begin
/m { moveto } bind def
/l { lineto } bind def
/r { rlineto } bind def
/c { curveto } bind def
/cl { closepath } bind def
/box {
m
1 index 0 r
0 exch r
neg 0 r
cl
} bind def
/clipbox {
box
clip
newpath
} bind def
%!PS-Adobe-3.0 Resource-Font
%%Title: DejaVu Sans
%%Copyright: Copyright (c) 2003 by Bitstream, Inc. All Rights Reserved. Copyright (c) 2006 by Tavmjong Bah. All Rights Reserved. DejaVu changes are in public domain 
%%Creator: Converted from TrueType to type 3 by PPR
25 dict begin
/_d{bind def}bind def
/_m{moveto}_d
/_l{lineto}_d
/_cl{closepath eofill}_d
/_c{curveto}_d
/_sc{7 -1 roll{setcachedevice}{pop pop pop pop pop pop}ifelse}_d
/_e{exec}_d
/FontName /DejaVuSans def
/PaintType 0 def
/FontMatrix[.001 0 0 .001 0 0]def
/FontBBox[-1021 -463 1793 1232]def
/FontType 3 def
/Encoding [ /space /percent /zero /one /two /three /four /five /six /eight /A /L /N /P /T /U /a /c /d /e /f /i /l /m /n /o /p /r /s /t /u /v /w /x /y ] def
/FontInfo 10 dict dup begin
/FamilyName (DejaVu Sans) def
/FullName (DejaVu Sans) def
/Notice (Copyright (c) 2003 by Bitstream, Inc. All Rights Reserved. Copyright (c) 2006 by Tavmjong Bah. All Rights Reserved. DejaVu changes are in public domain ) def
/Weight (Book) def
/Version (Version 2.35) def
/ItalicAngle 0.0 def
/isFixedPitch false def
/UnderlinePosition -130 def
/UnderlineThickness 90 def
end readonly def
/CharStrings 36 dict dup begin
/.notdef 0 def
/space{318 0 0 0 0 0 _sc
}_d
/percent{{950 0 55 -13 895 742 _sc
727 321 _m
699 321 676 309 660 285 _c
644 261 636 227 636 184 _c
636 142 644 108 660 84 _c
676 60 699 48 727 48 _c
755 48 777 60 793 84 _c
809 108 817 142 817 184 _c
817 226 809 260 793 284 _c
777 308 755 321 727 321 _c
727 383 _m
778 383 819 365 849 329 _c
879 293 895 244 895 184 _c
895 123 879 75 849 40 _c
819 4 778 -13 727 -13 _c
}_e{675 -13 633 4 603 40 _c
573 75 558 123 558 184 _c
558 245 573 293 603 329 _c
633 365 675 383 727 383 _c
223 680 _m
195 680 173 667 157 643 _c
141 619 133 586 133 544 _c
133 500 141 467 157 443 _c
173 419 195 407 223 407 _c
251 407 274 419 290 443 _c
306 467 314 500 314 544 _c
314 586 305 619 289 643 _c
273 667 251 680 223 680 _c
664 742 _m
742 742 _l
286 -13 _l
}_e{208 -13 _l
664 742 _l
223 742 _m
274 742 315 724 346 688 _c
376 652 392 604 392 544 _c
392 482 376 434 346 398 _c
316 362 275 345 223 345 _c
171 345 130 362 100 398 _c
70 434 55 482 55 544 _c
55 604 70 652 100 688 _c
130 724 171 742 223 742 _c
_cl}_e}_d
/zero{636 0 66 -13 570 742 _sc
318 664 _m
267 664 229 639 203 589 _c
177 539 165 464 165 364 _c
165 264 177 189 203 139 _c
229 89 267 64 318 64 _c
369 64 407 89 433 139 _c
458 189 471 264 471 364 _c
471 464 458 539 433 589 _c
407 639 369 664 318 664 _c
318 742 _m
399 742 461 709 505 645 _c
548 580 570 486 570 364 _c
570 241 548 147 505 83 _c
461 19 399 -13 318 -13 _c
236 -13 173 19 130 83 _c
87 147 66 241 66 364 _c
66 486 87 580 130 645 _c
173 709 236 742 318 742 _c
_cl}_d
/one{636 0 110 0 544 729 _sc
124 83 _m
285 83 _l
285 639 _l
110 604 _l
110 694 _l
284 729 _l
383 729 _l
383 83 _l
544 83 _l
544 0 _l
124 0 _l
124 83 _l
_cl}_d
/two{{636 0 73 0 536 742 _sc
192 83 _m
536 83 _l
536 0 _l
73 0 _l
73 83 _l
110 121 161 173 226 239 _c
290 304 331 346 348 365 _c
380 400 402 430 414 455 _c
426 479 433 504 433 528 _c
433 566 419 598 392 622 _c
365 646 330 659 286 659 _c
255 659 222 653 188 643 _c
154 632 117 616 78 594 _c
78 694 _l
118 710 155 722 189 730 _c
223 738 255 742 284 742 _c
}_e{359 742 419 723 464 685 _c
509 647 532 597 532 534 _c
532 504 526 475 515 449 _c
504 422 484 390 454 354 _c
446 344 420 317 376 272 _c
332 227 271 164 192 83 _c
_cl}_e}_d
/three{{636 0 76 -13 556 742 _sc
406 393 _m
453 383 490 362 516 330 _c
542 298 556 258 556 212 _c
556 140 531 84 482 45 _c
432 6 362 -13 271 -13 _c
240 -13 208 -10 176 -4 _c
144 1 110 10 76 22 _c
76 117 _l
103 101 133 89 166 81 _c
198 73 232 69 268 69 _c
330 69 377 81 409 105 _c
441 129 458 165 458 212 _c
458 254 443 288 413 312 _c
383 336 341 349 287 349 _c
}_e{202 349 _l
202 430 _l
291 430 _l
339 430 376 439 402 459 _c
428 478 441 506 441 543 _c
441 580 427 609 401 629 _c
374 649 336 659 287 659 _c
260 659 231 656 200 650 _c
169 644 135 635 98 623 _c
98 711 _l
135 721 170 729 203 734 _c
235 739 266 742 296 742 _c
370 742 429 725 473 691 _c
517 657 539 611 539 553 _c
539 513 527 479 504 451 _c
481 423 448 403 406 393 _c
_cl}_e}_d
/four{636 0 49 0 580 729 _sc
378 643 _m
129 254 _l
378 254 _l
378 643 _l
352 729 _m
476 729 _l
476 254 _l
580 254 _l
580 172 _l
476 172 _l
476 0 _l
378 0 _l
378 172 _l
49 172 _l
49 267 _l
352 729 _l
_cl}_d
/five{{636 0 77 -13 549 729 _sc
108 729 _m
495 729 _l
495 646 _l
198 646 _l
198 467 _l
212 472 227 476 241 478 _c
255 480 270 482 284 482 _c
365 482 429 459 477 415 _c
525 370 549 310 549 234 _c
549 155 524 94 475 51 _c
426 8 357 -13 269 -13 _c
238 -13 207 -10 175 -6 _c
143 -1 111 6 77 17 _c
77 116 _l
106 100 136 88 168 80 _c
199 72 232 69 267 69 _c
}_e{323 69 368 83 401 113 _c
433 143 450 183 450 234 _c
450 284 433 324 401 354 _c
368 384 323 399 267 399 _c
241 399 214 396 188 390 _c
162 384 135 375 108 363 _c
108 729 _l
_cl}_e}_d
/six{{636 0 70 -13 573 742 _sc
330 404 _m
286 404 251 388 225 358 _c
199 328 186 286 186 234 _c
186 181 199 139 225 109 _c
251 79 286 64 330 64 _c
374 64 409 79 435 109 _c
461 139 474 181 474 234 _c
474 286 461 328 435 358 _c
409 388 374 404 330 404 _c
526 713 _m
526 623 _l
501 635 476 644 451 650 _c
425 656 400 659 376 659 _c
310 659 260 637 226 593 _c
}_e{192 549 172 482 168 394 _c
187 422 211 444 240 459 _c
269 474 301 482 336 482 _c
409 482 467 459 509 415 _c
551 371 573 310 573 234 _c
573 159 550 99 506 54 _c
462 9 403 -13 330 -13 _c
246 -13 181 19 137 83 _c
92 147 70 241 70 364 _c
70 479 97 571 152 639 _c
206 707 280 742 372 742 _c
396 742 421 739 447 735 _c
472 730 498 723 526 713 _c
_cl}_e}_d
/eight{{636 0 68 -13 568 742 _sc
318 346 _m
271 346 234 333 207 308 _c
180 283 167 249 167 205 _c
167 161 180 126 207 101 _c
234 76 271 64 318 64 _c
364 64 401 76 428 102 _c
455 127 469 161 469 205 _c
469 249 455 283 429 308 _c
402 333 365 346 318 346 _c
219 388 _m
177 398 144 418 120 447 _c
96 476 85 511 85 553 _c
85 611 105 657 147 691 _c
188 725 245 742 318 742 _c
}_e{390 742 447 725 489 691 _c
530 657 551 611 551 553 _c
551 511 539 476 515 447 _c
491 418 459 398 417 388 _c
464 377 501 355 528 323 _c
554 291 568 251 568 205 _c
568 134 546 80 503 43 _c
459 5 398 -13 318 -13 _c
237 -13 175 5 132 43 _c
89 80 68 134 68 205 _c
68 251 81 291 108 323 _c
134 355 171 377 219 388 _c
183 544 _m
183 506 194 476 218 455 _c
}_e{242 434 275 424 318 424 _c
360 424 393 434 417 455 _c
441 476 453 506 453 544 _c
453 582 441 611 417 632 _c
393 653 360 664 318 664 _c
275 664 242 653 218 632 _c
194 611 183 582 183 544 _c
_cl}_e}_d
/A{684 0 8 0 676 729 _sc
342 632 _m
208 269 _l
476 269 _l
342 632 _l
286 729 _m
398 729 _l
676 0 _l
573 0 _l
507 187 _l
178 187 _l
112 0 _l
8 0 _l
286 729 _l
_cl}_d
/L{557 0 98 0 552 729 _sc
98 729 _m
197 729 _l
197 83 _l
552 83 _l
552 0 _l
98 0 _l
98 729 _l
_cl}_d
/N{748 0 98 0 650 729 _sc
98 729 _m
231 729 _l
554 119 _l
554 729 _l
650 729 _l
650 0 _l
517 0 _l
194 610 _l
194 0 _l
98 0 _l
98 729 _l
_cl}_d
/P{603 0 98 0 569 729 _sc
197 648 _m
197 374 _l
321 374 _l
367 374 402 385 427 409 _c
452 433 465 467 465 511 _c
465 555 452 588 427 612 _c
402 636 367 648 321 648 _c
197 648 _l
98 729 _m
321 729 _l
402 729 464 710 506 673 _c
548 636 569 582 569 511 _c
569 439 548 384 506 348 _c
464 311 402 293 321 293 _c
197 293 _l
197 0 _l
98 0 _l
98 729 _l
_cl}_d
/T{611 0 -2 0 614 729 _sc
-2 729 _m
614 729 _l
614 646 _l
355 646 _l
355 0 _l
256 0 _l
256 646 _l
-2 646 _l
-2 729 _l
_cl}_d
/U{732 0 87 -13 645 729 _sc
87 729 _m
186 729 _l
186 286 _l
186 208 200 151 228 117 _c
256 83 302 66 366 66 _c
429 66 475 83 503 117 _c
531 151 546 208 546 286 _c
546 729 _l
645 729 _l
645 274 _l
645 178 621 107 574 59 _c
527 11 458 -13 366 -13 _c
274 -13 204 11 157 59 _c
110 107 87 178 87 274 _c
87 729 _l
_cl}_d
/a{{613 0 60 -13 522 560 _sc
343 275 _m
270 275 220 266 192 250 _c
164 233 150 205 150 165 _c
150 133 160 107 181 89 _c
202 70 231 61 267 61 _c
317 61 357 78 387 114 _c
417 149 432 196 432 255 _c
432 275 _l
343 275 _l
522 312 _m
522 0 _l
432 0 _l
432 83 _l
411 49 385 25 355 10 _c
325 -5 287 -13 243 -13 _c
187 -13 142 2 109 33 _c
76 64 60 106 60 159 _c
}_e{60 220 80 266 122 298 _c
163 329 224 345 306 345 _c
432 345 _l
432 354 _l
432 395 418 427 391 450 _c
364 472 326 484 277 484 _c
245 484 215 480 185 472 _c
155 464 127 453 100 439 _c
100 522 _l
132 534 164 544 195 550 _c
226 556 256 560 286 560 _c
365 560 424 539 463 498 _c
502 457 522 395 522 312 _c
_cl}_e}_d
/c{{550 0 55 -13 488 560 _sc
488 526 _m
488 442 _l
462 456 437 466 411 473 _c
385 480 360 484 334 484 _c
276 484 230 465 198 428 _c
166 391 150 339 150 273 _c
150 206 166 154 198 117 _c
230 80 276 62 334 62 _c
360 62 385 65 411 72 _c
437 79 462 90 488 104 _c
488 21 _l
462 9 436 0 410 -5 _c
383 -10 354 -13 324 -13 _c
242 -13 176 12 128 64 _c
}_e{79 115 55 185 55 273 _c
55 362 79 432 128 483 _c
177 534 244 560 330 560 _c
358 560 385 557 411 551 _c
437 545 463 537 488 526 _c
_cl}_e}_d
/d{{635 0 55 -13 544 760 _sc
454 464 _m
454 760 _l
544 760 _l
544 0 _l
454 0 _l
454 82 _l
435 49 411 25 382 10 _c
353 -5 319 -13 279 -13 _c
213 -13 159 13 117 65 _c
75 117 55 187 55 273 _c
55 359 75 428 117 481 _c
159 533 213 560 279 560 _c
319 560 353 552 382 536 _c
411 520 435 496 454 464 _c
148 273 _m
148 207 161 155 188 117 _c
215 79 253 61 301 61 _c
}_e{348 61 385 79 413 117 _c
440 155 454 207 454 273 _c
454 339 440 390 413 428 _c
385 466 348 485 301 485 _c
253 485 215 466 188 428 _c
161 390 148 339 148 273 _c
_cl}_e}_d
/e{{615 0 55 -13 562 560 _sc
562 296 _m
562 252 _l
149 252 _l
153 190 171 142 205 110 _c
238 78 284 62 344 62 _c
378 62 412 66 444 74 _c
476 82 509 95 541 113 _c
541 28 _l
509 14 476 3 442 -3 _c
408 -9 373 -13 339 -13 _c
251 -13 182 12 131 62 _c
80 112 55 181 55 268 _c
55 357 79 428 127 481 _c
175 533 241 560 323 560 _c
397 560 455 536 498 489 _c
}_e{540 441 562 377 562 296 _c
472 322 _m
471 371 457 410 431 440 _c
404 469 368 484 324 484 _c
274 484 234 469 204 441 _c
174 413 156 373 152 322 _c
472 322 _l
_cl}_e}_d
/f{352 0 23 0 371 760 _sc
371 760 _m
371 685 _l
285 685 _l
253 685 230 678 218 665 _c
205 652 199 629 199 595 _c
199 547 _l
347 547 _l
347 477 _l
199 477 _l
199 0 _l
109 0 _l
109 477 _l
23 477 _l
23 547 _l
109 547 _l
109 585 _l
109 645 123 690 151 718 _c
179 746 224 760 286 760 _c
371 760 _l
_cl}_d
/i{278 0 94 0 184 760 _sc
94 547 _m
184 547 _l
184 0 _l
94 0 _l
94 547 _l
94 760 _m
184 760 _l
184 646 _l
94 646 _l
94 760 _l
_cl}_d
/l{278 0 94 0 184 760 _sc
94 760 _m
184 760 _l
184 0 _l
94 0 _l
94 760 _l
_cl}_d
/m{{974 0 91 0 889 560 _sc
520 442 _m
542 482 569 511 600 531 _c
631 550 668 560 711 560 _c
767 560 811 540 842 500 _c
873 460 889 403 889 330 _c
889 0 _l
799 0 _l
799 327 _l
799 379 789 418 771 444 _c
752 469 724 482 686 482 _c
639 482 602 466 575 435 _c
548 404 535 362 535 309 _c
535 0 _l
445 0 _l
445 327 _l
445 379 435 418 417 444 _c
398 469 369 482 331 482 _c
}_e{285 482 248 466 221 435 _c
194 404 181 362 181 309 _c
181 0 _l
91 0 _l
91 547 _l
181 547 _l
181 462 _l
201 495 226 520 255 536 _c
283 552 317 560 357 560 _c
397 560 430 550 458 530 _c
486 510 506 480 520 442 _c
_cl}_e}_d
/n{634 0 91 0 549 560 _sc
549 330 _m
549 0 _l
459 0 _l
459 327 _l
459 379 448 417 428 443 _c
408 469 378 482 338 482 _c
289 482 251 466 223 435 _c
195 404 181 362 181 309 _c
181 0 _l
91 0 _l
91 547 _l
181 547 _l
181 462 _l
202 494 227 519 257 535 _c
286 551 320 560 358 560 _c
420 560 468 540 500 501 _c
532 462 549 405 549 330 _c
_cl}_d
/o{612 0 55 -13 557 560 _sc
306 484 _m
258 484 220 465 192 427 _c
164 389 150 338 150 273 _c
150 207 163 156 191 118 _c
219 80 257 62 306 62 _c
354 62 392 80 420 118 _c
448 156 462 207 462 273 _c
462 337 448 389 420 427 _c
392 465 354 484 306 484 _c
306 560 _m
384 560 445 534 490 484 _c
534 433 557 363 557 273 _c
557 183 534 113 490 63 _c
445 12 384 -13 306 -13 _c
227 -13 165 12 121 63 _c
77 113 55 183 55 273 _c
55 363 77 433 121 484 _c
165 534 227 560 306 560 _c
_cl}_d
/p{{635 0 91 -207 580 560 _sc
181 82 _m
181 -207 _l
91 -207 _l
91 547 _l
181 547 _l
181 464 _l
199 496 223 520 252 536 _c
281 552 316 560 356 560 _c
422 560 476 533 518 481 _c
559 428 580 359 580 273 _c
580 187 559 117 518 65 _c
476 13 422 -13 356 -13 _c
316 -13 281 -5 252 10 _c
223 25 199 49 181 82 _c
487 273 _m
487 339 473 390 446 428 _c
418 466 381 485 334 485 _c
}_e{286 485 249 466 222 428 _c
194 390 181 339 181 273 _c
181 207 194 155 222 117 _c
249 79 286 61 334 61 _c
381 61 418 79 446 117 _c
473 155 487 207 487 273 _c
_cl}_e}_d
/r{411 0 91 0 411 560 _sc
411 463 _m
401 469 390 473 378 476 _c
366 478 353 480 339 480 _c
288 480 249 463 222 430 _c
194 397 181 350 181 288 _c
181 0 _l
91 0 _l
91 547 _l
181 547 _l
181 462 _l
199 495 224 520 254 536 _c
284 552 321 560 365 560 _c
371 560 378 559 386 559 _c
393 558 401 557 411 555 _c
411 463 _l
_cl}_d
/s{{521 0 54 -13 472 560 _sc
443 531 _m
443 446 _l
417 458 391 468 364 475 _c
336 481 308 485 279 485 _c
234 485 200 478 178 464 _c
156 450 145 430 145 403 _c
145 382 153 366 169 354 _c
185 342 217 330 265 320 _c
296 313 _l
360 299 405 279 432 255 _c
458 230 472 195 472 151 _c
472 100 452 60 412 31 _c
372 1 316 -13 246 -13 _c
216 -13 186 -10 154 -5 _c
}_e{122 0 89 8 54 20 _c
54 113 _l
87 95 120 82 152 74 _c
184 65 216 61 248 61 _c
290 61 323 68 346 82 _c
368 96 380 117 380 144 _c
380 168 371 187 355 200 _c
339 213 303 226 247 238 _c
216 245 _l
160 257 119 275 95 299 _c
70 323 58 356 58 399 _c
58 450 76 490 112 518 _c
148 546 200 560 268 560 _c
301 560 332 557 362 552 _c
391 547 418 540 443 531 _c
}_e{_cl}_e}_d
/t{392 0 27 0 368 702 _sc
183 702 _m
183 547 _l
368 547 _l
368 477 _l
183 477 _l
183 180 _l
183 135 189 106 201 94 _c
213 81 238 75 276 75 _c
368 75 _l
368 0 _l
276 0 _l
206 0 158 13 132 39 _c
106 65 93 112 93 180 _c
93 477 _l
27 477 _l
27 547 _l
93 547 _l
93 702 _l
183 702 _l
_cl}_d
/u{634 0 85 -13 543 560 _sc
85 216 _m
85 547 _l
175 547 _l
175 219 _l
175 167 185 129 205 103 _c
225 77 255 64 296 64 _c
344 64 383 79 411 110 _c
439 141 453 183 453 237 _c
453 547 _l
543 547 _l
543 0 _l
453 0 _l
453 84 _l
431 50 405 26 377 10 _c
348 -5 315 -13 277 -13 _c
214 -13 166 6 134 45 _c
101 83 85 140 85 216 _c
311 560 _m
311 560 _l
_cl}_d
/v{592 0 30 0 562 547 _sc
30 547 _m
125 547 _l
296 88 _l
467 547 _l
562 547 _l
357 0 _l
235 0 _l
30 547 _l
_cl}_d
/w{818 0 42 0 776 547 _sc
42 547 _m
132 547 _l
244 120 _l
356 547 _l
462 547 _l
574 120 _l
686 547 _l
776 547 _l
633 0 _l
527 0 _l
409 448 _l
291 0 _l
185 0 _l
42 547 _l
_cl}_d
/x{592 0 29 0 559 547 _sc
549 547 _m
351 281 _l
559 0 _l
453 0 _l
294 215 _l
135 0 _l
29 0 _l
241 286 _l
47 547 _l
153 547 _l
298 352 _l
443 547 _l
549 547 _l
_cl}_d
/y{592 0 30 -207 562 547 _sc
322 -50 _m
296 -114 271 -157 247 -177 _c
223 -197 191 -207 151 -207 _c
79 -207 _l
79 -132 _l
132 -132 _l
156 -132 175 -126 189 -114 _c
203 -102 218 -75 235 -31 _c
251 9 _l
30 547 _l
125 547 _l
296 119 _l
467 547 _l
562 547 _l
322 -50 _l
_cl}_d
end readonly def

/BuildGlyph
 {exch begin
 CharStrings exch
 2 copy known not{pop /.notdef}if
 true 3 1 roll get exec
 end}_d

/BuildChar {
 1 index /Encoding get exch get
 1 index /BuildGlyph get exec
}_d

FontName currentdict end definefont pop
end
%%EndProlog
mpldict begin
55.8 246.96 translate
500.4 298.08 0 0 clipbox
gsave
0 0 m
500.4 0 l
500.4 298.08 l
0 298.08 l
cl
1.000 setgray
fill
grestore
gsave
62.55 32.7888 m
450.36 32.7888 l
450.36 262.3104 l
62.55 262.3104 l
cl
1.000 setgray
fill
grestore
0.800 setlinewidth
1 setlinejoin
0 setlinecap
[] 0 setdash
0.000 setgray
gsave
/o {
gsave
newpath
translate
0.8 setlinewidth
1 setlinejoin
0 setlinecap
0 0 m
0 -3.5 l

gsave
0.000 setgray
fill
grestore
stroke
grestore
} bind def
80.1777 32.7888 o
grestore
/DejaVuSans findfont
10.000 scalefont
setfont
gsave
76.998040 18.195050 translate
0.000000 rotate
0.000000 0.000000 m /zero glyphshow
grestore
gsave
/o {
gsave
newpath
translate
0.8 setlinewidth
1 setlinejoin
0 setlinecap
0 0 m
0 -3.5 l

gsave
0.000 setgray
fill
grestore
stroke
grestore
} bind def
150.689 32.7888 o
grestore
gsave
144.329261 18.195050 translate
0.000000 rotate
0.000000 0.000000 m /two glyphshow
6.362305 0.000000 m /zero glyphshow
grestore
gsave
/o {
gsave
newpath
translate
0.8 setlinewidth
1 setlinejoin
0 setlinecap
0 0 m
0 -3.5 l

gsave
0.000 setgray
fill
grestore
stroke
grestore
} bind def
221.2 32.7888 o
grestore
gsave
214.840170 18.195050 translate
0.000000 rotate
0.000000 0.000000 m /four glyphshow
6.362305 0.000000 m /zero glyphshow
grestore
gsave
/o {
gsave
newpath
translate
0.8 setlinewidth
1 setlinejoin
0 setlinecap
0 0 m
0 -3.5 l

gsave
0.000 setgray
fill
grestore
stroke
grestore
} bind def
291.71 32.7888 o
grestore
gsave
285.351080 18.195050 translate
0.000000 rotate
0.000000 0.000000 m /six glyphshow
6.362305 0.000000 m /zero glyphshow
grestore
gsave
/o {
gsave
newpath
translate
0.8 setlinewidth
1 setlinejoin
0 setlinecap
0 0 m
0 -3.5 l

gsave
0.000 setgray
fill
grestore
stroke
grestore
} bind def
362.221 32.7888 o
grestore
gsave
355.861989 18.195050 translate
0.000000 rotate
0.000000 0.000000 m /eight glyphshow
6.362305 0.000000 m /zero glyphshow
grestore
gsave
/o {
gsave
newpath
translate
0.8 setlinewidth
1 setlinejoin
0 setlinecap
0 0 m
0 -3.5 l

gsave
0.000 setgray
fill
grestore
stroke
grestore
} bind def
432.732 32.7888 o
grestore
gsave
423.193210 18.195050 translate
0.000000 rotate
0.000000 0.000000 m /one glyphshow
6.362305 0.000000 m /zero glyphshow
12.724609 0.000000 m /zero glyphshow
grestore
/DejaVuSans findfont
12.000 scalefont
setfont
gsave
223.564375 2.991925 translate
0.000000 rotate
0.000000 0.000000 m /percent glyphshow
11.402344 0.000000 m /space glyphshow
15.216797 0.000000 m /N glyphshow
24.193359 0.000000 m /e glyphshow
31.576172 0.000000 m /u glyphshow
39.181641 0.000000 m /t glyphshow
43.886719 0.000000 m /r glyphshow
48.820312 0.000000 m /a glyphshow
56.173828 0.000000 m /l glyphshow
59.507812 0.000000 m /s glyphshow
grestore
gsave
/o {
gsave
newpath
translate
0.8 setlinewidth
1 setlinejoin
0 setlinecap
0 0 m
-3.5 0 l

gsave
0.000 setgray
fill
grestore
stroke
grestore
} bind def
62.55 43.2216 o
grestore
/DejaVuSans findfont
10.000 scalefont
setfont
gsave
49.190625 39.424725 translate
0.000000 rotate
0.000000 0.000000 m /zero glyphshow
grestore
gsave
/o {
gsave
newpath
translate
0.8 setlinewidth
1 setlinejoin
0 setlinecap
0 0 m
-3.5 0 l

gsave
0.000 setgray
fill
grestore
stroke
grestore
} bind def
62.55 77.0943 o
grestore
gsave
42.831250 73.297452 translate
0.000000 rotate
0.000000 0.000000 m /five glyphshow
6.362305 0.000000 m /zero glyphshow
grestore
gsave
/o {
gsave
newpath
translate
0.8 setlinewidth
1 setlinejoin
0 setlinecap
0 0 m
-3.5 0 l

gsave
0.000 setgray
fill
grestore
stroke
grestore
} bind def
62.55 110.967 o
grestore
gsave
36.471875 107.170180 translate
0.000000 rotate
0.000000 0.000000 m /one glyphshow
6.362305 0.000000 m /zero glyphshow
12.724609 0.000000 m /zero glyphshow
grestore
gsave
/o {
gsave
newpath
translate
0.8 setlinewidth
1 setlinejoin
0 setlinecap
0 0 m
-3.5 0 l

gsave
0.000 setgray
fill
grestore
stroke
grestore
} bind def
62.55 144.84 o
grestore
gsave
36.471875 141.042907 translate
0.000000 rotate
0.000000 0.000000 m /one glyphshow
6.362305 0.000000 m /five glyphshow
12.724609 0.000000 m /zero glyphshow
grestore
gsave
/o {
gsave
newpath
translate
0.8 setlinewidth
1 setlinejoin
0 setlinecap
0 0 m
-3.5 0 l

gsave
0.000 setgray
fill
grestore
stroke
grestore
} bind def
62.55 178.713 o
grestore
gsave
36.471875 174.915634 translate
0.000000 rotate
0.000000 0.000000 m /two glyphshow
6.362305 0.000000 m /zero glyphshow
12.724609 0.000000 m /zero glyphshow
grestore
gsave
/o {
gsave
newpath
translate
0.8 setlinewidth
1 setlinejoin
0 setlinecap
0 0 m
-3.5 0 l

gsave
0.000 setgray
fill
grestore
stroke
grestore
} bind def
62.55 212.585 o
grestore
gsave
36.471875 208.788361 translate
0.000000 rotate
0.000000 0.000000 m /two glyphshow
6.362305 0.000000 m /five glyphshow
12.724609 0.000000 m /zero glyphshow
grestore
gsave
/o {
gsave
newpath
translate
0.8 setlinewidth
1 setlinejoin
0 setlinecap
0 0 m
-3.5 0 l

gsave
0.000 setgray
fill
grestore
stroke
grestore
} bind def
62.55 246.458 o
grestore
gsave
36.471875 242.661089 translate
0.000000 rotate
0.000000 0.000000 m /three glyphshow
6.362305 0.000000 m /zero glyphshow
12.724609 0.000000 m /zero glyphshow
grestore
/DejaVuSans findfont
12.000 scalefont
setfont
gsave
29.971875 134.432412 translate
90.000000 rotate
0.000000 0.000000 m /i glyphshow
3.333984 0.000000 m /P glyphshow
10.570312 0.000000 m /N glyphshow
19.546875 0.000000 m /L glyphshow
grestore
1.500 setlinewidth
2 setlinecap
0.122 0.467 0.706 setrgbcolor
gsave
387.8 229.5 62.55 32.79 clipbox
432.732273 43.2216 m
409.228636 98.095418 l
385.725 152.969236 l
362.221364 186.164509 l
338.717727 210.552873 l
315.214091 227.489236 l
291.710455 238.328509 l
268.206818 244.4256 l
244.703182 247.135418 l
221.199545 247.812873 l
197.695909 248.490327 l
174.192273 249.167782 l
150.688636 249.845236 l
127.185 250.522691 l
103.681364 251.200145 l
80.177727 251.8776 l
stroke
grestore
1.000 0.498 0.055 setrgbcolor
gsave
387.8 229.5 62.55 32.79 clipbox
432.732273 43.2216 m
409.228636 70.319782 l
385.725 95.482379 l
362.221364 118.709392 l
338.717727 140.000821 l
315.214091 159.356665 l
291.710455 176.776925 l
268.206818 192.2616 l
244.703182 205.810691 l
221.199545 217.424197 l
197.695909 227.102119 l
174.192273 234.844457 l
150.688636 240.65121 l
127.185 244.522379 l
103.681364 246.457964 l
80.177727 246.457964 l
stroke
grestore
0.800 setlinewidth
0 setlinejoin
[] 0 setdash
0.000 setgray
gsave
62.55 32.7888 m
62.55 262.3104 l
stroke
grestore
gsave
450.36 32.7888 m
450.36 262.3104 l
stroke
grestore
gsave
62.55 32.7888 m
450.36 32.7888 l
stroke
grestore
gsave
62.55 262.3104 m
450.36 262.3104 l
stroke
grestore
/DejaVuSans findfont
14.000 scalefont
setfont
gsave
112.119062 268.310400 translate
0.000000 rotate
0.000000 0.000000 m /T glyphshow
8.520508 0.000000 m /o glyphshow
17.085938 0.000000 m /y glyphshow
25.371094 0.000000 m /space glyphshow
29.821289 0.000000 m /e glyphshow
38.434570 0.000000 m /x glyphshow
46.719727 0.000000 m /a glyphshow
55.298828 0.000000 m /m glyphshow
68.936523 0.000000 m /p glyphshow
77.823242 0.000000 m /l glyphshow
81.712891 0.000000 m /e glyphshow
90.326172 0.000000 m /space glyphshow
94.776367 0.000000 m /o glyphshow
103.341797 0.000000 m /f glyphshow
108.270508 0.000000 m /space glyphshow
112.720703 0.000000 m /t glyphshow
118.209961 0.000000 m /w glyphshow
129.660156 0.000000 m /o glyphshow
138.225586 0.000000 m /space glyphshow
142.675781 0.000000 m /d glyphshow
151.562500 0.000000 m /i glyphshow
155.452148 0.000000 m /f glyphshow
160.380859 0.000000 m /f glyphshow
165.309570 0.000000 m /e glyphshow
173.922852 0.000000 m /r glyphshow
179.678711 0.000000 m /e glyphshow
188.291992 0.000000 m /n glyphshow
197.165039 0.000000 m /t glyphshow
202.654297 0.000000 m /space glyphshow
207.104492 0.000000 m /i glyphshow
210.994141 0.000000 m /P glyphshow
219.436523 0.000000 m /N glyphshow
229.909180 0.000000 m /L glyphshow
237.708984 0.000000 m /space glyphshow
242.159180 0.000000 m /c glyphshow
249.856445 0.000000 m /u glyphshow
258.729492 0.000000 m /r glyphshow
264.485352 0.000000 m /v glyphshow
272.770508 0.000000 m /e glyphshow
281.383789 0.000000 m /s glyphshow
grestore
1.000 setlinewidth
0 setlinecap
0.800 setgray
gsave
70.95 38.7888 m
213.975 38.7888 l
215.575 38.7888 216.375 39.5888 216.375 41.1888 c
216.375 75.2388 l
216.375 76.8388 215.575 77.6388 213.975 77.6388 c
70.95 77.6388 l
69.35 77.6388 68.55 76.8388 68.55 75.2388 c
68.55 41.1888 l
68.55 39.5888 69.35 38.7888 70.95 38.7888 c
cl
gsave
1.000 setgray
fill
grestore
stroke
grestore
1.500 setlinewidth
1 setlinejoin
2 setlinecap
[] 0 setdash
0.122 0.467 0.706 setrgbcolor
gsave
73.35 67.9138 m
97.35 67.9138 l
stroke
grestore
0.000 setgray
/DejaVuSans findfont
12.000 scalefont
setfont
gsave
106.950000 63.713800 translate
0.000000 rotate
0.000000 0.000000 m /A glyphshow
8.208984 0.000000 m /t glyphshow
12.914062 0.000000 m /t glyphshow
17.619141 0.000000 m /r glyphshow
22.552734 0.000000 m /a glyphshow
29.906250 0.000000 m /c glyphshow
36.503906 0.000000 m /t glyphshow
41.208984 0.000000 m /i glyphshow
44.542969 0.000000 m /v glyphshow
51.644531 0.000000 m /e glyphshow
59.027344 0.000000 m /space glyphshow
62.841797 0.000000 m /i glyphshow
66.175781 0.000000 m /P glyphshow
73.412109 0.000000 m /N glyphshow
82.388672 0.000000 m /L glyphshow
grestore
1.000 0.498 0.055 setrgbcolor
gsave
73.35 50.2888 m
97.35 50.2888 l
stroke
grestore
0.000 setgray
gsave
106.950000 46.088800 translate
0.000000 rotate
0.000000 0.000000 m /U glyphshow
8.783203 0.000000 m /n glyphshow
16.388672 0.000000 m /a glyphshow
23.742188 0.000000 m /t glyphshow
28.447266 0.000000 m /t glyphshow
33.152344 0.000000 m /r glyphshow
38.085938 0.000000 m /a glyphshow
45.439453 0.000000 m /c glyphshow
52.037109 0.000000 m /t glyphshow
56.742188 0.000000 m /i glyphshow
60.076172 0.000000 m /v glyphshow
67.177734 0.000000 m /e glyphshow
74.560547 0.000000 m /space glyphshow
78.375000 0.000000 m /i glyphshow
81.708984 0.000000 m /P glyphshow
88.945312 0.000000 m /N glyphshow
97.921875 0.000000 m /L glyphshow
grestore

end
showpage
