%!PS-Adobe-3.0 EPSF-3.0
%%Title: D:/DTU MMC/Github Repos/thesis_repo/thesis_figs/WINE_benchmark_all_optims_2.eps
%%Creator: matplotlib version 2.1.0, http://matplotlib.org/
%%CreationDate: Sat Jul 28 17:51:24 2018
%%Orientation: portrait
%%BoundingBox: -61 127 673 664
%%EndComments
%%BeginProlog
/mpldict 8 dict def
mpldict begin
/m { moveto } bind def
/l { lineto } bind def
/r { rlineto } bind def
/c { curveto } bind def
/cl { closepath } bind def
/box {
m
1 index 0 r
0 exch r
neg 0 r
cl
} bind def
/clipbox {
box
clip
newpath
} bind def
%!PS-Adobe-3.0 Resource-Font
%%Title: DejaVu Sans
%%Copyright: Copyright (c) 2003 by Bitstream, Inc. All Rights Reserved. Copyright (c) 2006 by Tavmjong Bah. All Rights Reserved. DejaVu changes are in public domain 
%%Creator: Converted from TrueType to type 3 by PPR
25 dict begin
/_d{bind def}bind def
/_m{moveto}_d
/_l{lineto}_d
/_cl{closepath eofill}_d
/_c{curveto}_d
/_sc{7 -1 roll{setcachedevice}{pop pop pop pop pop pop}ifelse}_d
/_e{exec}_d
/FontName /DejaVuSans def
/PaintType 0 def
/FontMatrix[.001 0 0 .001 0 0]def
/FontBBox[-1021 -463 1793 1232]def
/FontType 3 def
/Encoding [ /space /period /zero /one /two /three /four /five /six /seven /eight /nine /A /B /C /E /F /K /M /N /S /T /V /W /a /c /d /e /g /h /i /l /m /n /o /p /q /r /s /t /u /y ] def
/FontInfo 10 dict dup begin
/FamilyName (DejaVu Sans) def
/FullName (DejaVu Sans) def
/Notice (Copyright (c) 2003 by Bitstream, Inc. All Rights Reserved. Copyright (c) 2006 by Tavmjong Bah. All Rights Reserved. DejaVu changes are in public domain ) def
/Weight (Book) def
/Version (Version 2.35) def
/ItalicAngle 0.0 def
/isFixedPitch false def
/UnderlinePosition -130 def
/UnderlineThickness 90 def
end readonly def
/CharStrings 43 dict dup begin
/.notdef 0 def
/space{318 0 0 0 0 0 _sc
}_d
/period{318 0 107 0 210 124 _sc
107 124 _m
210 124 _l
210 0 _l
107 0 _l
107 124 _l
_cl}_d
/zero{636 0 66 -13 570 742 _sc
318 664 _m
267 664 229 639 203 589 _c
177 539 165 464 165 364 _c
165 264 177 189 203 139 _c
229 89 267 64 318 64 _c
369 64 407 89 433 139 _c
458 189 471 264 471 364 _c
471 464 458 539 433 589 _c
407 639 369 664 318 664 _c
318 742 _m
399 742 461 709 505 645 _c
548 580 570 486 570 364 _c
570 241 548 147 505 83 _c
461 19 399 -13 318 -13 _c
236 -13 173 19 130 83 _c
87 147 66 241 66 364 _c
66 486 87 580 130 645 _c
173 709 236 742 318 742 _c
_cl}_d
/one{636 0 110 0 544 729 _sc
124 83 _m
285 83 _l
285 639 _l
110 604 _l
110 694 _l
284 729 _l
383 729 _l
383 83 _l
544 83 _l
544 0 _l
124 0 _l
124 83 _l
_cl}_d
/two{{636 0 73 0 536 742 _sc
192 83 _m
536 83 _l
536 0 _l
73 0 _l
73 83 _l
110 121 161 173 226 239 _c
290 304 331 346 348 365 _c
380 400 402 430 414 455 _c
426 479 433 504 433 528 _c
433 566 419 598 392 622 _c
365 646 330 659 286 659 _c
255 659 222 653 188 643 _c
154 632 117 616 78 594 _c
78 694 _l
118 710 155 722 189 730 _c
223 738 255 742 284 742 _c
}_e{359 742 419 723 464 685 _c
509 647 532 597 532 534 _c
532 504 526 475 515 449 _c
504 422 484 390 454 354 _c
446 344 420 317 376 272 _c
332 227 271 164 192 83 _c
_cl}_e}_d
/three{{636 0 76 -13 556 742 _sc
406 393 _m
453 383 490 362 516 330 _c
542 298 556 258 556 212 _c
556 140 531 84 482 45 _c
432 6 362 -13 271 -13 _c
240 -13 208 -10 176 -4 _c
144 1 110 10 76 22 _c
76 117 _l
103 101 133 89 166 81 _c
198 73 232 69 268 69 _c
330 69 377 81 409 105 _c
441 129 458 165 458 212 _c
458 254 443 288 413 312 _c
383 336 341 349 287 349 _c
}_e{202 349 _l
202 430 _l
291 430 _l
339 430 376 439 402 459 _c
428 478 441 506 441 543 _c
441 580 427 609 401 629 _c
374 649 336 659 287 659 _c
260 659 231 656 200 650 _c
169 644 135 635 98 623 _c
98 711 _l
135 721 170 729 203 734 _c
235 739 266 742 296 742 _c
370 742 429 725 473 691 _c
517 657 539 611 539 553 _c
539 513 527 479 504 451 _c
481 423 448 403 406 393 _c
_cl}_e}_d
/four{636 0 49 0 580 729 _sc
378 643 _m
129 254 _l
378 254 _l
378 643 _l
352 729 _m
476 729 _l
476 254 _l
580 254 _l
580 172 _l
476 172 _l
476 0 _l
378 0 _l
378 172 _l
49 172 _l
49 267 _l
352 729 _l
_cl}_d
/five{{636 0 77 -13 549 729 _sc
108 729 _m
495 729 _l
495 646 _l
198 646 _l
198 467 _l
212 472 227 476 241 478 _c
255 480 270 482 284 482 _c
365 482 429 459 477 415 _c
525 370 549 310 549 234 _c
549 155 524 94 475 51 _c
426 8 357 -13 269 -13 _c
238 -13 207 -10 175 -6 _c
143 -1 111 6 77 17 _c
77 116 _l
106 100 136 88 168 80 _c
199 72 232 69 267 69 _c
}_e{323 69 368 83 401 113 _c
433 143 450 183 450 234 _c
450 284 433 324 401 354 _c
368 384 323 399 267 399 _c
241 399 214 396 188 390 _c
162 384 135 375 108 363 _c
108 729 _l
_cl}_e}_d
/six{{636 0 70 -13 573 742 _sc
330 404 _m
286 404 251 388 225 358 _c
199 328 186 286 186 234 _c
186 181 199 139 225 109 _c
251 79 286 64 330 64 _c
374 64 409 79 435 109 _c
461 139 474 181 474 234 _c
474 286 461 328 435 358 _c
409 388 374 404 330 404 _c
526 713 _m
526 623 _l
501 635 476 644 451 650 _c
425 656 400 659 376 659 _c
310 659 260 637 226 593 _c
}_e{192 549 172 482 168 394 _c
187 422 211 444 240 459 _c
269 474 301 482 336 482 _c
409 482 467 459 509 415 _c
551 371 573 310 573 234 _c
573 159 550 99 506 54 _c
462 9 403 -13 330 -13 _c
246 -13 181 19 137 83 _c
92 147 70 241 70 364 _c
70 479 97 571 152 639 _c
206 707 280 742 372 742 _c
396 742 421 739 447 735 _c
472 730 498 723 526 713 _c
_cl}_e}_d
/seven{636 0 82 0 551 729 _sc
82 729 _m
551 729 _l
551 687 _l
286 0 _l
183 0 _l
432 646 _l
82 646 _l
82 729 _l
_cl}_d
/eight{{636 0 68 -13 568 742 _sc
318 346 _m
271 346 234 333 207 308 _c
180 283 167 249 167 205 _c
167 161 180 126 207 101 _c
234 76 271 64 318 64 _c
364 64 401 76 428 102 _c
455 127 469 161 469 205 _c
469 249 455 283 429 308 _c
402 333 365 346 318 346 _c
219 388 _m
177 398 144 418 120 447 _c
96 476 85 511 85 553 _c
85 611 105 657 147 691 _c
188 725 245 742 318 742 _c
}_e{390 742 447 725 489 691 _c
530 657 551 611 551 553 _c
551 511 539 476 515 447 _c
491 418 459 398 417 388 _c
464 377 501 355 528 323 _c
554 291 568 251 568 205 _c
568 134 546 80 503 43 _c
459 5 398 -13 318 -13 _c
237 -13 175 5 132 43 _c
89 80 68 134 68 205 _c
68 251 81 291 108 323 _c
134 355 171 377 219 388 _c
183 544 _m
183 506 194 476 218 455 _c
}_e{242 434 275 424 318 424 _c
360 424 393 434 417 455 _c
441 476 453 506 453 544 _c
453 582 441 611 417 632 _c
393 653 360 664 318 664 _c
275 664 242 653 218 632 _c
194 611 183 582 183 544 _c
_cl}_e}_d
/nine{{636 0 63 -13 566 742 _sc
110 15 _m
110 105 _l
134 93 159 84 185 78 _c
210 72 235 69 260 69 _c
324 69 374 90 408 134 _c
442 178 462 244 468 334 _c
448 306 424 284 396 269 _c
367 254 335 247 300 247 _c
226 247 168 269 126 313 _c
84 357 63 417 63 494 _c
63 568 85 628 129 674 _c
173 719 232 742 306 742 _c
390 742 455 709 499 645 _c
543 580 566 486 566 364 _c
}_e{566 248 538 157 484 89 _c
429 21 356 -13 264 -13 _c
239 -13 214 -10 189 -6 _c
163 -2 137 5 110 15 _c
306 324 _m
350 324 385 339 411 369 _c
437 399 450 441 450 494 _c
450 546 437 588 411 618 _c
385 648 350 664 306 664 _c
262 664 227 648 201 618 _c
175 588 162 546 162 494 _c
162 441 175 399 201 369 _c
227 339 262 324 306 324 _c
_cl}_e}_d
/A{684 0 8 0 676 729 _sc
342 632 _m
208 269 _l
476 269 _l
342 632 _l
286 729 _m
398 729 _l
676 0 _l
573 0 _l
507 187 _l
178 187 _l
112 0 _l
8 0 _l
286 729 _l
_cl}_d
/B{{686 0 98 0 615 729 _sc
197 348 _m
197 81 _l
355 81 _l
408 81 447 92 473 114 _c
498 136 511 169 511 215 _c
511 260 498 293 473 315 _c
447 337 408 348 355 348 _c
197 348 _l
197 648 _m
197 428 _l
343 428 _l
391 428 426 437 450 455 _c
474 473 486 500 486 538 _c
486 574 474 602 450 620 _c
426 638 391 648 343 648 _c
197 648 _l
98 729 _m
350 729 _l
}_e{425 729 483 713 524 682 _c
564 650 585 606 585 549 _c
585 504 574 468 553 442 _c
532 416 502 399 462 393 _c
510 382 548 360 575 327 _c
601 294 615 253 615 204 _c
615 138 592 88 548 53 _c
504 17 441 0 360 0 _c
98 0 _l
98 729 _l
_cl}_e}_d
/C{{698 0 56 -13 644 742 _sc
644 673 _m
644 569 _l
610 599 575 622 537 638 _c
499 653 460 661 418 661 _c
334 661 270 635 226 584 _c
182 533 160 460 160 364 _c
160 268 182 194 226 143 _c
270 92 334 67 418 67 _c
460 67 499 74 537 90 _c
575 105 610 128 644 159 _c
644 56 _l
609 32 572 15 534 4 _c
496 -7 455 -13 412 -13 _c
302 -13 215 20 151 87 _c
}_e{87 154 56 246 56 364 _c
56 481 87 573 151 641 _c
215 708 302 742 412 742 _c
456 742 497 736 535 725 _c
573 713 610 696 644 673 _c
_cl}_e}_d
/E{632 0 98 0 568 729 _sc
98 729 _m
559 729 _l
559 646 _l
197 646 _l
197 430 _l
544 430 _l
544 347 _l
197 347 _l
197 83 _l
568 83 _l
568 0 _l
98 0 _l
98 729 _l
_cl}_d
/F{575 0 98 0 517 729 _sc
98 729 _m
517 729 _l
517 646 _l
197 646 _l
197 431 _l
486 431 _l
486 348 _l
197 348 _l
197 0 _l
98 0 _l
98 729 _l
_cl}_d
/K{656 0 98 0 677 729 _sc
98 729 _m
197 729 _l
197 421 _l
524 729 _l
651 729 _l
289 389 _l
677 0 _l
547 0 _l
197 351 _l
197 0 _l
98 0 _l
98 729 _l
_cl}_d
/M{863 0 98 0 765 729 _sc
98 729 _m
245 729 _l
431 233 _l
618 729 _l
765 729 _l
765 0 _l
669 0 _l
669 640 _l
481 140 _l
382 140 _l
194 640 _l
194 0 _l
98 0 _l
98 729 _l
_cl}_d
/N{748 0 98 0 650 729 _sc
98 729 _m
231 729 _l
554 119 _l
554 729 _l
650 729 _l
650 0 _l
517 0 _l
194 610 _l
194 0 _l
98 0 _l
98 729 _l
_cl}_d
/S{{635 0 66 -13 579 742 _sc
535 705 _m
535 609 _l
497 627 462 640 429 649 _c
395 657 363 662 333 662 _c
279 662 237 651 208 631 _c
179 610 165 580 165 542 _c
165 510 174 485 194 469 _c
213 452 250 439 304 429 _c
364 417 _l
437 403 491 378 526 343 _c
561 307 579 260 579 201 _c
579 130 555 77 508 41 _c
460 5 391 -13 300 -13 _c
265 -13 228 -9 189 -2 _c
}_e{150 5 110 16 69 32 _c
69 134 _l
109 111 148 94 186 83 _c
224 71 262 66 300 66 _c
356 66 399 77 430 99 _c
460 121 476 152 476 194 _c
476 230 465 258 443 278 _c
421 298 385 313 335 323 _c
275 335 _l
201 349 148 372 115 404 _c
82 435 66 478 66 534 _c
66 598 88 649 134 686 _c
179 723 242 742 322 742 _c
356 742 390 739 426 733 _c
461 727 497 717 535 705 _c
}_e{_cl}_e}_d
/T{611 0 -2 0 614 729 _sc
-2 729 _m
614 729 _l
614 646 _l
355 646 _l
355 0 _l
256 0 _l
256 646 _l
-2 646 _l
-2 729 _l
_cl}_d
/V{684 0 8 0 676 729 _sc
286 0 _m
8 729 _l
111 729 _l
342 115 _l
573 729 _l
676 729 _l
398 0 _l
286 0 _l
_cl}_d
/W{989 0 33 0 956 729 _sc
33 729 _m
133 729 _l
286 113 _l
439 729 _l
550 729 _l
703 113 _l
856 729 _l
956 729 _l
773 0 _l
649 0 _l
495 633 _l
340 0 _l
216 0 _l
33 729 _l
_cl}_d
/a{{613 0 60 -13 522 560 _sc
343 275 _m
270 275 220 266 192 250 _c
164 233 150 205 150 165 _c
150 133 160 107 181 89 _c
202 70 231 61 267 61 _c
317 61 357 78 387 114 _c
417 149 432 196 432 255 _c
432 275 _l
343 275 _l
522 312 _m
522 0 _l
432 0 _l
432 83 _l
411 49 385 25 355 10 _c
325 -5 287 -13 243 -13 _c
187 -13 142 2 109 33 _c
76 64 60 106 60 159 _c
}_e{60 220 80 266 122 298 _c
163 329 224 345 306 345 _c
432 345 _l
432 354 _l
432 395 418 427 391 450 _c
364 472 326 484 277 484 _c
245 484 215 480 185 472 _c
155 464 127 453 100 439 _c
100 522 _l
132 534 164 544 195 550 _c
226 556 256 560 286 560 _c
365 560 424 539 463 498 _c
502 457 522 395 522 312 _c
_cl}_e}_d
/c{{550 0 55 -13 488 560 _sc
488 526 _m
488 442 _l
462 456 437 466 411 473 _c
385 480 360 484 334 484 _c
276 484 230 465 198 428 _c
166 391 150 339 150 273 _c
150 206 166 154 198 117 _c
230 80 276 62 334 62 _c
360 62 385 65 411 72 _c
437 79 462 90 488 104 _c
488 21 _l
462 9 436 0 410 -5 _c
383 -10 354 -13 324 -13 _c
242 -13 176 12 128 64 _c
}_e{79 115 55 185 55 273 _c
55 362 79 432 128 483 _c
177 534 244 560 330 560 _c
358 560 385 557 411 551 _c
437 545 463 537 488 526 _c
_cl}_e}_d
/d{{635 0 55 -13 544 760 _sc
454 464 _m
454 760 _l
544 760 _l
544 0 _l
454 0 _l
454 82 _l
435 49 411 25 382 10 _c
353 -5 319 -13 279 -13 _c
213 -13 159 13 117 65 _c
75 117 55 187 55 273 _c
55 359 75 428 117 481 _c
159 533 213 560 279 560 _c
319 560 353 552 382 536 _c
411 520 435 496 454 464 _c
148 273 _m
148 207 161 155 188 117 _c
215 79 253 61 301 61 _c
}_e{348 61 385 79 413 117 _c
440 155 454 207 454 273 _c
454 339 440 390 413 428 _c
385 466 348 485 301 485 _c
253 485 215 466 188 428 _c
161 390 148 339 148 273 _c
_cl}_e}_d
/e{{615 0 55 -13 562 560 _sc
562 296 _m
562 252 _l
149 252 _l
153 190 171 142 205 110 _c
238 78 284 62 344 62 _c
378 62 412 66 444 74 _c
476 82 509 95 541 113 _c
541 28 _l
509 14 476 3 442 -3 _c
408 -9 373 -13 339 -13 _c
251 -13 182 12 131 62 _c
80 112 55 181 55 268 _c
55 357 79 428 127 481 _c
175 533 241 560 323 560 _c
397 560 455 536 498 489 _c
}_e{540 441 562 377 562 296 _c
472 322 _m
471 371 457 410 431 440 _c
404 469 368 484 324 484 _c
274 484 234 469 204 441 _c
174 413 156 373 152 322 _c
472 322 _l
_cl}_e}_d
/g{{635 0 55 -207 544 560 _sc
454 280 _m
454 344 440 395 414 431 _c
387 467 349 485 301 485 _c
253 485 215 467 188 431 _c
161 395 148 344 148 280 _c
148 215 161 165 188 129 _c
215 93 253 75 301 75 _c
349 75 387 93 414 129 _c
440 165 454 215 454 280 _c
544 68 _m
544 -24 523 -93 482 -139 _c
440 -184 377 -207 292 -207 _c
260 -207 231 -204 203 -200 _c
175 -195 147 -188 121 -178 _c
}_e{121 -91 _l
147 -105 173 -115 199 -122 _c
225 -129 251 -133 278 -133 _c
336 -133 380 -117 410 -87 _c
439 -56 454 -10 454 52 _c
454 96 _l
435 64 411 40 382 24 _c
353 8 319 0 279 0 _c
211 0 157 25 116 76 _c
75 127 55 195 55 280 _c
55 364 75 432 116 483 _c
157 534 211 560 279 560 _c
319 560 353 552 382 536 _c
411 520 435 496 454 464 _c
454 547 _l
544 547 _l
}_e{544 68 _l
_cl}_e}_d
/h{634 0 91 0 549 760 _sc
549 330 _m
549 0 _l
459 0 _l
459 327 _l
459 379 448 417 428 443 _c
408 469 378 482 338 482 _c
289 482 251 466 223 435 _c
195 404 181 362 181 309 _c
181 0 _l
91 0 _l
91 760 _l
181 760 _l
181 462 _l
202 494 227 519 257 535 _c
286 551 320 560 358 560 _c
420 560 468 540 500 501 _c
532 462 549 405 549 330 _c
_cl}_d
/i{278 0 94 0 184 760 _sc
94 547 _m
184 547 _l
184 0 _l
94 0 _l
94 547 _l
94 760 _m
184 760 _l
184 646 _l
94 646 _l
94 760 _l
_cl}_d
/l{278 0 94 0 184 760 _sc
94 760 _m
184 760 _l
184 0 _l
94 0 _l
94 760 _l
_cl}_d
/m{{974 0 91 0 889 560 _sc
520 442 _m
542 482 569 511 600 531 _c
631 550 668 560 711 560 _c
767 560 811 540 842 500 _c
873 460 889 403 889 330 _c
889 0 _l
799 0 _l
799 327 _l
799 379 789 418 771 444 _c
752 469 724 482 686 482 _c
639 482 602 466 575 435 _c
548 404 535 362 535 309 _c
535 0 _l
445 0 _l
445 327 _l
445 379 435 418 417 444 _c
398 469 369 482 331 482 _c
}_e{285 482 248 466 221 435 _c
194 404 181 362 181 309 _c
181 0 _l
91 0 _l
91 547 _l
181 547 _l
181 462 _l
201 495 226 520 255 536 _c
283 552 317 560 357 560 _c
397 560 430 550 458 530 _c
486 510 506 480 520 442 _c
_cl}_e}_d
/n{634 0 91 0 549 560 _sc
549 330 _m
549 0 _l
459 0 _l
459 327 _l
459 379 448 417 428 443 _c
408 469 378 482 338 482 _c
289 482 251 466 223 435 _c
195 404 181 362 181 309 _c
181 0 _l
91 0 _l
91 547 _l
181 547 _l
181 462 _l
202 494 227 519 257 535 _c
286 551 320 560 358 560 _c
420 560 468 540 500 501 _c
532 462 549 405 549 330 _c
_cl}_d
/o{612 0 55 -13 557 560 _sc
306 484 _m
258 484 220 465 192 427 _c
164 389 150 338 150 273 _c
150 207 163 156 191 118 _c
219 80 257 62 306 62 _c
354 62 392 80 420 118 _c
448 156 462 207 462 273 _c
462 337 448 389 420 427 _c
392 465 354 484 306 484 _c
306 560 _m
384 560 445 534 490 484 _c
534 433 557 363 557 273 _c
557 183 534 113 490 63 _c
445 12 384 -13 306 -13 _c
227 -13 165 12 121 63 _c
77 113 55 183 55 273 _c
55 363 77 433 121 484 _c
165 534 227 560 306 560 _c
_cl}_d
/p{{635 0 91 -207 580 560 _sc
181 82 _m
181 -207 _l
91 -207 _l
91 547 _l
181 547 _l
181 464 _l
199 496 223 520 252 536 _c
281 552 316 560 356 560 _c
422 560 476 533 518 481 _c
559 428 580 359 580 273 _c
580 187 559 117 518 65 _c
476 13 422 -13 356 -13 _c
316 -13 281 -5 252 10 _c
223 25 199 49 181 82 _c
487 273 _m
487 339 473 390 446 428 _c
418 466 381 485 334 485 _c
}_e{286 485 249 466 222 428 _c
194 390 181 339 181 273 _c
181 207 194 155 222 117 _c
249 79 286 61 334 61 _c
381 61 418 79 446 117 _c
473 155 487 207 487 273 _c
_cl}_e}_d
/q{{635 0 55 -207 544 560 _sc
148 273 _m
148 207 161 155 188 117 _c
215 79 253 61 301 61 _c
348 61 385 79 413 117 _c
440 155 454 207 454 273 _c
454 339 440 390 413 428 _c
385 466 348 485 301 485 _c
253 485 215 466 188 428 _c
161 390 148 339 148 273 _c
454 82 _m
435 49 411 25 382 10 _c
353 -5 319 -13 279 -13 _c
213 -13 159 13 117 65 _c
75 117 55 187 55 273 _c
}_e{55 359 75 428 117 481 _c
159 533 213 560 279 560 _c
319 560 353 552 382 536 _c
411 520 435 496 454 464 _c
454 547 _l
544 547 _l
544 -207 _l
454 -207 _l
454 82 _l
_cl}_e}_d
/r{411 0 91 0 411 560 _sc
411 463 _m
401 469 390 473 378 476 _c
366 478 353 480 339 480 _c
288 480 249 463 222 430 _c
194 397 181 350 181 288 _c
181 0 _l
91 0 _l
91 547 _l
181 547 _l
181 462 _l
199 495 224 520 254 536 _c
284 552 321 560 365 560 _c
371 560 378 559 386 559 _c
393 558 401 557 411 555 _c
411 463 _l
_cl}_d
/s{{521 0 54 -13 472 560 _sc
443 531 _m
443 446 _l
417 458 391 468 364 475 _c
336 481 308 485 279 485 _c
234 485 200 478 178 464 _c
156 450 145 430 145 403 _c
145 382 153 366 169 354 _c
185 342 217 330 265 320 _c
296 313 _l
360 299 405 279 432 255 _c
458 230 472 195 472 151 _c
472 100 452 60 412 31 _c
372 1 316 -13 246 -13 _c
216 -13 186 -10 154 -5 _c
}_e{122 0 89 8 54 20 _c
54 113 _l
87 95 120 82 152 74 _c
184 65 216 61 248 61 _c
290 61 323 68 346 82 _c
368 96 380 117 380 144 _c
380 168 371 187 355 200 _c
339 213 303 226 247 238 _c
216 245 _l
160 257 119 275 95 299 _c
70 323 58 356 58 399 _c
58 450 76 490 112 518 _c
148 546 200 560 268 560 _c
301 560 332 557 362 552 _c
391 547 418 540 443 531 _c
}_e{_cl}_e}_d
/t{392 0 27 0 368 702 _sc
183 702 _m
183 547 _l
368 547 _l
368 477 _l
183 477 _l
183 180 _l
183 135 189 106 201 94 _c
213 81 238 75 276 75 _c
368 75 _l
368 0 _l
276 0 _l
206 0 158 13 132 39 _c
106 65 93 112 93 180 _c
93 477 _l
27 477 _l
27 547 _l
93 547 _l
93 702 _l
183 702 _l
_cl}_d
/u{634 0 85 -13 543 560 _sc
85 216 _m
85 547 _l
175 547 _l
175 219 _l
175 167 185 129 205 103 _c
225 77 255 64 296 64 _c
344 64 383 79 411 110 _c
439 141 453 183 453 237 _c
453 547 _l
543 547 _l
543 0 _l
453 0 _l
453 84 _l
431 50 405 26 377 10 _c
348 -5 315 -13 277 -13 _c
214 -13 166 6 134 45 _c
101 83 85 140 85 216 _c
311 560 _m
311 560 _l
_cl}_d
/y{592 0 30 -207 562 547 _sc
322 -50 _m
296 -114 271 -157 247 -177 _c
223 -197 191 -207 151 -207 _c
79 -207 _l
79 -132 _l
132 -132 _l
156 -132 175 -126 189 -114 _c
203 -102 218 -75 235 -31 _c
251 9 _l
30 547 _l
125 547 _l
296 119 _l
467 547 _l
562 547 _l
322 -50 _l
_cl}_d
end readonly def

/BuildGlyph
 {exch begin
 CharStrings exch
 2 copy known not{pop /.notdef}if
 true 3 1 roll get exec
 end}_d

/BuildChar {
 1 index /Encoding get exch get
 1 index /BuildGlyph get exec
}_d

FontName currentdict end definefont pop
end
%%EndProlog
mpldict begin
-61.92 127.44 translate
735.84 537.12 0 0 clipbox
gsave
0 0 m
735.84 0 l
735.84 537.12 l
0 537.12 l
cl
1.000 setgray
fill
grestore
gsave
49.1144 320.879467 m
708.5088 320.879467 l
708.5088 518.7684 l
49.1144 518.7684 l
cl
1.000 setgray
fill
grestore
0.800 setlinewidth
1 setlinejoin
0 setlinecap
[] 0 setdash
0.000 setgray
gsave
/o {
gsave
newpath
translate
0.8 setlinewidth
1 setlinejoin
0 setlinecap
0 0 m
0 -3.5 l

gsave
0.000 setgray
fill
grestore
stroke
grestore
} bind def
52.1569 320.879 o
grestore
/DejaVuSans findfont
10.000 scalefont
setfont
gsave
48.977219 306.285717 translate
0.000000 rotate
0.000000 0.000000 m /zero glyphshow
grestore
gsave
/o {
gsave
newpath
translate
0.8 setlinewidth
1 setlinejoin
0 setlinecap
0 0 m
0 -3.5 l

gsave
0.000 setgray
fill
grestore
stroke
grestore
} bind def
182.387 320.879 o
grestore
gsave
176.027634 306.285717 translate
0.000000 rotate
0.000000 0.000000 m /one glyphshow
6.362305 0.000000 m /zero glyphshow
grestore
gsave
/o {
gsave
newpath
translate
0.8 setlinewidth
1 setlinejoin
0 setlinecap
0 0 m
0 -3.5 l

gsave
0.000 setgray
fill
grestore
stroke
grestore
} bind def
312.617 320.879 o
grestore
gsave
306.257737 306.285717 translate
0.000000 rotate
0.000000 0.000000 m /two glyphshow
6.362305 0.000000 m /zero glyphshow
grestore
gsave
/o {
gsave
newpath
translate
0.8 setlinewidth
1 setlinejoin
0 setlinecap
0 0 m
0 -3.5 l

gsave
0.000 setgray
fill
grestore
stroke
grestore
} bind def
442.847 320.879 o
grestore
gsave
436.487839 306.285717 translate
0.000000 rotate
0.000000 0.000000 m /three glyphshow
6.362305 0.000000 m /zero glyphshow
grestore
gsave
/o {
gsave
newpath
translate
0.8 setlinewidth
1 setlinejoin
0 setlinecap
0 0 m
0 -3.5 l

gsave
0.000 setgray
fill
grestore
stroke
grestore
} bind def
573.077 320.879 o
grestore
gsave
566.717941 306.285717 translate
0.000000 rotate
0.000000 0.000000 m /four glyphshow
6.362305 0.000000 m /zero glyphshow
grestore
gsave
/o {
gsave
newpath
translate
0.8 setlinewidth
1 setlinejoin
0 setlinecap
0 0 m
0 -3.5 l

gsave
0.000 setgray
fill
grestore
stroke
grestore
} bind def
703.307 320.879 o
grestore
gsave
696.948044 306.285717 translate
0.000000 rotate
0.000000 0.000000 m /five glyphshow
6.362305 0.000000 m /zero glyphshow
grestore
/DejaVuSans findfont
14.000 scalefont
setfont
gsave
353.725662 289.566967 translate
0.000000 rotate
0.000000 0.000000 m /E glyphshow
8.845703 0.000000 m /p glyphshow
17.732422 0.000000 m /o glyphshow
26.297852 0.000000 m /c glyphshow
33.995117 0.000000 m /h glyphshow
42.868164 0.000000 m /s glyphshow
grestore
gsave
/o {
gsave
newpath
translate
0.8 setlinewidth
1 setlinejoin
0 setlinecap
0 0 m
-3.5 0 l

gsave
0.000 setgray
fill
grestore
stroke
grestore
} bind def
49.1144 339.272 o
grestore
/DejaVuSans findfont
10.000 scalefont
setfont
gsave
26.208150 335.474895 translate
0.000000 rotate
0.000000 0.000000 m /zero glyphshow
6.362305 0.000000 m /period glyphshow
9.541016 0.000000 m /five glyphshow
grestore
gsave
/o {
gsave
newpath
translate
0.8 setlinewidth
1 setlinejoin
0 setlinecap
0 0 m
-3.5 0 l

gsave
0.000 setgray
fill
grestore
stroke
grestore
} bind def
49.1144 377.162 o
grestore
gsave
26.208150 373.365538 translate
0.000000 rotate
0.000000 0.000000 m /zero glyphshow
6.362305 0.000000 m /period glyphshow
9.541016 0.000000 m /six glyphshow
grestore
gsave
/o {
gsave
newpath
translate
0.8 setlinewidth
1 setlinejoin
0 setlinecap
0 0 m
-3.5 0 l

gsave
0.000 setgray
fill
grestore
stroke
grestore
} bind def
49.1144 415.053 o
grestore
gsave
26.208150 411.256182 translate
0.000000 rotate
0.000000 0.000000 m /zero glyphshow
6.362305 0.000000 m /period glyphshow
9.541016 0.000000 m /seven glyphshow
grestore
gsave
/o {
gsave
newpath
translate
0.8 setlinewidth
1 setlinejoin
0 setlinecap
0 0 m
-3.5 0 l

gsave
0.000 setgray
fill
grestore
stroke
grestore
} bind def
49.1144 452.944 o
grestore
gsave
26.208150 449.146825 translate
0.000000 rotate
0.000000 0.000000 m /zero glyphshow
6.362305 0.000000 m /period glyphshow
9.541016 0.000000 m /eight glyphshow
grestore
gsave
/o {
gsave
newpath
translate
0.8 setlinewidth
1 setlinejoin
0 setlinecap
0 0 m
-3.5 0 l

gsave
0.000 setgray
fill
grestore
stroke
grestore
} bind def
49.1144 490.834 o
grestore
gsave
26.208150 487.037469 translate
0.000000 rotate
0.000000 0.000000 m /zero glyphshow
6.362305 0.000000 m /period glyphshow
9.541016 0.000000 m /nine glyphshow
grestore
/DejaVuSans findfont
14.000 scalefont
setfont
gsave
19.301900 370.652058 translate
90.000000 rotate
0.000000 0.000000 m /M glyphshow
12.079102 0.000000 m /S glyphshow
20.965820 0.000000 m /E glyphshow
29.811523 0.000000 m /space glyphshow
34.261719 0.000000 m /t glyphshow
39.750977 0.000000 m /r glyphshow
45.506836 0.000000 m /a glyphshow
54.085938 0.000000 m /i glyphshow
57.975586 0.000000 m /n glyphshow
66.848633 0.000000 m /space glyphshow
71.298828 0.000000 m /l glyphshow
75.188477 0.000000 m /o glyphshow
83.753906 0.000000 m /s glyphshow
91.047852 0.000000 m /s glyphshow
grestore
1.500 setlinewidth
[9.6 2.4 1.5 2.4] 0 setdash
0.122 0.467 0.706 setrgbcolor
gsave
659.4 197.9 49.11 320.9 clipbox
70.446358 538.12 m
70.682343 533.821407 l
70.889512 538.12 l
85.971306 538.12 m
86.601366 514.946113 l
87.741168 538.12 l
91.47537 538.12 m
93.83235 495.572151 l
96.728363 517.178687 l
99.268921 538.12 l
100.282056 538.12 m
106.85536 508.938047 l
109.751373 470.413255 l
112.647387 428.639132 l
115.5434 440.474813 l
119.87837 500.404052 l
122.774384 437.807214 l
125.670397 416.534361 l
128.56641 448.942146 l
132.90138 458.368147 l
135.797394 417.789376 l
138.693407 422.795908 l
141.589421 395.227904 l
145.924391 382.626199 l
148.820404 427.226293 l
151.716417 436.959806 l
154.612431 449.003413 l
158.947401 437.09169 l
161.843414 453.477635 l
164.739428 386.883345 l
167.635441 461.417406 l
171.970411 406.430894 l
174.866424 434.856701 l
177.762438 427.453594 l
180.658451 456.849437 l
184.993421 440.759392 l
187.889435 388.106156 l
190.785448 422.4936 l
193.681461 414.604414 l
198.016432 461.727349 l
200.912445 404.072648 l
203.808458 399.993824 l
206.704472 405.830737 l
211.039442 387.954408 l
213.935455 409.762389 l
216.831469 405.304374 l
219.727482 422.533916 l
224.062452 379.923201 l
226.958465 421.000478 l
229.854479 425.206981 l
232.750492 407.784895 l
237.085462 430.238138 l
239.981476 389.823215 l
242.877489 415.513074 l
245.773502 388.909429 l
250.108472 423.253963 l
253.004486 391.581387 l
255.900499 397.29768 l
258.796513 417.480694 l
263.131483 460.104375 l
266.027496 391.384919 l
268.923509 378.084759 l
271.819523 389.988328 l
276.154493 414.921941 l
279.050506 393.82416 l
281.94652 403.450447 l
284.842533 353.059983 l
289.177503 388.263015 l
292.073517 426.176749 l
294.96953 408.792206 l
297.865543 409.647558 l
302.200513 404.053324 l
305.096527 432.758549 l
307.99254 374.808571 l
310.888554 451.261052 l
315.223524 359.733091 l
318.119537 460.698982 l
321.01555 377.079223 l
323.911564 381.907408 l
328.246534 436.94445 l
331.142547 375.803125 l
334.038561 408.513172 l
336.934574 411.225465 l
341.269544 405.384005 l
344.165557 400.978601 l
347.061571 404.881507 l
349.957584 381.663668 l
354.292554 394.629082 l
357.188568 407.474296 l
360.084581 375.187434 l
362.980595 423.325008 l
367.315565 377.721538 l
370.211578 413.100405 l
373.107591 429.911313 l
376.003605 379.338905 l
380.338575 420.455244 l
383.234588 418.708236 l
386.130602 399.032413 l
389.026615 425.332658 l
393.361585 390.003707 l
396.257598 399.492935 l
399.153612 393.17835 l
402.049625 434.717072 l
406.384595 415.922231 l
409.280609 415.850681 l
412.176622 363.770653 l
415.072635 424.102812 l
419.407606 419.74539 l
425.199632 374.232009 l
428.095646 394.470762 l
432.430616 396.987898 l
435.326629 439.946164 l
438.222643 428.336254 l
441.118656 376.160356 l
445.453626 427.761614 l
448.349639 439.860454 l
451.245653 387.984333 l
454.141666 408.397961 l
458.476636 397.997603 l
461.37265 383.011068 l
464.268663 432.016626 l
467.164676 391.52964 l
471.499646 399.681133 l
474.39566 416.37991 l
480.187687 389.315697 l
484.522657 407.371147 l
487.41867 421.830006 l
490.314683 404.543399 l
493.210697 405.234262 l
497.545667 405.633235 l
500.44168 415.575856 l
503.337694 417.161865 l
506.233707 402.180984 l
510.568677 391.028987 l
513.464691 417.746587 l
516.360704 420.878233 l
519.256717 388.038385 l
523.591687 467.075502 l
526.487701 364.476385 l
529.383714 398.926036 l
532.279728 417.618197 l
536.614698 417.882519 l
539.510711 437.113029 l
542.406724 409.178879 l
545.302738 385.412467 l
549.637708 432.660641 l
552.533721 426.454439 l
555.429735 398.721422 l
558.325748 394.814153 l
562.660718 425.242236 l
565.556731 412.032132 l
568.452745 421.871419 l
571.348758 396.896346 l
575.683728 440.894805 l
578.579742 410.107702 l
581.475755 392.148484 l
584.371769 410.372235 l
588.706739 409.239174 l
591.602752 377.979631 l
594.498765 426.717351 l
597.394779 404.864586 l
601.729749 364.232275 l
604.625762 449.517017 l
607.521776 450.739635 l
610.417789 385.94297 l
614.752759 398.986462 l
617.648772 416.436718 l
620.544786 410.244774 l
623.440799 409.58385 l
627.775769 393.432749 l
630.671783 429.80275 l
633.567796 409.650148 l
636.463809 403.618679 l
640.79878 429.01678 l
643.694793 433.536865 l
646.590806 401.686144 l
649.48682 411.208444 l
653.82179 411.4674 l
656.717803 435.48931 l
659.613817 423.479586 l
662.50983 420.944407 l
666.8448 437.74115 l
669.740813 434.902396 l
672.636827 401.564708 l
675.53284 407.716807 l
679.86781 425.184171 l
682.763824 430.41633 l
685.659837 398.141147 l
688.55585 397.231296 l
692.89082 384.647057 l
695.786834 425.671048 l
698.682847 408.763519 l
701.578861 435.323642 l
701.578861 435.323642 l
stroke
grestore
[5.55 2.4] 0 setdash
1.000 0.498 0.055 setrgbcolor
gsave
659.4 197.9 49.11 320.9 clipbox
54.763319 523.906061 m
57.659332 528.835627 l
58.241749 538.12 l
68.242724 538.12 m
70.682343 507.394887 l
73.578356 506.363799 l
74.506127 538.12 l
79.941717 538.12 m
80.809339 521.26226 l
82.662809 538.12 l
84.267718 538.12 m
86.601366 498.77177 l
89.49738 527.955739 l
90.630123 538.12 l
100.280083 538.12 m
102.52039 503.05339 l
106.85536 533.54522 l
109.751373 529.38352 l
112.647387 526.258494 l
115.5434 508.914962 l
119.87837 510.603624 l
122.774384 535.454907 l
125.670397 470.884005 l
128.56641 514.205165 l
132.90138 533.964055 l
135.797394 487.098766 l
138.693407 499.710216 l
141.589421 483.723751 l
145.924391 508.046229 l
148.820404 493.463124 l
151.716417 487.67547 l
154.612431 488.3553 l
158.947401 485.347139 l
161.843414 492.491307 l
164.739428 448.293083 l
167.635441 518.975659 l
171.970411 443.711064 l
174.866424 495.441739 l
177.762438 489.746596 l
180.658451 506.520859 l
184.993421 475.097277 l
187.889435 463.782155 l
190.785448 465.511698 l
193.681461 477.937747 l
198.016432 487.143183 l
200.912445 477.648045 l
203.808458 460.046152 l
206.704472 446.662487 l
211.039442 418.925216 l
213.935455 479.7884 l
216.831469 469.225265 l
219.727482 437.815465 l
224.062452 432.752815 l
226.958465 460.21494 l
229.854479 484.350545 l
232.750492 464.639478 l
237.085462 489.055449 l
239.981476 424.936737 l
242.877489 425.127909 l
245.773502 430.997341 l
250.108472 435.198957 l
253.004486 424.973212 l
255.900499 467.906312 l
258.796513 436.619731 l
263.131483 469.609809 l
266.027496 441.043104 l
268.923509 408.286499 l
271.819523 401.686218 l
276.154493 455.319678 l
279.050506 447.334784 l
281.94652 431.77138 l
284.842533 382.597909 l
289.177503 432.239141 l
292.073517 446.711266 l
294.96953 429.34492 l
297.865543 428.216027 l
302.200513 422.876046 l
305.096527 457.223716 l
307.99254 402.162897 l
310.888554 440.890862 l
315.223524 402.431832 l
318.119537 463.935877 l
321.01555 392.693338 l
323.911564 430.269699 l
328.246534 449.377815 l
331.142547 392.273104 l
334.038561 405.111789 l
336.934574 424.061838 l
341.269544 420.132973 l
344.165557 437.741821 l
347.061571 427.662199 l
349.957584 386.109382 l
354.292554 399.747231 l
357.188568 452.144821 l
360.084581 384.517789 l
362.980595 439.483898 l
367.315565 392.675603 l
370.211578 430.789265 l
373.107591 428.086035 l
376.003605 378.153104 l
380.338575 405.133843 l
383.234588 420.779084 l
386.130602 411.519407 l
389.026615 417.102818 l
393.361585 392.924474 l
396.257598 420.815767 l
399.153612 393.076872 l
402.049625 448.61156 l
406.384595 395.583983 l
409.280609 427.263602 l
412.176622 387.192072 l
415.072635 440.478222 l
419.407606 428.91785 l
422.303619 385.870094 l
425.199632 402.535617 l
428.095646 389.244996 l
432.430616 397.380636 l
435.326629 413.990728 l
438.222643 421.710557 l
441.118656 385.45916 l
445.453626 400.408771 l
448.349639 463.547273 l
451.245653 381.841977 l
454.141666 414.395127 l
458.476636 402.443864 l
461.37265 395.453469 l
464.268663 402.25254 l
467.164676 395.705714 l
471.499646 412.562524 l
474.39566 405.783437 l
477.291673 388.058593 l
480.187687 394.583203 l
484.522657 415.039607 l
487.41867 404.398623 l
490.314683 381.209567 l
493.210697 388.050846 l
497.545667 378.627018 l
500.44168 444.619075 l
503.337694 409.101619 l
506.233707 385.684589 l
510.568677 381.03085 l
513.464691 409.858591 l
516.360704 422.670892 l
519.256717 384.317871 l
523.591687 443.35852 l
526.487701 372.732451 l
529.383714 384.761321 l
532.279728 404.697921 l
536.614698 397.359568 l
539.510711 400.701712 l
542.406724 405.076485 l
545.302738 388.103296 l
549.637708 416.413985 l
552.533721 409.052836 l
555.429735 388.485879 l
558.325748 391.370333 l
562.660718 403.379854 l
565.556731 403.739321 l
568.452745 403.730173 l
571.348758 372.962678 l
575.683728 417.45937 l
578.579742 410.343718 l
581.475755 385.255737 l
584.371769 388.093432 l
588.706739 386.880011 l
591.602752 371.844295 l
594.498765 414.258167 l
597.394779 398.762601 l
601.729749 345.647654 l
604.625762 418.869106 l
607.521776 457.310526 l
610.417789 371.608968 l
614.752759 406.225869 l
617.648772 378.208934 l
620.544786 394.262017 l
623.440799 395.937062 l
627.775769 383.809743 l
630.671783 426.678348 l
633.567796 391.312258 l
636.463809 378.504811 l
640.79878 402.534444 l
643.694793 391.668159 l
646.590806 384.408668 l
649.48682 373.586426 l
653.82179 381.415909 l
656.717803 400.396094 l
659.613817 397.277292 l
662.50983 408.434697 l
666.8448 387.725772 l
669.740813 425.02437 l
672.636827 388.371685 l
675.53284 384.72299 l
679.86781 398.527906 l
682.763824 397.017047 l
685.659837 376.811902 l
688.55585 369.660365 l
692.89082 374.498594 l
695.786834 394.680968 l
698.682847 375.938773 l
701.578861 399.74338 l
701.578861 399.74338 l
stroke
grestore
[1.5 2.475] 0 setdash
0.173 0.627 0.173 setrgbcolor
gsave
659.4 197.9 49.11 320.9 clipbox
68.062167 538.12 m
70.682343 507.46244 l
73.578356 520.670946 l
74.002257 538.12 l
80.239275 538.12 m
80.809339 522.712021 l
83.705353 510.069114 l
86.601366 489.901122 l
89.278633 538.12 l
90.575252 538.12 m
93.83235 526.215 l
96.728363 498.317974 l
99.624376 526.945318 l
102.52039 465.104193 l
106.85536 493.273886 l
109.751373 493.559486 l
112.647387 477.47963 l
115.5434 511.760977 l
119.87837 495.672199 l
122.774384 475.065239 l
125.670397 422.361679 l
128.56641 473.739397 l
132.90138 474.421215 l
135.797394 462.403007 l
138.693407 470.979695 l
141.589421 430.398009 l
145.924391 460.602668 l
148.820404 486.715079 l
151.716417 487.320553 l
154.612431 494.709624 l
158.947401 492.050342 l
161.843414 493.484801 l
164.739428 408.146288 l
167.635441 511.918586 l
171.970411 473.304319 l
174.866424 475.225845 l
177.762438 498.257278 l
180.658451 504.773556 l
184.993421 518.573364 l
187.889435 465.066241 l
190.785448 505.048198 l
193.681461 492.486501 l
198.016432 497.490567 l
200.912445 472.149822 l
203.808458 475.082378 l
206.704472 444.936546 l
211.039442 462.79418 l
216.831469 501.932982 l
219.727482 475.531565 l
224.062452 463.886512 l
226.958465 515.311886 l
229.854479 520.797064 l
232.750492 507.869527 l
237.085462 537.585179 l
239.981476 473.476005 l
242.877489 472.549407 l
245.773502 500.621107 l
250.108472 489.421681 l
253.004486 452.762009 l
255.900499 471.568091 l
258.796513 461.918878 l
263.131483 501.181733 l
266.027496 452.950264 l
268.923509 414.712751 l
271.819523 455.80797 l
276.154493 509.593162 l
279.050506 481.346877 l
281.94652 472.793496 l
284.842533 402.174714 l
292.073517 495.082974 l
294.96953 495.752102 l
297.865543 456.339812 l
302.200513 435.6902 l
305.096527 467.5241 l
307.99254 466.220004 l
310.888554 481.579692 l
315.223524 429.684433 l
318.119537 536.71762 l
321.01555 438.810031 l
323.911564 463.26296 l
328.246534 519.985768 l
331.142547 461.671936 l
334.038561 475.700972 l
336.934574 447.000075 l
341.269544 522.931333 l
344.165557 490.236297 l
347.061571 476.882882 l
349.957584 434.903781 l
354.292554 458.825419 l
357.188568 491.112437 l
360.084581 464.734597 l
362.980595 514.143887 l
367.315565 416.326254 l
370.211578 439.967769 l
372.013413 538.12 l
374.261233 538.12 m
376.003605 448.099131 l
380.338575 426.097171 l
383.234588 449.615137 l
386.130602 464.01252 l
389.026615 492.539529 l
393.361585 487.513855 l
396.257598 474.090195 l
399.153612 431.897098 l
402.049625 486.374024 l
406.384595 458.010455 l
409.280609 483.000366 l
412.176622 425.101437 l
415.072635 493.484828 l
419.407606 490.141758 l
422.303619 438.712261 l
425.199632 428.280838 l
428.095646 515.66312 l
432.430616 537.988502 l
435.326629 513.177878 l
438.222643 448.097309 l
441.118656 467.536964 l
445.453626 426.641994 l
448.349639 483.714328 l
451.245653 434.156045 l
454.141666 433.032766 l
458.476636 469.433107 l
461.37265 446.494128 l
464.268663 467.750785 l
467.164676 462.730671 l
471.499646 517.89853 l
474.39566 434.726751 l
477.291673 467.402297 l
480.187687 449.55176 l
484.522657 488.562805 l
487.41867 455.791733 l
490.314683 446.900003 l
493.210697 464.291471 l
497.545667 461.518285 l
500.44168 466.151165 l
503.337694 474.890626 l
506.233707 416.596921 l
510.568677 519.023512 l
513.464691 444.336514 l
516.360704 466.024608 l
519.256717 402.084314 l
523.591687 529.129482 l
526.487701 415.555794 l
529.383714 444.305797 l
532.279728 470.95963 l
536.614698 505.956423 l
539.510711 518.204594 l
542.406724 447.510453 l
545.302738 444.151608 l
549.637708 493.855138 l
552.533721 467.723032 l
555.429735 408.066565 l
558.325748 446.776813 l
562.660718 454.009303 l
565.556731 448.435553 l
568.452745 469.731499 l
571.348758 423.606773 l
575.683728 484.746349 l
578.579742 437.85471 l
581.475755 477.725581 l
584.371769 464.275312 l
588.706739 458.531431 l
591.602752 459.621174 l
594.498765 494.526399 l
597.394779 475.661422 l
601.729749 379.158691 l
604.625762 491.988423 l
607.141041 538.12 l
607.688467 538.12 m
610.417789 423.785651 l
614.752759 499.005392 l
617.648772 443.624398 l
620.544786 470.077573 l
623.440799 445.792812 l
627.775769 446.345247 l
630.671783 462.803199 l
633.567796 445.231937 l
636.463809 467.562968 l
640.79878 440.277776 l
643.694793 465.391846 l
646.590806 471.758966 l
649.48682 428.769108 l
653.82179 467.763259 l
656.717803 468.49216 l
659.613817 485.451881 l
662.50983 448.949645 l
666.8448 437.773484 l
669.740813 469.335258 l
672.636827 458.834697 l
675.53284 411.603052 l
679.86781 469.236384 l
682.763824 445.837152 l
685.659837 445.277802 l
688.55585 458.008115 l
692.89082 495.750712 l
695.786834 463.080357 l
698.682847 414.668952 l
701.578861 492.666503 l
701.578861 492.666503 l
stroke
grestore
2 setlinecap
[] 0 setdash
0.839 0.153 0.157 setrgbcolor
gsave
659.4 197.9 49.11 320.9 clipbox
54.983425 538.12 m
57.659332 500.178704 l
60.555346 500.547282 l
63.451359 496.15283 l
67.786329 440.260043 l
70.682343 384.866942 l
73.578356 396.155971 l
76.474369 455.618449 l
80.809339 379.946193 l
83.705353 406.564313 l
86.601366 381.276894 l
89.49738 391.750261 l
93.83235 395.244706 l
96.728363 388.433127 l
99.624376 407.284814 l
102.52039 379.29502 l
106.85536 402.115329 l
109.751373 375.719155 l
112.647387 391.287264 l
115.5434 389.8187 l
119.87837 404.40766 l
122.774384 405.154223 l
125.670397 348.992198 l
128.56641 377.27459 l
132.90138 398.481744 l
135.797394 372.247031 l
138.693407 383.978215 l
141.589421 361.488462 l
145.924391 346.162939 l
148.820404 393.141895 l
151.716417 389.33533 l
154.612431 378.720721 l
158.947401 386.422033 l
161.843414 395.47389 l
164.739428 345.844151 l
167.635441 394.851625 l
171.970411 351.439686 l
174.866424 387.527072 l
177.762438 388.911472 l
180.658451 386.815788 l
184.993421 381.911819 l
187.889435 348.813236 l
190.785448 389.539037 l
193.681461 378.285688 l
198.016432 392.27617 l
200.912445 386.275241 l
203.808458 354.038486 l
206.704472 367.134698 l
211.039442 354.241294 l
213.935455 377.940937 l
216.831469 364.636837 l
219.727482 385.915778 l
224.062452 354.27087 l
226.958465 369.857415 l
229.854479 400.406136 l
232.750492 387.745741 l
237.085462 385.055525 l
239.981476 361.447745 l
242.877489 373.042391 l
245.773502 360.183788 l
250.108472 383.299975 l
253.004486 361.831105 l
255.900499 380.312876 l
258.796513 365.018744 l
263.131483 391.205981 l
266.027496 355.572187 l
268.923509 353.620847 l
271.819523 355.425638 l
276.154493 381.242587 l
279.050506 367.583221 l
281.94652 366.954465 l
284.842533 327.737176 l
289.177503 369.020135 l
292.073517 376.491136 l
294.96953 363.537129 l
297.865543 368.177627 l
302.200513 343.479035 l
305.096527 386.656821 l
307.99254 333.905481 l
310.888554 391.922562 l
315.223524 340.069995 l
318.119537 416.868433 l
321.01555 343.249044 l
323.911564 362.973254 l
328.246534 381.225755 l
331.142547 346.33675 l
334.038561 357.709501 l
336.934574 372.409915 l
341.269544 359.734896 l
344.165557 377.560997 l
347.061571 362.461578 l
349.957584 364.374201 l
354.292554 358.66493 l
357.188568 365.184504 l
360.084581 347.262843 l
362.980595 378.117089 l
367.315565 333.841388 l
370.211578 378.152304 l
373.107591 376.392341 l
376.003605 340.604703 l
383.234588 372.461913 l
386.130602 360.495339 l
389.026615 368.666341 l
393.361585 345.845541 l
396.257598 372.665227 l
399.153612 351.292315 l
402.049625 391.221789 l
406.384595 362.958719 l
409.280609 384.961781 l
412.176622 328.167648 l
415.072635 383.707378 l
419.407606 382.099901 l
422.303619 357.79558 l
425.199632 348.190181 l
432.430616 347.285837 l
435.326629 372.925207 l
438.222643 388.018286 l
441.118656 334.776913 l
445.453626 370.429283 l
448.349639 407.011046 l
451.245653 340.222883 l
454.141666 350.466859 l
458.476636 359.20302 l
461.37265 341.575026 l
464.268663 373.42092 l
467.164676 356.752074 l
471.499646 358.479596 l
474.39566 359.255058 l
477.291673 358.002508 l
480.187687 343.764657 l
484.522657 360.391422 l
487.41867 352.826365 l
490.314683 352.533235 l
493.210697 359.813089 l
497.545667 340.87044 l
500.44168 377.070911 l
503.337694 365.267862 l
506.233707 349.649687 l
510.568677 350.508114 l
513.464691 376.915844 l
516.360704 363.736741 l
519.256717 335.577593 l
523.591687 386.410718 l
526.487701 336.080707 l
529.383714 346.72212 l
532.279728 365.683874 l
536.614698 359.926559 l
539.510711 361.214525 l
542.406724 363.098417 l
545.302738 342.474032 l
549.637708 379.528877 l
552.533721 374.941392 l
555.429735 341.344419 l
558.325748 342.509163 l
562.660718 356.63847 l
565.556731 363.423107 l
568.452745 368.48826 l
571.348758 339.593601 l
575.683728 379.815069 l
578.579742 347.716734 l
581.475755 345.04407 l
584.371769 353.24677 l
588.706739 353.710396 l
591.602752 338.702232 l
594.498765 371.951184 l
597.394779 341.73877 l
601.729749 315.736015 l
604.625762 374.095724 l
607.521776 394.949985 l
610.417789 336.150869 l
614.752759 364.377516 l
617.648772 345.399019 l
620.544786 345.807059 l
623.440799 356.320999 l
627.775769 342.269434 l
630.671783 387.048455 l
633.567796 343.001284 l
636.463809 341.088043 l
640.79878 356.672198 l
643.694793 350.916427 l
646.590806 341.094147 l
649.48682 339.93598 l
653.82179 343.940987 l
656.717803 350.220479 l
659.613817 362.3732 l
662.50983 361.120557 l
666.8448 358.812373 l
669.740813 364.53026 l
672.636827 351.766798 l
675.53284 329.87403 l
679.86781 354.366524 l
682.763824 363.716217 l
685.659837 330.508959 l
688.55585 354.551224 l
692.89082 337.993423 l
695.786834 350.455149 l
698.682847 338.513139 l
701.578861 361.207459 l
701.578861 361.207459 l
stroke
grestore
0 setlinecap
[9.6 2.4 1.5 2.4] 0 setdash
0.580 0.404 0.741 setrgbcolor
gsave
659.4 197.9 49.11 320.9 clipbox
54.763319 516.811313 m
57.659332 480.645964 l
60.555346 496.297022 l
63.451359 498.852944 l
67.786329 450.232762 l
70.682343 408.428376 l
73.578356 401.468016 l
76.474369 470.028536 l
80.809339 388.248221 l
83.705353 455.906927 l
86.601366 396.766028 l
89.49738 400.005624 l
93.83235 438.182495 l
96.728363 412.738024 l
99.624376 410.210728 l
102.52039 400.589681 l
106.85536 429.01609 l
109.751373 400.204363 l
112.647387 404.919695 l
115.5434 413.830378 l
119.87837 410.951567 l
122.774384 418.045137 l
125.670397 369.659988 l
128.56641 392.223469 l
132.90138 428.241006 l
135.797394 389.543446 l
138.693407 400.148287 l
141.589421 380.608418 l
145.924391 368.270673 l
148.820404 402.126913 l
151.716417 403.484873 l
154.612431 412.445396 l
158.947401 397.111366 l
161.843414 411.470993 l
164.739428 368.308864 l
167.635441 408.307289 l
171.970411 358.87189 l
174.866424 400.332988 l
177.762438 395.090575 l
180.658451 404.930252 l
184.993421 392.772429 l
187.889435 365.361442 l
190.785448 401.597904 l
193.681461 399.514084 l
200.912445 409.266199 l
203.808458 365.021806 l
206.704472 387.112008 l
211.039442 364.447892 l
213.935455 391.115635 l
216.831469 382.497885 l
219.727482 392.55243 l
224.062452 365.766579 l
226.958465 394.818566 l
229.854479 406.861701 l
232.750492 402.263282 l
237.085462 400.803693 l
239.981476 385.085726 l
242.877489 380.126529 l
245.773502 373.946225 l
250.108472 392.634223 l
253.004486 385.54602 l
255.900499 393.924315 l
258.796513 382.571882 l
263.131483 415.273127 l
266.027496 377.075193 l
268.923509 360.73593 l
271.819523 362.859175 l
276.154493 400.684195 l
279.050506 393.788995 l
281.94652 383.724849 l
284.842533 336.473619 l
289.177503 392.082407 l
292.073517 398.018232 l
294.96953 389.408332 l
297.865543 388.245754 l
302.200513 363.695053 l
305.096527 411.900818 l
307.99254 350.840833 l
310.888554 405.779768 l
315.223524 355.098218 l
318.119537 430.44375 l
321.01555 356.77499 l
323.911564 379.4363 l
328.246534 399.103969 l
331.142547 367.375308 l
334.038561 368.817583 l
336.934574 372.311964 l
341.269544 378.167943 l
344.165557 389.619881 l
347.061571 375.920939 l
349.957584 373.270391 l
354.292554 389.86294 l
357.188568 386.425293 l
360.084581 371.227267 l
362.980595 383.698519 l
367.315565 357.287124 l
370.211578 402.204709 l
373.107591 395.758201 l
376.003605 363.679897 l
380.338575 386.642088 l
383.234588 391.538496 l
386.130602 379.308878 l
389.026615 375.188115 l
393.361585 370.607447 l
396.257598 391.093367 l
399.153612 368.293557 l
402.049625 424.228481 l
406.384595 372.010305 l
409.280609 403.463616 l
412.176622 343.302506 l
415.072635 406.317857 l
419.407606 405.092675 l
422.303619 371.941189 l
425.199632 367.251002 l
428.095646 364.847178 l
432.430616 366.707401 l
435.326629 403.256374 l
438.222643 416.228513 l
441.118656 352.990428 l
445.453626 381.199165 l
448.349639 423.555894 l
451.245653 357.490797 l
454.141666 376.473407 l
458.476636 384.684813 l
461.37265 359.87347 l
464.268663 401.867944 l
467.164676 386.620758 l
471.499646 375.599188 l
474.39566 390.991741 l
477.291673 362.947525 l
480.187687 381.222706 l
484.522657 381.820557 l
487.41867 380.565037 l
490.314683 384.840833 l
493.210697 379.464122 l
497.545667 361.662309 l
500.44168 400.780695 l
503.337694 392.390663 l
506.233707 370.866424 l
510.568677 368.116497 l
513.464691 385.925508 l
516.360704 389.299733 l
519.256717 379.702717 l
523.591687 410.916458 l
526.487701 358.723689 l
529.383714 368.48322 l
532.279728 384.967683 l
536.614698 378.989077 l
539.510711 378.435677 l
542.406724 384.180575 l
545.302738 356.944319 l
549.637708 398.304465 l
552.533721 403.211846 l
555.429735 360.777226 l
558.325748 360.268097 l
562.660718 363.677194 l
565.556731 395.014126 l
568.452745 401.085918 l
571.348758 350.55693 l
575.683728 400.270349 l
578.579742 375.985837 l
581.475755 367.935242 l
584.371769 373.990106 l
588.706739 386.431257 l
591.602752 353.58685 l
594.498765 394.284239 l
597.394779 358.282689 l
601.729749 334.945317 l
604.625762 406.69024 l
607.521776 431.035246 l
610.417789 354.770227 l
614.752759 390.504045 l
617.648772 352.6639 l
620.544786 384.675626 l
623.440799 389.889841 l
627.775769 368.586312 l
630.671783 407.813423 l
633.567796 375.159113 l
636.463809 372.187556 l
640.79878 383.788116 l
643.694793 390.331656 l
646.590806 371.64992 l
649.48682 354.80939 l
653.82179 374.890224 l
656.717803 366.991622 l
659.613817 377.73995 l
662.50983 394.595539 l
666.8448 378.453644 l
669.740813 402.609637 l
672.636827 381.229864 l
675.53284 362.91133 l
679.86781 389.08831 l
682.763824 388.274504 l
685.659837 366.7895 l
688.55585 388.211028 l
692.89082 365.315584 l
695.786834 391.674039 l
698.682847 365.453953 l
701.578861 382.884932 l
701.578861 382.884932 l
stroke
grestore
0.800 setlinewidth
0 setlinejoin
2 setlinecap
[] 0 setdash
0.000 setgray
gsave
49.1144 320.879467 m
49.1144 518.7684 l
stroke
grestore
gsave
708.5088 320.879467 m
708.5088 518.7684 l
stroke
grestore
gsave
49.1144 320.879467 m
708.5088 320.879467 l
stroke
grestore
gsave
49.1144 518.7684 m
708.5088 518.7684 l
stroke
grestore
gsave
202.639725 524.768400 translate
0.000000 rotate
0.000000 0.000000 m /M glyphshow
12.079102 0.000000 m /e glyphshow
20.692383 0.000000 m /a glyphshow
29.271484 0.000000 m /n glyphshow
38.144531 0.000000 m /space glyphshow
42.594727 0.000000 m /S glyphshow
51.481445 0.000000 m /q glyphshow
60.368164 0.000000 m /u glyphshow
69.241211 0.000000 m /a glyphshow
77.820312 0.000000 m /r glyphshow
83.576172 0.000000 m /e glyphshow
92.189453 0.000000 m /d glyphshow
101.076172 0.000000 m /space glyphshow
105.526367 0.000000 m /E glyphshow
114.372070 0.000000 m /r glyphshow
120.127930 0.000000 m /r glyphshow
125.883789 0.000000 m /o glyphshow
134.449219 0.000000 m /r glyphshow
140.205078 0.000000 m /space glyphshow
144.655273 0.000000 m /T glyphshow
153.175781 0.000000 m /r glyphshow
158.931641 0.000000 m /a glyphshow
167.510742 0.000000 m /i glyphshow
171.400391 0.000000 m /n glyphshow
180.273438 0.000000 m /i glyphshow
184.163086 0.000000 m /n glyphshow
193.036133 0.000000 m /g glyphshow
201.922852 0.000000 m /space glyphshow
206.373047 0.000000 m /l glyphshow
210.262695 0.000000 m /o glyphshow
218.828125 0.000000 m /s glyphshow
226.122070 0.000000 m /s glyphshow
233.416016 0.000000 m /space glyphshow
237.866211 0.000000 m /o glyphshow
246.431641 0.000000 m /n glyphshow
255.304688 0.000000 m /space glyphshow
259.754883 0.000000 m /W glyphshow
273.597656 0.000000 m /i glyphshow
277.487305 0.000000 m /n glyphshow
286.360352 0.000000 m /e glyphshow
294.973633 0.000000 m /space glyphshow
299.423828 0.000000 m /d glyphshow
308.310547 0.000000 m /a glyphshow
316.889648 0.000000 m /t glyphshow
322.378906 0.000000 m /a glyphshow
330.958008 0.000000 m /s glyphshow
338.251953 0.000000 m /e glyphshow
346.865234 0.000000 m /t glyphshow
grestore
1.000 setlinewidth
0 setlinecap
0.800 setgray
gsave
332.920975 437.409025 m
424.702225 437.409025 l
426.035558 437.409025 426.702225 438.075692 426.702225 439.409025 c
426.702225 511.7684 l
426.702225 513.101733 426.035558 513.7684 424.702225 513.7684 c
332.920975 513.7684 l
331.587642 513.7684 330.920975 513.101733 330.920975 511.7684 c
330.920975 439.409025 l
330.920975 438.075692 331.587642 437.409025 332.920975 437.409025 c
cl
gsave
1.000 setgray
fill
grestore
stroke
grestore
1.500 setlinewidth
1 setlinejoin
[9.6 2.4 1.5 2.4] 0 setdash
0.122 0.467 0.706 setrgbcolor
gsave
334.920975 505.67465 m
354.920975 505.67465 l
stroke
grestore
0.000 setgray
/DejaVuSans findfont
10.000 scalefont
setfont
gsave
362.920975 502.174650 translate
0.000000 rotate
0.000000 0.000000 m /N glyphshow
7.480469 0.000000 m /o glyphshow
13.598633 0.000000 m /i glyphshow
16.376953 0.000000 m /s glyphshow
21.586914 0.000000 m /y glyphshow
27.504883 0.000000 m /space glyphshow
30.683594 0.000000 m /K glyphshow
37.241211 0.000000 m /F glyphshow
42.993164 0.000000 m /A glyphshow
49.833984 0.000000 m /C glyphshow
grestore
[5.55 2.4] 0 setdash
1.000 0.498 0.055 setrgbcolor
gsave
334.920975 491.002775 m
354.920975 491.002775 l
stroke
grestore
0.000 setgray
gsave
362.920975 487.502775 translate
0.000000 rotate
0.000000 0.000000 m /N glyphshow
7.480469 0.000000 m /o glyphshow
13.598633 0.000000 m /i glyphshow
16.376953 0.000000 m /s glyphshow
21.586914 0.000000 m /y glyphshow
27.504883 0.000000 m /space glyphshow
30.683594 0.000000 m /A glyphshow
37.524414 0.000000 m /d glyphshow
43.872070 0.000000 m /a glyphshow
50.000000 0.000000 m /m glyphshow
grestore
[1.5 2.475] 0 setdash
0.173 0.627 0.173 setrgbcolor
gsave
334.920975 476.3309 m
354.920975 476.3309 l
stroke
grestore
0.000 setgray
gsave
362.920975 472.830900 translate
0.000000 rotate
0.000000 0.000000 m /V glyphshow
6.840820 0.000000 m /p glyphshow
13.188477 0.000000 m /r glyphshow
17.299805 0.000000 m /o glyphshow
23.417969 0.000000 m /p glyphshow
grestore
2 setlinecap
[] 0 setdash
0.839 0.153 0.157 setrgbcolor
gsave
334.920975 461.659025 m
354.920975 461.659025 l
stroke
grestore
0.000 setgray
gsave
362.920975 458.159025 translate
0.000000 rotate
0.000000 0.000000 m /A glyphshow
6.840820 0.000000 m /d glyphshow
13.188477 0.000000 m /a glyphshow
19.316406 0.000000 m /m glyphshow
grestore
0 setlinecap
[9.6 2.4 1.5 2.4] 0 setdash
0.580 0.404 0.741 setrgbcolor
gsave
334.920975 446.98715 m
354.920975 446.98715 l
stroke
grestore
0.000 setgray
gsave
362.920975 443.487150 translate
0.000000 rotate
0.000000 0.000000 m /B glyphshow
6.860352 0.000000 m /B glyphshow
13.720703 0.000000 m /B glyphshow
grestore
gsave
49.1144 34.664133 m
708.5088 34.664133 l
708.5088 232.553067 l
49.1144 232.553067 l
cl
1.000 setgray
fill
grestore
0.800 setlinewidth
[] 0 setdash
gsave
/o {
gsave
newpath
translate
0.8 setlinewidth
1 setlinejoin
0 setlinecap
0 0 m
0 -3.5 l

gsave
0.000 setgray
fill
grestore
stroke
grestore
} bind def
173.119 34.6641 o
grestore
gsave
166.759743 20.070383 translate
0.000000 rotate
0.000000 0.000000 m /one glyphshow
6.362305 0.000000 m /zero glyphshow
grestore
gsave
/o {
gsave
newpath
translate
0.8 setlinewidth
1 setlinejoin
0 setlinecap
0 0 m
0 -3.5 l

gsave
0.000 setgray
fill
grestore
stroke
grestore
} bind def
302.112 34.6641 o
grestore
gsave
295.752925 20.070383 translate
0.000000 rotate
0.000000 0.000000 m /two glyphshow
6.362305 0.000000 m /zero glyphshow
grestore
gsave
/o {
gsave
newpath
translate
0.8 setlinewidth
1 setlinejoin
0 setlinecap
0 0 m
0 -3.5 l

gsave
0.000 setgray
fill
grestore
stroke
grestore
} bind def
431.105 34.6641 o
grestore
gsave
424.746106 20.070383 translate
0.000000 rotate
0.000000 0.000000 m /three glyphshow
6.362305 0.000000 m /zero glyphshow
grestore
gsave
/o {
gsave
newpath
translate
0.8 setlinewidth
1 setlinejoin
0 setlinecap
0 0 m
0 -3.5 l

gsave
0.000 setgray
fill
grestore
stroke
grestore
} bind def
560.099 34.6641 o
grestore
gsave
553.739288 20.070383 translate
0.000000 rotate
0.000000 0.000000 m /four glyphshow
6.362305 0.000000 m /zero glyphshow
grestore
gsave
/o {
gsave
newpath
translate
0.8 setlinewidth
1 setlinejoin
0 setlinecap
0 0 m
0 -3.5 l

gsave
0.000 setgray
fill
grestore
stroke
grestore
} bind def
689.092 34.6641 o
grestore
gsave
682.732469 20.070383 translate
0.000000 rotate
0.000000 0.000000 m /five glyphshow
6.362305 0.000000 m /zero glyphshow
grestore
/DejaVuSans findfont
14.000 scalefont
setfont
gsave
353.725662 3.351633 translate
0.000000 rotate
0.000000 0.000000 m /E glyphshow
8.845703 0.000000 m /p glyphshow
17.732422 0.000000 m /o glyphshow
26.297852 0.000000 m /c glyphshow
33.995117 0.000000 m /h glyphshow
42.868164 0.000000 m /s glyphshow
grestore
gsave
/o {
gsave
newpath
translate
0.8 setlinewidth
1 setlinejoin
0 setlinecap
0 0 m
-3.5 0 l

gsave
0.000 setgray
fill
grestore
stroke
grestore
} bind def
49.1144 40.6269 o
grestore
/DejaVuSans findfont
10.000 scalefont
setfont
gsave
19.848775 36.830022 translate
0.000000 rotate
0.000000 0.000000 m /zero glyphshow
6.362305 0.000000 m /period glyphshow
9.541016 0.000000 m /five glyphshow
15.903320 0.000000 m /six glyphshow
grestore
gsave
/o {
gsave
newpath
translate
0.8 setlinewidth
1 setlinejoin
0 setlinecap
0 0 m
-3.5 0 l

gsave
0.000 setgray
fill
grestore
stroke
grestore
} bind def
49.1144 74.1815 o
grestore
gsave
19.848775 70.384656 translate
0.000000 rotate
0.000000 0.000000 m /zero glyphshow
6.362305 0.000000 m /period glyphshow
9.541016 0.000000 m /five glyphshow
15.903320 0.000000 m /eight glyphshow
grestore
gsave
/o {
gsave
newpath
translate
0.8 setlinewidth
1 setlinejoin
0 setlinecap
0 0 m
-3.5 0 l

gsave
0.000 setgray
fill
grestore
stroke
grestore
} bind def
49.1144 107.736 o
grestore
gsave
19.848775 103.939290 translate
0.000000 rotate
0.000000 0.000000 m /zero glyphshow
6.362305 0.000000 m /period glyphshow
9.541016 0.000000 m /six glyphshow
15.903320 0.000000 m /zero glyphshow
grestore
gsave
/o {
gsave
newpath
translate
0.8 setlinewidth
1 setlinejoin
0 setlinecap
0 0 m
-3.5 0 l

gsave
0.000 setgray
fill
grestore
stroke
grestore
} bind def
49.1144 141.291 o
grestore
gsave
19.848775 137.493924 translate
0.000000 rotate
0.000000 0.000000 m /zero glyphshow
6.362305 0.000000 m /period glyphshow
9.541016 0.000000 m /six glyphshow
15.903320 0.000000 m /two glyphshow
grestore
gsave
/o {
gsave
newpath
translate
0.8 setlinewidth
1 setlinejoin
0 setlinecap
0 0 m
-3.5 0 l

gsave
0.000 setgray
fill
grestore
stroke
grestore
} bind def
49.1144 174.845 o
grestore
gsave
19.848775 171.048558 translate
0.000000 rotate
0.000000 0.000000 m /zero glyphshow
6.362305 0.000000 m /period glyphshow
9.541016 0.000000 m /six glyphshow
15.903320 0.000000 m /four glyphshow
grestore
gsave
/o {
gsave
newpath
translate
0.8 setlinewidth
1 setlinejoin
0 setlinecap
0 0 m
-3.5 0 l

gsave
0.000 setgray
fill
grestore
stroke
grestore
} bind def
49.1144 208.4 o
grestore
gsave
19.848775 204.603192 translate
0.000000 rotate
0.000000 0.000000 m /zero glyphshow
6.362305 0.000000 m /period glyphshow
9.541016 0.000000 m /six glyphshow
15.903320 0.000000 m /six glyphshow
grestore
/DejaVuSans findfont
14.000 scalefont
setfont
gsave
12.942525 87.288287 translate
90.000000 rotate
0.000000 0.000000 m /M glyphshow
12.079102 0.000000 m /S glyphshow
20.965820 0.000000 m /E glyphshow
29.811523 0.000000 m /space glyphshow
34.261719 0.000000 m /t glyphshow
39.750977 0.000000 m /e glyphshow
48.364258 0.000000 m /s glyphshow
55.658203 0.000000 m /t glyphshow
61.147461 0.000000 m /space glyphshow
65.597656 0.000000 m /l glyphshow
69.487305 0.000000 m /o glyphshow
78.052734 0.000000 m /s glyphshow
85.346680 0.000000 m /s glyphshow
grestore
1.500 setlinewidth
[9.6 2.4 1.5 2.4] 0 setdash
0.122 0.467 0.706 setrgbcolor
gsave
659.4 197.9 49.11 34.66 clipbox
74.085573 538.12 m
75.374737 393.283423 l
78.243244 251.327969 l
81.111751 140.552703 l
85.405548 101.553568 l
88.274055 93.355819 l
91.142562 92.852916 l
94.011069 73.6551 l
98.304866 94.430125 l
101.173373 100.850764 l
104.04188 88.317088 l
106.910387 79.698937 l
111.204184 101.031265 l
114.072691 106.080995 l
116.941198 99.320955 l
119.809705 87.576884 l
124.103502 86.336476 l
126.972009 82.357253 l
129.840516 78.710631 l
132.709024 87.734185 l
137.00282 84.426765 l
139.871327 82.933756 l
142.739835 86.026775 l
145.608342 87.475583 l
149.902138 82.940456 l
152.770646 85.25687 l
155.639153 89.196694 l
158.50766 91.399407 l
162.801457 90.480101 l
165.669964 88.170087 l
168.538471 94.274624 l
171.406978 85.404571 l
175.700775 88.032887 l
178.569282 87.811685 l
181.437789 79.608836 l
184.306296 74.143803 l
188.600093 70.587282 l
191.4686 75.674812 l
194.337107 75.463411 l
197.205614 68.141167 l
201.499411 67.777765 l
204.367918 72.620394 l
207.236425 75.079409 l
210.104932 75.037908 l
214.398729 68.741771 l
217.267236 76.110315 l
220.135743 79.601136 l
223.004251 80.497741 l
227.298047 78.65373 l
230.166554 82.402853 l
233.035062 83.085257 l
235.903569 79.352834 l
240.197365 82.639754 l
243.065873 81.498547 l
245.93438 83.58616 l
248.802887 80.614942 l
253.096684 78.255228 l
255.965191 77.358422 l
258.833698 82.226852 l
261.702205 80.862044 l
265.996002 82.056551 l
268.864509 80.789443 l
271.733016 79.279134 l
274.601523 79.182133 l
278.89532 78.279428 l
281.763827 76.064615 l
284.632334 73.086097 l
287.500841 72.054191 l
291.794638 81.94665 l
294.663145 80.568542 l
297.531652 77.01552 l
300.400159 77.572624 l
304.693956 81.414447 l
307.562463 83.783361 l
310.43097 84.555766 l
313.299478 84.404465 l
317.593274 81.410747 l
320.461781 79.550636 l
323.330289 75.33871 l
326.198796 80.646042 l
330.492592 85.622172 l
333.3611 81.250446 l
336.229607 86.368877 l
339.098114 86.88448 l
343.391911 88.441289 l
346.260418 86.580478 l
349.128925 88.699191 l
351.997432 89.302494 l
359.159736 80.891544 l
362.028243 81.018144 l
364.89675 80.644242 l
369.190547 74.586006 l
372.059054 78.849631 l
374.927561 78.263428 l
377.796068 79.051633 l
382.089865 80.882144 l
384.958372 80.494141 l
387.826879 77.00122 l
390.695386 77.756125 l
394.989183 79.952938 l
397.85769 76.027814 l
400.726197 71.241486 l
403.594705 73.237298 l
407.888501 65.878753 l
410.757008 65.29925 l
413.625516 67.945266 l
416.494023 68.106367 l
420.787819 70.955484 l
423.656327 67.504863 l
426.524834 69.846677 l
429.393341 65.36685 l
433.687138 64.798047 l
436.555645 67.078261 l
442.292659 69.319174 l
446.586456 66.778559 l
449.454963 65.673152 l
452.32347 67.290662 l
455.191977 69.511575 l
459.485774 66.478857 l
462.354281 68.881171 l
465.222788 67.720664 l
468.091295 71.659888 l
472.385092 77.841825 l
475.253599 80.457741 l
478.122106 69.921178 l
480.990613 72.247292 l
485.28441 70.37578 l
488.152917 71.782089 l
491.021424 69.188673 l
493.889932 65.39355 l
498.183728 74.823007 l
501.052235 71.166585 l
503.920743 65.831953 l
506.78925 64.230843 l
511.083046 61.171325 l
513.951554 60.560321 l
516.820061 59.587216 l
519.688568 55.887093 l
523.982365 60.38062 l
526.850872 67.474863 l
529.719379 63.277538 l
532.587886 64.514545 l
536.881683 65.807553 l
539.75019 65.151149 l
542.618697 68.70487 l
545.487204 69.674376 l
549.781001 67.363762 l
552.649508 69.447575 l
555.518015 69.226074 l
558.386522 71.565188 l
562.680319 69.746777 l
565.548826 66.029654 l
568.417333 65.523851 l
571.28584 71.545687 l
575.579637 71.99969 l
578.448144 69.213273 l
581.316651 64.207143 l
584.185159 65.899154 l
588.478955 63.952442 l
591.347462 70.143779 l
594.21597 71.816989 l
597.084477 69.536375 l
601.378273 66.723958 l
604.246781 66.744459 l
607.115288 75.051209 l
609.983795 80.26524 l
614.277592 81.87765 l
617.146099 81.355246 l
620.014606 86.99678 l
622.883113 80.467741 l
627.17691 74.632106 l
630.045417 73.564 l
632.913924 77.586624 l
635.782431 74.915608 l
640.076228 74.144003 l
642.944735 71.654888 l
645.813242 67.256162 l
648.681749 71.253186 l
655.844053 70.996784 l
658.71256 68.891972 l
661.581067 69.633176 l
665.874864 74.272704 l
668.743371 66.180155 l
671.611878 64.996548 l
674.480386 61.99833 l
678.774182 60.868923 l
681.642689 58.076606 l
684.511197 51.557567 l
687.379704 60.31492 l
687.379704 60.31492 l
stroke
grestore
[5.55 2.4] 0 setdash
1.000 0.498 0.055 setrgbcolor
gsave
659.4 197.9 49.11 34.66 clipbox
139.537527 538.12 m
139.871327 537.33959 l
145.608342 522.991104 l
149.902138 513.415846 l
152.770646 507.655011 l
155.639153 501.313873 l
158.50766 494.016929 l
165.669964 476.993227 l
171.406978 463.921948 l
175.700775 454.886394 l
178.569282 448.468155 l
184.306296 437.037186 l
188.600093 429.237339 l
191.4686 423.593306 l
194.337107 417.287968 l
197.205614 410.238425 l
201.499411 403.251783 l
204.367918 398.215553 l
207.236425 392.573619 l
210.104932 387.479588 l
223.004251 363.700345 l
227.298047 356.909304 l
230.166554 351.693973 l
233.035062 347.195246 l
235.903569 343.820526 l
240.197365 337.94969 l
243.065873 334.298768 l
245.93438 330.286344 l
248.802887 325.674316 l
255.965191 314.802251 l
258.833698 311.149529 l
265.996002 301.110069 l
268.864509 297.693048 l
271.733016 294.587529 l
274.601523 289.7891 l
278.89532 283.936165 l
284.632334 276.806222 l
287.500841 274.379208 l
294.663145 265.489954 l
297.531652 262.404736 l
300.400159 260.876227 l
307.562463 253.677683 l
310.43097 250.490164 l
313.299478 248.14345 l
320.461781 242.966319 l
323.330289 239.989001 l
326.198796 237.381685 l
330.492592 235.320673 l
333.3611 233.20066 l
336.229607 230.172842 l
339.098114 228.342731 l
343.391911 226.720121 l
349.128925 222.463995 l
351.997432 220.853686 l
356.291229 216.964262 l
359.159736 213.564742 l
362.028243 211.922032 l
372.059054 205.065691 l
374.927561 203.835583 l
377.796068 201.507369 l
382.089865 200.717565 l
384.958372 199.356356 l
387.826879 196.493039 l
390.695386 192.931118 l
394.989183 189.300396 l
400.726197 187.922988 l
403.594705 185.682274 l
407.888501 183.693862 l
413.625516 182.556455 l
416.494023 183.227859 l
420.787819 179.919639 l
423.656327 178.532031 l
426.524834 176.023416 l
429.393341 174.404606 l
433.687138 171.801391 l
439.424152 170.740184 l
442.292659 170.593783 l
446.586456 168.33017 l
449.454963 167.923467 l
455.191977 168.192569 l
459.485774 163.44504 l
462.354281 159.970419 l
475.253599 160.668124 l
478.122106 159.592617 l
480.990613 157.688906 l
485.28441 155.738694 l
488.152917 156.135696 l
491.021424 156.946401 l
493.889932 157.261803 l
498.183728 158.797612 l
501.052235 160.165021 l
503.920743 160.475323 l
506.78925 156.646699 l
511.083046 151.481568 l
513.951554 149.960259 l
516.820061 150.583963 l
519.688568 149.426156 l
523.982365 146.083936 l
529.719379 145.773234 l
536.881683 141.74041 l
539.75019 142.529315 l
542.618697 141.69871 l
549.781001 134.250365 l
552.649508 132.941857 l
555.518015 132.875956 l
558.386522 132.486554 l
562.680319 133.40646 l
565.548826 135.04757 l
568.417333 134.982869 l
571.28584 133.769762 l
575.579637 134.080064 l
578.448144 133.047157 l
581.316651 132.843556 l
584.185159 132.150852 l
588.478955 130.958945 l
591.347462 133.550661 l
594.21597 133.550861 l
597.084477 130.645943 l
601.378273 124.503106 l
604.246781 122.216592 l
607.115288 122.486094 l
609.983795 123.257999 l
614.277592 128.211228 l
617.146099 129.590737 l
620.014606 130.804444 l
622.883113 131.556549 l
627.17691 124.623207 l
630.045417 121.714589 l
635.782431 122.140592 l
640.076228 120.836184 l
642.944735 121.463988 l
645.813242 121.465188 l
648.681749 120.742483 l
652.975546 123.818702 l
655.844053 124.679507 l
658.71256 123.891102 l
661.581067 124.144504 l
665.874864 123.575401 l
668.743371 124.116804 l
671.611878 123.177898 l
674.480386 121.717789 l
678.774182 119.390475 l
681.642689 118.278569 l
684.511197 114.107744 l
687.379704 109.319515 l
687.379704 109.319515 l
stroke
grestore
[1.5 2.475] 0 setdash
0.173 0.627 0.173 setrgbcolor
gsave
659.4 197.9 49.11 34.66 clipbox
81.476898 538.12 m
85.405548 498.647957 l
88.274055 477.959333 l
91.142562 455.371697 l
98.304866 410.309626 l
101.173373 386.847884 l
104.04188 370.378485 l
106.910387 358.603115 l
111.204184 339.963802 l
114.072691 326.31322 l
116.941198 306.208799 l
119.809705 291.938013 l
124.103502 265.189353 l
126.972009 259.239617 l
129.840516 242.395215 l
132.709024 229.716139 l
137.00282 221.237788 l
139.871327 220.538084 l
142.739835 203.449381 l
145.608342 205.149391 l
149.902138 201.988972 l
152.770646 203.424981 l
155.639153 190.470003 l
158.50766 175.884215 l
162.801457 175.299712 l
165.669964 180.301042 l
168.538471 179.94834 l
171.406978 161.973732 l
175.700775 156.130696 l
178.569282 147.878047 l
181.437789 150.776764 l
184.306296 157.974507 l
188.600093 175.807815 l
191.4686 172.206093 l
194.337107 179.129835 l
197.205614 168.698772 l
201.499411 182.581956 l
204.367918 177.700926 l
207.236425 160.190521 l
210.104932 171.813191 l
214.398729 172.366194 l
217.267236 160.945325 l
220.135743 166.71206 l
223.004251 181.966352 l
227.298047 159.253715 l
230.166554 152.056872 l
233.035062 164.526447 l
235.903569 167.987368 l
240.197365 177.213423 l
243.065873 172.651696 l
245.93438 169.431676 l
253.096684 148.513251 l
255.965191 160.01702 l
258.833698 161.003626 l
261.702205 162.459834 l
265.996002 161.932531 l
268.864509 164.679048 l
271.733016 156.119696 l
274.601523 154.919989 l
278.89532 157.290903 l
281.763827 147.280643 l
284.632334 161.70973 l
287.500841 154.919089 l
291.794638 158.40081 l
294.663145 161.381328 l
297.531652 139.544897 l
300.400159 149.658557 l
304.693956 141.357607 l
307.562463 159.359516 l
310.43097 172.251393 l
313.299478 171.487189 l
317.593274 156.508299 l
320.461781 158.39551 l
323.330289 156.7546 l
326.198796 158.31371 l
330.492592 151.191867 l
333.3611 147.519445 l
336.229607 153.115878 l
339.098114 149.824758 l
343.391911 161.579429 l
346.260418 175.373412 l
349.128925 181.425749 l
351.997432 152.492874 l
356.291229 156.345698 l
359.159736 165.09575 l
362.028243 151.69627 l
364.89675 151.099266 l
369.190547 159.324316 l
372.059054 158.887413 l
374.927561 156.595399 l
377.796068 149.935759 l
382.089865 153.660082 l
384.958372 167.885167 l
387.826879 152.165473 l
390.695386 156.426798 l
394.989183 164.555847 l
397.85769 159.822519 l
400.726197 157.232403 l
403.594705 163.42874 l
407.888501 163.558641 l
410.757008 162.053332 l
413.625516 168.963574 l
416.494023 157.972507 l
420.787819 151.173067 l
423.656327 149.835958 l
426.524834 168.811873 l
429.393341 173.2899 l
433.687138 165.506153 l
436.555645 161.636129 l
439.424152 159.355516 l
442.292659 156.797 l
446.586456 153.709782 l
449.454963 150.919465 l
452.32347 151.129666 l
455.191977 157.764806 l
459.485774 140.007199 l
462.354281 136.696179 l
465.222788 145.608933 l
468.091295 145.183531 l
472.385092 146.78434 l
475.253599 151.150266 l
478.122106 148.34185 l
480.990613 151.525169 l
485.28441 149.018754 l
488.152917 149.213655 l
491.021424 156.011696 l
493.889932 151.175467 l
498.183728 185.629674 l
501.052235 163.667542 l
503.920743 157.876907 l
506.78925 160.477323 l
511.083046 150.11446 l
513.951554 159.237015 l
516.820061 161.567229 l
519.688568 175.868415 l
523.982365 164.863849 l
526.850872 162.417634 l
529.719379 162.593235 l
532.587886 168.724972 l
536.881683 171.231287 l
539.75019 163.467641 l
542.618697 159.738018 l
545.487204 147.104842 l
549.781001 140.285801 l
552.649508 158.943913 l
555.518015 164.362546 l
558.386522 153.911083 l
562.680319 144.363626 l
565.548826 147.060742 l
568.417333 148.531551 l
571.28584 156.922801 l
575.579637 159.409116 l
578.448144 151.223367 l
581.316651 141.422408 l
584.185159 132.609155 l
588.478955 134.694467 l
591.347462 153.706482 l
594.21597 151.234667 l
597.084477 149.046054 l
601.378273 147.333443 l
604.246781 167.738766 l
607.115288 168.224069 l
609.983795 164.445746 l
614.277592 176.186017 l
617.146099 175.579813 l
620.014606 174.181205 l
622.883113 169.073274 l
627.17691 165.242251 l
630.045417 162.088132 l
632.913924 169.518077 l
635.782431 164.483747 l
640.076228 161.101726 l
642.944735 153.36408 l
645.813242 151.153866 l
648.681749 150.534863 l
652.975546 156.983702 l
655.844053 148.336049 l
658.71256 142.473514 l
661.581067 147.039442 l
665.874864 158.285009 l
668.743371 151.68747 l
671.611878 161.141927 l
674.480386 151.369968 l
678.774182 171.536189 l
681.642689 165.01055 l
684.511197 157.782306 l
687.379704 174.033304 l
687.379704 174.033304 l
stroke
grestore
2 setlinecap
[] 0 setdash
0.839 0.153 0.157 setrgbcolor
gsave
659.4 197.9 49.11 34.66 clipbox
51.367301 538.12 m
52.444608 499.645063 l
55.313115 418.696376 l
59.606911 325.420815 l
62.475419 283.582363 l
65.343926 246.059937 l
68.212433 215.149351 l
72.50623 188.723892 l
75.374737 173.854603 l
78.243244 163.931143 l
81.111751 160.220121 l
85.405548 143.037218 l
88.274055 138.957993 l
91.142562 133.716562 l
94.011069 127.076322 l
98.304866 127.048021 l
101.173373 122.184492 l
104.04188 118.920573 l
106.910387 113.736941 l
111.204184 115.922254 l
114.072691 117.237262 l
116.941198 110.11152 l
119.809705 101.613868 l
124.103502 100.716563 l
126.972009 102.615674 l
129.840516 97.190242 l
132.709024 94.115523 l
137.00282 99.263454 l
139.871327 99.057353 l
142.739835 94.625726 l
145.608342 88.242188 l
152.770646 90.2227 l
155.639153 86.592478 l
158.50766 81.394447 l
162.801457 83.995262 l
165.669964 80.987744 l
168.538471 84.033563 l
171.406978 84.484365 l
175.700775 83.868262 l
178.569282 80.575242 l
181.437789 76.192715 l
184.306296 75.063909 l
188.600093 77.793625 l
191.4686 80.398241 l
194.337107 82.473253 l
197.205614 71.188385 l
201.499411 71.248086 l
204.367918 75.191809 l
207.236425 76.118115 l
210.104932 70.931984 l
214.398729 66.781659 l
217.267236 70.714782 l
220.135743 70.931184 l
223.004251 64.794147 l
227.298047 63.882441 l
230.166554 65.088949 l
233.035062 68.393269 l
235.903569 73.892902 l
240.197365 79.535136 l
243.065873 75.053609 l
245.93438 73.519399 l
248.802887 73.196797 l
253.096684 69.970678 l
255.965191 68.020466 l
258.833698 66.351256 l
261.702205 65.36595 l
265.996002 62.281732 l
268.864509 67.721464 l
271.733016 71.705388 l
274.601523 62.561333 l
281.763827 56.9786 l
284.632334 58.083506 l
287.500841 60.098919 l
291.794638 64.931148 l
294.663145 65.35935 l
297.531652 66.346956 l
300.400159 78.431429 l
304.693956 73.198397 l
307.562463 76.221516 l
310.43097 64.384944 l
313.299478 58.032706 l
317.593274 65.523651 l
320.461781 70.915584 l
323.330289 63.093637 l
326.198796 58.967112 l
330.492592 63.504739 l
333.3611 65.26985 l
336.229607 61.687128 l
339.098114 61.744029 l
343.391911 68.61177 l
346.260418 70.107979 l
349.128925 64.470445 l
351.997432 63.127437 l
356.291229 53.775481 l
359.159736 52.567773 l
362.028243 62.337832 l
364.89675 66.025054 l
369.190547 59.290014 l
372.059054 56.499497 l
374.927561 55.29009 l
377.796068 51.740268 l
382.089865 69.087373 l
384.958372 63.474239 l
390.695386 50.33566 l
394.989183 53.918681 l
397.85769 58.265108 l
400.726197 63.796241 l
403.594705 58.322808 l
407.888501 60.35452 l
410.757008 57.728504 l
413.625516 61.97953 l
416.494023 68.72197 l
420.787819 54.400984 l
423.656327 58.59231 l
426.524834 55.861893 l
429.393341 56.115495 l
433.687138 56.9857 l
436.555645 58.497909 l
439.424152 66.365156 l
442.292659 68.296868 l
446.586456 59.646716 l
449.454963 59.208713 l
452.32347 56.070894 l
455.191977 58.70551 l
459.485774 50.883863 l
462.354281 50.483461 l
465.222788 56.234495 l
468.091295 65.24985 l
472.385092 74.463605 l
475.253599 76.161215 l
478.122106 63.419539 l
480.990613 52.658674 l
485.28441 49.073852 l
488.152917 55.910193 l
491.021424 64.901948 l
493.889932 66.147655 l
498.183728 71.531787 l
501.052235 78.105227 l
503.920743 68.261568 l
506.78925 53.960282 l
511.083046 49.278054 l
513.951554 55.35909 l
516.820061 65.31405 l
519.688568 65.717052 l
523.982365 54.090882 l
526.850872 58.578509 l
529.719379 57.0466 l
532.587886 55.30309 l
536.881683 58.069506 l
539.75019 68.181167 l
542.618697 62.713934 l
545.487204 51.205665 l
549.781001 49.065852 l
552.649508 63.384638 l
555.518015 69.234874 l
558.386522 58.288108 l
562.680319 66.103955 l
565.548826 65.512151 l
568.417333 60.241919 l
571.28584 58.817511 l
575.579637 59.334814 l
578.448144 55.220789 l
581.316651 53.60768 l
584.185159 53.191677 l
588.478955 57.677904 l
591.347462 70.822083 l
594.21597 73.026496 l
597.084477 61.288926 l
601.378273 50.540461 l
604.246781 49.970858 l
607.115288 55.937294 l
609.983795 58.975512 l
614.277592 67.633164 l
617.146099 64.685146 l
620.014606 62.940436 l
622.883113 59.582316 l
627.17691 45.237229 l
630.045417 48.055046 l
632.913924 62.384732 l
635.782431 68.069467 l
640.076228 60.190919 l
642.944735 59.737316 l
645.813242 52.623974 l
648.681749 51.503767 l
652.975546 72.114091 l
655.844053 73.608 l
658.71256 61.372126 l
661.581067 52.663974 l
665.874864 56.202695 l
668.743371 62.824235 l
671.611878 61.111625 l
674.480386 55.36829 l
678.774182 55.795493 l
681.642689 64.949348 l
684.511197 46.774338 l
687.379704 41.389206 l
687.379704 41.389206 l
stroke
grestore
0 setlinecap
[9.6 2.4 1.5 2.4] 0 setdash
0.580 0.404 0.741 setrgbcolor
gsave
659.4 197.9 49.11 34.66 clipbox
46.707593 494.773534 m
49.5761 425.393816 l
52.444608 362.91214 l
55.313115 315.445455 l
59.606911 261.048228 l
62.475419 240.367203 l
65.343926 225.228112 l
68.212433 214.514048 l
72.50623 207.708207 l
75.374737 199.088155 l
78.243244 193.729523 l
81.111751 197.596346 l
85.405548 174.401406 l
88.274055 169.243375 l
91.142562 166.506659 l
94.011069 167.105662 l
98.304866 177.816327 l
101.173373 164.434246 l
104.04188 162.271733 l
106.910387 155.463892 l
111.204184 158.237809 l
114.072691 161.078926 l
116.941198 157.564605 l
119.809705 148.717352 l
124.103502 144.868029 l
126.972009 144.467526 l
129.840516 141.356607 l
132.709024 141.947411 l
137.00282 142.099812 l
139.871327 140.382102 l
142.739835 139.047794 l
145.608342 140.224401 l
149.902138 144.641927 l
152.770646 150.695264 l
155.639153 143.141918 l
158.50766 136.976681 l
162.801457 139.417596 l
165.669964 137.638885 l
168.538471 142.773316 l
171.406978 139.529896 l
175.700775 139.496896 l
178.569282 134.828068 l
181.437789 126.376517 l
184.306296 129.106734 l
188.600093 127.071922 l
191.4686 126.615719 l
194.337107 125.737514 l
197.205614 118.664971 l
201.499411 123.950003 l
204.367918 126.674919 l
207.236425 125.545012 l
210.104932 114.783548 l
214.398729 110.902224 l
217.267236 116.618459 l
220.135743 115.857854 l
223.004251 105.770993 l
227.298047 101.544068 l
230.166554 100.528262 l
233.035062 101.306367 l
235.903569 106.8631 l
240.197365 119.575876 l
243.065873 113.56344 l
245.93438 109.969419 l
248.802887 104.464386 l
253.096684 97.257842 l
255.965191 98.951052 l
258.833698 101.264066 l
261.702205 99.075753 l
265.996002 93.167318 l
268.864509 92.534814 l
271.733016 94.097923 l
274.601523 87.957686 l
278.89532 85.819973 l
281.763827 86.047475 l
284.632334 87.136481 l
287.500841 91.395707 l
291.794638 93.106217 l
294.663145 89.995698 l
297.531652 93.438119 l
300.400159 105.726793 l
304.693956 97.204042 l
307.562463 90.155799 l
310.43097 81.536948 l
313.299478 77.841025 l
317.593274 77.392123 l
320.461781 80.454441 l
323.330289 78.738431 l
326.198796 78.954132 l
330.492592 79.519235 l
333.3611 81.403847 l
336.229607 80.704943 l
339.098114 85.502471 l
343.391911 98.58395 l
346.260418 96.81424 l
349.128925 89.610196 l
351.997432 86.443377 l
356.291229 83.829861 l
359.159736 80.915844 l
362.028243 86.411977 l
364.89675 87.914186 l
369.190547 88.353989 l
372.059054 87.427283 l
374.927561 82.512353 l
377.796068 78.455829 l
382.089865 91.070805 l
384.958372 82.576954 l
387.826879 78.178827 l
390.695386 76.514817 l
394.989183 82.844255 l
397.85769 84.477465 l
400.726197 82.429253 l
403.594705 77.181721 l
407.888501 79.962938 l
410.757008 80.104439 l
413.625516 83.871762 l
416.494023 85.122469 l
420.787819 70.813183 l
423.656327 72.721095 l
426.524834 73.424399 l
429.393341 73.068197 l
433.687138 67.587164 l
436.555645 64.701746 l
442.292659 74.694206 l
446.586456 73.013896 l
449.454963 70.761683 l
452.32347 68.290268 l
455.191977 70.865883 l
459.485774 68.494769 l
462.354281 68.179567 l
465.222788 70.216079 l
468.091295 69.735977 l
472.385092 81.95525 l
475.253599 88.730991 l
478.122106 78.859931 l
480.990613 70.22568 l
485.28441 65.614752 l
488.152917 69.875977 l
491.021424 76.548818 l
493.889932 81.539748 l
498.183728 93.200118 l
501.052235 92.371913 l
503.920743 89.840498 l
506.78925 79.553336 l
511.083046 77.248422 l
513.951554 79.374535 l
516.820061 83.398059 l
519.688568 82.400753 l
523.982365 68.886671 l
526.850872 74.216004 l
529.719379 75.21411 l
532.587886 72.640394 l
536.881683 66.250356 l
539.75019 69.012572 l
542.618697 67.824965 l
545.487204 64.719146 l
549.781001 67.180761 l
552.649508 79.773137 l
555.518015 85.917074 l
558.386522 72.635294 l
562.680319 69.336574 l
565.548826 71.422787 l
568.417333 74.016502 l
571.28584 74.405905 l
575.579637 78.744731 l
578.448144 80.633342 l
581.316651 75.725413 l
584.185159 72.983496 l
588.478955 74.585106 l
591.347462 75.827613 l
594.21597 74.878708 l
601.378273 59.749517 l
604.246781 61.583828 l
607.115288 65.575752 l
609.983795 66.713858 l
614.277592 71.817189 l
620.014606 82.644454 l
622.883113 72.727195 l
627.17691 55.803493 l
630.045417 57.681604 l
632.913924 66.559757 l
635.782431 72.334792 l
640.076228 71.829589 l
642.944735 72.253292 l
645.813242 69.231574 l
648.681749 71.236986 l
652.975546 78.101227 l
655.844053 80.028139 l
658.71256 72.489093 l
661.581067 65.548551 l
665.874864 71.91689 l
668.743371 76.724119 l
671.611878 70.979784 l
674.480386 63.65024 l
678.774182 60.762223 l
681.642689 66.457057 l
684.511197 58.330508 l
687.379704 56.587497 l
687.379704 56.587497 l
stroke
grestore
0.800 setlinewidth
0 setlinejoin
2 setlinecap
[] 0 setdash
0.000 setgray
gsave
49.1144 34.664133 m
49.1144 232.553067 l
stroke
grestore
gsave
708.5088 34.664133 m
708.5088 232.553067 l
stroke
grestore
gsave
49.1144 34.664133 m
708.5088 34.664133 l
stroke
grestore
gsave
49.1144 232.553067 m
708.5088 232.553067 l
stroke
grestore
gsave
216.319412 238.553067 translate
0.000000 rotate
0.000000 0.000000 m /M glyphshow
12.079102 0.000000 m /e glyphshow
20.692383 0.000000 m /a glyphshow
29.271484 0.000000 m /n glyphshow
38.144531 0.000000 m /space glyphshow
42.594727 0.000000 m /S glyphshow
51.481445 0.000000 m /q glyphshow
60.368164 0.000000 m /u glyphshow
69.241211 0.000000 m /a glyphshow
77.820312 0.000000 m /r glyphshow
83.576172 0.000000 m /e glyphshow
92.189453 0.000000 m /d glyphshow
101.076172 0.000000 m /space glyphshow
105.526367 0.000000 m /E glyphshow
114.372070 0.000000 m /r glyphshow
120.127930 0.000000 m /r glyphshow
125.883789 0.000000 m /o glyphshow
134.449219 0.000000 m /r glyphshow
140.205078 0.000000 m /space glyphshow
144.655273 0.000000 m /T glyphshow
153.175781 0.000000 m /e glyphshow
161.789062 0.000000 m /s glyphshow
169.083008 0.000000 m /t glyphshow
174.572266 0.000000 m /space glyphshow
179.022461 0.000000 m /l glyphshow
182.912109 0.000000 m /o glyphshow
191.477539 0.000000 m /s glyphshow
198.771484 0.000000 m /s glyphshow
206.065430 0.000000 m /space glyphshow
210.515625 0.000000 m /o glyphshow
219.081055 0.000000 m /n glyphshow
227.954102 0.000000 m /space glyphshow
232.404297 0.000000 m /W glyphshow
246.247070 0.000000 m /i glyphshow
250.136719 0.000000 m /n glyphshow
259.009766 0.000000 m /e glyphshow
267.623047 0.000000 m /space glyphshow
272.073242 0.000000 m /d glyphshow
280.959961 0.000000 m /a glyphshow
289.539062 0.000000 m /t glyphshow
295.028320 0.000000 m /a glyphshow
303.607422 0.000000 m /s glyphshow
310.901367 0.000000 m /e glyphshow
319.514648 0.000000 m /t glyphshow
grestore
1.000 setlinewidth
0 setlinecap
0.800 setgray
gsave
609.72755 151.193692 m
701.5088 151.193692 l
702.842133 151.193692 703.5088 151.860358 703.5088 153.193692 c
703.5088 225.553067 l
703.5088 226.8864 702.842133 227.553067 701.5088 227.553067 c
609.72755 227.553067 l
608.394217 227.553067 607.72755 226.8864 607.72755 225.553067 c
607.72755 153.193692 l
607.72755 151.860358 608.394217 151.193692 609.72755 151.193692 c
cl
gsave
1.000 setgray
fill
grestore
stroke
grestore
1.500 setlinewidth
1 setlinejoin
[9.6 2.4 1.5 2.4] 0 setdash
0.122 0.467 0.706 setrgbcolor
gsave
611.72755 219.459317 m
631.72755 219.459317 l
stroke
grestore
0.000 setgray
/DejaVuSans findfont
10.000 scalefont
setfont
gsave
639.727550 215.959317 translate
0.000000 rotate
0.000000 0.000000 m /N glyphshow
7.480469 0.000000 m /o glyphshow
13.598633 0.000000 m /i glyphshow
16.376953 0.000000 m /s glyphshow
21.586914 0.000000 m /y glyphshow
27.504883 0.000000 m /space glyphshow
30.683594 0.000000 m /K glyphshow
37.241211 0.000000 m /F glyphshow
42.993164 0.000000 m /A glyphshow
49.833984 0.000000 m /C glyphshow
grestore
[5.55 2.4] 0 setdash
1.000 0.498 0.055 setrgbcolor
gsave
611.72755 204.787442 m
631.72755 204.787442 l
stroke
grestore
0.000 setgray
gsave
639.727550 201.287442 translate
0.000000 rotate
0.000000 0.000000 m /N glyphshow
7.480469 0.000000 m /o glyphshow
13.598633 0.000000 m /i glyphshow
16.376953 0.000000 m /s glyphshow
21.586914 0.000000 m /y glyphshow
27.504883 0.000000 m /space glyphshow
30.683594 0.000000 m /A glyphshow
37.524414 0.000000 m /d glyphshow
43.872070 0.000000 m /a glyphshow
50.000000 0.000000 m /m glyphshow
grestore
[1.5 2.475] 0 setdash
0.173 0.627 0.173 setrgbcolor
gsave
611.72755 190.115567 m
631.72755 190.115567 l
stroke
grestore
0.000 setgray
gsave
639.727550 186.615567 translate
0.000000 rotate
0.000000 0.000000 m /V glyphshow
6.840820 0.000000 m /p glyphshow
13.188477 0.000000 m /r glyphshow
17.299805 0.000000 m /o glyphshow
23.417969 0.000000 m /p glyphshow
grestore
2 setlinecap
[] 0 setdash
0.839 0.153 0.157 setrgbcolor
gsave
611.72755 175.443692 m
631.72755 175.443692 l
stroke
grestore
0.000 setgray
gsave
639.727550 171.943692 translate
0.000000 rotate
0.000000 0.000000 m /A glyphshow
6.840820 0.000000 m /d glyphshow
13.188477 0.000000 m /a glyphshow
19.316406 0.000000 m /m glyphshow
grestore
0 setlinecap
[9.6 2.4 1.5 2.4] 0 setdash
0.580 0.404 0.741 setrgbcolor
gsave
611.72755 160.771817 m
631.72755 160.771817 l
stroke
grestore
0.000 setgray
gsave
639.727550 157.271817 translate
0.000000 rotate
0.000000 0.000000 m /B glyphshow
6.860352 0.000000 m /B glyphshow
13.720703 0.000000 m /B glyphshow
grestore

end
showpage
