%!PS-Adobe-3.0 EPSF-3.0
%%Title: D:/DTU MMC/Github Repos/thesis_repo/thesis_figs/WINE_benchmark_all_optims_1.eps
%%Creator: matplotlib version 2.1.0, http://matplotlib.org/
%%CreationDate: Sat Jul 28 17:50:06 2018
%%Orientation: portrait
%%BoundingBox: -10 127 622 664
%%EndComments
%%BeginProlog
/mpldict 8 dict def
mpldict begin
/m { moveto } bind def
/l { lineto } bind def
/r { rlineto } bind def
/c { curveto } bind def
/cl { closepath } bind def
/box {
m
1 index 0 r
0 exch r
neg 0 r
cl
} bind def
/clipbox {
box
clip
newpath
} bind def
%!PS-Adobe-3.0 Resource-Font
%%Title: DejaVu Sans
%%Copyright: Copyright (c) 2003 by Bitstream, Inc. All Rights Reserved. Copyright (c) 2006 by Tavmjong Bah. All Rights Reserved. DejaVu changes are in public domain 
%%Creator: Converted from TrueType to type 3 by PPR
25 dict begin
/_d{bind def}bind def
/_m{moveto}_d
/_l{lineto}_d
/_cl{closepath eofill}_d
/_c{curveto}_d
/_sc{7 -1 roll{setcachedevice}{pop pop pop pop pop pop}ifelse}_d
/_e{exec}_d
/FontName /DejaVuSans def
/PaintType 0 def
/FontMatrix[.001 0 0 .001 0 0]def
/FontBBox[-1021 -463 1793 1232]def
/FontType 3 def
/Encoding [ /space /period /zero /one /two /three /four /five /six /seven /eight /nine /A /B /C /E /F /K /M /N /S /T /V /W /a /c /d /e /g /h /i /l /m /n /o /p /q /r /s /t /u /y ] def
/FontInfo 10 dict dup begin
/FamilyName (DejaVu Sans) def
/FullName (DejaVu Sans) def
/Notice (Copyright (c) 2003 by Bitstream, Inc. All Rights Reserved. Copyright (c) 2006 by Tavmjong Bah. All Rights Reserved. DejaVu changes are in public domain ) def
/Weight (Book) def
/Version (Version 2.35) def
/ItalicAngle 0.0 def
/isFixedPitch false def
/UnderlinePosition -130 def
/UnderlineThickness 90 def
end readonly def
/CharStrings 43 dict dup begin
/.notdef 0 def
/space{318 0 0 0 0 0 _sc
}_d
/period{318 0 107 0 210 124 _sc
107 124 _m
210 124 _l
210 0 _l
107 0 _l
107 124 _l
_cl}_d
/zero{636 0 66 -13 570 742 _sc
318 664 _m
267 664 229 639 203 589 _c
177 539 165 464 165 364 _c
165 264 177 189 203 139 _c
229 89 267 64 318 64 _c
369 64 407 89 433 139 _c
458 189 471 264 471 364 _c
471 464 458 539 433 589 _c
407 639 369 664 318 664 _c
318 742 _m
399 742 461 709 505 645 _c
548 580 570 486 570 364 _c
570 241 548 147 505 83 _c
461 19 399 -13 318 -13 _c
236 -13 173 19 130 83 _c
87 147 66 241 66 364 _c
66 486 87 580 130 645 _c
173 709 236 742 318 742 _c
_cl}_d
/one{636 0 110 0 544 729 _sc
124 83 _m
285 83 _l
285 639 _l
110 604 _l
110 694 _l
284 729 _l
383 729 _l
383 83 _l
544 83 _l
544 0 _l
124 0 _l
124 83 _l
_cl}_d
/two{{636 0 73 0 536 742 _sc
192 83 _m
536 83 _l
536 0 _l
73 0 _l
73 83 _l
110 121 161 173 226 239 _c
290 304 331 346 348 365 _c
380 400 402 430 414 455 _c
426 479 433 504 433 528 _c
433 566 419 598 392 622 _c
365 646 330 659 286 659 _c
255 659 222 653 188 643 _c
154 632 117 616 78 594 _c
78 694 _l
118 710 155 722 189 730 _c
223 738 255 742 284 742 _c
}_e{359 742 419 723 464 685 _c
509 647 532 597 532 534 _c
532 504 526 475 515 449 _c
504 422 484 390 454 354 _c
446 344 420 317 376 272 _c
332 227 271 164 192 83 _c
_cl}_e}_d
/three{{636 0 76 -13 556 742 _sc
406 393 _m
453 383 490 362 516 330 _c
542 298 556 258 556 212 _c
556 140 531 84 482 45 _c
432 6 362 -13 271 -13 _c
240 -13 208 -10 176 -4 _c
144 1 110 10 76 22 _c
76 117 _l
103 101 133 89 166 81 _c
198 73 232 69 268 69 _c
330 69 377 81 409 105 _c
441 129 458 165 458 212 _c
458 254 443 288 413 312 _c
383 336 341 349 287 349 _c
}_e{202 349 _l
202 430 _l
291 430 _l
339 430 376 439 402 459 _c
428 478 441 506 441 543 _c
441 580 427 609 401 629 _c
374 649 336 659 287 659 _c
260 659 231 656 200 650 _c
169 644 135 635 98 623 _c
98 711 _l
135 721 170 729 203 734 _c
235 739 266 742 296 742 _c
370 742 429 725 473 691 _c
517 657 539 611 539 553 _c
539 513 527 479 504 451 _c
481 423 448 403 406 393 _c
_cl}_e}_d
/four{636 0 49 0 580 729 _sc
378 643 _m
129 254 _l
378 254 _l
378 643 _l
352 729 _m
476 729 _l
476 254 _l
580 254 _l
580 172 _l
476 172 _l
476 0 _l
378 0 _l
378 172 _l
49 172 _l
49 267 _l
352 729 _l
_cl}_d
/five{{636 0 77 -13 549 729 _sc
108 729 _m
495 729 _l
495 646 _l
198 646 _l
198 467 _l
212 472 227 476 241 478 _c
255 480 270 482 284 482 _c
365 482 429 459 477 415 _c
525 370 549 310 549 234 _c
549 155 524 94 475 51 _c
426 8 357 -13 269 -13 _c
238 -13 207 -10 175 -6 _c
143 -1 111 6 77 17 _c
77 116 _l
106 100 136 88 168 80 _c
199 72 232 69 267 69 _c
}_e{323 69 368 83 401 113 _c
433 143 450 183 450 234 _c
450 284 433 324 401 354 _c
368 384 323 399 267 399 _c
241 399 214 396 188 390 _c
162 384 135 375 108 363 _c
108 729 _l
_cl}_e}_d
/six{{636 0 70 -13 573 742 _sc
330 404 _m
286 404 251 388 225 358 _c
199 328 186 286 186 234 _c
186 181 199 139 225 109 _c
251 79 286 64 330 64 _c
374 64 409 79 435 109 _c
461 139 474 181 474 234 _c
474 286 461 328 435 358 _c
409 388 374 404 330 404 _c
526 713 _m
526 623 _l
501 635 476 644 451 650 _c
425 656 400 659 376 659 _c
310 659 260 637 226 593 _c
}_e{192 549 172 482 168 394 _c
187 422 211 444 240 459 _c
269 474 301 482 336 482 _c
409 482 467 459 509 415 _c
551 371 573 310 573 234 _c
573 159 550 99 506 54 _c
462 9 403 -13 330 -13 _c
246 -13 181 19 137 83 _c
92 147 70 241 70 364 _c
70 479 97 571 152 639 _c
206 707 280 742 372 742 _c
396 742 421 739 447 735 _c
472 730 498 723 526 713 _c
_cl}_e}_d
/seven{636 0 82 0 551 729 _sc
82 729 _m
551 729 _l
551 687 _l
286 0 _l
183 0 _l
432 646 _l
82 646 _l
82 729 _l
_cl}_d
/eight{{636 0 68 -13 568 742 _sc
318 346 _m
271 346 234 333 207 308 _c
180 283 167 249 167 205 _c
167 161 180 126 207 101 _c
234 76 271 64 318 64 _c
364 64 401 76 428 102 _c
455 127 469 161 469 205 _c
469 249 455 283 429 308 _c
402 333 365 346 318 346 _c
219 388 _m
177 398 144 418 120 447 _c
96 476 85 511 85 553 _c
85 611 105 657 147 691 _c
188 725 245 742 318 742 _c
}_e{390 742 447 725 489 691 _c
530 657 551 611 551 553 _c
551 511 539 476 515 447 _c
491 418 459 398 417 388 _c
464 377 501 355 528 323 _c
554 291 568 251 568 205 _c
568 134 546 80 503 43 _c
459 5 398 -13 318 -13 _c
237 -13 175 5 132 43 _c
89 80 68 134 68 205 _c
68 251 81 291 108 323 _c
134 355 171 377 219 388 _c
183 544 _m
183 506 194 476 218 455 _c
}_e{242 434 275 424 318 424 _c
360 424 393 434 417 455 _c
441 476 453 506 453 544 _c
453 582 441 611 417 632 _c
393 653 360 664 318 664 _c
275 664 242 653 218 632 _c
194 611 183 582 183 544 _c
_cl}_e}_d
/nine{{636 0 63 -13 566 742 _sc
110 15 _m
110 105 _l
134 93 159 84 185 78 _c
210 72 235 69 260 69 _c
324 69 374 90 408 134 _c
442 178 462 244 468 334 _c
448 306 424 284 396 269 _c
367 254 335 247 300 247 _c
226 247 168 269 126 313 _c
84 357 63 417 63 494 _c
63 568 85 628 129 674 _c
173 719 232 742 306 742 _c
390 742 455 709 499 645 _c
543 580 566 486 566 364 _c
}_e{566 248 538 157 484 89 _c
429 21 356 -13 264 -13 _c
239 -13 214 -10 189 -6 _c
163 -2 137 5 110 15 _c
306 324 _m
350 324 385 339 411 369 _c
437 399 450 441 450 494 _c
450 546 437 588 411 618 _c
385 648 350 664 306 664 _c
262 664 227 648 201 618 _c
175 588 162 546 162 494 _c
162 441 175 399 201 369 _c
227 339 262 324 306 324 _c
_cl}_e}_d
/A{684 0 8 0 676 729 _sc
342 632 _m
208 269 _l
476 269 _l
342 632 _l
286 729 _m
398 729 _l
676 0 _l
573 0 _l
507 187 _l
178 187 _l
112 0 _l
8 0 _l
286 729 _l
_cl}_d
/B{{686 0 98 0 615 729 _sc
197 348 _m
197 81 _l
355 81 _l
408 81 447 92 473 114 _c
498 136 511 169 511 215 _c
511 260 498 293 473 315 _c
447 337 408 348 355 348 _c
197 348 _l
197 648 _m
197 428 _l
343 428 _l
391 428 426 437 450 455 _c
474 473 486 500 486 538 _c
486 574 474 602 450 620 _c
426 638 391 648 343 648 _c
197 648 _l
98 729 _m
350 729 _l
}_e{425 729 483 713 524 682 _c
564 650 585 606 585 549 _c
585 504 574 468 553 442 _c
532 416 502 399 462 393 _c
510 382 548 360 575 327 _c
601 294 615 253 615 204 _c
615 138 592 88 548 53 _c
504 17 441 0 360 0 _c
98 0 _l
98 729 _l
_cl}_e}_d
/C{{698 0 56 -13 644 742 _sc
644 673 _m
644 569 _l
610 599 575 622 537 638 _c
499 653 460 661 418 661 _c
334 661 270 635 226 584 _c
182 533 160 460 160 364 _c
160 268 182 194 226 143 _c
270 92 334 67 418 67 _c
460 67 499 74 537 90 _c
575 105 610 128 644 159 _c
644 56 _l
609 32 572 15 534 4 _c
496 -7 455 -13 412 -13 _c
302 -13 215 20 151 87 _c
}_e{87 154 56 246 56 364 _c
56 481 87 573 151 641 _c
215 708 302 742 412 742 _c
456 742 497 736 535 725 _c
573 713 610 696 644 673 _c
_cl}_e}_d
/E{632 0 98 0 568 729 _sc
98 729 _m
559 729 _l
559 646 _l
197 646 _l
197 430 _l
544 430 _l
544 347 _l
197 347 _l
197 83 _l
568 83 _l
568 0 _l
98 0 _l
98 729 _l
_cl}_d
/F{575 0 98 0 517 729 _sc
98 729 _m
517 729 _l
517 646 _l
197 646 _l
197 431 _l
486 431 _l
486 348 _l
197 348 _l
197 0 _l
98 0 _l
98 729 _l
_cl}_d
/K{656 0 98 0 677 729 _sc
98 729 _m
197 729 _l
197 421 _l
524 729 _l
651 729 _l
289 389 _l
677 0 _l
547 0 _l
197 351 _l
197 0 _l
98 0 _l
98 729 _l
_cl}_d
/M{863 0 98 0 765 729 _sc
98 729 _m
245 729 _l
431 233 _l
618 729 _l
765 729 _l
765 0 _l
669 0 _l
669 640 _l
481 140 _l
382 140 _l
194 640 _l
194 0 _l
98 0 _l
98 729 _l
_cl}_d
/N{748 0 98 0 650 729 _sc
98 729 _m
231 729 _l
554 119 _l
554 729 _l
650 729 _l
650 0 _l
517 0 _l
194 610 _l
194 0 _l
98 0 _l
98 729 _l
_cl}_d
/S{{635 0 66 -13 579 742 _sc
535 705 _m
535 609 _l
497 627 462 640 429 649 _c
395 657 363 662 333 662 _c
279 662 237 651 208 631 _c
179 610 165 580 165 542 _c
165 510 174 485 194 469 _c
213 452 250 439 304 429 _c
364 417 _l
437 403 491 378 526 343 _c
561 307 579 260 579 201 _c
579 130 555 77 508 41 _c
460 5 391 -13 300 -13 _c
265 -13 228 -9 189 -2 _c
}_e{150 5 110 16 69 32 _c
69 134 _l
109 111 148 94 186 83 _c
224 71 262 66 300 66 _c
356 66 399 77 430 99 _c
460 121 476 152 476 194 _c
476 230 465 258 443 278 _c
421 298 385 313 335 323 _c
275 335 _l
201 349 148 372 115 404 _c
82 435 66 478 66 534 _c
66 598 88 649 134 686 _c
179 723 242 742 322 742 _c
356 742 390 739 426 733 _c
461 727 497 717 535 705 _c
}_e{_cl}_e}_d
/T{611 0 -2 0 614 729 _sc
-2 729 _m
614 729 _l
614 646 _l
355 646 _l
355 0 _l
256 0 _l
256 646 _l
-2 646 _l
-2 729 _l
_cl}_d
/V{684 0 8 0 676 729 _sc
286 0 _m
8 729 _l
111 729 _l
342 115 _l
573 729 _l
676 729 _l
398 0 _l
286 0 _l
_cl}_d
/W{989 0 33 0 956 729 _sc
33 729 _m
133 729 _l
286 113 _l
439 729 _l
550 729 _l
703 113 _l
856 729 _l
956 729 _l
773 0 _l
649 0 _l
495 633 _l
340 0 _l
216 0 _l
33 729 _l
_cl}_d
/a{{613 0 60 -13 522 560 _sc
343 275 _m
270 275 220 266 192 250 _c
164 233 150 205 150 165 _c
150 133 160 107 181 89 _c
202 70 231 61 267 61 _c
317 61 357 78 387 114 _c
417 149 432 196 432 255 _c
432 275 _l
343 275 _l
522 312 _m
522 0 _l
432 0 _l
432 83 _l
411 49 385 25 355 10 _c
325 -5 287 -13 243 -13 _c
187 -13 142 2 109 33 _c
76 64 60 106 60 159 _c
}_e{60 220 80 266 122 298 _c
163 329 224 345 306 345 _c
432 345 _l
432 354 _l
432 395 418 427 391 450 _c
364 472 326 484 277 484 _c
245 484 215 480 185 472 _c
155 464 127 453 100 439 _c
100 522 _l
132 534 164 544 195 550 _c
226 556 256 560 286 560 _c
365 560 424 539 463 498 _c
502 457 522 395 522 312 _c
_cl}_e}_d
/c{{550 0 55 -13 488 560 _sc
488 526 _m
488 442 _l
462 456 437 466 411 473 _c
385 480 360 484 334 484 _c
276 484 230 465 198 428 _c
166 391 150 339 150 273 _c
150 206 166 154 198 117 _c
230 80 276 62 334 62 _c
360 62 385 65 411 72 _c
437 79 462 90 488 104 _c
488 21 _l
462 9 436 0 410 -5 _c
383 -10 354 -13 324 -13 _c
242 -13 176 12 128 64 _c
}_e{79 115 55 185 55 273 _c
55 362 79 432 128 483 _c
177 534 244 560 330 560 _c
358 560 385 557 411 551 _c
437 545 463 537 488 526 _c
_cl}_e}_d
/d{{635 0 55 -13 544 760 _sc
454 464 _m
454 760 _l
544 760 _l
544 0 _l
454 0 _l
454 82 _l
435 49 411 25 382 10 _c
353 -5 319 -13 279 -13 _c
213 -13 159 13 117 65 _c
75 117 55 187 55 273 _c
55 359 75 428 117 481 _c
159 533 213 560 279 560 _c
319 560 353 552 382 536 _c
411 520 435 496 454 464 _c
148 273 _m
148 207 161 155 188 117 _c
215 79 253 61 301 61 _c
}_e{348 61 385 79 413 117 _c
440 155 454 207 454 273 _c
454 339 440 390 413 428 _c
385 466 348 485 301 485 _c
253 485 215 466 188 428 _c
161 390 148 339 148 273 _c
_cl}_e}_d
/e{{615 0 55 -13 562 560 _sc
562 296 _m
562 252 _l
149 252 _l
153 190 171 142 205 110 _c
238 78 284 62 344 62 _c
378 62 412 66 444 74 _c
476 82 509 95 541 113 _c
541 28 _l
509 14 476 3 442 -3 _c
408 -9 373 -13 339 -13 _c
251 -13 182 12 131 62 _c
80 112 55 181 55 268 _c
55 357 79 428 127 481 _c
175 533 241 560 323 560 _c
397 560 455 536 498 489 _c
}_e{540 441 562 377 562 296 _c
472 322 _m
471 371 457 410 431 440 _c
404 469 368 484 324 484 _c
274 484 234 469 204 441 _c
174 413 156 373 152 322 _c
472 322 _l
_cl}_e}_d
/g{{635 0 55 -207 544 560 _sc
454 280 _m
454 344 440 395 414 431 _c
387 467 349 485 301 485 _c
253 485 215 467 188 431 _c
161 395 148 344 148 280 _c
148 215 161 165 188 129 _c
215 93 253 75 301 75 _c
349 75 387 93 414 129 _c
440 165 454 215 454 280 _c
544 68 _m
544 -24 523 -93 482 -139 _c
440 -184 377 -207 292 -207 _c
260 -207 231 -204 203 -200 _c
175 -195 147 -188 121 -178 _c
}_e{121 -91 _l
147 -105 173 -115 199 -122 _c
225 -129 251 -133 278 -133 _c
336 -133 380 -117 410 -87 _c
439 -56 454 -10 454 52 _c
454 96 _l
435 64 411 40 382 24 _c
353 8 319 0 279 0 _c
211 0 157 25 116 76 _c
75 127 55 195 55 280 _c
55 364 75 432 116 483 _c
157 534 211 560 279 560 _c
319 560 353 552 382 536 _c
411 520 435 496 454 464 _c
454 547 _l
544 547 _l
}_e{544 68 _l
_cl}_e}_d
/h{634 0 91 0 549 760 _sc
549 330 _m
549 0 _l
459 0 _l
459 327 _l
459 379 448 417 428 443 _c
408 469 378 482 338 482 _c
289 482 251 466 223 435 _c
195 404 181 362 181 309 _c
181 0 _l
91 0 _l
91 760 _l
181 760 _l
181 462 _l
202 494 227 519 257 535 _c
286 551 320 560 358 560 _c
420 560 468 540 500 501 _c
532 462 549 405 549 330 _c
_cl}_d
/i{278 0 94 0 184 760 _sc
94 547 _m
184 547 _l
184 0 _l
94 0 _l
94 547 _l
94 760 _m
184 760 _l
184 646 _l
94 646 _l
94 760 _l
_cl}_d
/l{278 0 94 0 184 760 _sc
94 760 _m
184 760 _l
184 0 _l
94 0 _l
94 760 _l
_cl}_d
/m{{974 0 91 0 889 560 _sc
520 442 _m
542 482 569 511 600 531 _c
631 550 668 560 711 560 _c
767 560 811 540 842 500 _c
873 460 889 403 889 330 _c
889 0 _l
799 0 _l
799 327 _l
799 379 789 418 771 444 _c
752 469 724 482 686 482 _c
639 482 602 466 575 435 _c
548 404 535 362 535 309 _c
535 0 _l
445 0 _l
445 327 _l
445 379 435 418 417 444 _c
398 469 369 482 331 482 _c
}_e{285 482 248 466 221 435 _c
194 404 181 362 181 309 _c
181 0 _l
91 0 _l
91 547 _l
181 547 _l
181 462 _l
201 495 226 520 255 536 _c
283 552 317 560 357 560 _c
397 560 430 550 458 530 _c
486 510 506 480 520 442 _c
_cl}_e}_d
/n{634 0 91 0 549 560 _sc
549 330 _m
549 0 _l
459 0 _l
459 327 _l
459 379 448 417 428 443 _c
408 469 378 482 338 482 _c
289 482 251 466 223 435 _c
195 404 181 362 181 309 _c
181 0 _l
91 0 _l
91 547 _l
181 547 _l
181 462 _l
202 494 227 519 257 535 _c
286 551 320 560 358 560 _c
420 560 468 540 500 501 _c
532 462 549 405 549 330 _c
_cl}_d
/o{612 0 55 -13 557 560 _sc
306 484 _m
258 484 220 465 192 427 _c
164 389 150 338 150 273 _c
150 207 163 156 191 118 _c
219 80 257 62 306 62 _c
354 62 392 80 420 118 _c
448 156 462 207 462 273 _c
462 337 448 389 420 427 _c
392 465 354 484 306 484 _c
306 560 _m
384 560 445 534 490 484 _c
534 433 557 363 557 273 _c
557 183 534 113 490 63 _c
445 12 384 -13 306 -13 _c
227 -13 165 12 121 63 _c
77 113 55 183 55 273 _c
55 363 77 433 121 484 _c
165 534 227 560 306 560 _c
_cl}_d
/p{{635 0 91 -207 580 560 _sc
181 82 _m
181 -207 _l
91 -207 _l
91 547 _l
181 547 _l
181 464 _l
199 496 223 520 252 536 _c
281 552 316 560 356 560 _c
422 560 476 533 518 481 _c
559 428 580 359 580 273 _c
580 187 559 117 518 65 _c
476 13 422 -13 356 -13 _c
316 -13 281 -5 252 10 _c
223 25 199 49 181 82 _c
487 273 _m
487 339 473 390 446 428 _c
418 466 381 485 334 485 _c
}_e{286 485 249 466 222 428 _c
194 390 181 339 181 273 _c
181 207 194 155 222 117 _c
249 79 286 61 334 61 _c
381 61 418 79 446 117 _c
473 155 487 207 487 273 _c
_cl}_e}_d
/q{{635 0 55 -207 544 560 _sc
148 273 _m
148 207 161 155 188 117 _c
215 79 253 61 301 61 _c
348 61 385 79 413 117 _c
440 155 454 207 454 273 _c
454 339 440 390 413 428 _c
385 466 348 485 301 485 _c
253 485 215 466 188 428 _c
161 390 148 339 148 273 _c
454 82 _m
435 49 411 25 382 10 _c
353 -5 319 -13 279 -13 _c
213 -13 159 13 117 65 _c
75 117 55 187 55 273 _c
}_e{55 359 75 428 117 481 _c
159 533 213 560 279 560 _c
319 560 353 552 382 536 _c
411 520 435 496 454 464 _c
454 547 _l
544 547 _l
544 -207 _l
454 -207 _l
454 82 _l
_cl}_e}_d
/r{411 0 91 0 411 560 _sc
411 463 _m
401 469 390 473 378 476 _c
366 478 353 480 339 480 _c
288 480 249 463 222 430 _c
194 397 181 350 181 288 _c
181 0 _l
91 0 _l
91 547 _l
181 547 _l
181 462 _l
199 495 224 520 254 536 _c
284 552 321 560 365 560 _c
371 560 378 559 386 559 _c
393 558 401 557 411 555 _c
411 463 _l
_cl}_d
/s{{521 0 54 -13 472 560 _sc
443 531 _m
443 446 _l
417 458 391 468 364 475 _c
336 481 308 485 279 485 _c
234 485 200 478 178 464 _c
156 450 145 430 145 403 _c
145 382 153 366 169 354 _c
185 342 217 330 265 320 _c
296 313 _l
360 299 405 279 432 255 _c
458 230 472 195 472 151 _c
472 100 452 60 412 31 _c
372 1 316 -13 246 -13 _c
216 -13 186 -10 154 -5 _c
}_e{122 0 89 8 54 20 _c
54 113 _l
87 95 120 82 152 74 _c
184 65 216 61 248 61 _c
290 61 323 68 346 82 _c
368 96 380 117 380 144 _c
380 168 371 187 355 200 _c
339 213 303 226 247 238 _c
216 245 _l
160 257 119 275 95 299 _c
70 323 58 356 58 399 _c
58 450 76 490 112 518 _c
148 546 200 560 268 560 _c
301 560 332 557 362 552 _c
391 547 418 540 443 531 _c
}_e{_cl}_e}_d
/t{392 0 27 0 368 702 _sc
183 702 _m
183 547 _l
368 547 _l
368 477 _l
183 477 _l
183 180 _l
183 135 189 106 201 94 _c
213 81 238 75 276 75 _c
368 75 _l
368 0 _l
276 0 _l
206 0 158 13 132 39 _c
106 65 93 112 93 180 _c
93 477 _l
27 477 _l
27 547 _l
93 547 _l
93 702 _l
183 702 _l
_cl}_d
/u{634 0 85 -13 543 560 _sc
85 216 _m
85 547 _l
175 547 _l
175 219 _l
175 167 185 129 205 103 _c
225 77 255 64 296 64 _c
344 64 383 79 411 110 _c
439 141 453 183 453 237 _c
453 547 _l
543 547 _l
543 0 _l
453 0 _l
453 84 _l
431 50 405 26 377 10 _c
348 -5 315 -13 277 -13 _c
214 -13 166 6 134 45 _c
101 83 85 140 85 216 _c
311 560 _m
311 560 _l
_cl}_d
/y{592 0 30 -207 562 547 _sc
322 -50 _m
296 -114 271 -157 247 -177 _c
223 -197 191 -207 151 -207 _c
79 -207 _l
79 -132 _l
132 -132 _l
156 -132 175 -126 189 -114 _c
203 -102 218 -75 235 -31 _c
251 9 _l
30 547 _l
125 547 _l
296 119 _l
467 547 _l
562 547 _l
322 -50 _l
_cl}_d
end readonly def

/BuildGlyph
 {exch begin
 CharStrings exch
 2 copy known not{pop /.notdef}if
 true 3 1 roll get exec
 end}_d

/BuildChar {
 1 index /Encoding get exch get
 1 index /BuildGlyph get exec
}_d

FontName currentdict end definefont pop
end
%%EndProlog
mpldict begin
-10.44 127.44 translate
632.88 537.12 0 0 clipbox
gsave
0 0 m
632.88 0 l
632.88 537.12 l
0 537.12 l
cl
1.000 setgray
fill
grestore
gsave
42.242229 320.879467 m
609.373029 320.879467 l
609.373029 518.7684 l
42.242229 518.7684 l
cl
1.000 setgray
fill
grestore
0.800 setlinewidth
1 setlinejoin
0 setlinecap
[] 0 setdash
0.000 setgray
gsave
/o {
gsave
newpath
translate
0.8 setlinewidth
1 setlinejoin
0 setlinecap
0 0 m
0 -3.5 l

gsave
0.000 setgray
fill
grestore
stroke
grestore
} bind def
45.9451 320.879 o
grestore
/DejaVuSans findfont
10.000 scalefont
setfont
gsave
42.765450 306.285717 translate
0.000000 rotate
0.000000 0.000000 m /zero glyphshow
grestore
gsave
/o {
gsave
newpath
translate
0.8 setlinewidth
1 setlinejoin
0 setlinecap
0 0 m
0 -3.5 l

gsave
0.000 setgray
fill
grestore
stroke
grestore
} bind def
157.343 320.879 o
grestore
gsave
150.983447 306.285717 translate
0.000000 rotate
0.000000 0.000000 m /one glyphshow
6.362305 0.000000 m /zero glyphshow
grestore
gsave
/o {
gsave
newpath
translate
0.8 setlinewidth
1 setlinejoin
0 setlinecap
0 0 m
0 -3.5 l

gsave
0.000 setgray
fill
grestore
stroke
grestore
} bind def
268.741 320.879 o
grestore
gsave
262.381130 306.285717 translate
0.000000 rotate
0.000000 0.000000 m /two glyphshow
6.362305 0.000000 m /zero glyphshow
grestore
gsave
/o {
gsave
newpath
translate
0.8 setlinewidth
1 setlinejoin
0 setlinecap
0 0 m
0 -3.5 l

gsave
0.000 setgray
fill
grestore
stroke
grestore
} bind def
380.138 320.879 o
grestore
gsave
373.778814 306.285717 translate
0.000000 rotate
0.000000 0.000000 m /three glyphshow
6.362305 0.000000 m /zero glyphshow
grestore
gsave
/o {
gsave
newpath
translate
0.8 setlinewidth
1 setlinejoin
0 setlinecap
0 0 m
0 -3.5 l

gsave
0.000 setgray
fill
grestore
stroke
grestore
} bind def
491.536 320.879 o
grestore
gsave
485.176498 306.285717 translate
0.000000 rotate
0.000000 0.000000 m /four glyphshow
6.362305 0.000000 m /zero glyphshow
grestore
gsave
/o {
gsave
newpath
translate
0.8 setlinewidth
1 setlinejoin
0 setlinecap
0 0 m
0 -3.5 l

gsave
0.000 setgray
fill
grestore
stroke
grestore
} bind def
602.934 320.879 o
grestore
gsave
596.574182 306.285717 translate
0.000000 rotate
0.000000 0.000000 m /five glyphshow
6.362305 0.000000 m /zero glyphshow
grestore
/DejaVuSans findfont
14.000 scalefont
setfont
gsave
300.721691 289.566967 translate
0.000000 rotate
0.000000 0.000000 m /E glyphshow
8.845703 0.000000 m /p glyphshow
17.732422 0.000000 m /o glyphshow
26.297852 0.000000 m /c glyphshow
33.995117 0.000000 m /h glyphshow
42.868164 0.000000 m /s glyphshow
grestore
gsave
/o {
gsave
newpath
translate
0.8 setlinewidth
1 setlinejoin
0 setlinecap
0 0 m
-3.5 0 l

gsave
0.000 setgray
fill
grestore
stroke
grestore
} bind def
42.2422 351.616 o
grestore
/DejaVuSans findfont
10.000 scalefont
setfont
gsave
19.335979 347.819196 translate
0.000000 rotate
0.000000 0.000000 m /zero glyphshow
6.362305 0.000000 m /period glyphshow
9.541016 0.000000 m /six glyphshow
grestore
gsave
/o {
gsave
newpath
translate
0.8 setlinewidth
1 setlinejoin
0 setlinecap
0 0 m
-3.5 0 l

gsave
0.000 setgray
fill
grestore
stroke
grestore
} bind def
42.2422 392.846 o
grestore
gsave
19.335979 389.048862 translate
0.000000 rotate
0.000000 0.000000 m /zero glyphshow
6.362305 0.000000 m /period glyphshow
9.541016 0.000000 m /eight glyphshow
grestore
gsave
/o {
gsave
newpath
translate
0.8 setlinewidth
1 setlinejoin
0 setlinecap
0 0 m
-3.5 0 l

gsave
0.000 setgray
fill
grestore
stroke
grestore
} bind def
42.2422 434.075 o
grestore
gsave
19.335979 430.278528 translate
0.000000 rotate
0.000000 0.000000 m /one glyphshow
6.362305 0.000000 m /period glyphshow
9.541016 0.000000 m /zero glyphshow
grestore
gsave
/o {
gsave
newpath
translate
0.8 setlinewidth
1 setlinejoin
0 setlinecap
0 0 m
-3.5 0 l

gsave
0.000 setgray
fill
grestore
stroke
grestore
} bind def
42.2422 475.305 o
grestore
gsave
19.335979 471.508193 translate
0.000000 rotate
0.000000 0.000000 m /one glyphshow
6.362305 0.000000 m /period glyphshow
9.541016 0.000000 m /two glyphshow
grestore
gsave
/o {
gsave
newpath
translate
0.8 setlinewidth
1 setlinejoin
0 setlinecap
0 0 m
-3.5 0 l

gsave
0.000 setgray
fill
grestore
stroke
grestore
} bind def
42.2422 516.535 o
grestore
gsave
19.335979 512.737859 translate
0.000000 rotate
0.000000 0.000000 m /one glyphshow
6.362305 0.000000 m /period glyphshow
9.541016 0.000000 m /four glyphshow
grestore
/DejaVuSans findfont
14.000 scalefont
setfont
gsave
12.429729 370.652058 translate
90.000000 rotate
0.000000 0.000000 m /M glyphshow
12.079102 0.000000 m /S glyphshow
20.965820 0.000000 m /E glyphshow
29.811523 0.000000 m /space glyphshow
34.261719 0.000000 m /t glyphshow
39.750977 0.000000 m /r glyphshow
45.506836 0.000000 m /a glyphshow
54.085938 0.000000 m /i glyphshow
57.975586 0.000000 m /n glyphshow
66.848633 0.000000 m /space glyphshow
71.298828 0.000000 m /l glyphshow
75.188477 0.000000 m /o glyphshow
83.753906 0.000000 m /s glyphshow
91.047852 0.000000 m /s glyphshow
grestore
1.500 setlinewidth
[9.6 2.4 1.5 2.4] 0 setdash
0.122 0.467 0.706 setrgbcolor
gsave
567.1 197.9 42.24 320.9 clipbox
53.129088 474.221445 m
55.606313 507.638806 l
61.791632 436.848167 l
64.268857 469.540761 l
66.746081 478.60033 l
70.454176 468.455084 l
72.931401 484.530421 l
75.408625 426.57885 l
77.88585 458.613338 l
81.593945 416.038227 l
84.071169 427.793507 l
86.548394 440.780937 l
92.733713 423.310094 l
95.210938 402.350246 l
97.688162 379.622561 l
100.165386 386.061898 l
103.873482 418.667078 l
106.350706 384.610561 l
108.82793 373.036824 l
111.305155 390.668646 l
115.01325 395.796968 l
117.490474 373.719629 l
119.967699 376.44349 l
122.444923 361.444806 l
126.153018 354.588705 l
128.630243 378.853891 l
131.107467 384.149518 l
133.584691 390.701979 l
137.292787 384.221271 l
139.770011 393.13623 l
142.247235 356.904854 l
144.72446 397.455952 l
148.432555 367.539919 l
150.909779 383.005301 l
153.387004 378.977557 l
155.864228 394.970697 l
159.572324 386.216726 l
162.049548 357.570138 l
164.526772 376.279016 l
167.003997 371.986815 l
170.712092 397.62458 l
173.189316 366.256888 l
175.666541 364.037758 l
178.143765 367.213397 l
181.85186 357.487578 l
184.329085 369.352456 l
186.806309 366.927023 l
189.283533 376.30095 l
192.991629 353.118109 l
195.468853 375.466666 l
197.946077 377.755261 l
200.423302 368.276579 l
204.131397 380.492519 l
206.608621 358.504323 l
209.085846 372.481182 l
211.56307 358.007168 l
215.271165 376.6927 l
217.74839 359.460877 l
220.225614 362.57089 l
222.702839 373.551687 l
226.410934 396.741583 l
228.888158 359.353986 l
231.365383 352.117884 l
233.842607 358.594155 l
237.550702 372.159569 l
240.027927 360.681083 l
242.505151 365.918373 l
244.982375 338.502872 l
248.690471 357.655479 l
251.167695 378.282874 l
253.644919 368.824617 l
256.122144 369.289981 l
259.830239 366.246375 l
262.307463 381.863777 l
264.784688 350.335437 l
267.261912 391.930273 l
270.970007 342.133451 l
273.447232 397.065086 l
275.924456 351.57081 l
278.401681 354.197639 l
282.109776 384.141164 l
284.587 350.876535 l
287.064225 368.672806 l
289.541449 370.148459 l
293.249544 366.970347 l
295.726769 364.573537 l
298.203993 366.696957 l
300.681217 354.065029 l
304.389313 361.11901 l
306.866537 368.107594 l
309.343761 350.541562 l
311.820986 376.731353 l
315.529081 351.920269 l
318.006305 371.168542 l
320.48353 380.314706 l
322.960754 352.800216 l
326.668849 375.170025 l
329.146074 374.219546 l
331.623298 363.514691 l
334.100522 377.823637 l
337.808618 358.602522 l
340.285842 363.765244 l
342.763066 360.329722 l
345.240291 382.929334 l
348.948386 372.703788 l
351.42561 372.664861 l
353.902835 344.330133 l
356.380059 377.154526 l
360.088155 374.783821 l
365.042603 350.021752 l
367.519828 361.032874 l
371.227923 362.40235 l
373.705147 385.77428 l
376.182372 379.457778 l
378.659596 351.07089 l
382.367691 379.145138 l
384.844916 385.727649 l
387.32214 357.503859 l
389.799364 368.610124 l
393.50746 362.951692 l
395.984684 354.798098 l
398.461908 381.460125 l
400.939133 359.432723 l
404.647228 363.867635 l
407.124452 372.952794 l
412.078901 358.228203 l
415.786996 368.051474 l
418.264221 375.91798 l
420.741445 366.513006 l
423.21867 366.888878 l
426.926765 367.105943 l
429.403989 372.515339 l
431.881214 373.378225 l
434.358438 365.227707 l
438.066533 359.160337 l
440.543758 373.696349 l
443.020982 375.400157 l
445.498206 357.533267 l
449.206302 400.534303 l
451.683526 344.714094 l
454.16075 363.456816 l
456.637975 373.626497 l
460.34607 373.770305 l
462.823294 384.232881 l
465.300519 369.034991 l
467.777743 356.104606 l
471.485838 381.810509 l
473.963063 378.433955 l
476.440287 363.345493 l
478.917512 361.2197 l
482.625607 377.774442 l
485.102831 370.587336 l
487.580056 375.940511 l
490.05728 362.35254 l
493.765375 386.290399 l
496.2426 369.540328 l
498.719824 359.769412 l
501.197048 369.68425 l
504.905144 369.067795 l
507.382368 352.060688 l
509.859592 378.576995 l
512.336817 366.687751 l
516.044912 344.581283 l
518.522136 390.981411 l
520.999361 391.64659 l
523.476585 356.393232 l
527.18468 363.489692 l
529.661905 372.983701 l
532.139129 369.614903 l
534.616353 369.25532 l
538.324449 360.468131 l
540.801673 380.255641 l
543.278897 369.29139 l
545.756122 366.009901 l
549.464217 379.828025 l
551.941441 382.287229 l
554.418666 364.958484 l
556.89589 370.139199 l
560.603986 370.280087 l
563.08121 383.349479 l
565.558434 376.815453 l
568.035659 375.43616 l
571.743754 384.574618 l
574.220978 383.030161 l
576.698203 364.892415 l
579.175427 368.239534 l
582.883522 377.742851 l
585.360747 380.589467 l
587.837971 363.029788 l
590.315195 362.534773 l
594.023291 355.688176 l
596.500515 378.007742 l
598.977739 368.80901 l
601.454964 383.259345 l
601.454964 383.259345 l
stroke
grestore
[5.55 2.4] 0 setdash
1.000 0.498 0.055 setrgbcolor
gsave
567.1 197.9 42.24 320.9 clipbox
48.17464 431.453611 m
50.651864 434.135597 l
53.129088 459.25258 l
55.606313 468.282662 l
59.314408 442.314098 l
61.791632 422.470521 l
64.268857 421.909546 l
66.746081 475.840239 l
70.454176 430.015221 l
72.931401 444.345754 l
75.408625 417.779016 l
77.88585 433.656884 l
81.593945 454.819929 l
84.071169 446.086313 l
86.548394 444.770843 l
89.025618 420.10848 l
92.733713 436.697904 l
95.210938 434.433685 l
97.688162 432.733479 l
100.165386 423.297534 l
103.873482 424.21627 l
106.350706 437.736891 l
108.82793 402.606362 l
111.305155 426.175729 l
115.01325 436.925777 l
117.490474 411.428186 l
119.967699 418.289588 l
122.444923 409.591971 l
126.153018 422.82489 l
128.630243 414.890787 l
131.107467 411.741949 l
133.584691 412.111818 l
137.292787 410.475194 l
139.770011 414.362059 l
142.247235 390.315516 l
144.72446 428.77117 l
148.432555 387.822617 l
150.909779 415.967275 l
153.387004 412.868768 l
155.864228 421.994996 l
159.572324 404.898641 l
162.049548 398.742521 l
164.526772 399.683498 l
167.003997 406.444031 l
170.712092 411.452352 l
173.189316 406.286415 l
175.666541 396.709906 l
178.143765 389.428372 l
181.85186 374.337596 l
184.329085 407.450899 l
186.806309 401.703906 l
189.283533 384.615049 l
192.991629 381.860658 l
195.468853 396.801737 l
197.946077 409.932986 l
200.423302 399.208957 l
204.131397 412.492742 l
206.608621 377.608232 l
209.085846 377.712241 l
211.56307 380.905572 l
215.271165 383.191509 l
217.74839 377.628077 l
220.225614 400.986315 l
222.702839 383.964497 l
226.410934 401.913121 l
228.888158 386.371083 l
231.365383 368.549482 l
233.842607 364.958524 l
237.550702 394.138414 l
240.027927 389.794143 l
242.505151 381.326696 l
244.982375 354.573314 l
248.690471 381.581187 l
251.167695 389.45491 l
253.644919 380.006554 l
256.122144 379.392367 l
259.830239 376.48709 l
262.307463 395.174328 l
264.784688 365.217867 l
267.261912 386.288254 l
270.970007 365.364184 l
273.447232 398.826155 l
275.924456 360.065846 l
278.401681 380.50969 l
282.109776 390.905677 l
284.587 359.837213 l
287.064225 366.822245 l
289.541449 377.132233 l
293.249544 374.99469 l
295.726769 384.574982 l
298.203993 379.09105 l
300.681217 356.483771 l
304.389313 363.903596 l
306.866537 392.411097 l
309.343761 355.617846 l
311.820986 385.52278 l
315.529081 360.056198 l
318.006305 380.792366 l
320.48353 379.321643 l
322.960754 352.155068 l
326.668849 366.834244 l
329.146074 375.346214 l
331.623298 370.308382 l
334.100522 373.3461 l
337.808618 360.191598 l
340.285842 375.366172 l
342.763066 360.274512 l
345.240291 390.488787 l
348.948386 361.638534 l
351.42561 378.874189 l
353.902835 357.07282 l
356.380059 386.063752 l
360.088155 379.774201 l
362.565379 356.353583 l
365.042603 365.420649 l
367.519828 358.189737 l
371.227923 362.616024 l
373.705147 371.652932 l
376.182372 375.852992 l
378.659596 356.13001 l
382.367691 364.263515 l
384.844916 398.61473 l
387.32214 354.162041 l
389.799364 371.87295 l
393.50746 365.37073 l
395.984684 361.567527 l
398.461908 365.266638 l
400.939133 361.704763 l
404.647228 370.875901 l
407.124452 367.187663 l
409.601677 357.544261 l
412.078901 361.094049 l
415.786996 372.223586 l
418.264221 366.434239 l
420.741445 353.817971 l
423.21867 357.540046 l
426.926765 352.412906 l
429.403989 388.31663 l
431.881214 368.992957 l
434.358438 356.252657 l
438.066533 353.720738 l
440.543758 369.404796 l
443.020982 376.375473 l
445.498206 355.509079 l
449.206302 387.630811 l
451.683526 349.2059 l
454.16075 355.750342 l
456.637975 366.597076 l
460.34607 362.604561 l
462.823294 364.422892 l
465.300519 366.803038 l
467.777743 357.568582 l
471.485838 372.971332 l
473.963063 368.966416 l
476.440287 357.77673 l
478.917512 359.34605 l
482.625607 365.879966 l
485.102831 366.075538 l
487.580056 366.070561 l
490.05728 349.331158 l
493.765375 373.540086 l
496.2426 369.668735 l
498.719824 356.019335 l
501.197048 357.563215 l
504.905144 356.90304 l
507.382368 348.722689 l
509.859592 371.798435 l
512.336817 363.367898 l
516.044912 334.47011 l
518.522136 374.307069 l
520.999361 395.221558 l
523.476585 348.594657 l
527.18468 367.428373 l
529.661905 352.185443 l
532.139129 360.919304 l
534.616353 361.830631 l
538.324449 355.232626 l
540.801673 378.555775 l
543.278897 359.314454 l
545.756122 352.346417 l
549.464217 365.420011 l
551.941441 359.508086 l
554.418666 355.558478 l
556.89589 349.670515 l
560.603986 353.930234 l
563.08121 364.256617 l
565.558434 362.559798 l
568.035659 368.63011 l
571.743754 357.363186 l
574.220978 377.655909 l
576.698203 357.714602 l
579.175427 355.729488 l
582.883522 363.240209 l
585.360747 362.418209 l
587.837971 351.425371 l
590.315195 347.534497 l
594.023291 350.16679 l
596.500515 361.147239 l
598.977739 350.950336 l
601.454964 363.901501 l
601.454964 363.901501 l
stroke
grestore
[1.5 2.475] 0 setdash
0.173 0.627 0.173 setrgbcolor
gsave
567.1 197.9 42.24 320.9 clipbox
48.17464 464.916209 m
50.651864 457.273967 l
53.129088 493.093541 l
55.606313 467.52154 l
61.791632 422.507273 l
64.268857 429.69351 l
66.746081 494.550377 l
70.454176 430.80398 l
72.931401 423.925464 l
75.408625 412.95284 l
77.88585 441.330317 l
81.593945 432.709816 l
84.071169 417.532123 l
86.548394 433.107153 l
89.025618 399.46179 l
92.733713 414.78783 l
95.210938 414.943214 l
97.688162 406.194787 l
100.165386 424.845941 l
103.873482 416.092659 l
106.350706 404.88121 l
108.82793 376.207242 l
111.305155 404.159871 l
115.01325 404.530821 l
117.490474 397.99218 l
119.967699 402.658423 l
122.444923 380.579499 l
126.153018 397.012685 l
128.630243 411.219437 l
131.107467 411.548852 l
133.584691 415.568959 l
137.292787 414.122147 l
139.770011 414.902581 l
142.247235 368.473198 l
144.72446 424.93169 l
148.432555 403.923162 l
150.909779 404.968589 l
153.387004 417.499101 l
155.864228 421.044355 l
159.572324 428.552297 l
162.049548 399.441142 l
164.526772 421.193778 l
167.003997 414.359445 l
170.712092 417.081963 l
173.189316 403.295045 l
175.666541 404.890535 l
178.143765 388.489354 l
181.85186 398.205002 l
186.806309 419.498909 l
189.283533 405.13492 l
192.991629 398.799297 l
195.468853 426.777853 l
197.946077 429.762126 l
200.423302 422.728754 l
204.131397 438.89589 l
206.608621 404.016569 l
209.085846 403.512443 l
211.56307 418.785169 l
215.271165 412.691994 l
217.74839 392.746885 l
220.225614 402.978547 l
222.702839 397.728784 l
226.410934 419.090184 l
228.888158 392.849308 l
231.365383 372.045757 l
233.842607 394.404075 l
237.550702 423.666517 l
240.027927 408.298806 l
242.505151 403.645243 l
244.982375 365.224296 l
251.167695 415.772085 l
253.644919 416.136132 l
256.122144 394.69343 l
259.830239 383.458775 l
262.307463 400.778368 l
264.784688 400.06886 l
267.261912 408.425472 l
270.970007 380.19127 l
273.447232 438.423885 l
275.924456 385.156154 l
278.401681 398.460047 l
282.109776 429.320731 l
284.587 397.594432 l
287.064225 405.227088 l
289.541449 389.61204 l
293.249544 430.923299 l
295.726769 413.135196 l
298.203993 405.870119 l
300.681217 383.030915 l
304.389313 396.045753 l
306.866537 413.611869 l
309.343761 399.260707 l
311.820986 426.14239 l
315.529081 372.923601 l
318.006305 385.786035 l
320.48353 471.614937 l
322.960754 390.209994 l
326.668849 378.239579 l
329.146074 391.034794 l
331.623298 398.867853 l
334.100522 414.388295 l
337.808618 411.65402 l
340.285842 404.350726 l
342.763066 381.395095 l
345.240291 411.033882 l
348.948386 395.602362 l
351.42561 409.198406 l
353.902835 377.697839 l
356.380059 414.902595 l
360.088155 413.083761 l
362.565379 385.102962 l
365.042603 379.427628 l
367.519828 426.968946 l
371.227923 439.115322 l
373.705147 425.616822 l
376.182372 390.209003 l
378.659596 400.785367 l
382.367691 378.535996 l
384.844916 409.586845 l
387.32214 382.624101 l
389.799364 382.012968 l
393.50746 401.816985 l
395.984684 389.336774 l
398.461908 400.901698 l
400.939133 398.170449 l
404.647228 428.185146 l
407.124452 382.934599 l
409.601677 400.7121 l
412.078901 391.000313 l
415.786996 412.224713 l
418.264221 394.395241 l
420.741445 389.557595 l
423.21867 399.01962 l
426.926765 397.510837 l
429.403989 400.031407 l
431.881214 404.78621 l
434.358438 373.070861 l
438.066533 428.797205 l
440.543758 388.1629 l
443.020982 399.962552 l
445.498206 365.175113 l
449.206302 434.295472 l
451.683526 372.504424 l
454.16075 388.146188 l
456.637975 402.647507 l
460.34607 421.687908 l
462.823294 428.351664 l
465.300519 389.889717 l
467.777743 388.0623 l
471.485838 415.104067 l
473.963063 400.886599 l
476.440287 368.429824 l
478.917512 389.490572 l
482.625607 393.42549 l
485.102831 390.393029 l
487.580056 401.979328 l
490.05728 376.88465 l
493.765375 410.148327 l
496.2426 384.636401 l
498.719824 406.328599 l
501.197048 399.010828 l
504.905144 395.885805 l
507.382368 396.478692 l
509.859592 415.469274 l
512.336817 405.20557 l
516.044912 352.702168 l
518.522136 414.08846 l
520.999361 442.985975 l
523.476585 376.981971 l
527.18468 417.906121 l
529.661905 387.775465 l
532.139129 402.167614 l
534.616353 388.955215 l
538.324449 389.255774 l
540.801673 398.209909 l
543.278897 388.650065 l
545.756122 400.799515 l
549.464217 385.954698 l
551.941441 399.618291 l
554.418666 403.082395 l
556.89589 379.693277 l
560.603986 400.908485 l
563.08121 401.305052 l
565.558434 410.53218 l
568.035659 390.672726 l
571.743754 384.592209 l
574.220978 401.763749 l
576.698203 396.0508 l
579.175427 370.35389 l
582.883522 401.709955 l
585.360747 388.979339 l
587.837971 388.675018 l
590.315195 395.601089 l
594.023291 416.135375 l
596.500515 398.3607 l
598.977739 372.021927 l
601.454964 414.457376 l
601.454964 414.457376 l
stroke
grestore
2 setlinecap
[] 0 setdash
0.839 0.153 0.157 setrgbcolor
gsave
567.1 197.9 42.24 320.9 clipbox
48.17464 440.884798 m
50.651864 418.544475 l
53.129088 418.745004 l
55.606313 416.354152 l
59.314408 385.945049 l
61.791632 355.807807 l
64.268857 361.949731 l
66.746081 394.300964 l
70.454176 353.130618 l
72.931401 367.612507 l
75.408625 353.854601 l
77.88585 359.552755 l
81.593945 361.453947 l
84.071169 357.74803 l
86.548394 368.004504 l
89.025618 352.77634 l
92.733713 365.191987 l
95.210938 350.83085 l
97.688162 359.300856 l
100.165386 358.501867 l
103.873482 366.439155 l
106.350706 366.845331 l
108.82793 336.289747 l
111.305155 351.677102 l
115.01325 363.215094 l
117.490474 348.941802 l
119.967699 355.324285 l
122.444923 343.088481 l
126.153018 334.750457 l
128.630243 360.309889 l
131.107467 358.238884 l
133.584691 352.463886 l
137.292787 356.653872 l
139.770011 361.578637 l
142.247235 334.577016 l
144.72446 361.240086 l
148.432555 337.621331 l
150.909779 357.255081 l
153.387004 358.008279 l
155.864228 356.868099 l
159.572324 354.200039 l
162.049548 336.192381 l
164.526772 358.349713 l
167.003997 352.227201 l
170.712092 359.838881 l
173.189316 356.574008 l
175.666541 339.035237 l
178.143765 346.160379 l
181.85186 339.145577 l
184.329085 352.039636 l
186.806309 344.80139 l
189.283533 356.378438 l
192.991629 339.161668 l
195.468853 347.641704 l
197.946077 364.262081 l
200.423302 357.37405 l
204.131397 355.910408 l
206.608621 343.066328 l
209.085846 349.374527 l
211.56307 342.378658 l
215.271165 354.955281 l
217.74839 343.274899 l
220.225614 353.330116 l
222.702839 345.00917 l
226.410934 359.256633 l
228.888158 339.869665 l
231.365383 338.808016 l
233.842607 339.789933 l
237.550702 353.835936 l
240.027927 346.404403 l
242.505151 346.062321 l
244.982375 324.725712 l
248.690471 347.186172 l
251.167695 351.250855 l
253.644919 344.203081 l
256.122144 346.727797 l
259.830239 333.290248 l
262.307463 356.781611 l
264.784688 328.081648 l
267.261912 359.646497 l
270.970007 331.435522 l
273.447232 373.21858 l
275.924456 333.165119 l
278.401681 343.896298 l
282.109776 353.826778 l
284.587 334.845021 l
287.064225 341.032494 l
289.541449 349.03042 l
293.249544 342.134434 l
295.726769 351.832925 l
298.203993 343.617916 l
300.681217 344.6585 l
304.389313 341.552306 l
306.866537 345.099354 l
309.343761 335.348872 l
311.820986 352.135473 l
315.529081 328.046778 l
318.006305 352.154632 l
320.48353 351.197105 l
322.960754 331.726436 l
329.146074 349.058711 l
331.623298 342.548161 l
334.100522 346.993687 l
337.808618 334.577773 l
340.285842 349.169326 l
342.763066 337.541152 l
345.240291 359.265233 l
348.948386 343.888391 l
351.42561 355.859405 l
353.902835 324.959915 l
356.380059 355.176933 l
360.088155 354.302367 l
362.565379 341.079326 l
365.042603 335.853401 l
371.227923 335.361382 l
373.705147 349.310771 l
376.182372 357.522331 l
378.659596 328.55576 l
382.367691 347.952835 l
384.844916 367.855557 l
387.32214 331.518702 l
389.799364 337.092053 l
393.50746 341.84506 l
395.984684 332.254351 l
398.461908 349.58047 l
400.939133 340.511595 l
404.647228 341.451473 l
407.124452 341.873372 l
409.601677 341.191908 l
412.078901 333.445644 l
415.786996 342.491624 l
418.264221 338.375769 l
420.741445 338.216288 l
423.21867 342.176975 l
426.926765 331.871013 l
429.403989 351.566288 l
431.881214 345.144706 l
434.358438 336.647462 l
438.066533 337.114498 l
440.543758 351.481922 l
443.020982 344.311682 l
445.498206 328.99138 l
449.206302 356.647716 l
451.683526 329.265104 l
454.16075 335.054686 l
456.637975 345.371042 l
460.34607 342.23871 l
462.823294 342.939442 l
465.300519 343.964395 l
467.777743 332.743465 l
471.485838 352.903572 l
473.963063 350.4077 l
476.440287 332.128887 l
478.917512 332.762578 l
482.625607 340.449788 l
485.102831 344.141046 l
487.580056 346.8968 l
490.05728 331.176334 l
493.765375 353.059278 l
496.2426 335.595816 l
498.719824 334.141723 l
501.197048 338.604495 l
504.905144 338.856736 l
507.382368 330.691375 l
509.859592 348.780843 l
512.336817 332.343437 l
516.044912 318.196345 l
518.522136 349.947604 l
520.999361 361.293601 l
523.476585 329.303277 l
527.18468 344.660303 l
529.661905 334.334838 l
532.139129 334.556836 l
534.616353 340.277064 l
538.324449 332.632151 l
540.801673 356.994684 l
543.278897 333.030323 l
545.756122 331.989402 l
549.464217 340.468138 l
551.941441 337.336646 l
554.418666 331.992723 l
556.89589 331.362609 l
560.603986 333.541579 l
563.08121 336.958007 l
565.558434 343.569833 l
568.035659 342.888318 l
571.743754 341.632524 l
574.220978 344.743405 l
576.698203 337.7993 l
579.175427 325.888292 l
582.883522 339.21371 l
585.360747 344.300516 l
587.837971 326.233732 l
590.315195 339.314198 l
594.023291 330.305739 l
596.500515 337.085682 l
598.977739 330.588497 l
601.454964 342.935598 l
601.454964 342.935598 l
stroke
grestore
0 setlinecap
[9.6 2.4 1.5 2.4] 0 setdash
0.580 0.404 0.741 setrgbcolor
gsave
567.1 197.9 42.24 320.9 clipbox
48.17464 427.593633 m
50.651864 407.917467 l
53.129088 416.432601 l
55.606313 417.82318 l
59.314408 391.37082 l
61.791632 368.626672 l
64.268857 364.839809 l
66.746081 402.140935 l
70.454176 357.64743 l
72.931401 394.457914 l
75.408625 362.281639 l
77.88585 364.044178 l
81.593945 384.814736 l
84.071169 370.971384 l
86.548394 369.59638 l
89.025618 364.361941 l
92.733713 379.82765 l
95.210938 364.152304 l
97.688162 366.717734 l
100.165386 371.565692 l
103.873482 369.999442 l
106.350706 373.858779 l
108.82793 347.534292 l
111.305155 359.810209 l
115.01325 379.405957 l
117.490474 358.352112 l
119.967699 364.121795 l
122.444923 353.490909 l
126.153018 346.778419 l
128.630243 365.198289 l
131.107467 365.937103 l
133.584691 370.812176 l
137.292787 362.469524 l
139.770011 370.282042 l
142.247235 346.799197 l
144.72446 368.560793 l
148.432555 341.664905 l
150.909779 364.222284 l
153.387004 361.37009 l
155.864228 366.723478 l
159.572324 360.108877 l
162.049548 345.195619 l
164.526772 364.910476 l
167.003997 363.77675 l
173.189316 369.082499 l
175.666541 345.010837 l
178.143765 357.02926 l
181.85186 344.698592 l
184.329085 359.207479 l
186.806309 354.518895 l
189.283533 359.989184 l
192.991629 345.416039 l
195.468853 361.222101 l
197.946077 367.774304 l
200.423302 365.272482 l
204.131397 364.478377 l
206.608621 355.926839 l
209.085846 353.228732 l
211.56307 349.866268 l
215.271165 360.033684 l
217.74839 356.177267 l
220.225614 360.735573 l
222.702839 354.559154 l
226.410934 372.350635 l
228.888158 351.568618 l
231.365383 342.679057 l
233.842607 343.834233 l
237.550702 364.413362 l
240.027927 360.661951 l
242.505151 355.186438 l
244.982375 329.478873 l
248.690471 359.733462 l
251.167695 362.962915 l
253.644919 358.278602 l
256.122144 357.646088 l
259.830239 344.289002 l
262.307463 370.515893 l
264.784688 337.295518 l
267.261912 367.185666 l
270.970007 339.611796 l
273.447232 380.604385 l
275.924456 340.524063 l
278.401681 352.853205 l
282.109776 363.553622 l
284.587 346.291286 l
287.064225 347.075972 l
289.541449 348.977129 l
293.249544 352.163141 l
295.726769 358.393697 l
298.203993 350.940633 l
300.681217 349.498572 l
304.389313 358.525936 l
306.866537 356.655645 l
309.343761 348.386988 l
311.820986 355.172114 l
315.529081 340.802695 l
318.006305 365.240615 l
320.48353 361.73332 l
322.960754 344.280756 l
326.668849 356.773595 l
329.146074 359.437541 l
331.623298 352.78388 l
334.100522 350.541932 l
337.808618 348.049768 l
340.285842 359.195364 l
342.763066 346.79087 l
345.240291 377.222897 l
348.948386 348.813008 l
351.42561 365.925538 l
353.902835 333.194206 l
356.380059 367.47842 l
360.088155 366.811846 l
362.565379 348.775405 l
365.042603 346.223656 l
367.519828 344.915828 l
371.227923 345.927903 l
373.705147 365.812785 l
376.182372 372.870424 l
378.659596 338.465029 l
382.367691 353.812311 l
384.844916 376.856969 l
387.32214 340.913506 l
389.799364 351.24121 l
393.50746 355.708718 l
395.984684 342.209826 l
398.461908 365.057395 l
400.939133 356.76199 l
404.647228 350.76558 l
407.124452 359.140073 l
409.601677 343.882301 l
412.078901 353.825119 l
415.786996 354.150387 l
418.264221 353.467307 l
420.741445 355.793602 l
423.21867 352.868342 l
426.926765 343.183064 l
429.403989 364.465864 l
431.881214 359.901172 l
434.358438 348.190667 l
438.066533 346.694538 l
440.543758 356.383732 l
443.020982 358.219517 l
445.498206 352.998152 l
449.206302 369.980341 l
451.683526 341.584275 l
454.16075 346.894058 l
456.637975 355.862616 l
460.34607 352.609888 l
462.823294 352.308805 l
465.300519 355.434381 l
467.777743 340.616189 l
471.485838 363.118643 l
473.963063 365.788559 l
476.440287 342.701525 l
478.917512 342.424527 l
482.625607 344.279285 l
485.102831 361.328497 l
487.580056 364.631924 l
490.05728 337.141057 l
493.765375 364.188205 l
496.2426 350.975941 l
498.719824 346.595924 l
501.197048 349.890141 l
504.905144 356.65889 l
507.382368 338.789519 l
509.859592 360.931394 l
512.336817 341.344343 l
516.044912 328.647383 l
518.522136 367.681019 l
520.999361 380.926195 l
523.476585 339.433349 l
527.18468 358.874737 l
529.661905 338.287378 l
532.139129 355.703719 l
534.616353 358.540572 l
538.324449 346.950146 l
540.801673 368.292099 l
543.278897 350.526153 l
545.756122 348.909444 l
549.464217 355.220859 l
551.941441 358.780946 l
554.418666 348.616937 l
556.89589 339.454656 l
560.603986 350.379861 l
563.08121 346.082537 l
565.558434 351.930286 l
568.035659 361.10076 l
571.743754 352.31858 l
574.220978 365.460921 l
576.698203 353.829014 l
579.175427 343.862608 l
582.883522 358.10449 l
585.360747 357.66173 l
587.837971 345.972571 l
590.315195 357.627195 l
594.023291 345.17067 l
596.500515 359.511285 l
598.977739 345.245951 l
601.454964 354.729472 l
601.454964 354.729472 l
stroke
grestore
0.800 setlinewidth
0 setlinejoin
2 setlinecap
[] 0 setdash
0.000 setgray
gsave
42.242229 320.879467 m
42.242229 518.7684 l
stroke
grestore
gsave
609.373029 320.879467 m
609.373029 518.7684 l
stroke
grestore
gsave
42.242229 320.879467 m
609.373029 320.879467 l
stroke
grestore
gsave
42.242229 518.7684 m
609.373029 518.7684 l
stroke
grestore
gsave
149.635754 524.768400 translate
0.000000 rotate
0.000000 0.000000 m /M glyphshow
12.079102 0.000000 m /e glyphshow
20.692383 0.000000 m /a glyphshow
29.271484 0.000000 m /n glyphshow
38.144531 0.000000 m /space glyphshow
42.594727 0.000000 m /S glyphshow
51.481445 0.000000 m /q glyphshow
60.368164 0.000000 m /u glyphshow
69.241211 0.000000 m /a glyphshow
77.820312 0.000000 m /r glyphshow
83.576172 0.000000 m /e glyphshow
92.189453 0.000000 m /d glyphshow
101.076172 0.000000 m /space glyphshow
105.526367 0.000000 m /E glyphshow
114.372070 0.000000 m /r glyphshow
120.127930 0.000000 m /r glyphshow
125.883789 0.000000 m /o glyphshow
134.449219 0.000000 m /r glyphshow
140.205078 0.000000 m /space glyphshow
144.655273 0.000000 m /T glyphshow
153.175781 0.000000 m /r glyphshow
158.931641 0.000000 m /a glyphshow
167.510742 0.000000 m /i glyphshow
171.400391 0.000000 m /n glyphshow
180.273438 0.000000 m /i glyphshow
184.163086 0.000000 m /n glyphshow
193.036133 0.000000 m /g glyphshow
201.922852 0.000000 m /space glyphshow
206.373047 0.000000 m /l glyphshow
210.262695 0.000000 m /o glyphshow
218.828125 0.000000 m /s glyphshow
226.122070 0.000000 m /s glyphshow
233.416016 0.000000 m /space glyphshow
237.866211 0.000000 m /o glyphshow
246.431641 0.000000 m /n glyphshow
255.304688 0.000000 m /space glyphshow
259.754883 0.000000 m /W glyphshow
273.597656 0.000000 m /i glyphshow
277.487305 0.000000 m /n glyphshow
286.360352 0.000000 m /e glyphshow
294.973633 0.000000 m /space glyphshow
299.423828 0.000000 m /d glyphshow
308.310547 0.000000 m /a glyphshow
316.889648 0.000000 m /t glyphshow
322.378906 0.000000 m /a glyphshow
330.958008 0.000000 m /s glyphshow
338.251953 0.000000 m /e glyphshow
346.865234 0.000000 m /t glyphshow
grestore
1.000 setlinewidth
0 setlinecap
0.800 setgray
gsave
510.591779 437.409025 m
602.373029 437.409025 l
603.706362 437.409025 604.373029 438.075692 604.373029 439.409025 c
604.373029 511.7684 l
604.373029 513.101733 603.706362 513.7684 602.373029 513.7684 c
510.591779 513.7684 l
509.258445 513.7684 508.591779 513.101733 508.591779 511.7684 c
508.591779 439.409025 l
508.591779 438.075692 509.258445 437.409025 510.591779 437.409025 c
cl
gsave
1.000 setgray
fill
grestore
stroke
grestore
1.500 setlinewidth
1 setlinejoin
[9.6 2.4 1.5 2.4] 0 setdash
0.122 0.467 0.706 setrgbcolor
gsave
512.591779 505.67465 m
532.591779 505.67465 l
stroke
grestore
0.000 setgray
/DejaVuSans findfont
10.000 scalefont
setfont
gsave
540.591779 502.174650 translate
0.000000 rotate
0.000000 0.000000 m /N glyphshow
7.480469 0.000000 m /o glyphshow
13.598633 0.000000 m /i glyphshow
16.376953 0.000000 m /s glyphshow
21.586914 0.000000 m /y glyphshow
27.504883 0.000000 m /space glyphshow
30.683594 0.000000 m /K glyphshow
37.241211 0.000000 m /F glyphshow
42.993164 0.000000 m /A glyphshow
49.833984 0.000000 m /C glyphshow
grestore
[5.55 2.4] 0 setdash
1.000 0.498 0.055 setrgbcolor
gsave
512.591779 491.002775 m
532.591779 491.002775 l
stroke
grestore
0.000 setgray
gsave
540.591779 487.502775 translate
0.000000 rotate
0.000000 0.000000 m /N glyphshow
7.480469 0.000000 m /o glyphshow
13.598633 0.000000 m /i glyphshow
16.376953 0.000000 m /s glyphshow
21.586914 0.000000 m /y glyphshow
27.504883 0.000000 m /space glyphshow
30.683594 0.000000 m /A glyphshow
37.524414 0.000000 m /d glyphshow
43.872070 0.000000 m /a glyphshow
50.000000 0.000000 m /m glyphshow
grestore
[1.5 2.475] 0 setdash
0.173 0.627 0.173 setrgbcolor
gsave
512.591779 476.3309 m
532.591779 476.3309 l
stroke
grestore
0.000 setgray
gsave
540.591779 472.830900 translate
0.000000 rotate
0.000000 0.000000 m /V glyphshow
6.840820 0.000000 m /p glyphshow
13.188477 0.000000 m /r glyphshow
17.299805 0.000000 m /o glyphshow
23.417969 0.000000 m /p glyphshow
grestore
2 setlinecap
[] 0 setdash
0.839 0.153 0.157 setrgbcolor
gsave
512.591779 461.659025 m
532.591779 461.659025 l
stroke
grestore
0.000 setgray
gsave
540.591779 458.159025 translate
0.000000 rotate
0.000000 0.000000 m /A glyphshow
6.840820 0.000000 m /d glyphshow
13.188477 0.000000 m /a glyphshow
19.316406 0.000000 m /m glyphshow
grestore
0 setlinecap
[9.6 2.4 1.5 2.4] 0 setdash
0.580 0.404 0.741 setrgbcolor
gsave
512.591779 446.98715 m
532.591779 446.98715 l
stroke
grestore
0.000 setgray
gsave
540.591779 443.487150 translate
0.000000 rotate
0.000000 0.000000 m /B glyphshow
6.860352 0.000000 m /B glyphshow
13.720703 0.000000 m /B glyphshow
grestore
gsave
42.242229 34.664133 m
609.373029 34.664133 l
609.373029 232.553067 l
42.242229 232.553067 l
cl
1.000 setgray
fill
grestore
0.800 setlinewidth
[] 0 setdash
gsave
/o {
gsave
newpath
translate
0.8 setlinewidth
1 setlinejoin
0 setlinecap
0 0 m
0 -3.5 l

gsave
0.000 setgray
fill
grestore
stroke
grestore
} bind def
46.5716 34.6641 o
grestore
gsave
43.391931 20.070383 translate
0.000000 rotate
0.000000 0.000000 m /zero glyphshow
grestore
gsave
/o {
gsave
newpath
translate
0.8 setlinewidth
1 setlinejoin
0 setlinecap
0 0 m
0 -3.5 l

gsave
0.000 setgray
fill
grestore
stroke
grestore
} bind def
158.274 34.6641 o
grestore
gsave
151.914293 20.070383 translate
0.000000 rotate
0.000000 0.000000 m /one glyphshow
6.362305 0.000000 m /zero glyphshow
grestore
gsave
/o {
gsave
newpath
translate
0.8 setlinewidth
1 setlinejoin
0 setlinecap
0 0 m
0 -3.5 l

gsave
0.000 setgray
fill
grestore
stroke
grestore
} bind def
269.976 34.6641 o
grestore
gsave
263.616342 20.070383 translate
0.000000 rotate
0.000000 0.000000 m /two glyphshow
6.362305 0.000000 m /zero glyphshow
grestore
gsave
/o {
gsave
newpath
translate
0.8 setlinewidth
1 setlinejoin
0 setlinecap
0 0 m
0 -3.5 l

gsave
0.000 setgray
fill
grestore
stroke
grestore
} bind def
381.678 34.6641 o
grestore
gsave
375.318391 20.070383 translate
0.000000 rotate
0.000000 0.000000 m /three glyphshow
6.362305 0.000000 m /zero glyphshow
grestore
gsave
/o {
gsave
newpath
translate
0.8 setlinewidth
1 setlinejoin
0 setlinecap
0 0 m
0 -3.5 l

gsave
0.000 setgray
fill
grestore
stroke
grestore
} bind def
493.38 34.6641 o
grestore
gsave
487.020440 20.070383 translate
0.000000 rotate
0.000000 0.000000 m /four glyphshow
6.362305 0.000000 m /zero glyphshow
grestore
gsave
/o {
gsave
newpath
translate
0.8 setlinewidth
1 setlinejoin
0 setlinecap
0 0 m
0 -3.5 l

gsave
0.000 setgray
fill
grestore
stroke
grestore
} bind def
605.082 34.6641 o
grestore
gsave
598.722490 20.070383 translate
0.000000 rotate
0.000000 0.000000 m /five glyphshow
6.362305 0.000000 m /zero glyphshow
grestore
/DejaVuSans findfont
14.000 scalefont
setfont
gsave
300.721691 3.351633 translate
0.000000 rotate
0.000000 0.000000 m /E glyphshow
8.845703 0.000000 m /p glyphshow
17.732422 0.000000 m /o glyphshow
26.297852 0.000000 m /c glyphshow
33.995117 0.000000 m /h glyphshow
42.868164 0.000000 m /s glyphshow
grestore
gsave
/o {
gsave
newpath
translate
0.8 setlinewidth
1 setlinejoin
0 setlinecap
0 0 m
-3.5 0 l

gsave
0.000 setgray
fill
grestore
stroke
grestore
} bind def
42.2422 62.2545 o
grestore
/DejaVuSans findfont
10.000 scalefont
setfont
gsave
19.335979 58.457617 translate
0.000000 rotate
0.000000 0.000000 m /zero glyphshow
6.362305 0.000000 m /period glyphshow
9.541016 0.000000 m /six glyphshow
grestore
gsave
/o {
gsave
newpath
translate
0.8 setlinewidth
1 setlinejoin
0 setlinecap
0 0 m
-3.5 0 l

gsave
0.000 setgray
fill
grestore
stroke
grestore
} bind def
42.2422 106.141 o
grestore
gsave
19.335979 102.343626 translate
0.000000 rotate
0.000000 0.000000 m /zero glyphshow
6.362305 0.000000 m /period glyphshow
9.541016 0.000000 m /seven glyphshow
grestore
gsave
/o {
gsave
newpath
translate
0.8 setlinewidth
1 setlinejoin
0 setlinecap
0 0 m
-3.5 0 l

gsave
0.000 setgray
fill
grestore
stroke
grestore
} bind def
42.2422 150.027 o
grestore
gsave
19.335979 146.229635 translate
0.000000 rotate
0.000000 0.000000 m /zero glyphshow
6.362305 0.000000 m /period glyphshow
9.541016 0.000000 m /eight glyphshow
grestore
gsave
/o {
gsave
newpath
translate
0.8 setlinewidth
1 setlinejoin
0 setlinecap
0 0 m
-3.5 0 l

gsave
0.000 setgray
fill
grestore
stroke
grestore
} bind def
42.2422 193.913 o
grestore
gsave
19.335979 190.115644 translate
0.000000 rotate
0.000000 0.000000 m /zero glyphshow
6.362305 0.000000 m /period glyphshow
9.541016 0.000000 m /nine glyphshow
grestore
/DejaVuSans findfont
14.000 scalefont
setfont
gsave
12.429729 87.288287 translate
90.000000 rotate
0.000000 0.000000 m /M glyphshow
12.079102 0.000000 m /S glyphshow
20.965820 0.000000 m /E glyphshow
29.811523 0.000000 m /space glyphshow
34.261719 0.000000 m /t glyphshow
39.750977 0.000000 m /e glyphshow
48.364258 0.000000 m /s glyphshow
55.658203 0.000000 m /t glyphshow
61.147461 0.000000 m /space glyphshow
65.597656 0.000000 m /l glyphshow
69.487305 0.000000 m /o glyphshow
78.052734 0.000000 m /s glyphshow
85.346680 0.000000 m /s glyphshow
grestore
1.500 setlinewidth
[9.6 2.4 1.5 2.4] 0 setdash
0.122 0.467 0.706 setrgbcolor
gsave
567.1 197.9 42.24 34.66 clipbox
48.807212 227.281297 m
53.775198 227.191732 l
56.259191 227.089768 l
59.977417 239.660514 l
62.46141 233.378358 l
64.945403 223.279736 l
67.429395 219.392355 l
71.147622 221.248193 l
73.631615 136.947779 l
76.115608 99.815153 l
78.5996 70.838623 l
82.317827 60.637252 l
84.80182 58.492889 l
87.285813 58.36134 l
89.769805 53.339586 l
93.488032 58.773905 l
95.972025 60.453412 l
98.456017 57.174861 l
100.94001 54.92053 l
104.658237 60.500628 l
107.14223 61.821533 l
109.626222 60.053246 l
112.110215 56.981239 l
115.828442 56.656773 l
120.796427 54.662009 l
123.28042 57.022385 l
126.998647 56.157232 l
129.482639 55.766692 l
131.966632 56.575762 l
134.450625 56.95474 l
138.168852 55.768444 l
140.652844 56.374371 l
143.136837 57.404947 l
145.62083 57.981132 l
149.339057 57.74066 l
151.823049 57.136408 l
154.307042 58.73323 l
156.791035 56.413006 l
160.509261 57.100519 l
162.993254 57.042658 l
165.477247 54.896961 l
167.96124 53.467421 l
171.679466 52.537108 l
174.163459 53.867901 l
176.647452 53.812603 l
179.131445 51.897255 l
182.849671 51.802196 l
185.333664 53.068929 l
187.817657 53.712156 l
190.30165 53.701301 l
194.019876 52.05436 l
196.503869 53.98182 l
198.987862 54.894947 l
201.471854 55.12948 l
205.190081 54.647125 l
207.674074 55.627818 l
210.158067 55.806321 l
212.642059 54.829996 l
216.360286 55.689787 l
218.844279 55.391271 l
221.328272 55.937347 l
223.812264 55.160138 l
227.530491 54.542885 l
230.014484 54.308299 l
232.498476 55.58178 l
234.982469 55.224774 l
238.700696 55.537233 l
243.668681 54.810718 l
246.152674 54.785345 l
249.870901 54.549215 l
252.354894 53.969866 l
254.838886 53.190747 l
257.322879 52.920821 l
261.041106 55.508485 l
263.525098 55.148 l
266.009091 54.218603 l
268.493084 54.36433 l
274.695303 55.988931 l
277.179296 56.190976 l
279.663289 56.151399 l
285.865508 54.881737 l
288.349501 53.779984 l
290.833494 55.168273 l
294.55172 56.469926 l
297.035713 55.326373 l
299.519706 56.665249 l
302.003699 56.80012 l
305.721925 57.207349 l
308.205918 56.720599 l
310.689911 57.274811 l
313.173904 57.432623 l
319.376123 55.232491 l
321.860116 55.265607 l
324.344109 55.167802 l
328.062335 53.583092 l
330.546328 54.698369 l
333.030321 54.54503 l
335.514313 54.751208 l
339.23254 55.230032 l
341.716533 55.128539 l
344.200526 54.214863 l
346.684518 54.41233 l
350.402745 54.986971 l
352.886738 53.96024 l
355.370731 52.708234 l
357.854723 53.230298 l
361.57295 51.305454 l
364.056943 51.153868 l
366.540935 51.846011 l
369.024928 51.888152 l
372.743155 52.633422 l
375.227148 51.730811 l
377.71114 52.343381 l
380.195133 51.171551 l
383.91336 51.022763 l
386.397353 51.61922 l
391.365338 52.205397 l
395.083565 51.540825 l
397.567557 51.251673 l
400.05155 51.67478 l
402.535543 52.255725 l
406.25377 51.462429 l
408.737762 52.090825 l
411.221755 51.78726 l
417.423975 54.434748 l
419.907967 55.119017 l
422.39196 52.362869 l
424.875953 52.971333 l
428.594179 52.481784 l
431.078172 52.849645 l
433.562165 52.171261 l
436.046158 51.178535 l
439.764384 53.645087 l
442.248377 52.688642 l
444.73237 51.293212 l
447.216363 50.874395 l
450.934589 50.074088 l
455.902575 49.659717 l
458.386568 48.691841 l
462.104794 49.867256 l
464.588787 51.722963 l
467.07278 50.62503 l
469.556772 50.948605 l
473.274999 51.286829 l
475.758992 51.115128 l
478.242985 52.044708 l
480.726977 52.298311 l
484.445204 51.693902 l
486.929197 52.238984 l
489.413189 52.181044 l
491.897182 52.792908 l
495.615409 52.317249 l
498.099402 51.344927 l
500.583394 51.212619 l
503.067387 52.787807 l
506.785614 52.906565 l
509.269607 52.177696 l
511.753599 50.868195 l
514.237592 51.31079 l
517.955819 50.801571 l
520.439811 52.421097 l
522.923804 52.858774 l
525.407797 52.262213 l
529.126024 51.526542 l
531.610016 51.531905 l
534.094009 53.70478 l
536.578002 55.068663 l
540.296229 55.490436 l
542.780221 55.353786 l
545.264214 56.829495 l
547.748207 55.121633 l
551.466433 53.595151 l
553.950426 53.315756 l
556.434419 54.367992 l
558.918412 53.669309 l
562.636638 53.467473 l
565.120631 52.816372 l
567.604624 51.665756 l
570.088617 52.711295 l
576.290836 52.644226 l
578.774829 52.09365 l
581.258822 52.287534 l
584.977048 53.501139 l
587.461041 51.384295 l
589.945034 51.074687 l
592.429026 50.290415 l
596.147253 49.994986 l
598.631246 49.264573 l
601.115239 47.559326 l
603.599231 49.85007 l
603.599231 49.85007 l
stroke
grestore
[5.55 2.4] 0 setdash
1.000 0.498 0.055 setrgbcolor
gsave
567.1 197.9 42.24 34.66 clipbox
48.807212 227.399611 m
51.291205 226.805142 l
53.775198 225.95176 l
59.977417 223.180701 l
67.429395 219.103648 l
76.115608 213.827454 l
78.5996 212.289096 l
87.285813 205.274305 l
89.769805 203.522916 l
93.488032 201.140096 l
98.456017 197.153575 l
104.658237 193.134148 l
107.14223 191.494663 l
109.626222 189.704402 l
112.110215 187.653869 l
118.312435 182.912766 l
138.168852 168.371949 l
140.652844 166.865033 l
143.136837 165.206322 l
145.62083 163.297591 l
151.823049 158.844541 l
162.993254 151.382969 l
167.96124 148.392863 l
174.163459 144.876221 l
176.647452 143.226874 l
179.131445 141.382859 l
185.333664 138.237923 l
187.817657 136.762109 l
196.503869 132.001832 l
201.471854 129.209454 l
205.190081 127.433058 l
207.674074 126.068835 l
210.158067 124.89206 l
212.642059 124.009303 l
221.328272 120.469039 l
227.530491 117.564758 l
230.014484 116.418719 l
234.982469 114.412707 l
238.700696 112.837126 l
243.668681 111.130964 l
246.152674 109.875794 l
252.354894 107.396163 l
254.838886 106.47974 l
257.322879 105.844883 l
263.525098 103.519637 l
266.009091 102.712607 l
268.493084 102.312781 l
279.663289 98.982148 l
285.865508 97.627917 l
290.833494 96.167092 l
294.55172 95.627974 l
297.035713 95.073422 l
299.519706 94.281407 l
302.003699 93.802688 l
305.721925 93.378246 l
310.689911 92.264931 l
313.173904 91.843708 l
316.89213 90.826314 l
319.376123 89.93707 l
324.344109 88.991324 l
330.546328 87.713893 l
333.030321 87.392122 l
335.514313 86.783109 l
339.23254 86.576513 l
341.716533 86.220449 l
344.200526 85.471464 l
346.684518 84.539738 l
350.402745 83.590016 l
355.370731 83.229715 l
357.854723 82.64359 l
361.57295 82.123462 l
366.540935 81.82594 l
369.024928 82.001566 l
372.743155 81.136203 l
375.227148 80.773234 l
377.71114 80.117031 l
383.91336 79.012636 l
391.365338 78.696751 l
395.083565 78.104637 l
397.567557 77.998252 l
402.535543 78.068643 l
408.737762 75.917898 l
419.907967 76.100403 l
422.39196 75.819073 l
424.875953 75.321101 l
428.594179 74.810966 l
436.046158 75.20938 l
444.73237 76.04997 l
447.216363 75.048481 l
450.934589 73.697389 l
453.418582 73.299446 l
455.902575 73.462594 l
458.386568 73.159735 l
462.104794 72.285479 l
467.07278 72.204206 l
473.274999 71.149302 l
475.758992 71.355664 l
478.242985 71.138394 l
484.445204 69.190061 l
486.929197 68.847782 l
491.897182 68.728684 l
495.615409 68.969313 l
498.099402 69.398593 l
500.583394 69.381669 l
503.067387 69.064345 l
506.785614 69.145514 l
509.269607 68.875326 l
511.753599 68.822069 l
517.955819 68.329093 l
520.439811 69.007033 l
522.923804 69.007085 l
525.407797 68.247218 l
529.126024 66.640378 l
531.610016 66.042274 l
534.094009 66.11277 l
536.578002 66.314684 l
540.296229 67.610347 l
545.264214 68.288679 l
547.748207 68.485414 l
551.466433 66.671794 l
553.950426 65.91096 l
558.918412 66.022393 l
562.636638 65.681187 l
565.120631 65.845408 l
567.604624 65.845722 l
570.088617 65.656677 l
573.806843 66.461352 l
576.290836 66.686521 l
578.774829 66.480291 l
581.258822 66.546576 l
584.977048 66.39771 l
587.461041 66.53933 l
589.945034 66.293731 l
598.631246 65.012168 l
601.115239 63.921166 l
603.599231 62.668663 l
603.599231 62.668663 l
stroke
grestore
[1.5 2.475] 0 setdash
0.173 0.627 0.173 setrgbcolor
gsave
567.1 197.9 42.24 34.66 clipbox
48.807212 264.652747 m
51.291205 257.026667 l
53.775198 247.770728 l
56.259191 239.602181 l
62.46141 220.532717 l
64.945403 213.268587 l
67.429395 205.167868 l
73.631615 188.39961 l
76.115608 182.628113 l
78.5996 175.793708 l
82.317827 164.508973 l
84.80182 159.097255 l
87.285813 153.188794 l
93.488032 141.401483 l
95.972025 135.264374 l
98.456017 130.956319 l
100.94001 127.876124 l
104.658237 123.000463 l
107.14223 119.429752 l
109.626222 114.170849 l
112.110215 110.437905 l
115.828442 103.441006 l
118.312435 101.884677 l
120.796427 97.478528 l
123.28042 94.161943 l
126.998647 91.944181 l
129.482639 91.761153 l
131.966632 87.2911 l
134.450625 87.735787 l
138.168852 86.909087 l
140.652844 87.284717 l
143.136837 83.895961 l
145.62083 80.080619 l
149.339057 79.927725 l
151.823049 81.23597 l
154.307042 81.143711 l
156.791035 76.441923 l
160.509261 74.913505 l
162.993254 72.754782 l
165.477247 73.513027 l
167.96124 75.395808 l
171.679466 80.060635 l
174.163459 79.118498 l
176.647452 80.929607 l
179.131445 78.201055 l
182.849671 81.83261 l
185.333664 80.555834 l
187.817657 75.975472 l
190.30165 79.015723 l
194.019876 79.160377 l
196.503869 76.172913 l
198.987862 77.681372 l
201.471854 81.671581 l
205.190081 75.730423 l
207.674074 73.847877 l
210.158067 77.109661 l
212.642059 78.014967 l
216.360286 80.428313 l
218.844279 79.235059 l
221.328272 78.392768 l
227.530491 72.920938 l
230.014484 75.930088 l
232.498476 76.188163 l
234.982469 76.569078 l
238.700696 76.431146 l
241.184689 77.149578 l
243.668681 74.910628 l
246.152674 74.596809 l
249.870901 75.216992 l
252.354894 72.598513 l
254.838886 76.372866 l
257.322879 74.596574 l
261.041106 75.50732 l
263.525098 76.286962 l
266.009091 70.575001 l
268.493084 73.220527 l
272.211311 71.049169 l
274.695303 75.758098 l
277.179296 79.130348 l
279.663289 78.930448 l
283.381516 75.012278 l
285.865508 75.505934 l
288.349501 75.076706 l
290.833494 75.484537 l
294.55172 73.621609 l
297.035713 72.660979 l
299.519706 74.124891 l
302.003699 73.264002 l
305.721925 76.338782 l
308.205918 79.947004 l
310.689911 81.53017 l
313.173904 73.961926 l
316.89213 74.969745 l
319.376123 77.258579 l
321.860116 73.753551 l
324.344109 73.597387 l
328.062335 75.74889 l
330.546328 75.634606 l
333.030321 75.035062 l
335.514313 73.293037 l
339.23254 74.267243 l
341.716533 77.988233 l
344.200526 73.876284 l
346.684518 74.990959 l
350.402745 77.117351 l
352.886738 75.87921 l
355.370731 75.201689 l
357.854723 76.822523 l
361.57295 76.856503 l
364.056943 76.462745 l
366.540935 78.270322 l
369.024928 75.395285 l
372.743155 73.616691 l
375.227148 73.266931 l
377.71114 78.23064 l
380.195133 79.402 l
383.91336 77.365932 l
386.397353 76.353613 l
395.083565 74.280244 l
397.567557 73.550354 l
400.05155 73.605339 l
402.535543 75.340955 l
406.25377 70.69593 l
408.737762 69.829836 l
411.221755 72.161229 l
413.705748 72.049952 l
417.423975 72.468691 l
419.907967 73.610727 l
422.39196 72.876103 l
424.875953 73.708794 l
428.594179 73.053167 l
431.078172 73.10415 l
433.562165 74.882377 l
436.046158 73.617319 l
439.764384 82.629831 l
442.248377 76.884989 l
444.73237 75.370278 l
447.216363 76.050493 l
450.934589 73.339782 l
453.418582 75.726054 l
455.902575 76.33559 l
458.386568 80.076486 l
462.104794 77.197918 l
464.588787 76.558039 l
467.07278 76.603972 l
469.556772 78.207909 l
473.274999 78.863509 l
475.758992 76.832699 l
478.242985 75.857106 l
480.726977 72.552528 l
484.445204 70.768807 l
486.929197 75.649385 l
489.413189 77.066788 l
491.897182 74.3329 l
495.615409 71.835482 l
498.099402 72.540992 l
500.583394 72.925725 l
503.067387 75.120704 l
506.785614 75.771072 l
509.269607 73.629849 l
511.753599 71.06612 l
514.237592 68.760754 l
517.955819 69.306229 l
520.439811 74.279381 l
525.407797 73.060309 l
529.126024 72.612325 l
531.610016 77.949938 l
534.094009 78.076883 l
536.578002 77.088551 l
540.296229 80.159565 l
542.780221 80.000994 l
545.264214 79.635147 l
547.748207 78.299017 l
551.466433 77.296901 l
553.950426 76.471848 l
556.434419 78.415369 l
558.918412 77.098491 l
562.636638 76.213824 l
565.120631 74.189815 l
567.604624 73.611669 l
570.088617 73.44975 l
573.806843 75.136634 l
576.290836 72.874586 l
578.774829 71.341067 l
581.258822 72.53542 l
584.977048 75.477029 l
587.461041 73.751249 l
589.945034 76.22434 l
592.429026 73.668197 l
596.147253 78.943265 l
598.631246 77.236292 l
601.115239 75.345532 l
603.599231 79.596459 l
603.599231 79.596459 l
stroke
grestore
2 setlinecap
[] 0 setdash
0.839 0.153 0.157 setrgbcolor
gsave
567.1 197.9 42.24 34.66 clipbox
48.807212 224.354389 m
51.291205 191.567539 l
53.775198 164.769795 l
56.259191 143.595285 l
59.977417 119.196317 l
62.46141 108.252239 l
64.945403 98.437144 l
67.429395 90.351571 l
71.147622 83.439215 l
73.631615 79.549715 l
76.115608 76.953942 l
78.5996 75.983215 l
82.317827 71.488521 l
84.80182 70.421479 l
87.285813 69.050429 l
89.769805 67.313479 l
93.488032 67.306076 l
95.972025 66.033877 l
98.456017 65.180103 l
100.94001 63.824171 l
107.14223 64.739783 l
109.626222 62.875836 l
112.110215 60.653025 l
115.828442 60.418308 l
118.312435 60.915077 l
120.796427 59.495895 l
123.28042 58.691612 l
126.998647 60.038205 l
129.482639 59.984293 l
131.966632 58.825071 l
134.450625 57.155268 l
140.652844 57.67333 l
143.136837 56.723738 l
145.62083 55.36404 l
149.339057 56.04436 l
151.823049 55.257655 l
154.307042 56.054379 l
156.791035 56.172299 l
160.509261 56.011139 l
162.993254 55.149753 l
165.477247 54.003374 l
167.96124 53.708102 l
171.679466 54.422139 l
174.163459 55.103453 l
176.647452 55.646234 l
179.131445 52.694345 l
182.849671 52.709961 l
185.333664 53.741558 l
187.817657 53.98386 l
190.30165 52.627275 l
194.019876 51.541636 l
196.503869 52.57046 l
198.987862 52.627066 l
201.471854 51.021743 l
205.190081 50.78326 l
207.674074 51.098857 l
210.158067 51.963199 l
212.642059 53.40179 l
216.360286 54.877683 l
218.844279 53.705407 l
221.328272 53.30409 l
223.812264 53.219704 l
230.014484 51.865682 l
232.498476 51.429051 l
234.982469 51.171315 l
238.700696 50.364547 l
241.184689 51.787469 l
243.668681 52.829582 l
246.152674 50.437685 l
252.354894 48.977357 l
254.838886 49.266378 l
257.322879 49.793568 l
261.041106 51.05758 l
263.525098 51.169589 l
266.009091 51.427926 l
268.493084 54.588976 l
272.211311 53.220122 l
274.695303 54.010908 l
277.179296 50.914704 l
279.663289 49.25309 l
285.865508 52.622985 l
288.349501 50.576925 l
290.833494 49.497511 l
294.55172 50.684461 l
297.035713 51.146177 l
299.519706 50.209011 l
302.003699 50.223895 l
305.721925 52.020355 l
308.205918 52.411732 l
310.689911 50.93707 l
313.173904 50.585766 l
316.89213 48.139487 l
319.376123 47.823576 l
321.860116 50.379222 l
324.344109 51.343723 l
328.062335 49.581975 l
330.546328 48.852034 l
333.030321 48.535677 l
335.514313 47.607117 l
339.23254 52.144763 l
341.716533 50.676483 l
346.684518 47.239701 l
350.402745 48.176945 l
352.886738 49.313881 l
355.370731 50.760712 l
357.854723 49.328974 l
361.57295 49.860428 l
364.056943 49.173517 l
366.540935 50.285497 l
369.024928 52.049181 l
372.743155 48.303106 l
375.227148 49.39947 l
377.71114 48.68525 l
380.195133 48.751586 l
383.91336 48.979214 l
386.397353 49.374777 l
388.881345 51.432687 l
391.365338 51.937983 l
395.083565 49.675281 l
397.567557 49.560709 l
400.05155 48.73992 l
402.535543 49.429081 l
406.25377 47.383099 l
408.737762 47.278362 l
411.221755 48.782715 l
413.705748 51.140946 l
417.423975 53.551075 l
419.907967 53.995134 l
422.39196 50.662174 l
424.875953 47.847353 l
428.594179 46.909638 l
431.078172 48.697884 l
433.562165 51.049942 l
436.046158 51.375793 l
439.764384 52.784171 l
442.248377 54.503648 l
444.73237 51.928749 l
447.216363 48.187827 l
450.934589 46.963053 l
453.418582 48.553727 l
455.902575 51.157739 l
458.386568 51.263156 l
462.104794 48.22199 l
464.588787 49.39586 l
469.556772 48.539078 l
473.274999 49.262716 l
475.758992 51.907718 l
478.242985 50.477603 l
480.726977 47.467276 l
484.445204 46.907545 l
486.929197 50.653045 l
489.413189 52.183346 l
491.897182 49.319897 l
495.615409 51.364362 l
498.099402 51.209558 l
500.583394 49.830974 l
503.067387 49.458378 l
506.785614 49.593694 l
509.269607 48.51755 l
511.753599 48.095594 l
514.237592 47.986776 l
517.955819 49.160281 l
520.439811 52.598527 l
522.923804 53.175157 l
525.407797 50.10485 l
529.126024 47.293272 l
531.610016 47.144276 l
534.094009 48.704973 l
536.578002 49.499708 l
540.296229 51.764372 l
542.780221 50.993231 l
545.264214 50.536851 l
547.748207 49.658435 l
551.466433 45.906056 l
553.950426 46.643139 l
556.434419 50.39149 l
558.918412 51.8785 l
562.636638 49.817634 l
565.120631 49.698981 l
567.604624 47.838276 l
570.088617 47.545253 l
573.806843 52.93649 l
576.290836 53.327266 l
578.774829 50.126613 l
581.258822 47.84874 l
584.977048 48.774396 l
587.461041 50.506455 l
589.945034 50.058471 l
592.429026 48.556133 l
596.147253 48.667881 l
598.631246 51.062341 l
601.115239 46.308132 l
603.599231 44.899492 l
603.599231 44.899492 l
stroke
grestore
0 setlinecap
[9.6 2.4 1.5 2.4] 0 setdash
0.580 0.404 0.741 setrgbcolor
gsave
567.1 197.9 42.24 34.66 clipbox
48.807212 163.495504 m
51.291205 145.347197 l
53.775198 129.003276 l
56.259191 116.586968 l
59.977417 102.357773 l
62.46141 96.948042 l
64.945403 92.987967 l
67.429395 90.185389 l
71.147622 88.405121 l
73.631615 86.150293 l
76.115608 84.748585 l
78.5996 85.760066 l
82.317827 79.692747 l
84.80182 78.343512 l
87.285813 77.627644 l
89.769805 77.784331 l
93.488032 80.58602 l
95.972025 77.085543 l
98.456017 76.519874 l
100.94001 74.739083 l
104.658237 75.464683 l
107.14223 76.20786 l
109.626222 75.288586 l
112.110215 72.974327 l
115.828442 71.967423 l
118.312435 71.86266 l
120.796427 71.048908 l
123.28042 71.20345 l
126.998647 71.243315 l
131.966632 70.444969 l
134.450625 70.752746 l
138.168852 71.90828 l
140.652844 73.491708 l
143.136837 71.515908 l
145.62083 69.903209 l
149.339057 70.541702 l
151.823049 70.076428 l
154.307042 71.419489 l
156.791035 70.571078 l
160.509261 70.562445 l
162.993254 69.341176 l
165.477247 67.130424 l
167.96124 67.844593 l
171.679466 67.312328 l
176.647452 66.963274 l
179.131445 65.113242 l
182.849671 66.495698 l
185.333664 67.20848 l
187.817657 66.91292 l
190.30165 64.097942 l
194.019876 63.082668 l
196.503869 64.577917 l
198.987862 64.378958 l
201.471854 61.740443 l
205.190081 60.634766 l
207.674074 60.369053 l
210.158067 60.572589 l
212.642059 62.026116 l
216.360286 65.351517 l
218.844279 63.778787 l
221.328272 62.838665 l
223.812264 61.398661 l
227.530491 59.513578 l
230.014484 59.956487 l
232.498476 60.561524 l
234.982469 59.989106 l
238.700696 58.443581 l
241.184689 58.278131 l
243.668681 58.687008 l
246.152674 57.080849 l
249.870901 56.521667 l
252.354894 56.581177 l
254.838886 56.866038 l
257.322879 57.980164 l
261.041106 58.427598 l
263.525098 57.613951 l
266.009091 58.514417 l
268.493084 61.728881 l
272.211311 59.499505 l
274.695303 57.65583 l
277.179296 55.401315 l
279.663289 54.434538 l
283.381516 54.317115 l
285.865508 55.118154 l
288.349501 54.669281 l
294.55172 54.873523 l
297.035713 55.366499 l
299.519706 55.18368 l
302.003699 56.438615 l
305.721925 59.860461 l
308.205918 59.397541 l
310.689911 57.513111 l
313.173904 56.684736 l
316.89213 56.001095 l
319.376123 55.238848 l
321.860116 56.676523 l
324.344109 57.06947 l
328.062335 57.184513 l
330.546328 56.942106 l
333.030321 55.656462 l
335.514313 54.595358 l
339.23254 57.895176 l
341.716533 55.67336 l
344.200526 54.5229 l
346.684518 54.08763 l
350.402745 55.74328 l
352.886738 56.170494 l
355.370731 55.634724 l
357.854723 54.262078 l
361.57295 54.989587 l
364.056943 55.026601 l
366.540935 56.012055 l
369.024928 56.339214 l
372.743155 52.596199 l
375.227148 53.09527 l
377.71114 53.27924 l
380.195133 53.186064 l
383.91336 51.752339 l
386.397353 50.997573 l
391.365338 53.611395 l
395.083565 53.171861 l
400.05155 51.936257 l
402.535543 52.609985 l
406.25377 51.98975 l
408.737762 51.9073 l
411.221755 52.440009 l
413.705748 52.314424 l
417.423975 55.510735 l
419.907967 57.283129 l
422.39196 54.701063 l
424.875953 52.44252 l
428.594179 51.236397 l
431.078172 52.351046 l
433.562165 54.096523 l
436.046158 55.402048 l
439.764384 58.452161 l
442.248377 58.235519 l
444.73237 57.573353 l
447.216363 54.882443 l
450.934589 54.279525 l
453.418582 54.835673 l
455.902575 55.888144 l
458.386568 55.627269 l
462.104794 52.092264 l
464.588787 53.486307 l
467.07278 53.747391 l
469.556772 53.07416 l
473.274999 51.402658 l
475.758992 52.125197 l
478.242985 51.814543 l
480.726977 51.002125 l
484.445204 51.646033 l
486.929197 54.939939 l
489.413189 56.547066 l
491.897182 53.072826 l
495.615409 52.209949 l
498.099402 52.755659 l
500.583394 53.434122 l
503.067387 53.535981 l
506.785614 54.670929 l
509.269607 55.164951 l
511.753599 53.881137 l
514.237592 53.163909 l
520.439811 53.907871 l
522.923804 53.659657 l
529.126024 49.702172 l
531.610016 50.18199 l
534.094009 51.226195 l
536.578002 51.5239 l
540.296229 52.858827 l
545.264214 55.691016 l
547.748207 53.096865 l
551.466433 48.669973 l
553.950426 49.161248 l
556.434419 51.483591 l
558.918412 52.994221 l
562.636638 52.86207 l
565.120631 52.972902 l
567.604624 52.182483 l
570.088617 52.707057 l
573.806843 54.502602 l
576.290836 55.006642 l
578.774829 53.034583 l
581.258822 51.21908 l
584.977048 52.884906 l
587.461041 54.142378 l
589.945034 52.639779 l
592.429026 50.722521 l
596.147253 49.967075 l
598.631246 51.456726 l
601.115239 49.330988 l
603.599231 48.875053 l
603.599231 48.875053 l
stroke
grestore
0.800 setlinewidth
0 setlinejoin
2 setlinecap
[] 0 setdash
0.000 setgray
gsave
42.242229 34.664133 m
42.242229 232.553067 l
stroke
grestore
gsave
609.373029 34.664133 m
609.373029 232.553067 l
stroke
grestore
gsave
42.242229 34.664133 m
609.373029 34.664133 l
stroke
grestore
gsave
42.242229 232.553067 m
609.373029 232.553067 l
stroke
grestore
gsave
163.315441 238.553067 translate
0.000000 rotate
0.000000 0.000000 m /M glyphshow
12.079102 0.000000 m /e glyphshow
20.692383 0.000000 m /a glyphshow
29.271484 0.000000 m /n glyphshow
38.144531 0.000000 m /space glyphshow
42.594727 0.000000 m /S glyphshow
51.481445 0.000000 m /q glyphshow
60.368164 0.000000 m /u glyphshow
69.241211 0.000000 m /a glyphshow
77.820312 0.000000 m /r glyphshow
83.576172 0.000000 m /e glyphshow
92.189453 0.000000 m /d glyphshow
101.076172 0.000000 m /space glyphshow
105.526367 0.000000 m /E glyphshow
114.372070 0.000000 m /r glyphshow
120.127930 0.000000 m /r glyphshow
125.883789 0.000000 m /o glyphshow
134.449219 0.000000 m /r glyphshow
140.205078 0.000000 m /space glyphshow
144.655273 0.000000 m /T glyphshow
153.175781 0.000000 m /e glyphshow
161.789062 0.000000 m /s glyphshow
169.083008 0.000000 m /t glyphshow
174.572266 0.000000 m /space glyphshow
179.022461 0.000000 m /l glyphshow
182.912109 0.000000 m /o glyphshow
191.477539 0.000000 m /s glyphshow
198.771484 0.000000 m /s glyphshow
206.065430 0.000000 m /space glyphshow
210.515625 0.000000 m /o glyphshow
219.081055 0.000000 m /n glyphshow
227.954102 0.000000 m /space glyphshow
232.404297 0.000000 m /W glyphshow
246.247070 0.000000 m /i glyphshow
250.136719 0.000000 m /n glyphshow
259.009766 0.000000 m /e glyphshow
267.623047 0.000000 m /space glyphshow
272.073242 0.000000 m /d glyphshow
280.959961 0.000000 m /a glyphshow
289.539062 0.000000 m /t glyphshow
295.028320 0.000000 m /a glyphshow
303.607422 0.000000 m /s glyphshow
310.901367 0.000000 m /e glyphshow
319.514648 0.000000 m /t glyphshow
grestore
1.000 setlinewidth
0 setlinecap
0.800 setgray
gsave
510.591779 151.193692 m
602.373029 151.193692 l
603.706362 151.193692 604.373029 151.860358 604.373029 153.193692 c
604.373029 225.553067 l
604.373029 226.8864 603.706362 227.553067 602.373029 227.553067 c
510.591779 227.553067 l
509.258445 227.553067 508.591779 226.8864 508.591779 225.553067 c
508.591779 153.193692 l
508.591779 151.860358 509.258445 151.193692 510.591779 151.193692 c
cl
gsave
1.000 setgray
fill
grestore
stroke
grestore
1.500 setlinewidth
1 setlinejoin
[9.6 2.4 1.5 2.4] 0 setdash
0.122 0.467 0.706 setrgbcolor
gsave
512.591779 219.459317 m
532.591779 219.459317 l
stroke
grestore
0.000 setgray
/DejaVuSans findfont
10.000 scalefont
setfont
gsave
540.591779 215.959317 translate
0.000000 rotate
0.000000 0.000000 m /N glyphshow
7.480469 0.000000 m /o glyphshow
13.598633 0.000000 m /i glyphshow
16.376953 0.000000 m /s glyphshow
21.586914 0.000000 m /y glyphshow
27.504883 0.000000 m /space glyphshow
30.683594 0.000000 m /K glyphshow
37.241211 0.000000 m /F glyphshow
42.993164 0.000000 m /A glyphshow
49.833984 0.000000 m /C glyphshow
grestore
[5.55 2.4] 0 setdash
1.000 0.498 0.055 setrgbcolor
gsave
512.591779 204.787442 m
532.591779 204.787442 l
stroke
grestore
0.000 setgray
gsave
540.591779 201.287442 translate
0.000000 rotate
0.000000 0.000000 m /N glyphshow
7.480469 0.000000 m /o glyphshow
13.598633 0.000000 m /i glyphshow
16.376953 0.000000 m /s glyphshow
21.586914 0.000000 m /y glyphshow
27.504883 0.000000 m /space glyphshow
30.683594 0.000000 m /A glyphshow
37.524414 0.000000 m /d glyphshow
43.872070 0.000000 m /a glyphshow
50.000000 0.000000 m /m glyphshow
grestore
[1.5 2.475] 0 setdash
0.173 0.627 0.173 setrgbcolor
gsave
512.591779 190.115567 m
532.591779 190.115567 l
stroke
grestore
0.000 setgray
gsave
540.591779 186.615567 translate
0.000000 rotate
0.000000 0.000000 m /V glyphshow
6.840820 0.000000 m /p glyphshow
13.188477 0.000000 m /r glyphshow
17.299805 0.000000 m /o glyphshow
23.417969 0.000000 m /p glyphshow
grestore
2 setlinecap
[] 0 setdash
0.839 0.153 0.157 setrgbcolor
gsave
512.591779 175.443692 m
532.591779 175.443692 l
stroke
grestore
0.000 setgray
gsave
540.591779 171.943692 translate
0.000000 rotate
0.000000 0.000000 m /A glyphshow
6.840820 0.000000 m /d glyphshow
13.188477 0.000000 m /a glyphshow
19.316406 0.000000 m /m glyphshow
grestore
0 setlinecap
[9.6 2.4 1.5 2.4] 0 setdash
0.580 0.404 0.741 setrgbcolor
gsave
512.591779 160.771817 m
532.591779 160.771817 l
stroke
grestore
0.000 setgray
gsave
540.591779 157.271817 translate
0.000000 rotate
0.000000 0.000000 m /B glyphshow
6.860352 0.000000 m /B glyphshow
13.720703 0.000000 m /B glyphshow
grestore

end
showpage
