%!PS-Adobe-3.0 EPSF-3.0
%%Title: D:/DTU MMC/Github Repos/thesis_repo/thesis_figs/WINE_benchmark_all_optims.eps
%%Creator: matplotlib version 2.1.0, http://matplotlib.org/
%%CreationDate: Thu Jul 26 22:08:11 2018
%%Orientation: portrait
%%BoundingBox: -10 113 622 678
%%EndComments
%%BeginProlog
/mpldict 8 dict def
mpldict begin
/m { moveto } bind def
/l { lineto } bind def
/r { rlineto } bind def
/c { curveto } bind def
/cl { closepath } bind def
/box {
m
1 index 0 r
0 exch r
neg 0 r
cl
} bind def
/clipbox {
box
clip
newpath
} bind def
%!PS-Adobe-3.0 Resource-Font
%%Title: DejaVu Sans
%%Copyright: Copyright (c) 2003 by Bitstream, Inc. All Rights Reserved. Copyright (c) 2006 by Tavmjong Bah. All Rights Reserved. DejaVu changes are in public domain 
%%Creator: Converted from TrueType to type 3 by PPR
25 dict begin
/_d{bind def}bind def
/_m{moveto}_d
/_l{lineto}_d
/_cl{closepath eofill}_d
/_c{curveto}_d
/_sc{7 -1 roll{setcachedevice}{pop pop pop pop pop pop}ifelse}_d
/_e{exec}_d
/FontName /DejaVuSans def
/PaintType 0 def
/FontMatrix[.001 0 0 .001 0 0]def
/FontBBox[-1021 -463 1793 1232]def
/FontType 3 def
/Encoding [ /space /period /zero /one /two /three /four /five /six /seven /eight /nine /A /B /C /E /F /K /M /N /S /T /V /W /a /c /d /e /g /h /i /l /m /n /o /p /q /r /s /t /u /y ] def
/FontInfo 10 dict dup begin
/FamilyName (DejaVu Sans) def
/FullName (DejaVu Sans) def
/Notice (Copyright (c) 2003 by Bitstream, Inc. All Rights Reserved. Copyright (c) 2006 by Tavmjong Bah. All Rights Reserved. DejaVu changes are in public domain ) def
/Weight (Book) def
/Version (Version 2.35) def
/ItalicAngle 0.0 def
/isFixedPitch false def
/UnderlinePosition -130 def
/UnderlineThickness 90 def
end readonly def
/CharStrings 43 dict dup begin
/.notdef 0 def
/space{318 0 0 0 0 0 _sc
}_d
/period{318 0 107 0 210 124 _sc
107 124 _m
210 124 _l
210 0 _l
107 0 _l
107 124 _l
_cl}_d
/zero{636 0 66 -13 570 742 _sc
318 664 _m
267 664 229 639 203 589 _c
177 539 165 464 165 364 _c
165 264 177 189 203 139 _c
229 89 267 64 318 64 _c
369 64 407 89 433 139 _c
458 189 471 264 471 364 _c
471 464 458 539 433 589 _c
407 639 369 664 318 664 _c
318 742 _m
399 742 461 709 505 645 _c
548 580 570 486 570 364 _c
570 241 548 147 505 83 _c
461 19 399 -13 318 -13 _c
236 -13 173 19 130 83 _c
87 147 66 241 66 364 _c
66 486 87 580 130 645 _c
173 709 236 742 318 742 _c
_cl}_d
/one{636 0 110 0 544 729 _sc
124 83 _m
285 83 _l
285 639 _l
110 604 _l
110 694 _l
284 729 _l
383 729 _l
383 83 _l
544 83 _l
544 0 _l
124 0 _l
124 83 _l
_cl}_d
/two{{636 0 73 0 536 742 _sc
192 83 _m
536 83 _l
536 0 _l
73 0 _l
73 83 _l
110 121 161 173 226 239 _c
290 304 331 346 348 365 _c
380 400 402 430 414 455 _c
426 479 433 504 433 528 _c
433 566 419 598 392 622 _c
365 646 330 659 286 659 _c
255 659 222 653 188 643 _c
154 632 117 616 78 594 _c
78 694 _l
118 710 155 722 189 730 _c
223 738 255 742 284 742 _c
}_e{359 742 419 723 464 685 _c
509 647 532 597 532 534 _c
532 504 526 475 515 449 _c
504 422 484 390 454 354 _c
446 344 420 317 376 272 _c
332 227 271 164 192 83 _c
_cl}_e}_d
/three{{636 0 76 -13 556 742 _sc
406 393 _m
453 383 490 362 516 330 _c
542 298 556 258 556 212 _c
556 140 531 84 482 45 _c
432 6 362 -13 271 -13 _c
240 -13 208 -10 176 -4 _c
144 1 110 10 76 22 _c
76 117 _l
103 101 133 89 166 81 _c
198 73 232 69 268 69 _c
330 69 377 81 409 105 _c
441 129 458 165 458 212 _c
458 254 443 288 413 312 _c
383 336 341 349 287 349 _c
}_e{202 349 _l
202 430 _l
291 430 _l
339 430 376 439 402 459 _c
428 478 441 506 441 543 _c
441 580 427 609 401 629 _c
374 649 336 659 287 659 _c
260 659 231 656 200 650 _c
169 644 135 635 98 623 _c
98 711 _l
135 721 170 729 203 734 _c
235 739 266 742 296 742 _c
370 742 429 725 473 691 _c
517 657 539 611 539 553 _c
539 513 527 479 504 451 _c
481 423 448 403 406 393 _c
_cl}_e}_d
/four{636 0 49 0 580 729 _sc
378 643 _m
129 254 _l
378 254 _l
378 643 _l
352 729 _m
476 729 _l
476 254 _l
580 254 _l
580 172 _l
476 172 _l
476 0 _l
378 0 _l
378 172 _l
49 172 _l
49 267 _l
352 729 _l
_cl}_d
/five{{636 0 77 -13 549 729 _sc
108 729 _m
495 729 _l
495 646 _l
198 646 _l
198 467 _l
212 472 227 476 241 478 _c
255 480 270 482 284 482 _c
365 482 429 459 477 415 _c
525 370 549 310 549 234 _c
549 155 524 94 475 51 _c
426 8 357 -13 269 -13 _c
238 -13 207 -10 175 -6 _c
143 -1 111 6 77 17 _c
77 116 _l
106 100 136 88 168 80 _c
199 72 232 69 267 69 _c
}_e{323 69 368 83 401 113 _c
433 143 450 183 450 234 _c
450 284 433 324 401 354 _c
368 384 323 399 267 399 _c
241 399 214 396 188 390 _c
162 384 135 375 108 363 _c
108 729 _l
_cl}_e}_d
/six{{636 0 70 -13 573 742 _sc
330 404 _m
286 404 251 388 225 358 _c
199 328 186 286 186 234 _c
186 181 199 139 225 109 _c
251 79 286 64 330 64 _c
374 64 409 79 435 109 _c
461 139 474 181 474 234 _c
474 286 461 328 435 358 _c
409 388 374 404 330 404 _c
526 713 _m
526 623 _l
501 635 476 644 451 650 _c
425 656 400 659 376 659 _c
310 659 260 637 226 593 _c
}_e{192 549 172 482 168 394 _c
187 422 211 444 240 459 _c
269 474 301 482 336 482 _c
409 482 467 459 509 415 _c
551 371 573 310 573 234 _c
573 159 550 99 506 54 _c
462 9 403 -13 330 -13 _c
246 -13 181 19 137 83 _c
92 147 70 241 70 364 _c
70 479 97 571 152 639 _c
206 707 280 742 372 742 _c
396 742 421 739 447 735 _c
472 730 498 723 526 713 _c
_cl}_e}_d
/seven{636 0 82 0 551 729 _sc
82 729 _m
551 729 _l
551 687 _l
286 0 _l
183 0 _l
432 646 _l
82 646 _l
82 729 _l
_cl}_d
/eight{{636 0 68 -13 568 742 _sc
318 346 _m
271 346 234 333 207 308 _c
180 283 167 249 167 205 _c
167 161 180 126 207 101 _c
234 76 271 64 318 64 _c
364 64 401 76 428 102 _c
455 127 469 161 469 205 _c
469 249 455 283 429 308 _c
402 333 365 346 318 346 _c
219 388 _m
177 398 144 418 120 447 _c
96 476 85 511 85 553 _c
85 611 105 657 147 691 _c
188 725 245 742 318 742 _c
}_e{390 742 447 725 489 691 _c
530 657 551 611 551 553 _c
551 511 539 476 515 447 _c
491 418 459 398 417 388 _c
464 377 501 355 528 323 _c
554 291 568 251 568 205 _c
568 134 546 80 503 43 _c
459 5 398 -13 318 -13 _c
237 -13 175 5 132 43 _c
89 80 68 134 68 205 _c
68 251 81 291 108 323 _c
134 355 171 377 219 388 _c
183 544 _m
183 506 194 476 218 455 _c
}_e{242 434 275 424 318 424 _c
360 424 393 434 417 455 _c
441 476 453 506 453 544 _c
453 582 441 611 417 632 _c
393 653 360 664 318 664 _c
275 664 242 653 218 632 _c
194 611 183 582 183 544 _c
_cl}_e}_d
/nine{{636 0 63 -13 566 742 _sc
110 15 _m
110 105 _l
134 93 159 84 185 78 _c
210 72 235 69 260 69 _c
324 69 374 90 408 134 _c
442 178 462 244 468 334 _c
448 306 424 284 396 269 _c
367 254 335 247 300 247 _c
226 247 168 269 126 313 _c
84 357 63 417 63 494 _c
63 568 85 628 129 674 _c
173 719 232 742 306 742 _c
390 742 455 709 499 645 _c
543 580 566 486 566 364 _c
}_e{566 248 538 157 484 89 _c
429 21 356 -13 264 -13 _c
239 -13 214 -10 189 -6 _c
163 -2 137 5 110 15 _c
306 324 _m
350 324 385 339 411 369 _c
437 399 450 441 450 494 _c
450 546 437 588 411 618 _c
385 648 350 664 306 664 _c
262 664 227 648 201 618 _c
175 588 162 546 162 494 _c
162 441 175 399 201 369 _c
227 339 262 324 306 324 _c
_cl}_e}_d
/A{684 0 8 0 676 729 _sc
342 632 _m
208 269 _l
476 269 _l
342 632 _l
286 729 _m
398 729 _l
676 0 _l
573 0 _l
507 187 _l
178 187 _l
112 0 _l
8 0 _l
286 729 _l
_cl}_d
/B{{686 0 98 0 615 729 _sc
197 348 _m
197 81 _l
355 81 _l
408 81 447 92 473 114 _c
498 136 511 169 511 215 _c
511 260 498 293 473 315 _c
447 337 408 348 355 348 _c
197 348 _l
197 648 _m
197 428 _l
343 428 _l
391 428 426 437 450 455 _c
474 473 486 500 486 538 _c
486 574 474 602 450 620 _c
426 638 391 648 343 648 _c
197 648 _l
98 729 _m
350 729 _l
}_e{425 729 483 713 524 682 _c
564 650 585 606 585 549 _c
585 504 574 468 553 442 _c
532 416 502 399 462 393 _c
510 382 548 360 575 327 _c
601 294 615 253 615 204 _c
615 138 592 88 548 53 _c
504 17 441 0 360 0 _c
98 0 _l
98 729 _l
_cl}_e}_d
/C{{698 0 56 -13 644 742 _sc
644 673 _m
644 569 _l
610 599 575 622 537 638 _c
499 653 460 661 418 661 _c
334 661 270 635 226 584 _c
182 533 160 460 160 364 _c
160 268 182 194 226 143 _c
270 92 334 67 418 67 _c
460 67 499 74 537 90 _c
575 105 610 128 644 159 _c
644 56 _l
609 32 572 15 534 4 _c
496 -7 455 -13 412 -13 _c
302 -13 215 20 151 87 _c
}_e{87 154 56 246 56 364 _c
56 481 87 573 151 641 _c
215 708 302 742 412 742 _c
456 742 497 736 535 725 _c
573 713 610 696 644 673 _c
_cl}_e}_d
/E{632 0 98 0 568 729 _sc
98 729 _m
559 729 _l
559 646 _l
197 646 _l
197 430 _l
544 430 _l
544 347 _l
197 347 _l
197 83 _l
568 83 _l
568 0 _l
98 0 _l
98 729 _l
_cl}_d
/F{575 0 98 0 517 729 _sc
98 729 _m
517 729 _l
517 646 _l
197 646 _l
197 431 _l
486 431 _l
486 348 _l
197 348 _l
197 0 _l
98 0 _l
98 729 _l
_cl}_d
/K{656 0 98 0 677 729 _sc
98 729 _m
197 729 _l
197 421 _l
524 729 _l
651 729 _l
289 389 _l
677 0 _l
547 0 _l
197 351 _l
197 0 _l
98 0 _l
98 729 _l
_cl}_d
/M{863 0 98 0 765 729 _sc
98 729 _m
245 729 _l
431 233 _l
618 729 _l
765 729 _l
765 0 _l
669 0 _l
669 640 _l
481 140 _l
382 140 _l
194 640 _l
194 0 _l
98 0 _l
98 729 _l
_cl}_d
/N{748 0 98 0 650 729 _sc
98 729 _m
231 729 _l
554 119 _l
554 729 _l
650 729 _l
650 0 _l
517 0 _l
194 610 _l
194 0 _l
98 0 _l
98 729 _l
_cl}_d
/S{{635 0 66 -13 579 742 _sc
535 705 _m
535 609 _l
497 627 462 640 429 649 _c
395 657 363 662 333 662 _c
279 662 237 651 208 631 _c
179 610 165 580 165 542 _c
165 510 174 485 194 469 _c
213 452 250 439 304 429 _c
364 417 _l
437 403 491 378 526 343 _c
561 307 579 260 579 201 _c
579 130 555 77 508 41 _c
460 5 391 -13 300 -13 _c
265 -13 228 -9 189 -2 _c
}_e{150 5 110 16 69 32 _c
69 134 _l
109 111 148 94 186 83 _c
224 71 262 66 300 66 _c
356 66 399 77 430 99 _c
460 121 476 152 476 194 _c
476 230 465 258 443 278 _c
421 298 385 313 335 323 _c
275 335 _l
201 349 148 372 115 404 _c
82 435 66 478 66 534 _c
66 598 88 649 134 686 _c
179 723 242 742 322 742 _c
356 742 390 739 426 733 _c
461 727 497 717 535 705 _c
}_e{_cl}_e}_d
/T{611 0 -2 0 614 729 _sc
-2 729 _m
614 729 _l
614 646 _l
355 646 _l
355 0 _l
256 0 _l
256 646 _l
-2 646 _l
-2 729 _l
_cl}_d
/V{684 0 8 0 676 729 _sc
286 0 _m
8 729 _l
111 729 _l
342 115 _l
573 729 _l
676 729 _l
398 0 _l
286 0 _l
_cl}_d
/W{989 0 33 0 956 729 _sc
33 729 _m
133 729 _l
286 113 _l
439 729 _l
550 729 _l
703 113 _l
856 729 _l
956 729 _l
773 0 _l
649 0 _l
495 633 _l
340 0 _l
216 0 _l
33 729 _l
_cl}_d
/a{{613 0 60 -13 522 560 _sc
343 275 _m
270 275 220 266 192 250 _c
164 233 150 205 150 165 _c
150 133 160 107 181 89 _c
202 70 231 61 267 61 _c
317 61 357 78 387 114 _c
417 149 432 196 432 255 _c
432 275 _l
343 275 _l
522 312 _m
522 0 _l
432 0 _l
432 83 _l
411 49 385 25 355 10 _c
325 -5 287 -13 243 -13 _c
187 -13 142 2 109 33 _c
76 64 60 106 60 159 _c
}_e{60 220 80 266 122 298 _c
163 329 224 345 306 345 _c
432 345 _l
432 354 _l
432 395 418 427 391 450 _c
364 472 326 484 277 484 _c
245 484 215 480 185 472 _c
155 464 127 453 100 439 _c
100 522 _l
132 534 164 544 195 550 _c
226 556 256 560 286 560 _c
365 560 424 539 463 498 _c
502 457 522 395 522 312 _c
_cl}_e}_d
/c{{550 0 55 -13 488 560 _sc
488 526 _m
488 442 _l
462 456 437 466 411 473 _c
385 480 360 484 334 484 _c
276 484 230 465 198 428 _c
166 391 150 339 150 273 _c
150 206 166 154 198 117 _c
230 80 276 62 334 62 _c
360 62 385 65 411 72 _c
437 79 462 90 488 104 _c
488 21 _l
462 9 436 0 410 -5 _c
383 -10 354 -13 324 -13 _c
242 -13 176 12 128 64 _c
}_e{79 115 55 185 55 273 _c
55 362 79 432 128 483 _c
177 534 244 560 330 560 _c
358 560 385 557 411 551 _c
437 545 463 537 488 526 _c
_cl}_e}_d
/d{{635 0 55 -13 544 760 _sc
454 464 _m
454 760 _l
544 760 _l
544 0 _l
454 0 _l
454 82 _l
435 49 411 25 382 10 _c
353 -5 319 -13 279 -13 _c
213 -13 159 13 117 65 _c
75 117 55 187 55 273 _c
55 359 75 428 117 481 _c
159 533 213 560 279 560 _c
319 560 353 552 382 536 _c
411 520 435 496 454 464 _c
148 273 _m
148 207 161 155 188 117 _c
215 79 253 61 301 61 _c
}_e{348 61 385 79 413 117 _c
440 155 454 207 454 273 _c
454 339 440 390 413 428 _c
385 466 348 485 301 485 _c
253 485 215 466 188 428 _c
161 390 148 339 148 273 _c
_cl}_e}_d
/e{{615 0 55 -13 562 560 _sc
562 296 _m
562 252 _l
149 252 _l
153 190 171 142 205 110 _c
238 78 284 62 344 62 _c
378 62 412 66 444 74 _c
476 82 509 95 541 113 _c
541 28 _l
509 14 476 3 442 -3 _c
408 -9 373 -13 339 -13 _c
251 -13 182 12 131 62 _c
80 112 55 181 55 268 _c
55 357 79 428 127 481 _c
175 533 241 560 323 560 _c
397 560 455 536 498 489 _c
}_e{540 441 562 377 562 296 _c
472 322 _m
471 371 457 410 431 440 _c
404 469 368 484 324 484 _c
274 484 234 469 204 441 _c
174 413 156 373 152 322 _c
472 322 _l
_cl}_e}_d
/g{{635 0 55 -207 544 560 _sc
454 280 _m
454 344 440 395 414 431 _c
387 467 349 485 301 485 _c
253 485 215 467 188 431 _c
161 395 148 344 148 280 _c
148 215 161 165 188 129 _c
215 93 253 75 301 75 _c
349 75 387 93 414 129 _c
440 165 454 215 454 280 _c
544 68 _m
544 -24 523 -93 482 -139 _c
440 -184 377 -207 292 -207 _c
260 -207 231 -204 203 -200 _c
175 -195 147 -188 121 -178 _c
}_e{121 -91 _l
147 -105 173 -115 199 -122 _c
225 -129 251 -133 278 -133 _c
336 -133 380 -117 410 -87 _c
439 -56 454 -10 454 52 _c
454 96 _l
435 64 411 40 382 24 _c
353 8 319 0 279 0 _c
211 0 157 25 116 76 _c
75 127 55 195 55 280 _c
55 364 75 432 116 483 _c
157 534 211 560 279 560 _c
319 560 353 552 382 536 _c
411 520 435 496 454 464 _c
454 547 _l
544 547 _l
}_e{544 68 _l
_cl}_e}_d
/h{634 0 91 0 549 760 _sc
549 330 _m
549 0 _l
459 0 _l
459 327 _l
459 379 448 417 428 443 _c
408 469 378 482 338 482 _c
289 482 251 466 223 435 _c
195 404 181 362 181 309 _c
181 0 _l
91 0 _l
91 760 _l
181 760 _l
181 462 _l
202 494 227 519 257 535 _c
286 551 320 560 358 560 _c
420 560 468 540 500 501 _c
532 462 549 405 549 330 _c
_cl}_d
/i{278 0 94 0 184 760 _sc
94 547 _m
184 547 _l
184 0 _l
94 0 _l
94 547 _l
94 760 _m
184 760 _l
184 646 _l
94 646 _l
94 760 _l
_cl}_d
/l{278 0 94 0 184 760 _sc
94 760 _m
184 760 _l
184 0 _l
94 0 _l
94 760 _l
_cl}_d
/m{{974 0 91 0 889 560 _sc
520 442 _m
542 482 569 511 600 531 _c
631 550 668 560 711 560 _c
767 560 811 540 842 500 _c
873 460 889 403 889 330 _c
889 0 _l
799 0 _l
799 327 _l
799 379 789 418 771 444 _c
752 469 724 482 686 482 _c
639 482 602 466 575 435 _c
548 404 535 362 535 309 _c
535 0 _l
445 0 _l
445 327 _l
445 379 435 418 417 444 _c
398 469 369 482 331 482 _c
}_e{285 482 248 466 221 435 _c
194 404 181 362 181 309 _c
181 0 _l
91 0 _l
91 547 _l
181 547 _l
181 462 _l
201 495 226 520 255 536 _c
283 552 317 560 357 560 _c
397 560 430 550 458 530 _c
486 510 506 480 520 442 _c
_cl}_e}_d
/n{634 0 91 0 549 560 _sc
549 330 _m
549 0 _l
459 0 _l
459 327 _l
459 379 448 417 428 443 _c
408 469 378 482 338 482 _c
289 482 251 466 223 435 _c
195 404 181 362 181 309 _c
181 0 _l
91 0 _l
91 547 _l
181 547 _l
181 462 _l
202 494 227 519 257 535 _c
286 551 320 560 358 560 _c
420 560 468 540 500 501 _c
532 462 549 405 549 330 _c
_cl}_d
/o{612 0 55 -13 557 560 _sc
306 484 _m
258 484 220 465 192 427 _c
164 389 150 338 150 273 _c
150 207 163 156 191 118 _c
219 80 257 62 306 62 _c
354 62 392 80 420 118 _c
448 156 462 207 462 273 _c
462 337 448 389 420 427 _c
392 465 354 484 306 484 _c
306 560 _m
384 560 445 534 490 484 _c
534 433 557 363 557 273 _c
557 183 534 113 490 63 _c
445 12 384 -13 306 -13 _c
227 -13 165 12 121 63 _c
77 113 55 183 55 273 _c
55 363 77 433 121 484 _c
165 534 227 560 306 560 _c
_cl}_d
/p{{635 0 91 -207 580 560 _sc
181 82 _m
181 -207 _l
91 -207 _l
91 547 _l
181 547 _l
181 464 _l
199 496 223 520 252 536 _c
281 552 316 560 356 560 _c
422 560 476 533 518 481 _c
559 428 580 359 580 273 _c
580 187 559 117 518 65 _c
476 13 422 -13 356 -13 _c
316 -13 281 -5 252 10 _c
223 25 199 49 181 82 _c
487 273 _m
487 339 473 390 446 428 _c
418 466 381 485 334 485 _c
}_e{286 485 249 466 222 428 _c
194 390 181 339 181 273 _c
181 207 194 155 222 117 _c
249 79 286 61 334 61 _c
381 61 418 79 446 117 _c
473 155 487 207 487 273 _c
_cl}_e}_d
/q{{635 0 55 -207 544 560 _sc
148 273 _m
148 207 161 155 188 117 _c
215 79 253 61 301 61 _c
348 61 385 79 413 117 _c
440 155 454 207 454 273 _c
454 339 440 390 413 428 _c
385 466 348 485 301 485 _c
253 485 215 466 188 428 _c
161 390 148 339 148 273 _c
454 82 _m
435 49 411 25 382 10 _c
353 -5 319 -13 279 -13 _c
213 -13 159 13 117 65 _c
75 117 55 187 55 273 _c
}_e{55 359 75 428 117 481 _c
159 533 213 560 279 560 _c
319 560 353 552 382 536 _c
411 520 435 496 454 464 _c
454 547 _l
544 547 _l
544 -207 _l
454 -207 _l
454 82 _l
_cl}_e}_d
/r{411 0 91 0 411 560 _sc
411 463 _m
401 469 390 473 378 476 _c
366 478 353 480 339 480 _c
288 480 249 463 222 430 _c
194 397 181 350 181 288 _c
181 0 _l
91 0 _l
91 547 _l
181 547 _l
181 462 _l
199 495 224 520 254 536 _c
284 552 321 560 365 560 _c
371 560 378 559 386 559 _c
393 558 401 557 411 555 _c
411 463 _l
_cl}_d
/s{{521 0 54 -13 472 560 _sc
443 531 _m
443 446 _l
417 458 391 468 364 475 _c
336 481 308 485 279 485 _c
234 485 200 478 178 464 _c
156 450 145 430 145 403 _c
145 382 153 366 169 354 _c
185 342 217 330 265 320 _c
296 313 _l
360 299 405 279 432 255 _c
458 230 472 195 472 151 _c
472 100 452 60 412 31 _c
372 1 316 -13 246 -13 _c
216 -13 186 -10 154 -5 _c
}_e{122 0 89 8 54 20 _c
54 113 _l
87 95 120 82 152 74 _c
184 65 216 61 248 61 _c
290 61 323 68 346 82 _c
368 96 380 117 380 144 _c
380 168 371 187 355 200 _c
339 213 303 226 247 238 _c
216 245 _l
160 257 119 275 95 299 _c
70 323 58 356 58 399 _c
58 450 76 490 112 518 _c
148 546 200 560 268 560 _c
301 560 332 557 362 552 _c
391 547 418 540 443 531 _c
}_e{_cl}_e}_d
/t{392 0 27 0 368 702 _sc
183 702 _m
183 547 _l
368 547 _l
368 477 _l
183 477 _l
183 180 _l
183 135 189 106 201 94 _c
213 81 238 75 276 75 _c
368 75 _l
368 0 _l
276 0 _l
206 0 158 13 132 39 _c
106 65 93 112 93 180 _c
93 477 _l
27 477 _l
27 547 _l
93 547 _l
93 702 _l
183 702 _l
_cl}_d
/u{634 0 85 -13 543 560 _sc
85 216 _m
85 547 _l
175 547 _l
175 219 _l
175 167 185 129 205 103 _c
225 77 255 64 296 64 _c
344 64 383 79 411 110 _c
439 141 453 183 453 237 _c
453 547 _l
543 547 _l
543 0 _l
453 0 _l
453 84 _l
431 50 405 26 377 10 _c
348 -5 315 -13 277 -13 _c
214 -13 166 6 134 45 _c
101 83 85 140 85 216 _c
311 560 _m
311 560 _l
_cl}_d
/y{592 0 30 -207 562 547 _sc
322 -50 _m
296 -114 271 -157 247 -177 _c
223 -197 191 -207 151 -207 _c
79 -207 _l
79 -132 _l
132 -132 _l
156 -132 175 -126 189 -114 _c
203 -102 218 -75 235 -31 _c
251 9 _l
30 547 _l
125 547 _l
296 119 _l
467 547 _l
562 547 _l
322 -50 _l
_cl}_d
end readonly def

/BuildGlyph
 {exch begin
 CharStrings exch
 2 copy known not{pop /.notdef}if
 true 3 1 roll get exec
 end}_d

/BuildChar {
 1 index /Encoding get exch get
 1 index /BuildGlyph get exec
}_d

FontName currentdict end definefont pop
end
%%EndProlog
mpldict begin
-10.08 113.4 translate
632.16 565.2 0 0 clipbox
gsave
0 0 m
632.16 0 l
632.16 565.2 l
0 565.2 l
cl
1.000 setgray
fill
grestore
gsave
42.194171 337.654667 m
608.679771 337.654667 l
608.679771 545.889 l
42.194171 545.889 l
cl
1.000 setgray
fill
grestore
0.800 setlinewidth
1 setlinejoin
0 setlinecap
[] 0 setdash
0.000 setgray
gsave
/o {
gsave
newpath
translate
0.8 setlinewidth
1 setlinejoin
0 setlinecap
0 0 m
0 -3.5 l

gsave
0.000 setgray
fill
grestore
stroke
grestore
} bind def
47.5235 337.655 o
grestore
/DejaVuSans findfont
10.000 scalefont
setfont
gsave
44.343812 323.060917 translate
0.000000 rotate
0.000000 0.000000 m /zero glyphshow
grestore
gsave
/o {
gsave
newpath
translate
0.8 setlinewidth
1 setlinejoin
0 setlinecap
0 0 m
0 -3.5 l

gsave
0.000 setgray
fill
grestore
stroke
grestore
} bind def
159.063 337.655 o
grestore
gsave
152.704047 323.060917 translate
0.000000 rotate
0.000000 0.000000 m /one glyphshow
6.362305 0.000000 m /zero glyphshow
grestore
gsave
/o {
gsave
newpath
translate
0.8 setlinewidth
1 setlinejoin
0 setlinecap
0 0 m
0 -3.5 l

gsave
0.000 setgray
fill
grestore
stroke
grestore
} bind def
270.603 337.655 o
grestore
gsave
264.243969 323.060917 translate
0.000000 rotate
0.000000 0.000000 m /two glyphshow
6.362305 0.000000 m /zero glyphshow
grestore
gsave
/o {
gsave
newpath
translate
0.8 setlinewidth
1 setlinejoin
0 setlinecap
0 0 m
0 -3.5 l

gsave
0.000 setgray
fill
grestore
stroke
grestore
} bind def
382.143 337.655 o
grestore
gsave
375.783891 323.060917 translate
0.000000 rotate
0.000000 0.000000 m /three glyphshow
6.362305 0.000000 m /zero glyphshow
grestore
gsave
/o {
gsave
newpath
translate
0.8 setlinewidth
1 setlinejoin
0 setlinecap
0 0 m
0 -3.5 l

gsave
0.000 setgray
fill
grestore
stroke
grestore
} bind def
493.683 337.655 o
grestore
gsave
487.323814 323.060917 translate
0.000000 rotate
0.000000 0.000000 m /four glyphshow
6.362305 0.000000 m /zero glyphshow
grestore
gsave
/o {
gsave
newpath
translate
0.8 setlinewidth
1 setlinejoin
0 setlinecap
0 0 m
0 -3.5 l

gsave
0.000 setgray
fill
grestore
stroke
grestore
} bind def
605.223 337.655 o
grestore
gsave
598.863736 323.060917 translate
0.000000 rotate
0.000000 0.000000 m /five glyphshow
6.362305 0.000000 m /zero glyphshow
grestore
/DejaVuSans findfont
14.000 scalefont
setfont
gsave
300.351034 306.342167 translate
0.000000 rotate
0.000000 0.000000 m /E glyphshow
8.845703 0.000000 m /p glyphshow
17.732422 0.000000 m /o glyphshow
26.297852 0.000000 m /c glyphshow
33.995117 0.000000 m /h glyphshow
42.868164 0.000000 m /s glyphshow
grestore
gsave
/o {
gsave
newpath
translate
0.8 setlinewidth
1 setlinejoin
0 setlinecap
0 0 m
-3.5 0 l

gsave
0.000 setgray
fill
grestore
stroke
grestore
} bind def
42.1942 377.191 o
grestore
/DejaVuSans findfont
10.000 scalefont
setfont
gsave
19.287921 373.394580 translate
0.000000 rotate
0.000000 0.000000 m /zero glyphshow
6.362305 0.000000 m /period glyphshow
9.541016 0.000000 m /six glyphshow
grestore
gsave
/o {
gsave
newpath
translate
0.8 setlinewidth
1 setlinejoin
0 setlinecap
0 0 m
-3.5 0 l

gsave
0.000 setgray
fill
grestore
stroke
grestore
} bind def
42.1942 423.372 o
grestore
gsave
19.287921 419.575592 translate
0.000000 rotate
0.000000 0.000000 m /zero glyphshow
6.362305 0.000000 m /period glyphshow
9.541016 0.000000 m /eight glyphshow
grestore
gsave
/o {
gsave
newpath
translate
0.8 setlinewidth
1 setlinejoin
0 setlinecap
0 0 m
-3.5 0 l

gsave
0.000 setgray
fill
grestore
stroke
grestore
} bind def
42.1942 469.553 o
grestore
gsave
19.287921 465.756605 translate
0.000000 rotate
0.000000 0.000000 m /one glyphshow
6.362305 0.000000 m /period glyphshow
9.541016 0.000000 m /zero glyphshow
grestore
gsave
/o {
gsave
newpath
translate
0.8 setlinewidth
1 setlinejoin
0 setlinecap
0 0 m
-3.5 0 l

gsave
0.000 setgray
fill
grestore
stroke
grestore
} bind def
42.1942 515.734 o
grestore
gsave
19.287921 511.937617 translate
0.000000 rotate
0.000000 0.000000 m /one glyphshow
6.362305 0.000000 m /period glyphshow
9.541016 0.000000 m /two glyphshow
grestore
/DejaVuSans findfont
14.000 scalefont
setfont
gsave
12.381671 392.599958 translate
90.000000 rotate
0.000000 0.000000 m /M glyphshow
12.079102 0.000000 m /S glyphshow
20.965820 0.000000 m /E glyphshow
29.811523 0.000000 m /space glyphshow
34.261719 0.000000 m /t glyphshow
39.750977 0.000000 m /r glyphshow
45.506836 0.000000 m /a glyphshow
54.085938 0.000000 m /i glyphshow
57.975586 0.000000 m /n glyphshow
66.848633 0.000000 m /space glyphshow
71.298828 0.000000 m /l glyphshow
75.188477 0.000000 m /o glyphshow
83.753906 0.000000 m /s glyphshow
91.047852 0.000000 m /s glyphshow
grestore
1.500 setlinewidth
[9.6 2.4 1.5 2.4] 0 setdash
0.122 0.467 0.706 setrgbcolor
gsave
566.5 208.2 42.19 337.7 clipbox
54.716623 498.437714 m
57.19701 527.879596 l
60.90984 510.647898 l
63.390228 525.863704 l
65.870615 464.489864 l
68.351003 513.589307 l
72.063833 501.531094 l
74.54422 520.545548 l
77.024607 489.094145 l
79.504995 465.092695 l
83.217825 466.866707 l
85.698212 443.212071 l
88.1786 499.925827 l
90.658987 458.922451 l
94.371817 445.918023 l
96.852204 442.765783 l
99.332592 413.99054 l
101.812979 420.189396 l
105.525809 396.100462 l
108.006197 412.433776 l
110.486584 408.174335 l
112.966971 466.1019 l
116.679801 433.605531 l
119.160189 454.694605 l
121.640576 391.073423 l
124.120964 405.598343 l
127.833794 393.120641 l
130.314181 403.703135 l
132.794569 395.803998 l
135.274956 407.973234 l
138.987786 398.560509 l
143.948561 421.864397 l
146.428948 417.606009 l
150.141778 403.627253 l
152.622166 389.929253 l
155.102553 405.482046 l
157.58294 403.016981 l
161.29577 403.797533 l
163.776158 386.436195 l
166.256545 385.71232 l
168.736933 435.44128 l
172.449763 404.68784 l
174.93015 392.138346 l
177.410537 382.860884 l
179.890925 390.266958 l
183.603755 400.046138 l
186.084142 401.461723 l
188.56453 412.728802 l
191.044917 394.087466 l
194.757747 417.586976 l
197.238134 406.662127 l
199.718522 388.159241 l
202.198909 391.257511 l
205.911739 383.894292 l
208.392127 381.238323 l
210.872514 412.030562 l
213.352902 408.643369 l
217.065732 396.843255 l
219.546119 397.666612 l
222.026506 396.271837 l
224.506894 402.380649 l
228.219724 392.439996 l
230.700111 389.261327 l
233.180499 374.555409 l
235.660886 404.025855 l
239.373716 390.504979 l
241.854103 395.202344 l
244.334491 407.556868 l
246.814878 397.371512 l
250.527708 400.440898 l
253.008096 395.411699 l
255.488483 403.817297 l
257.968871 388.57926 l
261.6817 393.491983 l
264.162088 389.447423 l
266.642475 399.514487 l
269.122863 394.151375 l
272.835693 419.050743 l
275.31608 393.756906 l
277.796468 401.628168 l
280.276855 361.613198 l
283.989685 390.915174 l
286.470072 374.306125 l
288.95046 410.128036 l
291.430847 383.178447 l
295.143677 387.974588 l
297.624065 382.989503 l
300.104452 402.521784 l
302.584839 407.38122 l
306.297669 389.060287 l
308.778057 403.679765 l
313.738832 385.691302 l
317.451662 413.83471 l
319.932049 376.270408 l
322.412436 395.019953 l
324.892824 380.60974 l
328.605654 395.985467 l
331.086041 377.156191 l
333.566429 382.728079 l
336.046816 382.712257 l
339.759646 400.493459 l
342.240034 386.26213 l
344.720421 371.361166 l
347.200808 412.685393 l
350.913638 381.559244 l
353.394026 395.919663 l
355.874413 407.713291 l
358.354801 388.742351 l
362.067631 379.650457 l
364.548018 395.465695 l
367.028405 398.770018 l
369.508793 404.56316 l
373.221623 397.802261 l
375.70201 405.516746 l
378.182398 370.96508 l
380.662785 396.552611 l
384.375615 395.585971 l
386.856002 410.54356 l
389.33639 408.487005 l
391.816777 386.362598 l
395.529607 403.562421 l
398.009995 393.846468 l
400.490382 399.156116 l
402.97077 390.058221 l
406.683599 379.862 l
409.163987 429.83945 l
411.644374 367.626139 l
414.124762 396.707425 l
417.837592 364.580491 l
420.317979 420.227641 l
422.798367 399.986996 l
425.278754 389.011284 l
428.991584 379.408331 l
431.471971 420.869722 l
433.952359 398.574526 l
436.432746 393.179908 l
440.145576 397.233752 l
442.625964 392.50264 l
445.106351 398.830829 l
447.586738 393.858383 l
451.299568 389.624596 l
453.779956 427.984646 l
456.260343 406.629206 l
458.740731 380.073561 l
462.453561 399.046189 l
464.933948 397.581121 l
467.414336 404.203779 l
469.894723 393.594702 l
473.607553 380.864675 l
476.08794 422.655111 l
478.568328 406.599174 l
481.048715 405.657749 l
484.761545 397.035985 l
487.241933 396.230102 l
489.72232 411.63207 l
492.202707 384.831027 l
495.915537 396.669506 l
498.395925 395.985729 l
500.876312 394.440119 l
503.3567 423.372053 l
507.06953 406.028005 l
509.549917 373.048224 l
512.030304 400.421989 l
514.510692 403.586374 l
518.223522 396.548906 l
520.703909 384.954981 l
523.184297 395.435921 l
525.664684 401.379733 l
529.377514 394.552215 l
531.857901 388.575204 l
534.338289 405.86342 l
536.818676 406.081468 l
540.531506 398.334566 l
543.011894 394.128338 l
545.492281 377.562253 l
547.972669 407.405772 l
551.685499 406.601916 l
554.165886 403.281273 l
556.646273 391.575455 l
559.126661 381.01826 l
562.839491 383.767894 l
565.319878 397.081543 l
567.800266 393.220802 l
570.280653 402.483776 l
573.993483 413.00845 l
576.47387 400.996493 l
578.954258 386.335436 l
581.434645 406.274749 l
585.147475 411.971485 l
587.627863 378.939488 l
590.10825 420.247039 l
592.588637 388.295453 l
596.301467 375.536679 l
598.781855 392.935693 l
601.262242 397.655178 l
603.74263 398.110039 l
603.74263 398.110039 l
stroke
grestore
[5.55 2.4] 0 setdash
1.000 0.498 0.055 setrgbcolor
gsave
566.5 208.2 42.19 337.7 clipbox
49.755848 478.528678 m
52.236235 431.685793 l
54.716623 454.651028 l
57.19701 473.262231 l
60.90984 454.655163 l
63.390228 486.399552 l
65.870615 431.479882 l
68.351003 459.294693 l
72.063833 468.253732 l
74.54422 456.765088 l
77.024607 483.030632 l
79.504995 432.709346 l
83.217825 434.757979 l
85.698212 459.893287 l
88.1786 463.669382 l
90.658987 439.491346 l
94.371817 461.044739 l
96.852204 429.484685 l
99.332592 433.366279 l
101.812979 465.898508 l
105.525809 435.780098 l
108.006197 449.149047 l
110.486584 418.119404 l
112.966971 472.898454 l
116.679801 452.465799 l
119.160189 462.491888 l
121.640576 427.106004 l
124.120964 429.286225 l
127.833794 416.373763 l
130.314181 438.82575 l
132.794569 430.301505 l
135.274956 432.245931 l
138.987786 422.444448 l
141.468173 443.976472 l
143.948561 432.394342 l
146.428948 421.399934 l
150.141778 421.236305 l
152.622166 429.328222 l
155.102553 448.711588 l
157.58294 422.007559 l
161.29577 437.208785 l
163.776158 395.051923 l
166.256545 413.634419 l
168.736933 448.504013 l
172.449763 420.546132 l
174.93015 405.307191 l
177.410537 420.062524 l
179.890925 411.051955 l
183.603755 420.938948 l
186.084142 424.065486 l
188.56453 417.461904 l
191.044917 404.892082 l
194.757747 436.298049 l
199.718522 391.06877 l
202.198909 417.540751 l
205.911739 411.874045 l
208.392127 401.602581 l
210.872514 406.161431 l
213.352902 412.61808 l
217.065732 412.026223 l
219.546119 405.693193 l
222.026506 393.853246 l
224.506894 410.575475 l
228.219724 402.312118 l
230.700111 394.02072 l
233.180499 407.103125 l
235.660886 406.510384 l
239.373716 399.268056 l
241.854103 407.546584 l
244.334491 405.175975 l
246.814878 397.176103 l
250.527708 407.441568 l
253.008096 401.816138 l
255.488483 395.528792 l
257.968871 402.791327 l
261.6817 403.326922 l
264.162088 395.248906 l
266.642475 402.208905 l
269.122863 389.116284 l
272.835693 425.670936 l
275.31608 385.796843 l
277.796468 406.406618 l
280.276855 369.037661 l
283.989685 390.765317 l
286.470072 369.07705 l
288.95046 420.938908 l
291.430847 387.06454 l
295.143677 375.07792 l
297.624065 383.747145 l
300.104452 405.325986 l
302.584839 410.577254 l
306.297669 384.332188 l
308.778057 407.710426 l
311.258444 402.655519 l
313.738832 382.455144 l
317.451662 412.320833 l
319.932049 377.60331 l
322.412436 396.511437 l
324.892824 379.996963 l
328.605654 391.915004 l
331.086041 371.021291 l
333.566429 392.706941 l
336.046816 409.34105 l
339.759646 400.879961 l
342.240034 387.600673 l
344.720421 369.38803 l
347.200808 403.668432 l
350.913638 379.840732 l
353.394026 388.207605 l
355.874413 403.860126 l
358.354801 386.797181 l
362.067631 379.948788 l
367.028405 404.178032 l
369.508793 401.863451 l
373.221623 401.724267 l
375.70201 399.05644 l
378.182398 370.028031 l
380.662785 388.170804 l
384.375615 388.00961 l
386.856002 400.143308 l
389.33639 404.590886 l
391.816777 384.090829 l
395.529607 385.750636 l
398.009995 385.171223 l
400.490382 394.985988 l
402.97077 390.505882 l
406.683599 371.260294 l
409.163987 400.470432 l
411.644374 377.016581 l
414.124762 397.77145 l
417.837592 370.032142 l
420.317979 405.614924 l
422.798367 396.848689 l
425.278754 385.130187 l
428.991584 364.703413 l
431.471971 409.455905 l
433.952359 382.6619 l
436.432746 388.207969 l
440.145576 393.482756 l
445.106351 383.559301 l
447.586738 384.47228 l
451.299568 379.12868 l
453.779956 415.415228 l
456.260343 396.228242 l
458.740731 354.05503 l
462.453561 384.386374 l
464.933948 377.70386 l
467.414336 402.374819 l
469.894723 383.917668 l
473.607553 373.642541 l
476.08794 408.311985 l
478.568328 395.18462 l
481.048715 388.033 l
484.761545 375.3641 l
487.241933 383.614736 l
489.72232 415.151398 l
492.202707 392.31093 l
495.915537 376.917841 l
498.395925 396.661405 l
500.876312 380.21275 l
503.3567 395.262607 l
507.06953 379.855639 l
509.549917 364.969882 l
512.030304 379.054827 l
514.510692 399.720023 l
518.223522 399.821577 l
520.703909 366.635475 l
523.184297 395.149395 l
525.664684 400.160496 l
529.377514 392.509314 l
531.857901 384.012833 l
534.338289 382.413246 l
536.818676 399.653297 l
540.531506 384.028966 l
543.011894 382.750756 l
545.492281 373.721924 l
547.972669 399.711105 l
551.685499 379.925861 l
554.165886 395.716793 l
556.646273 391.304003 l
559.126661 380.794056 l
562.839491 371.685683 l
565.319878 391.858227 l
567.800266 374.770813 l
570.280653 396.341199 l
573.993483 399.396573 l
576.47387 390.420464 l
578.954258 384.567967 l
581.434645 391.653011 l
585.147475 399.743312 l
587.627863 371.498805 l
590.10825 389.7326 l
592.588637 387.57319 l
596.301467 368.287477 l
598.781855 381.765535 l
601.262242 400.821837 l
603.74263 374.920293 l
603.74263 374.920293 l
stroke
grestore
[1.5 2.475] 0 setdash
0.173 0.627 0.173 setrgbcolor
gsave
566.5 208.2 42.19 337.7 clipbox
49.755848 540.59427 m
52.236235 463.25454 l
54.716623 477.325041 l
57.19701 497.684685 l
60.90984 477.180536 l
63.390228 498.993903 l
65.870615 448.983317 l
68.351003 449.998915 l
72.063833 464.756282 l
74.54422 468.191134 l
77.024607 490.709885 l
79.504995 433.564788 l
83.217825 427.542055 l
85.698212 460.631332 l
88.1786 460.054477 l
90.658987 423.601562 l
94.371817 455.562082 l
96.852204 412.544028 l
99.332592 429.698137 l
101.812979 447.999798 l
105.525809 418.839692 l
108.006197 441.147346 l
110.486584 426.163012 l
112.966971 452.266581 l
116.679801 431.795025 l
119.160189 430.604492 l
121.640576 412.757546 l
124.120964 439.370528 l
127.833794 429.537798 l
130.314181 437.131333 l
132.794569 423.683668 l
135.274956 435.803973 l
138.987786 408.06822 l
141.468173 459.3018 l
143.948561 457.871721 l
146.428948 425.448151 l
150.141778 448.486102 l
152.622166 453.91291 l
155.102553 431.422724 l
157.58294 445.022373 l
161.29577 439.624598 l
163.776158 421.417253 l
166.256545 441.863808 l
168.736933 444.535331 l
172.449763 489.454966 l
174.93015 443.910298 l
177.410537 450.711831 l
179.890925 443.457766 l
183.603755 452.862659 l
186.084142 425.865246 l
188.56453 440.779895 l
191.044917 429.713448 l
194.757747 453.631562 l
197.238134 434.861576 l
199.718522 460.092332 l
202.198909 425.183208 l
205.911739 427.992216 l
208.392127 443.403274 l
210.872514 432.779785 l
213.352902 435.286427 l
217.065732 460.067442 l
219.546119 442.158302 l
222.026506 421.059674 l
224.506894 417.33827 l
228.219724 420.896099 l
230.700111 437.415812 l
233.180499 449.112263 l
235.660886 444.550424 l
239.373716 426.09817 l
241.854103 429.418575 l
244.334491 431.69213 l
246.814878 436.910729 l
250.527708 428.643517 l
253.008096 423.611485 l
255.488483 422.166913 l
257.968871 425.436955 l
261.6817 427.919784 l
264.162088 440.739324 l
266.642475 449.558077 l
269.122863 442.9924 l
272.835693 480.447145 l
275.31608 446.46394 l
277.796468 435.519555 l
280.276855 437.384598 l
283.989685 434.67635 l
286.470072 391.879207 l
288.95046 468.544663 l
291.430847 458.36537 l
295.143677 404.346548 l
297.624065 445.870849 l
302.584839 436.518269 l
306.297669 435.061075 l
308.778057 445.562037 l
311.258444 421.139504 l
313.738832 398.550098 l
317.451662 449.882363 l
319.932049 428.812497 l
322.412436 431.875077 l
324.892824 429.609234 l
328.605654 433.478004 l
331.086041 406.772323 l
333.566429 449.505441 l
336.046816 422.306172 l
339.759646 406.172298 l
342.240034 414.047627 l
344.720421 432.03963 l
347.200808 462.803986 l
350.913638 428.868369 l
353.394026 423.924125 l
355.874413 435.481917 l
358.354801 431.800047 l
362.067631 404.420283 l
364.548018 422.100245 l
367.028405 442.169838 l
369.508793 452.712798 l
373.221623 451.772764 l
375.70201 416.159613 l
378.182398 412.409813 l
380.662785 446.206811 l
384.375615 414.477621 l
386.856002 451.954076 l
389.33639 433.437697 l
391.816777 424.537365 l
395.529607 409.274613 l
398.009995 425.453919 l
400.490382 444.191842 l
402.97077 443.304307 l
406.683599 417.413988 l
409.163987 454.310423 l
411.644374 423.197945 l
414.124762 455.482924 l
417.837592 419.811428 l
420.317979 441.675316 l
422.798367 441.923335 l
425.278754 439.492813 l
428.991584 396.397385 l
431.471971 452.303494 l
433.952359 437.66628 l
436.432746 416.610202 l
440.145576 428.186596 l
442.625964 427.608731 l
445.106351 414.663547 l
447.586738 430.80975 l
451.299568 424.069441 l
453.779956 424.405285 l
456.260343 427.569533 l
458.740731 407.485524 l
462.453561 429.167536 l
464.933948 419.727473 l
467.414336 453.586416 l
469.894723 423.618565 l
473.607553 396.040034 l
476.08794 447.945626 l
478.568328 426.795709 l
481.048715 413.070583 l
484.761545 394.936192 l
487.241933 427.778109 l
489.72232 455.273196 l
492.202707 439.965487 l
495.915537 420.245246 l
498.395925 462.994417 l
500.876312 407.845223 l
503.3567 441.41548 l
507.06953 408.44009 l
509.549917 394.447023 l
512.030304 456.568541 l
514.510692 445.90144 l
518.223522 426.204654 l
520.703909 402.372424 l
523.184297 437.376295 l
525.664684 415.768674 l
529.377514 414.504566 l
531.857901 456.899985 l
534.338289 422.490235 l
536.818676 465.386719 l
540.531506 423.406287 l
543.011894 413.050933 l
545.492281 397.387336 l
547.972669 450.188324 l
551.685499 423.090372 l
554.165886 428.942711 l
556.646273 431.654255 l
559.126661 398.19358 l
562.839491 419.612885 l
565.319878 451.175861 l
567.800266 404.680422 l
570.280653 442.149422 l
573.993483 445.434772 l
576.47387 438.408379 l
578.954258 426.37786 l
585.147475 438.370866 l
587.627863 403.566281 l
590.10825 449.669532 l
592.588637 414.447614 l
596.301467 406.807838 l
598.781855 436.680449 l
601.262242 434.778121 l
603.74263 423.091641 l
603.74263 423.091641 l
stroke
grestore
2 setlinecap
[] 0 setdash
0.839 0.153 0.157 setrgbcolor
gsave
566.5 208.2 42.19 337.7 clipbox
49.755848 469.424795 m
52.236235 410.815054 l
54.716623 421.691096 l
57.19701 426.674874 l
60.90984 392.993985 l
63.390228 419.109395 l
65.870615 372.38755 l
68.351003 394.792537 l
72.063833 399.150002 l
74.54422 383.858771 l
77.024607 408.753566 l
79.504995 368.279872 l
83.217825 370.181921 l
85.698212 393.070009 l
88.1786 401.765962 l
90.658987 366.746246 l
94.371817 390.66034 l
96.852204 371.675981 l
99.332592 390.863045 l
101.812979 383.005209 l
105.525809 372.728868 l
108.006197 379.247369 l
110.486584 369.535123 l
112.966971 401.700079 l
116.679801 389.483236 l
119.160189 382.468574 l
121.640576 368.362741 l
124.120964 375.961471 l
127.833794 369.570013 l
130.314181 381.51498 l
132.794569 373.243644 l
135.274956 378.938367 l
138.987786 368.231808 l
141.468173 377.329207 l
143.948561 391.034848 l
146.428948 364.245072 l
150.141778 370.595852 l
152.622166 367.25177 l
155.102553 394.606636 l
157.58294 370.386157 l
161.29577 377.268881 l
163.776158 358.768296 l
166.256545 367.018411 l
168.736933 397.613621 l
172.449763 386.902458 l
174.93015 372.207437 l
177.410537 366.05992 l
179.890925 360.224317 l
183.603755 368.319748 l
186.084142 372.37498 l
188.56453 385.719423 l
191.044917 362.23108 l
194.757747 393.957049 l
199.718522 359.98257 l
202.198909 372.60826 l
205.911739 366.773376 l
208.392127 364.39909 l
210.872514 384.366835 l
213.352902 377.448008 l
217.065732 376.691108 l
219.546119 372.102572 l
222.026506 364.493595 l
224.506894 366.207978 l
228.219724 369.789762 l
230.700111 365.492578 l
233.180499 362.969849 l
235.660886 380.507312 l
239.373716 366.617339 l
241.854103 365.638485 l
244.334491 366.417081 l
246.814878 370.75404 l
250.527708 371.987491 l
253.008096 369.597414 l
255.488483 367.567944 l
257.968871 367.566956 l
261.6817 367.219059 l
264.162088 368.211826 l
266.642475 369.805784 l
269.122863 373.874428 l
272.835693 392.732157 l
275.31608 370.110413 l
277.796468 372.376499 l
280.276855 340.778882 l
283.989685 369.664999 l
286.470072 346.222681 l
288.95046 392.367933 l
291.430847 362.578599 l
295.143677 361.40136 l
297.624065 353.745518 l
300.104452 377.290405 l
302.584839 377.396078 l
306.297669 360.702361 l
308.778057 378.407608 l
311.258444 372.133705 l
313.738832 359.816994 l
317.451662 382.872523 l
319.932049 350.81113 l
322.412436 377.283308 l
324.892824 361.09139 l
328.605654 367.590933 l
331.086041 350.682417 l
333.566429 369.487157 l
336.046816 374.261286 l
339.759646 375.179291 l
342.240034 363.647571 l
344.720421 344.273914 l
347.200808 381.009404 l
350.913638 352.421422 l
353.394026 368.321687 l
355.874413 375.435796 l
358.354801 368.179402 l
362.067631 356.543339 l
364.548018 369.234585 l
367.028405 373.502825 l
369.508793 369.00096 l
373.221623 371.96981 l
375.70201 375.427427 l
378.182398 349.771418 l
380.662785 364.720488 l
384.375615 360.72761 l
386.856002 370.75438 l
389.33639 376.644094 l
391.816777 363.435153 l
395.529607 357.380044 l
398.009995 368.038298 l
400.490382 368.870098 l
402.97077 368.06631 l
406.683599 351.735706 l
409.163987 376.403927 l
411.644374 352.727106 l
414.124762 380.054318 l
417.837592 344.58139 l
420.317979 381.485069 l
422.798367 370.317303 l
425.278754 364.171301 l
428.991584 344.099224 l
431.471971 387.828316 l
433.952359 360.460461 l
440.145576 372.538657 l
442.625964 358.402989 l
445.106351 360.587463 l
447.586738 361.306628 l
451.299568 353.698475 l
453.779956 387.267542 l
458.740731 348.169154 l
462.453561 364.486934 l
464.933948 350.759418 l
467.414336 378.951095 l
469.894723 356.787738 l
473.607553 352.915043 l
476.08794 377.598514 l
478.568328 367.550247 l
481.048715 361.541202 l
484.761545 357.073955 l
487.241933 361.537503 l
489.72232 375.427668 l
492.202707 362.031349 l
495.915537 348.939983 l
498.395925 367.68122 l
500.876312 362.933876 l
503.3567 375.820689 l
507.06953 364.56526 l
509.549917 342.078569 l
512.030304 363.095069 l
514.510692 370.890425 l
518.223522 368.592002 l
520.703909 351.491612 l
523.184297 366.038716 l
525.664684 371.114362 l
529.377514 358.835159 l
531.857901 358.285466 l
534.338289 363.616953 l
536.818676 377.403895 l
540.531506 362.200564 l
543.011894 360.598311 l
545.492281 349.513309 l
547.972669 374.052788 l
551.685499 360.044833 l
554.165886 366.613495 l
556.646273 362.596425 l
559.126661 351.946917 l
562.839491 355.326403 l
565.319878 367.942322 l
567.800266 354.820023 l
570.280653 365.245375 l
573.993483 371.902359 l
576.47387 365.221495 l
578.954258 355.677004 l
581.434645 364.25707 l
585.147475 371.657532 l
587.627863 351.647965 l
590.10825 364.686634 l
592.588637 353.749639 l
596.301467 343.112586 l
598.781855 355.750802 l
601.262242 379.070598 l
603.74263 352.553115 l
603.74263 352.553115 l
stroke
grestore
0 setlinecap
[9.6 2.4 1.5 2.4] 0 setdash
0.580 0.404 0.741 setrgbcolor
gsave
566.5 208.2 42.19 337.7 clipbox
49.755848 508.11747 m
52.236235 424.420888 l
54.716623 447.846535 l
57.19701 450.281327 l
60.90984 405.806234 l
63.390228 426.80873 l
65.870615 397.457098 l
68.351003 404.875864 l
72.063833 409.521342 l
74.54422 392.483634 l
77.024607 422.070801 l
79.504995 379.92647 l
83.217825 376.716978 l
85.698212 402.941885 l
88.1786 413.687992 l
90.658987 370.340644 l
94.371817 400.246943 l
96.852204 382.371759 l
99.332592 395.816922 l
101.812979 398.340909 l
105.525809 385.396968 l
108.006197 382.884054 l
110.486584 380.186051 l
112.966971 405.821234 l
116.679801 403.436851 l
119.160189 391.384448 l
121.640576 375.620558 l
124.120964 383.227971 l
127.833794 373.03008 l
130.314181 386.337658 l
132.794569 380.128642 l
135.274956 385.132693 l
138.987786 374.621493 l
141.468173 383.610897 l
143.948561 394.75041 l
146.428948 371.884823 l
150.141778 373.364312 l
152.622166 384.331771 l
155.102553 401.097451 l
157.58294 375.937683 l
161.29577 386.082767 l
163.776158 366.369666 l
166.256545 374.681616 l
168.736933 407.619387 l
172.449763 396.888187 l
174.93015 382.126076 l
177.410537 371.994162 l
179.890925 369.143852 l
183.603755 376.870283 l
186.084142 382.806308 l
188.56453 393.91757 l
191.044917 373.882913 l
194.757747 401.497029 l
197.238134 379.164488 l
199.718522 361.960585 l
202.198909 381.783644 l
205.911739 376.62857 l
208.392127 365.613716 l
210.872514 390.054546 l
213.352902 376.462365 l
217.065732 380.34976 l
219.546119 382.067542 l
222.026506 373.301569 l
224.506894 388.512367 l
228.219724 375.590847 l
230.700111 374.400033 l
233.180499 369.133164 l
235.660886 392.301836 l
239.373716 372.166281 l
241.854103 378.87144 l
244.334491 377.567771 l
246.814878 385.393934 l
250.527708 376.350034 l
253.008096 375.699656 l
255.488483 376.601008 l
257.968871 373.568774 l
261.6817 382.311946 l
264.162088 375.414464 l
266.642475 377.618679 l
269.122863 385.41635 l
272.835693 407.70736 l
275.31608 379.224231 l
277.796468 386.510227 l
280.276855 356.571236 l
283.989685 387.525104 l
286.470072 356.071616 l
288.95046 397.81256 l
291.430847 375.326355 l
295.143677 376.930418 l
297.624065 371.654745 l
300.104452 383.868896 l
302.584839 389.955631 l
306.297669 378.746545 l
308.778057 389.451481 l
311.258444 388.249449 l
313.738832 370.846588 l
317.451662 396.974991 l
319.932049 365.149821 l
322.412436 383.877735 l
324.892824 369.170427 l
328.605654 375.679955 l
331.086041 362.256668 l
333.566429 382.136637 l
336.046816 387.925848 l
339.759646 388.273103 l
342.240034 370.498754 l
344.720421 351.141253 l
347.200808 398.157739 l
350.913638 366.510934 l
353.394026 373.623337 l
355.874413 393.743595 l
358.354801 374.455516 l
362.067631 365.711757 l
364.548018 384.520651 l
367.028405 394.963825 l
369.508793 383.132175 l
373.221623 386.668688 l
375.70201 394.009532 l
378.182398 359.793163 l
380.662785 373.123767 l
384.375615 378.563959 l
386.856002 386.547859 l
389.33639 387.641306 l
391.816777 373.336609 l
395.529607 374.729694 l
398.009995 371.551247 l
400.490382 395.087032 l
402.97077 388.763463 l
406.683599 362.730461 l
409.163987 388.212161 l
411.644374 360.176404 l
414.124762 394.711869 l
417.837592 365.535777 l
420.317979 401.67869 l
422.798367 380.56633 l
425.278754 372.938941 l
428.991584 355.815037 l
431.471971 395.808941 l
433.952359 373.349571 l
436.432746 383.562575 l
440.145576 381.18252 l
442.625964 379.27871 l
445.106351 377.055919 l
447.586738 384.122874 l
451.299568 372.634381 l
453.779956 410.55323 l
456.260343 395.076679 l
458.740731 358.195787 l
462.453561 378.445612 l
464.933948 367.122949 l
467.414336 395.012755 l
469.894723 373.714079 l
473.607553 374.473516 l
476.08794 393.228169 l
478.568328 379.985667 l
481.048715 387.064455 l
484.761545 377.078145 l
487.241933 370.917629 l
489.72232 391.595828 l
492.202707 374.222214 l
495.915537 362.786561 l
498.395925 389.376003 l
500.876312 380.841718 l
503.3567 391.385305 l
507.06953 385.528147 l
509.549917 358.313247 l
512.030304 384.231709 l
514.510692 389.813916 l
518.223522 377.961666 l
520.703909 362.834057 l
523.184297 382.548167 l
525.664684 384.735747 l
529.377514 373.198695 l
531.857901 380.996661 l
534.338289 380.978703 l
536.818676 392.251233 l
540.531506 388.325805 l
543.011894 379.311324 l
545.492281 362.030748 l
547.972669 390.788611 l
551.685499 374.198447 l
554.165886 387.569602 l
556.646273 383.579097 l
559.126661 365.375187 l
562.839491 374.387705 l
565.319878 387.347443 l
567.800266 373.684963 l
570.280653 379.148564 l
573.993483 392.912195 l
576.47387 390.338065 l
578.954258 374.692987 l
581.434645 385.188789 l
585.147475 393.16557 l
587.627863 369.269557 l
590.10825 391.955307 l
592.588637 373.707036 l
596.301467 363.96375 l
598.781855 368.376707 l
601.262242 386.529657 l
603.74263 369.286046 l
603.74263 369.286046 l
stroke
grestore
0.800 setlinewidth
0 setlinejoin
2 setlinecap
[] 0 setdash
0.000 setgray
gsave
42.194171 337.654667 m
42.194171 545.889 l
stroke
grestore
gsave
608.679771 337.654667 m
608.679771 545.889 l
stroke
grestore
gsave
42.194171 337.654667 m
608.679771 337.654667 l
stroke
grestore
gsave
42.194171 545.889 m
608.679771 545.889 l
stroke
grestore
gsave
149.265096 551.889000 translate
0.000000 rotate
0.000000 0.000000 m /M glyphshow
12.079102 0.000000 m /e glyphshow
20.692383 0.000000 m /a glyphshow
29.271484 0.000000 m /n glyphshow
38.144531 0.000000 m /space glyphshow
42.594727 0.000000 m /S glyphshow
51.481445 0.000000 m /q glyphshow
60.368164 0.000000 m /u glyphshow
69.241211 0.000000 m /a glyphshow
77.820312 0.000000 m /r glyphshow
83.576172 0.000000 m /e glyphshow
92.189453 0.000000 m /d glyphshow
101.076172 0.000000 m /space glyphshow
105.526367 0.000000 m /E glyphshow
114.372070 0.000000 m /r glyphshow
120.127930 0.000000 m /r glyphshow
125.883789 0.000000 m /o glyphshow
134.449219 0.000000 m /r glyphshow
140.205078 0.000000 m /space glyphshow
144.655273 0.000000 m /T glyphshow
153.175781 0.000000 m /r glyphshow
158.931641 0.000000 m /a glyphshow
167.510742 0.000000 m /i glyphshow
171.400391 0.000000 m /n glyphshow
180.273438 0.000000 m /i glyphshow
184.163086 0.000000 m /n glyphshow
193.036133 0.000000 m /g glyphshow
201.922852 0.000000 m /space glyphshow
206.373047 0.000000 m /l glyphshow
210.262695 0.000000 m /o glyphshow
218.828125 0.000000 m /s glyphshow
226.122070 0.000000 m /s glyphshow
233.416016 0.000000 m /space glyphshow
237.866211 0.000000 m /o glyphshow
246.431641 0.000000 m /n glyphshow
255.304688 0.000000 m /space glyphshow
259.754883 0.000000 m /W glyphshow
273.597656 0.000000 m /i glyphshow
277.487305 0.000000 m /n glyphshow
286.360352 0.000000 m /e glyphshow
294.973633 0.000000 m /space glyphshow
299.423828 0.000000 m /d glyphshow
308.310547 0.000000 m /a glyphshow
316.889648 0.000000 m /t glyphshow
322.378906 0.000000 m /a glyphshow
330.958008 0.000000 m /s glyphshow
338.251953 0.000000 m /e glyphshow
346.865234 0.000000 m /t glyphshow
grestore
1.000 setlinewidth
0 setlinecap
0.800 setgray
gsave
509.898521 464.529625 m
601.679771 464.529625 l
603.013105 464.529625 603.679771 465.196292 603.679771 466.529625 c
603.679771 538.889 l
603.679771 540.222333 603.013105 540.889 601.679771 540.889 c
509.898521 540.889 l
508.565188 540.889 507.898521 540.222333 507.898521 538.889 c
507.898521 466.529625 l
507.898521 465.196292 508.565188 464.529625 509.898521 464.529625 c
cl
gsave
1.000 setgray
fill
grestore
stroke
grestore
1.500 setlinewidth
1 setlinejoin
[9.6 2.4 1.5 2.4] 0 setdash
0.122 0.467 0.706 setrgbcolor
gsave
511.898521 532.79525 m
531.898521 532.79525 l
stroke
grestore
0.000 setgray
/DejaVuSans findfont
10.000 scalefont
setfont
gsave
539.898521 529.295250 translate
0.000000 rotate
0.000000 0.000000 m /N glyphshow
7.480469 0.000000 m /o glyphshow
13.598633 0.000000 m /i glyphshow
16.376953 0.000000 m /s glyphshow
21.586914 0.000000 m /y glyphshow
27.504883 0.000000 m /space glyphshow
30.683594 0.000000 m /K glyphshow
37.241211 0.000000 m /F glyphshow
42.993164 0.000000 m /A glyphshow
49.833984 0.000000 m /C glyphshow
grestore
[5.55 2.4] 0 setdash
1.000 0.498 0.055 setrgbcolor
gsave
511.898521 518.123375 m
531.898521 518.123375 l
stroke
grestore
0.000 setgray
gsave
539.898521 514.623375 translate
0.000000 rotate
0.000000 0.000000 m /N glyphshow
7.480469 0.000000 m /o glyphshow
13.598633 0.000000 m /i glyphshow
16.376953 0.000000 m /s glyphshow
21.586914 0.000000 m /y glyphshow
27.504883 0.000000 m /space glyphshow
30.683594 0.000000 m /A glyphshow
37.524414 0.000000 m /d glyphshow
43.872070 0.000000 m /a glyphshow
50.000000 0.000000 m /m glyphshow
grestore
[1.5 2.475] 0 setdash
0.173 0.627 0.173 setrgbcolor
gsave
511.898521 503.4515 m
531.898521 503.4515 l
stroke
grestore
0.000 setgray
gsave
539.898521 499.951500 translate
0.000000 rotate
0.000000 0.000000 m /V glyphshow
6.840820 0.000000 m /p glyphshow
13.188477 0.000000 m /r glyphshow
17.299805 0.000000 m /o glyphshow
23.417969 0.000000 m /p glyphshow
grestore
2 setlinecap
[] 0 setdash
0.839 0.153 0.157 setrgbcolor
gsave
511.898521 488.779625 m
531.898521 488.779625 l
stroke
grestore
0.000 setgray
gsave
539.898521 485.279625 translate
0.000000 rotate
0.000000 0.000000 m /A glyphshow
6.840820 0.000000 m /d glyphshow
13.188477 0.000000 m /a glyphshow
19.316406 0.000000 m /m glyphshow
grestore
0 setlinecap
[9.6 2.4 1.5 2.4] 0 setdash
0.580 0.404 0.741 setrgbcolor
gsave
511.898521 474.10775 m
531.898521 474.10775 l
stroke
grestore
0.000 setgray
gsave
539.898521 470.607750 translate
0.000000 rotate
0.000000 0.000000 m /B glyphshow
6.860352 0.000000 m /B glyphshow
13.720703 0.000000 m /B glyphshow
grestore
gsave
42.194171 36.476333 m
608.679771 36.476333 l
608.679771 244.710667 l
42.194171 244.710667 l
cl
1.000 setgray
fill
grestore
0.800 setlinewidth
[] 0 setdash
gsave
/o {
gsave
newpath
translate
0.8 setlinewidth
1 setlinejoin
0 setlinecap
0 0 m
0 -3.5 l

gsave
0.000 setgray
fill
grestore
stroke
grestore
} bind def
48.985 36.4763 o
grestore
gsave
45.805323 21.882583 translate
0.000000 rotate
0.000000 0.000000 m /zero glyphshow
grestore
gsave
/o {
gsave
newpath
translate
0.8 setlinewidth
1 setlinejoin
0 setlinecap
0 0 m
0 -3.5 l

gsave
0.000 setgray
fill
grestore
stroke
grestore
} bind def
158.635 36.4763 o
grestore
gsave
152.276124 21.882583 translate
0.000000 rotate
0.000000 0.000000 m /one glyphshow
6.362305 0.000000 m /zero glyphshow
grestore
gsave
/o {
gsave
newpath
translate
0.8 setlinewidth
1 setlinejoin
0 setlinecap
0 0 m
0 -3.5 l

gsave
0.000 setgray
fill
grestore
stroke
grestore
} bind def
268.286 36.4763 o
grestore
gsave
261.926611 21.882583 translate
0.000000 rotate
0.000000 0.000000 m /two glyphshow
6.362305 0.000000 m /zero glyphshow
grestore
gsave
/o {
gsave
newpath
translate
0.8 setlinewidth
1 setlinejoin
0 setlinecap
0 0 m
0 -3.5 l

gsave
0.000 setgray
fill
grestore
stroke
grestore
} bind def
377.936 36.4763 o
grestore
gsave
371.577099 21.882583 translate
0.000000 rotate
0.000000 0.000000 m /three glyphshow
6.362305 0.000000 m /zero glyphshow
grestore
gsave
/o {
gsave
newpath
translate
0.8 setlinewidth
1 setlinejoin
0 setlinecap
0 0 m
0 -3.5 l

gsave
0.000 setgray
fill
grestore
stroke
grestore
} bind def
487.587 36.4763 o
grestore
gsave
481.227586 21.882583 translate
0.000000 rotate
0.000000 0.000000 m /four glyphshow
6.362305 0.000000 m /zero glyphshow
grestore
gsave
/o {
gsave
newpath
translate
0.8 setlinewidth
1 setlinejoin
0 setlinecap
0 0 m
0 -3.5 l

gsave
0.000 setgray
fill
grestore
stroke
grestore
} bind def
597.237 36.4763 o
grestore
gsave
590.878074 21.882583 translate
0.000000 rotate
0.000000 0.000000 m /five glyphshow
6.362305 0.000000 m /zero glyphshow
grestore
/DejaVuSans findfont
14.000 scalefont
setfont
gsave
300.351034 5.163833 translate
0.000000 rotate
0.000000 0.000000 m /E glyphshow
8.845703 0.000000 m /p glyphshow
17.732422 0.000000 m /o glyphshow
26.297852 0.000000 m /c glyphshow
33.995117 0.000000 m /h glyphshow
42.868164 0.000000 m /s glyphshow
grestore
gsave
/o {
gsave
newpath
translate
0.8 setlinewidth
1 setlinejoin
0 setlinecap
0 0 m
-3.5 0 l

gsave
0.000 setgray
fill
grestore
stroke
grestore
} bind def
42.1942 66.6968 o
grestore
/DejaVuSans findfont
10.000 scalefont
setfont
gsave
19.287921 62.899965 translate
0.000000 rotate
0.000000 0.000000 m /zero glyphshow
6.362305 0.000000 m /period glyphshow
9.541016 0.000000 m /six glyphshow
grestore
gsave
/o {
gsave
newpath
translate
0.8 setlinewidth
1 setlinejoin
0 setlinecap
0 0 m
-3.5 0 l

gsave
0.000 setgray
fill
grestore
stroke
grestore
} bind def
42.1942 109.108 o
grestore
gsave
19.287921 105.311180 translate
0.000000 rotate
0.000000 0.000000 m /zero glyphshow
6.362305 0.000000 m /period glyphshow
9.541016 0.000000 m /seven glyphshow
grestore
gsave
/o {
gsave
newpath
translate
0.8 setlinewidth
1 setlinejoin
0 setlinecap
0 0 m
-3.5 0 l

gsave
0.000 setgray
fill
grestore
stroke
grestore
} bind def
42.1942 151.519 o
grestore
gsave
19.287921 147.722394 translate
0.000000 rotate
0.000000 0.000000 m /zero glyphshow
6.362305 0.000000 m /period glyphshow
9.541016 0.000000 m /eight glyphshow
grestore
gsave
/o {
gsave
newpath
translate
0.8 setlinewidth
1 setlinejoin
0 setlinecap
0 0 m
-3.5 0 l

gsave
0.000 setgray
fill
grestore
stroke
grestore
} bind def
42.1942 193.93 o
grestore
gsave
19.287921 190.133609 translate
0.000000 rotate
0.000000 0.000000 m /zero glyphshow
6.362305 0.000000 m /period glyphshow
9.541016 0.000000 m /nine glyphshow
grestore
gsave
/o {
gsave
newpath
translate
0.8 setlinewidth
1 setlinejoin
0 setlinecap
0 0 m
-3.5 0 l

gsave
0.000 setgray
fill
grestore
stroke
grestore
} bind def
42.1942 236.342 o
grestore
gsave
19.287921 232.544823 translate
0.000000 rotate
0.000000 0.000000 m /one glyphshow
6.362305 0.000000 m /period glyphshow
9.541016 0.000000 m /zero glyphshow
grestore
/DejaVuSans findfont
14.000 scalefont
setfont
gsave
12.381671 94.273187 translate
90.000000 rotate
0.000000 0.000000 m /M glyphshow
12.079102 0.000000 m /S glyphshow
20.965820 0.000000 m /E glyphshow
29.811523 0.000000 m /space glyphshow
34.261719 0.000000 m /t glyphshow
39.750977 0.000000 m /e glyphshow
48.364258 0.000000 m /s glyphshow
55.658203 0.000000 m /t glyphshow
61.147461 0.000000 m /space glyphshow
65.597656 0.000000 m /l glyphshow
69.487305 0.000000 m /o glyphshow
78.052734 0.000000 m /s glyphshow
85.346680 0.000000 m /s glyphshow
grestore
1.500 setlinewidth
[9.6 2.4 1.5 2.4] 0 setdash
0.122 0.467 0.706 setrgbcolor
gsave
566.5 208.2 42.19 36.48 clipbox
51.179545 201.696199 m
56.056286 201.605093 l
58.494657 201.56811 l
62.144593 189.04565 l
64.582964 188.742251 l
67.021335 196.435426 l
69.459706 190.234373 l
73.109642 184.641635 l
75.548013 139.341748 l
77.986384 107.777436 l
80.424755 89.792451 l
84.074691 88.400612 l
86.513062 71.63112 l
88.951433 69.918236 l
91.389803 65.183621 l
95.03974 62.93649 l
97.478111 64.610317 l
99.916481 64.334194 l
102.354852 62.671212 l
106.004788 61.07489 l
108.443159 62.055616 l
110.88153 60.823111 l
113.319901 55.867304 l
116.969837 54.624105 l
119.408208 54.360142 l
121.846579 55.036862 l
124.28495 55.13272 l
127.934886 55.869958 l
130.373257 54.366537 l
132.811628 54.031135 l
135.249998 54.492831 l
138.899935 54.668773 l
141.338306 52.645286 l
143.776676 54.272828 l
146.215047 52.015939 l
149.864984 55.056681 l
152.303354 54.957536 l
154.741725 54.259126 l
157.180096 53.379946 l
160.830032 53.477978 l
163.268403 54.051737 l
168.145145 53.963058 l
171.795081 53.50346 l
174.233452 54.269592 l
176.671823 54.482922 l
179.110193 54.053279 l
182.76013 53.777839 l
187.636871 53.801651 l
190.075242 53.037339 l
193.725179 52.898127 l
196.163549 52.192437 l
198.60192 52.048675 l
201.040291 51.254888 l
204.690227 50.828279 l
207.128598 49.448346 l
209.566969 49.797854 l
212.00534 50.349367 l
218.093647 52.573469 l
220.532018 52.454227 l
222.970389 52.193727 l
226.620325 53.350799 l
229.058696 53.905068 l
231.497066 52.616443 l
233.935437 52.366661 l
237.585374 52.394923 l
240.023744 51.822984 l
242.462115 52.475993 l
244.900486 52.063919 l
248.550422 51.724876 l
250.988793 52.385089 l
253.427164 52.106691 l
255.865535 52.603475 l
259.515471 53.068382 l
261.953842 52.676228 l
264.392213 52.822518 l
266.830584 52.474526 l
270.48052 53.199327 l
272.918891 53.376609 l
277.795632 51.240251 l
281.445569 53.120861 l
286.32231 51.887572 l
288.760681 52.532087 l
292.410617 51.293969 l
294.848988 51.070553 l
297.287359 51.639812 l
299.72573 52.031334 l
303.375666 52.046754 l
305.814037 50.918778 l
308.252408 50.776785 l
310.690779 51.8154 l
314.340715 53.049726 l
316.779086 51.41948 l
319.217457 51.366318 l
321.655827 52.341382 l
325.305764 53.225137 l
327.744135 54.173203 l
330.182505 54.254551 l
332.620876 54.456606 l
336.270812 56.890828 l
338.709183 56.874042 l
341.147554 56.456053 l
343.585925 56.494907 l
347.235861 57.451264 l
349.674232 56.491646 l
354.550974 57.421941 l
358.20091 55.853198 l
360.639281 55.193592 l
363.077652 55.703749 l
365.516022 57.205248 l
369.165959 57.131105 l
371.60433 56.383224 l
374.0427 54.3088 l
376.481071 54.47554 l
380.131008 56.223233 l
382.569378 55.279212 l
387.44612 54.576657 l
391.096056 54.799744 l
393.534427 55.556169 l
395.972798 53.732185 l
398.411169 54.129318 l
402.061105 53.700131 l
404.499476 53.198341 l
406.937847 52.512167 l
409.376218 52.72805 l
415.464525 54.390299 l
417.902895 55.281209 l
420.341266 55.720509 l
423.991203 56.179526 l
426.429573 55.626951 l
428.867944 55.388013 l
431.306315 54.857507 l
434.956251 55.596489 l
437.394622 56.523144 l
439.832993 56.945708 l
442.271364 56.267952 l
445.9213 58.609778 l
448.359671 57.01376 l
450.798042 56.740139 l
453.236413 55.101677 l
456.886349 54.006892 l
459.32472 53.831582 l
461.763091 56.057984 l
464.201461 55.52816 l
470.289768 54.826515 l
475.16651 55.311468 l
478.816446 54.417171 l
481.254817 56.074971 l
483.693188 56.216762 l
486.131559 55.905804 l
489.781495 56.276319 l
492.219866 56.256399 l
494.658237 57.099506 l
497.096608 57.170894 l
500.746544 57.856993 l
503.184915 57.019902 l
505.623286 57.651424 l
508.061656 57.449571 l
511.711593 53.913309 l
514.149964 54.502867 l
516.588334 57.280251 l
519.026705 55.912452 l
522.676641 57.417264 l
525.115012 59.166852 l
527.553383 57.722711 l
529.991754 56.936406 l
536.080061 54.316763 l
538.518432 54.392701 l
540.956803 54.808819 l
547.04511 53.638475 l
549.483481 53.60948 l
551.921851 52.270297 l
555.571788 52.461862 l
558.010159 52.88205 l
560.448529 51.646713 l
562.8869 53.955121 l
566.536837 53.014133 l
568.975207 54.271766 l
571.413578 52.027112 l
573.851949 52.243981 l
577.501885 54.808617 l
579.940256 55.050487 l
582.378627 54.218604 l
584.816998 54.675649 l
588.466934 54.16256 l
590.905305 54.71195 l
593.343676 54.379657 l
595.782046 56.216054 l
595.782046 56.216054 l
stroke
grestore
[5.55 2.4] 0 setdash
1.000 0.498 0.055 setrgbcolor
gsave
566.5 208.2 42.19 36.48 clipbox
51.179545 184.983079 m
56.056286 183.845522 l
58.494657 183.092357 l
64.582964 180.66433 l
73.109642 176.665866 l
86.513062 169.629669 l
91.389803 166.827056 l
97.478111 162.829881 l
102.354852 159.881939 l
106.004788 157.370819 l
116.969837 150.372313 l
127.934886 143.440569 l
132.811628 140.60345 l
146.215047 132.206178 l
163.268403 122.679186 l
168.145145 120.239909 l
171.795081 118.244709 l
179.110193 114.823037 l
185.198501 111.436225 l
196.163549 106.59291 l
198.60192 105.774804 l
207.128598 102.091697 l
218.093647 98.241394 l
222.970389 96.647296 l
229.058696 94.595219 l
242.462115 91.067021 l
244.900486 90.267672 l
248.550422 89.38738 l
253.427164 88.037124 l
255.865535 87.6227 l
261.953842 86.334125 l
266.830584 85.653487 l
275.357262 84.019145 l
277.795632 83.396396 l
283.883939 82.480561 l
288.760681 81.492731 l
299.72573 79.796658 l
305.814037 79.324597 l
310.690779 78.591657 l
330.182505 76.306 l
332.620876 75.685501 l
336.270812 75.21574 l
338.709183 75.111944 l
349.674232 73.82251 l
363.077652 73.46509 l
369.165959 72.806975 l
371.60433 72.558229 l
374.0427 72.153107 l
376.481071 72.061976 l
382.569378 72.389719 l
385.007749 72.066652 l
387.44612 71.975016 l
391.096056 71.981285 l
393.534427 72.201162 l
398.411169 71.187523 l
402.061105 70.816047 l
404.499476 70.403695 l
406.937847 70.262815 l
409.376218 70.317241 l
420.341266 69.525071 l
428.867944 70.279019 l
431.306315 70.119938 l
434.956251 69.505733 l
439.832993 69.051696 l
448.359671 68.499576 l
450.798042 68.213341 l
453.236413 68.171529 l
456.886349 68.306671 l
459.32472 68.037298 l
470.289768 67.704726 l
472.728139 67.42289 l
475.16651 67.376832 l
478.816446 67.451456 l
481.254817 67.267399 l
483.693188 67.361715 l
486.131559 67.285928 l
489.781495 67.009704 l
492.219866 67.172754 l
494.658237 67.471097 l
497.096608 67.247049 l
500.746544 67.378374 l
505.623286 67.989495 l
508.061656 67.713347 l
514.149964 67.711223 l
519.026705 67.463286 l
525.115012 66.636054 l
527.553383 66.081103 l
529.991754 66.009463 l
533.64169 66.087019 l
536.080061 65.820148 l
538.518432 65.726413 l
540.956803 66.298655 l
544.606739 66.472271 l
549.483481 65.808949 l
558.010159 65.225938 l
560.448529 64.647326 l
562.8869 64.540269 l
568.975207 65.193177 l
571.413578 65.127122 l
573.851949 64.847814 l
579.940256 65.345938 l
584.816998 65.086398 l
588.466934 65.43578 l
590.905305 65.826543 l
595.782046 65.794489 l
595.782046 65.794489 l
stroke
grestore
[1.5 2.475] 0 setdash
0.173 0.627 0.173 setrgbcolor
gsave
566.5 208.2 42.19 36.48 clipbox
51.179545 236.475526 m
53.617915 229.536729 l
56.056286 224.574804 l
58.494657 218.214342 l
62.144593 206.382253 l
64.582964 199.632114 l
67.021335 194.08321 l
69.459706 189.484293 l
73.109642 180.807257 l
75.548013 173.839996 l
77.986384 167.518008 l
80.424755 162.329129 l
84.074691 155.063195 l
86.513062 148.831707 l
88.951433 144.33474 l
91.389803 140.100776 l
95.03974 133.312668 l
97.478111 131.346261 l
99.916481 127.784897 l
102.354852 123.395948 l
106.004788 116.552251 l
108.443159 113.259755 l
110.88153 111.138514 l
113.319901 108.17773 l
116.969837 104.863697 l
119.408208 101.742214 l
121.846579 100.515523 l
124.28495 98.056376 l
127.934886 98.291724 l
130.373257 97.388883 l
132.811628 98.779205 l
135.249998 97.439946 l
138.899935 93.937079 l
141.338306 96.313815 l
143.776676 92.17164 l
146.215047 91.271908 l
149.864984 90.803942 l
152.303354 89.627682 l
154.741725 86.178785 l
157.180096 86.879597 l
160.830032 89.752687 l
163.268403 87.289067 l
165.706774 85.305343 l
168.145145 83.027195 l
171.795081 82.094019 l
174.233452 82.556449 l
176.671823 83.296796 l
179.110193 81.733236 l
182.76013 82.558673 l
185.198501 81.26479 l
187.636871 85.270256 l
190.075242 85.366923 l
193.725179 85.023482 l
196.163549 84.057291 l
198.60192 87.155897 l
201.040291 82.996582 l
204.690227 83.492759 l
207.128598 85.929256 l
209.566969 85.072827 l
212.00534 78.779455 l
215.655276 78.435836 l
218.093647 77.639142 l
220.532018 77.212558 l
222.970389 77.117888 l
226.620325 79.523265 l
229.058696 82.963719 l
231.497066 85.191613 l
233.935437 79.301644 l
237.585374 82.67885 l
240.023744 83.031872 l
242.462115 82.354595 l
244.900486 83.001916 l
248.550422 83.394247 l
250.988793 80.752283 l
253.427164 77.754187 l
255.865535 79.472783 l
259.515471 83.513817 l
261.953842 79.770242 l
264.392213 82.130092 l
266.830584 84.061437 l
270.48052 81.848913 l
272.918891 79.17171 l
275.357262 78.764211 l
277.795632 77.112529 l
281.445569 78.061201 l
283.883939 80.686582 l
286.32231 82.542444 l
288.760681 78.526285 l
292.410617 79.780808 l
294.848988 82.526316 l
297.287359 81.32321 l
299.72573 82.571464 l
303.375666 77.644754 l
305.814037 77.406777 l
308.252408 75.390823 l
310.690779 77.359758 l
314.340715 74.970179 l
316.779086 76.743126 l
319.217457 75.219153 l
321.655827 78.373979 l
325.305764 79.965017 l
327.744135 79.260439 l
332.620876 76.9152 l
336.270812 77.480895 l
338.709183 75.856008 l
341.147554 80.755139 l
343.585925 79.584871 l
347.235861 79.953894 l
349.674232 76.688169 l
352.112603 77.094682 l
354.550974 78.481819 l
358.20091 76.197326 l
360.639281 78.458739 l
363.077652 74.480423 l
365.516022 74.035865 l
369.165959 74.506359 l
371.60433 76.124244 l
374.0427 75.10977 l
376.481071 78.655436 l
380.131008 77.284932 l
382.569378 77.578877 l
385.007749 77.092305 l
387.44612 78.195685 l
391.096056 79.569703 l
393.534427 78.193663 l
395.972798 75.807194 l
398.411169 77.911928 l
402.061105 78.574113 l
404.499476 78.567288 l
406.937847 81.592912 l
409.376218 78.956787 l
413.026154 78.663171 l
415.464525 76.821238 l
417.902895 76.884486 l
420.341266 79.458475 l
423.991203 82.121017 l
426.429573 78.788024 l
428.867944 79.154924 l
431.306315 76.631013 l
434.956251 76.709985 l
437.394622 75.33354 l
439.832993 79.194865 l
442.271364 80.700284 l
445.9213 78.299405 l
448.359671 75.615604 l
450.798042 78.830594 l
453.236413 80.886717 l
456.886349 77.450762 l
459.32472 75.4748 l
461.763091 79.103734 l
464.201461 81.583508 l
467.851398 82.961444 l
470.289768 79.991535 l
472.728139 79.949875 l
475.16651 79.209982 l
481.254817 78.297636 l
483.693188 78.582379 l
486.131559 81.827982 l
489.781495 84.818393 l
492.219866 82.234697 l
494.658237 80.300217 l
497.096608 78.150866 l
500.746544 81.364465 l
503.184915 82.886264 l
505.623286 78.43437 l
508.061656 79.060027 l
511.711593 81.535276 l
514.149964 77.699609 l
516.588334 76.77662 l
519.026705 76.708822 l
525.115012 75.362106 l
529.991754 78.742901 l
533.64169 79.103532 l
536.080061 78.040017 l
538.518432 78.646057 l
540.956803 81.862185 l
544.606739 79.788468 l
547.04511 76.034099 l
549.483481 75.151177 l
551.921851 75.859547 l
555.571788 76.052249 l
558.010159 77.95786 l
560.448529 76.25476 l
562.8869 76.008188 l
566.536837 79.652517 l
568.975207 79.263928 l
571.413578 83.156068 l
573.851949 76.870709 l
577.501885 79.999877 l
579.940256 79.39682 l
582.378627 75.985184 l
588.466934 80.310834 l
590.905305 76.683518 l
593.343676 76.454414 l
595.782046 79.434662 l
595.782046 79.434662 l
stroke
grestore
2 setlinecap
[] 0 setdash
0.839 0.153 0.157 setrgbcolor
gsave
566.5 208.2 42.19 36.48 clipbox
51.179545 144.42946 m
53.617915 124.713897 l
56.056286 112.609275 l
58.494657 104.875426 l
62.144593 88.648347 l
64.582964 80.708449 l
67.021335 76.421172 l
69.459706 73.68522 l
73.109642 69.933656 l
75.548013 69.510915 l
77.986384 68.471465 l
80.424755 68.533222 l
86.513062 62.64793 l
88.951433 61.56629 l
91.389803 62.382753 l
95.03974 62.262475 l
97.478111 64.147686 l
99.916481 61.807907 l
102.354852 60.370919 l
106.004788 59.692707 l
108.443159 61.613915 l
110.88153 61.661819 l
113.319901 59.716899 l
116.969837 58.215956 l
119.408208 59.790183 l
121.846579 59.700645 l
124.28495 57.19496 l
127.934886 56.136678 l
130.373257 55.680138 l
132.811628 56.610458 l
135.249998 57.880326 l
138.899935 60.739513 l
141.338306 60.829077 l
143.776676 59.019198 l
146.215047 56.257865 l
149.864984 56.435501 l
152.303354 57.327523 l
154.741725 56.371166 l
157.180096 57.165712 l
160.830032 57.224713 l
163.268403 58.009047 l
165.706774 57.239375 l
168.145145 55.891521 l
171.795081 54.051838 l
174.233452 54.068017 l
176.671823 54.70108 l
182.76013 57.833837 l
185.198501 58.072295 l
187.636871 56.974527 l
190.075242 54.922373 l
193.725179 54.857254 l
196.163549 55.050993 l
198.60192 55.55938 l
201.040291 54.936731 l
204.690227 54.980692 l
207.128598 54.823355 l
209.566969 53.53387 l
212.00534 53.513116 l
215.655276 54.932181 l
220.532018 54.762003 l
222.970389 54.379354 l
226.620325 56.543468 l
229.058696 56.74388 l
231.497066 56.822953 l
233.935437 54.581586 l
237.585374 53.521458 l
240.023744 55.197535 l
242.462115 56.363431 l
244.900486 54.004971 l
248.550422 53.367559 l
250.988793 54.075221 l
253.427164 52.743394 l
255.865535 51.904762 l
259.515471 52.807224 l
261.953842 54.215621 l
264.392213 54.61546 l
266.830584 54.418688 l
270.48052 55.040173 l
272.918891 52.276288 l
275.357262 50.552838 l
277.795632 50.085757 l
281.445569 54.462749 l
283.883939 53.690272 l
286.32231 51.454719 l
288.760681 52.094254 l
292.410617 51.173262 l
294.848988 51.596256 l
297.287359 51.707939 l
303.375666 54.898434 l
305.814037 53.272257 l
308.252408 50.16215 l
310.690779 49.562632 l
314.340715 50.698875 l
316.779086 50.915062 l
319.217457 50.119454 l
327.744135 52.734951 l
330.182505 51.765424 l
332.620876 50.398914 l
336.270812 50.847389 l
338.709183 52.154746 l
341.147554 50.350302 l
343.585925 49.651842 l
347.235861 51.442054 l
349.674232 50.831287 l
352.112603 50.770415 l
354.550974 49.145502 l
358.20091 49.178441 l
360.639281 49.73362 l
363.077652 50.567904 l
365.516022 50.763691 l
369.165959 51.394125 l
371.60433 50.689421 l
374.0427 48.597554 l
376.481071 48.077311 l
380.131008 51.842196 l
382.569378 51.663119 l
385.007749 50.162024 l
387.44612 47.573954 l
391.096056 48.200698 l
393.534427 51.39817 l
395.972798 48.45498 l
398.411169 46.649019 l
404.499476 49.501861 l
406.937847 49.71691 l
409.376218 47.83041 l
413.026154 47.348516 l
415.464525 47.390251 l
417.902895 46.149378 l
420.341266 45.5942 l
423.991203 47.939161 l
428.867944 49.755183 l
431.306315 48.840839 l
434.956251 47.142036 l
437.394622 47.241914 l
439.832993 49.129829 l
442.271364 48.395726 l
445.9213 46.684233 l
448.359671 47.056745 l
450.798042 45.861324 l
453.236413 46.258887 l
456.886349 44.793081 l
459.32472 44.191516 l
461.763091 44.81879 l
464.201461 46.54497 l
467.851398 47.920555 l
470.289768 48.125417 l
472.728139 46.142452 l
475.16651 46.423555 l
478.816446 47.185719 l
481.254817 45.605348 l
483.693188 46.795107 l
486.131559 46.432201 l
489.781495 45.247346 l
492.219866 45.555725 l
494.658237 46.603466 l
497.096608 46.018635 l
500.746544 47.703282 l
503.184915 48.654583 l
505.623286 45.921741 l
508.061656 44.872028 l
511.711593 45.065185 l
514.149964 46.709183 l
516.588334 46.224912 l
519.026705 46.488674 l
522.676641 45.809603 l
525.115012 47.940804 l
527.553383 46.289576 l
529.991754 46.002507 l
533.64169 47.618648 l
536.080061 44.222457 l
538.518432 44.303654 l
540.956803 46.865635 l
544.606739 49.518596 l
547.04511 47.242344 l
549.483481 45.290093 l
551.921851 44.659102 l
555.571788 44.041004 l
558.010159 43.363475 l
560.448529 42.417862 l
562.8869 43.520357 l
566.536837 48.039468 l
568.975207 49.094363 l
571.413578 47.514902 l
573.851949 45.016801 l
577.501885 45.893706 l
579.940256 47.005049 l
582.378627 44.869829 l
584.816998 44.84048 l
588.466934 44.216315 l
593.343676 44.969883 l
595.782046 46.309294 l
595.782046 46.309294 l
stroke
grestore
0 setlinecap
[9.6 2.4 1.5 2.4] 0 setdash
0.580 0.404 0.741 setrgbcolor
gsave
566.5 208.2 42.19 36.48 clipbox
51.179545 201.514645 m
53.617915 164.642364 l
56.056286 186.246021 l
58.494657 128.380522 l
62.144593 91.778627 l
64.582964 91.770563 l
67.021335 92.141684 l
69.459706 85.484673 l
73.109642 97.37551 l
75.548013 89.948069 l
77.986384 72.439923 l
80.424755 89.218718 l
84.074691 83.135389 l
86.513062 70.568995 l
88.951433 83.232208 l
91.389803 65.353926 l
95.03974 76.862291 l
97.478111 79.652037 l
99.916481 59.670588 l
102.354852 72.830383 l
106.004788 72.933825 l
108.443159 62.728494 l
110.88153 69.89771 l
113.319901 72.400589 l
116.969837 79.283898 l
119.408208 64.106557 l
121.846579 67.360072 l
124.28495 69.640521 l
127.934886 79.829243 l
130.373257 65.62019 l
132.811628 71.73355 l
135.249998 89.011126 l
138.899935 82.898626 l
141.338306 96.174047 l
143.776676 77.4904 l
146.215047 61.234047 l
149.864984 60.805112 l
152.303354 65.167973 l
154.741725 74.888983 l
157.180096 88.00229 l
160.830032 74.791507 l
163.268403 60.236232 l
165.706774 72.784148 l
168.145145 60.483284 l
171.795081 73.773469 l
174.233452 64.54937 l
176.671823 73.126679 l
179.110193 67.420565 l
182.76013 66.699581 l
185.198501 69.613042 l
187.636871 69.394429 l
190.075242 67.16014 l
193.725179 82.230627 l
196.163549 56.806775 l
198.60192 69.067722 l
201.040291 67.889769 l
204.690227 63.783162 l
207.128598 70.800652 l
209.566969 59.498792 l
212.00534 60.757992 l
215.655276 76.883703 l
218.093647 90.083287 l
220.532018 71.658017 l
222.970389 68.780755 l
226.620325 61.784878 l
231.497066 98.515494 l
233.935437 73.744069 l
237.585374 66.155171 l
240.023744 66.170768 l
242.462115 75.700542 l
244.900486 64.2441 l
248.550422 55.113154 l
250.988793 63.808112 l
253.427164 67.139462 l
255.865535 52.743521 l
259.515471 79.263675 l
261.953842 56.757885 l
264.392213 76.063498 l
266.830584 48.616766 l
270.48052 67.780412 l
272.918891 98.774655 l
275.357262 73.445953 l
277.795632 68.49318 l
281.445569 82.092199 l
283.883939 73.188967 l
286.32231 59.326919 l
288.760681 90.023654 l
292.410617 57.981543 l
294.848988 49.32415 l
297.287359 54.616572 l
299.72573 63.687379 l
303.375666 67.276651 l
305.814037 54.544552 l
308.252408 49.23044 l
310.690779 50.60825 l
314.340715 50.839427 l
316.779086 64.638124 l
319.217457 51.884968 l
321.655827 46.728623 l
325.305764 56.981756 l
327.744135 61.601807 l
330.182505 72.887893 l
332.620876 68.273126 l
336.270812 54.458047 l
338.709183 67.348342 l
341.147554 65.244923 l
343.585925 62.780594 l
347.235861 57.118491 l
349.674232 74.388458 l
352.112603 77.815008 l
354.550974 93.859598 l
358.20091 67.063801 l
360.639281 79.388933 l
363.077652 64.416528 l
365.516022 60.957444 l
369.165959 58.335728 l
371.60433 52.547911 l
374.0427 62.408259 l
376.481071 58.513465 l
380.131008 79.819283 l
382.569378 70.450487 l
385.007749 68.339686 l
387.44612 86.311981 l
391.096056 74.831448 l
393.534427 64.060119 l
395.972798 76.327488 l
398.411169 73.72281 l
402.061105 56.419348 l
404.499476 70.44351 l
406.937847 77.260512 l
409.376218 66.637243 l
413.026154 74.912391 l
415.464525 56.851645 l
417.902895 69.066863 l
420.341266 66.28738 l
423.991203 53.3667 l
426.429573 61.234173 l
428.867944 58.724166 l
431.306315 72.07598 l
434.956251 67.512328 l
437.394622 61.101838 l
439.832993 69.626238 l
442.271364 60.033166 l
445.9213 80.655944 l
448.359671 59.691165 l
450.798042 82.206586 l
453.236413 65.30898 l
456.886349 51.3987 l
459.32472 73.28073 l
461.763091 68.258591 l
464.201461 57.375553 l
467.851398 77.158461 l
470.289768 60.031143 l
472.728139 67.114562 l
475.16651 39.447244 l
478.816446 75.449824 l
481.254817 62.481164 l
483.693188 70.19671 l
486.131559 57.254972 l
489.781495 57.591512 l
492.219866 61.514897 l
494.658237 60.763503 l
497.096608 59.153682 l
500.746544 53.682309 l
503.184915 73.836464 l
505.623286 67.288077 l
508.061656 66.793037 l
511.711593 72.833493 l
514.149964 65.111702 l
516.588334 64.877315 l
519.026705 68.914531 l
522.676641 57.690025 l
525.115012 66.759088 l
527.553383 51.402239 l
529.991754 72.830232 l
533.64169 73.281817 l
536.080061 60.588294 l
538.518432 58.237291 l
540.956803 59.884904 l
544.606739 63.491517 l
547.04511 84.375175 l
549.483481 52.533502 l
551.921851 82.219403 l
555.571788 74.069107 l
558.010159 70.451397 l
560.448529 79.682321 l
562.8869 60.814769 l
566.536837 60.365206 l
568.975207 70.14006 l
571.413578 79.133564 l
573.851949 52.018922 l
577.501885 62.570854 l
579.940256 79.090564 l
582.378627 61.875554 l
584.816998 46.75964 l
588.466934 88.29626 l
590.905305 73.597021 l
593.343676 92.203669 l
595.782046 63.061824 l
595.782046 63.061824 l
stroke
grestore
0.800 setlinewidth
0 setlinejoin
2 setlinecap
[] 0 setdash
0.000 setgray
gsave
42.194171 36.476333 m
42.194171 244.710667 l
stroke
grestore
gsave
608.679771 36.476333 m
608.679771 244.710667 l
stroke
grestore
gsave
42.194171 36.476333 m
608.679771 36.476333 l
stroke
grestore
gsave
42.194171 244.710667 m
608.679771 244.710667 l
stroke
grestore
gsave
162.944784 250.710667 translate
0.000000 rotate
0.000000 0.000000 m /M glyphshow
12.079102 0.000000 m /e glyphshow
20.692383 0.000000 m /a glyphshow
29.271484 0.000000 m /n glyphshow
38.144531 0.000000 m /space glyphshow
42.594727 0.000000 m /S glyphshow
51.481445 0.000000 m /q glyphshow
60.368164 0.000000 m /u glyphshow
69.241211 0.000000 m /a glyphshow
77.820312 0.000000 m /r glyphshow
83.576172 0.000000 m /e glyphshow
92.189453 0.000000 m /d glyphshow
101.076172 0.000000 m /space glyphshow
105.526367 0.000000 m /E glyphshow
114.372070 0.000000 m /r glyphshow
120.127930 0.000000 m /r glyphshow
125.883789 0.000000 m /o glyphshow
134.449219 0.000000 m /r glyphshow
140.205078 0.000000 m /space glyphshow
144.655273 0.000000 m /T glyphshow
153.175781 0.000000 m /e glyphshow
161.789062 0.000000 m /s glyphshow
169.083008 0.000000 m /t glyphshow
174.572266 0.000000 m /space glyphshow
179.022461 0.000000 m /l glyphshow
182.912109 0.000000 m /o glyphshow
191.477539 0.000000 m /s glyphshow
198.771484 0.000000 m /s glyphshow
206.065430 0.000000 m /space glyphshow
210.515625 0.000000 m /o glyphshow
219.081055 0.000000 m /n glyphshow
227.954102 0.000000 m /space glyphshow
232.404297 0.000000 m /W glyphshow
246.247070 0.000000 m /i glyphshow
250.136719 0.000000 m /n glyphshow
259.009766 0.000000 m /e glyphshow
267.623047 0.000000 m /space glyphshow
272.073242 0.000000 m /d glyphshow
280.959961 0.000000 m /a glyphshow
289.539062 0.000000 m /t glyphshow
295.028320 0.000000 m /a glyphshow
303.607422 0.000000 m /s glyphshow
310.901367 0.000000 m /e glyphshow
319.514648 0.000000 m /t glyphshow
grestore
1.000 setlinewidth
0 setlinecap
0.800 setgray
gsave
509.898521 163.351292 m
601.679771 163.351292 l
603.013105 163.351292 603.679771 164.017958 603.679771 165.351292 c
603.679771 237.710667 l
603.679771 239.044 603.013105 239.710667 601.679771 239.710667 c
509.898521 239.710667 l
508.565188 239.710667 507.898521 239.044 507.898521 237.710667 c
507.898521 165.351292 l
507.898521 164.017958 508.565188 163.351292 509.898521 163.351292 c
cl
gsave
1.000 setgray
fill
grestore
stroke
grestore
1.500 setlinewidth
1 setlinejoin
[9.6 2.4 1.5 2.4] 0 setdash
0.122 0.467 0.706 setrgbcolor
gsave
511.898521 231.616917 m
531.898521 231.616917 l
stroke
grestore
0.000 setgray
/DejaVuSans findfont
10.000 scalefont
setfont
gsave
539.898521 228.116917 translate
0.000000 rotate
0.000000 0.000000 m /N glyphshow
7.480469 0.000000 m /o glyphshow
13.598633 0.000000 m /i glyphshow
16.376953 0.000000 m /s glyphshow
21.586914 0.000000 m /y glyphshow
27.504883 0.000000 m /space glyphshow
30.683594 0.000000 m /K glyphshow
37.241211 0.000000 m /F glyphshow
42.993164 0.000000 m /A glyphshow
49.833984 0.000000 m /C glyphshow
grestore
[5.55 2.4] 0 setdash
1.000 0.498 0.055 setrgbcolor
gsave
511.898521 216.945042 m
531.898521 216.945042 l
stroke
grestore
0.000 setgray
gsave
539.898521 213.445042 translate
0.000000 rotate
0.000000 0.000000 m /N glyphshow
7.480469 0.000000 m /o glyphshow
13.598633 0.000000 m /i glyphshow
16.376953 0.000000 m /s glyphshow
21.586914 0.000000 m /y glyphshow
27.504883 0.000000 m /space glyphshow
30.683594 0.000000 m /A glyphshow
37.524414 0.000000 m /d glyphshow
43.872070 0.000000 m /a glyphshow
50.000000 0.000000 m /m glyphshow
grestore
[1.5 2.475] 0 setdash
0.173 0.627 0.173 setrgbcolor
gsave
511.898521 202.273167 m
531.898521 202.273167 l
stroke
grestore
0.000 setgray
gsave
539.898521 198.773167 translate
0.000000 rotate
0.000000 0.000000 m /V glyphshow
6.840820 0.000000 m /p glyphshow
13.188477 0.000000 m /r glyphshow
17.299805 0.000000 m /o glyphshow
23.417969 0.000000 m /p glyphshow
grestore
2 setlinecap
[] 0 setdash
0.839 0.153 0.157 setrgbcolor
gsave
511.898521 187.601292 m
531.898521 187.601292 l
stroke
grestore
0.000 setgray
gsave
539.898521 184.101292 translate
0.000000 rotate
0.000000 0.000000 m /A glyphshow
6.840820 0.000000 m /d glyphshow
13.188477 0.000000 m /a glyphshow
19.316406 0.000000 m /m glyphshow
grestore
0 setlinecap
[9.6 2.4 1.5 2.4] 0 setdash
0.580 0.404 0.741 setrgbcolor
gsave
511.898521 172.929417 m
531.898521 172.929417 l
stroke
grestore
0.000 setgray
gsave
539.898521 169.429417 translate
0.000000 rotate
0.000000 0.000000 m /B glyphshow
6.860352 0.000000 m /B glyphshow
13.720703 0.000000 m /B glyphshow
grestore

end
showpage
