%!PS-Adobe-3.0 EPSF-3.0
%%Title: C:/repos/thesis_repo/Main/Results_and_figs/2gaussians.eps
%%Creator: matplotlib version 2.1.2, http://matplotlib.org/
%%CreationDate: Thu Jul 26 11:03:35 2018
%%Orientation: portrait
%%BoundingBox: 78 228 533 563
%%EndComments
%%BeginProlog
/mpldict 8 dict def
mpldict begin
/m { moveto } bind def
/l { lineto } bind def
/r { rlineto } bind def
/c { curveto } bind def
/cl { closepath } bind def
/box {
m
1 index 0 r
0 exch r
neg 0 r
cl
} bind def
/clipbox {
box
clip
newpath
} bind def
%!PS-Adobe-3.0 Resource-Font
%%Title: DejaVu Sans
%%Copyright: Copyright (c) 2003 by Bitstream, Inc. All Rights Reserved. Copyright (c) 2006 by Tavmjong Bah. All Rights Reserved. DejaVu changes are in public domain 
%%Creator: Converted from TrueType to type 3 by PPR
25 dict begin
/_d{bind def}bind def
/_m{moveto}_d
/_l{lineto}_d
/_cl{closepath eofill}_d
/_c{curveto}_d
/_sc{7 -1 roll{setcachedevice}{pop pop pop pop pop pop}ifelse}_d
/_e{exec}_d
/FontName /DejaVuSans def
/PaintType 0 def
/FontMatrix[.001 0 0 .001 0 0]def
/FontBBox[-1021 -463 1793 1232]def
/FontType 3 def
/Encoding [ /parenleft /parenright /period /zero /one /two /four /five /p /x /minus ] def
/FontInfo 10 dict dup begin
/FamilyName (DejaVu Sans) def
/FullName (DejaVu Sans) def
/Notice (Copyright (c) 2003 by Bitstream, Inc. All Rights Reserved. Copyright (c) 2006 by Tavmjong Bah. All Rights Reserved. DejaVu changes are in public domain ) def
/Weight (Book) def
/Version (Version 2.35) def
/ItalicAngle 0.0 def
/isFixedPitch false def
/UnderlinePosition -130 def
/UnderlineThickness 90 def
end readonly def
/CharStrings 12 dict dup begin
/.notdef 0 def
/parenleft{390 0 86 -131 310 759 _sc
310 759 _m
266 683 234 609 213 536 _c
191 463 181 389 181 314 _c
181 238 191 164 213 91 _c
234 17 266 -56 310 -131 _c
232 -131 _l
183 -54 146 20 122 94 _c
98 168 86 241 86 314 _c
86 386 98 459 122 533 _c
146 607 182 682 232 759 _c
310 759 _l
_cl}_d
/parenright{390 0 80 -131 304 759 _sc
80 759 _m
158 759 _l
206 682 243 607 267 533 _c
291 459 304 386 304 314 _c
304 241 291 168 267 94 _c
243 20 206 -54 158 -131 _c
80 -131 _l
123 -56 155 17 177 91 _c
198 164 209 238 209 314 _c
209 389 198 463 177 536 _c
155 609 123 683 80 759 _c
_cl}_d
/period{318 0 107 0 210 124 _sc
107 124 _m
210 124 _l
210 0 _l
107 0 _l
107 124 _l
_cl}_d
/zero{636 0 66 -13 570 742 _sc
318 664 _m
267 664 229 639 203 589 _c
177 539 165 464 165 364 _c
165 264 177 189 203 139 _c
229 89 267 64 318 64 _c
369 64 407 89 433 139 _c
458 189 471 264 471 364 _c
471 464 458 539 433 589 _c
407 639 369 664 318 664 _c
318 742 _m
399 742 461 709 505 645 _c
548 580 570 486 570 364 _c
570 241 548 147 505 83 _c
461 19 399 -13 318 -13 _c
236 -13 173 19 130 83 _c
87 147 66 241 66 364 _c
66 486 87 580 130 645 _c
173 709 236 742 318 742 _c
_cl}_d
/one{636 0 110 0 544 729 _sc
124 83 _m
285 83 _l
285 639 _l
110 604 _l
110 694 _l
284 729 _l
383 729 _l
383 83 _l
544 83 _l
544 0 _l
124 0 _l
124 83 _l
_cl}_d
/two{{636 0 73 0 536 742 _sc
192 83 _m
536 83 _l
536 0 _l
73 0 _l
73 83 _l
110 121 161 173 226 239 _c
290 304 331 346 348 365 _c
380 400 402 430 414 455 _c
426 479 433 504 433 528 _c
433 566 419 598 392 622 _c
365 646 330 659 286 659 _c
255 659 222 653 188 643 _c
154 632 117 616 78 594 _c
78 694 _l
118 710 155 722 189 730 _c
223 738 255 742 284 742 _c
}_e{359 742 419 723 464 685 _c
509 647 532 597 532 534 _c
532 504 526 475 515 449 _c
504 422 484 390 454 354 _c
446 344 420 317 376 272 _c
332 227 271 164 192 83 _c
_cl}_e}_d
/four{636 0 49 0 580 729 _sc
378 643 _m
129 254 _l
378 254 _l
378 643 _l
352 729 _m
476 729 _l
476 254 _l
580 254 _l
580 172 _l
476 172 _l
476 0 _l
378 0 _l
378 172 _l
49 172 _l
49 267 _l
352 729 _l
_cl}_d
/five{{636 0 77 -13 549 729 _sc
108 729 _m
495 729 _l
495 646 _l
198 646 _l
198 467 _l
212 472 227 476 241 478 _c
255 480 270 482 284 482 _c
365 482 429 459 477 415 _c
525 370 549 310 549 234 _c
549 155 524 94 475 51 _c
426 8 357 -13 269 -13 _c
238 -13 207 -10 175 -6 _c
143 -1 111 6 77 17 _c
77 116 _l
106 100 136 88 168 80 _c
199 72 232 69 267 69 _c
}_e{323 69 368 83 401 113 _c
433 143 450 183 450 234 _c
450 284 433 324 401 354 _c
368 384 323 399 267 399 _c
241 399 214 396 188 390 _c
162 384 135 375 108 363 _c
108 729 _l
_cl}_e}_d
/p{{635 0 91 -207 580 560 _sc
181 82 _m
181 -207 _l
91 -207 _l
91 547 _l
181 547 _l
181 464 _l
199 496 223 520 252 536 _c
281 552 316 560 356 560 _c
422 560 476 533 518 481 _c
559 428 580 359 580 273 _c
580 187 559 117 518 65 _c
476 13 422 -13 356 -13 _c
316 -13 281 -5 252 10 _c
223 25 199 49 181 82 _c
487 273 _m
487 339 473 390 446 428 _c
418 466 381 485 334 485 _c
}_e{286 485 249 466 222 428 _c
194 390 181 339 181 273 _c
181 207 194 155 222 117 _c
249 79 286 61 334 61 _c
381 61 418 79 446 117 _c
473 155 487 207 487 273 _c
_cl}_e}_d
/x{592 0 29 0 559 547 _sc
549 547 _m
351 281 _l
559 0 _l
453 0 _l
294 215 _l
135 0 _l
29 0 _l
241 286 _l
47 547 _l
153 547 _l
298 352 _l
443 547 _l
549 547 _l
_cl}_d
/minus{838 0 106 272 732 355 _sc
106 355 _m
732 355 _l
732 272 _l
106 272 _l
106 355 _l
_cl}_d
end readonly def

/BuildGlyph
 {exch begin
 CharStrings exch
 2 copy known not{pop /.notdef}if
 true 3 1 roll get exec
 end}_d

/BuildChar {
 1 index /Encoding get exch get
 1 index /BuildGlyph get exec
}_d

FontName currentdict end definefont pop
end
%%EndProlog
mpldict begin
78.84 228.6 translate
454.32 334.8 0 0 clipbox
gsave
0 0 m
454.32 0 l
454.32 334.8 l
0 334.8 l
cl
1.000 setgray
fill
grestore
gsave
56.79 192.205636 m
433.8756 192.205636 l
433.8756 323.082 l
56.79 323.082 l
cl
1.000 setgray
fill
grestore
0.800 setlinewidth
1 setlinejoin
0 setlinecap
[] 0 setdash
0.000 setgray
gsave
/o {
gsave
newpath
translate
0.8 setlinewidth
1 setlinejoin
0 setlinecap
0 0 m
0 -3.5 l

gsave
0.000 setgray
fill
grestore
stroke
grestore
} bind def
73.9303 192.206 o
grestore
/DejaVuSans findfont
14.000 scalefont
setfont
gsave
59.156817 174.565011 translate
0.000000 rotate
0.000000 0.000000 m /minus glyphshow
11.730469 0.000000 m /one glyphshow
20.637695 0.000000 m /zero glyphshow
grestore
gsave
/o {
gsave
newpath
translate
0.8 setlinewidth
1 setlinejoin
0 setlinecap
0 0 m
0 -3.5 l

gsave
0.000 setgray
fill
grestore
stroke
grestore
} bind def
159.636 192.206 o
grestore
gsave
149.315500 174.565011 translate
0.000000 rotate
0.000000 0.000000 m /minus glyphshow
11.730469 0.000000 m /five glyphshow
grestore
gsave
/o {
gsave
newpath
translate
0.8 setlinewidth
1 setlinejoin
0 setlinecap
0 0 m
0 -3.5 l

gsave
0.000 setgray
fill
grestore
stroke
grestore
} bind def
245.341 192.206 o
grestore
gsave
240.888246 174.565011 translate
0.000000 rotate
0.000000 0.000000 m /zero glyphshow
grestore
gsave
/o {
gsave
newpath
translate
0.8 setlinewidth
1 setlinejoin
0 setlinecap
0 0 m
0 -3.5 l

gsave
0.000 setgray
fill
grestore
stroke
grestore
} bind def
331.047 192.206 o
grestore
gsave
326.593804 174.565011 translate
0.000000 rotate
0.000000 0.000000 m /five glyphshow
grestore
gsave
/o {
gsave
newpath
translate
0.8 setlinewidth
1 setlinejoin
0 setlinecap
0 0 m
0 -3.5 l

gsave
0.000 setgray
fill
grestore
stroke
grestore
} bind def
416.752 192.206 o
grestore
gsave
407.846237 174.565011 translate
0.000000 rotate
0.000000 0.000000 m /one glyphshow
8.907227 0.000000 m /zero glyphshow
grestore
gsave
/o {
gsave
newpath
translate
0.8 setlinewidth
1 setlinejoin
0 setlinecap
0 0 m
-3.5 0 l

gsave
0.000 setgray
fill
grestore
stroke
grestore
} bind def
56.79 198.155 o
grestore
gsave
27.524375 192.834249 translate
0.000000 rotate
0.000000 0.000000 m /zero glyphshow
8.907227 0.000000 m /period glyphshow
13.357422 0.000000 m /zero glyphshow
grestore
gsave
/o {
gsave
newpath
translate
0.8 setlinewidth
1 setlinejoin
0 setlinecap
0 0 m
-3.5 0 l

gsave
0.000 setgray
fill
grestore
stroke
grestore
} bind def
56.79 257.802 o
grestore
gsave
27.524375 252.481230 translate
0.000000 rotate
0.000000 0.000000 m /zero glyphshow
8.907227 0.000000 m /period glyphshow
13.357422 0.000000 m /two glyphshow
grestore
gsave
/o {
gsave
newpath
translate
0.8 setlinewidth
1 setlinejoin
0 setlinecap
0 0 m
-3.5 0 l

gsave
0.000 setgray
fill
grestore
stroke
grestore
} bind def
56.79 317.449 o
grestore
gsave
27.524375 312.128211 translate
0.000000 rotate
0.000000 0.000000 m /zero glyphshow
8.907227 0.000000 m /period glyphshow
13.357422 0.000000 m /four glyphshow
grestore
gsave
20.618125 243.589131 translate
90.000000 rotate
0.000000 0.000000 m /p glyphshow
8.886719 0.000000 m /parenleft glyphshow
14.348633 0.000000 m /x glyphshow
22.633789 0.000000 m /parenright glyphshow
grestore
1.500 setlinewidth
2 setlinecap
0.122 0.467 0.706 setrgbcolor
gsave
377.1 130.9 56.79 192.2 clipbox
73.930255 198.154562 m
147.019954 198.265376 l
152.642239 198.51218 l
156.379001 198.888664 l
159.29299 199.399073 l
161.727028 200.046309 l
163.869667 200.844286 l
165.806613 201.80243 l
167.606429 202.94121 l
169.320541 204.291528 l
170.966087 205.872 l
172.594493 207.748917 l
174.205757 209.949765 l
175.834163 212.557474 l
177.496851 215.652113 l
179.193821 219.291083 l
180.959355 223.61625 l
182.810595 228.754284 l
184.798964 234.952099 l
186.975886 242.496478 l
189.461347 251.947538 l
192.735299 265.347114 l
198.786111 290.230616 l
201.014456 298.36225 l
202.814273 304.135835 l
204.356973 308.377212 l
205.711121 311.480821 l
206.910998 313.69966 l
207.973747 315.221151 l
208.916508 316.207176 l
209.773564 316.798917 l
210.562055 317.083054 l
211.316264 317.11969 l
212.053332 316.933121 l
212.824682 316.503624 l
213.647455 315.784362 l
214.555934 314.682949 l
215.56726 313.088603 l
216.698573 310.865042 l
217.967015 307.85336 l
219.406869 303.828512 l
221.052415 298.538118 l
223.023643 291.409863 l
225.560528 281.341048 l
235.056704 242.808518 l
237.387895 234.727 l
239.47911 228.252628 l
241.433197 222.907666 l
243.284437 218.477352 l
245.049972 214.811027 l
246.781224 211.718503 l
248.478194 209.135912 l
250.158023 206.978448 l
251.837852 205.177084 l
253.551963 203.662677 l
255.317498 202.398879 l
257.168738 201.347345 l
259.157107 200.475856 l
261.334028 199.766921 l
263.802348 199.200567 l
266.733478 198.76364 l
270.418817 198.450608 l
275.56115 198.254706 l
284.645939 198.166405 l
326.178853 198.154562 l
416.735345 198.154562 l
416.735345 198.154562 l
stroke
grestore
1.000 0.498 0.055 setrgbcolor
gsave
377.1 130.9 56.79 192.2 clipbox
73.930255 198.154562 m
215.584401 198.265376 l
221.206685 198.51218 l
224.943448 198.888664 l
227.857437 199.399073 l
230.291475 200.046309 l
232.434114 200.844286 l
234.371059 201.80243 l
236.170876 202.94121 l
237.884987 204.291528 l
239.530534 205.872 l
241.158939 207.748917 l
242.770204 209.949765 l
244.398609 212.557474 l
246.061297 215.652113 l
247.758267 219.291083 l
249.523802 223.61625 l
251.375042 228.754284 l
253.363411 234.952099 l
255.540332 242.496478 l
258.025793 251.947538 l
261.299745 265.347114 l
267.350558 290.230616 l
269.578902 298.36225 l
271.378719 304.135835 l
272.921419 308.377212 l
274.275567 311.480821 l
275.475445 313.69966 l
276.538194 315.221151 l
277.480955 316.207176 l
278.33801 316.798917 l
279.126502 317.083054 l
279.88071 317.11969 l
280.617778 316.933121 l
281.389128 316.503624 l
282.211902 315.784362 l
283.120381 314.682949 l
284.131706 313.088603 l
285.263019 310.865042 l
286.531462 307.85336 l
287.971315 303.828512 l
289.616862 298.538118 l
291.58809 291.409863 l
294.124974 281.341048 l
303.62115 242.808518 l
305.952341 234.727 l
308.043557 228.252628 l
309.997644 222.907666 l
311.848884 218.477352 l
313.614418 214.811027 l
315.34567 211.718503 l
317.04264 209.135912 l
318.722469 206.978448 l
320.402298 205.177084 l
322.116409 203.662677 l
323.881944 202.398879 l
325.733184 201.347345 l
327.721553 200.475856 l
329.898474 199.766921 l
332.366794 199.200567 l
335.297924 198.76364 l
338.983263 198.450608 l
344.125597 198.254706 l
353.210386 198.166405 l
394.743299 198.154562 l
416.735345 198.154562 l
416.735345 198.154562 l
stroke
grestore
0 setlinecap
[5.55 2.4] 0 setdash
0.122 0.467 0.706 setrgbcolor
gsave
377.1 130.9 56.79 192.2 clipbox
211.059147 192.205636 m
211.059147 323.082 l
stroke
grestore
gsave
377.1 130.9 56.79 192.2 clipbox
279.623594 192.205636 m
279.623594 323.082 l
stroke
grestore
0.800 setlinewidth
0 setlinejoin
2 setlinecap
[] 0 setdash
0.000 setgray
gsave
56.79 192.205636 m
56.79 323.082 l
stroke
grestore
gsave
433.8756 192.205636 m
433.8756 323.082 l
stroke
grestore
gsave
56.79 192.205636 m
433.8756 192.205636 l
stroke
grestore
gsave
56.79 323.082 m
433.8756 323.082 l
stroke
grestore
gsave
56.79 35.154 m
433.8756 35.154 l
433.8756 166.030364 l
56.79 166.030364 l
cl
1.000 setgray
fill
grestore
1 setlinejoin
0 setlinecap
[] 0 setdash
gsave
/o {
gsave
newpath
translate
0.8 setlinewidth
1 setlinejoin
0 setlinecap
0 0 m
0 -3.5 l

gsave
0.000 setgray
fill
grestore
stroke
grestore
} bind def
73.9303 35.154 o
grestore
gsave
59.156817 17.513375 translate
0.000000 rotate
0.000000 0.000000 m /minus glyphshow
11.730469 0.000000 m /one glyphshow
20.637695 0.000000 m /zero glyphshow
grestore
gsave
/o {
gsave
newpath
translate
0.8 setlinewidth
1 setlinejoin
0 setlinecap
0 0 m
0 -3.5 l

gsave
0.000 setgray
fill
grestore
stroke
grestore
} bind def
159.636 35.154 o
grestore
gsave
149.315500 17.513375 translate
0.000000 rotate
0.000000 0.000000 m /minus glyphshow
11.730469 0.000000 m /five glyphshow
grestore
gsave
/o {
gsave
newpath
translate
0.8 setlinewidth
1 setlinejoin
0 setlinecap
0 0 m
0 -3.5 l

gsave
0.000 setgray
fill
grestore
stroke
grestore
} bind def
245.341 35.154 o
grestore
gsave
240.888246 17.513375 translate
0.000000 rotate
0.000000 0.000000 m /zero glyphshow
grestore
gsave
/o {
gsave
newpath
translate
0.8 setlinewidth
1 setlinejoin
0 setlinecap
0 0 m
0 -3.5 l

gsave
0.000 setgray
fill
grestore
stroke
grestore
} bind def
331.047 35.154 o
grestore
gsave
326.593804 17.513375 translate
0.000000 rotate
0.000000 0.000000 m /five glyphshow
grestore
gsave
/o {
gsave
newpath
translate
0.8 setlinewidth
1 setlinejoin
0 setlinecap
0 0 m
0 -3.5 l

gsave
0.000 setgray
fill
grestore
stroke
grestore
} bind def
416.752 35.154 o
grestore
gsave
407.846237 17.513375 translate
0.000000 rotate
0.000000 0.000000 m /one glyphshow
8.907227 0.000000 m /zero glyphshow
grestore
gsave
241.192175 -0.033500 translate
0.000000 rotate
0.000000 0.000000 m /x glyphshow
grestore
gsave
/o {
gsave
newpath
translate
0.8 setlinewidth
1 setlinejoin
0 setlinecap
0 0 m
-3.5 0 l

gsave
0.000 setgray
fill
grestore
stroke
grestore
} bind def
56.79 41.063 o
grestore
gsave
18.618125 35.742687 translate
0.000000 rotate
0.000000 0.000000 m /zero glyphshow
8.907227 0.000000 m /period glyphshow
13.357422 0.000000 m /zero glyphshow
22.264648 0.000000 m /zero glyphshow
grestore
gsave
/o {
gsave
newpath
translate
0.8 setlinewidth
1 setlinejoin
0 setlinecap
0 0 m
-3.5 0 l

gsave
0.000 setgray
fill
grestore
stroke
grestore
} bind def
56.79 85.8132 o
grestore
gsave
18.618125 80.492934 translate
0.000000 rotate
0.000000 0.000000 m /zero glyphshow
8.907227 0.000000 m /period glyphshow
13.357422 0.000000 m /zero glyphshow
22.264648 0.000000 m /five glyphshow
grestore
gsave
/o {
gsave
newpath
translate
0.8 setlinewidth
1 setlinejoin
0 setlinecap
0 0 m
-3.5 0 l

gsave
0.000 setgray
fill
grestore
stroke
grestore
} bind def
56.79 130.563 o
grestore
gsave
18.618125 125.243182 translate
0.000000 rotate
0.000000 0.000000 m /zero glyphshow
8.907227 0.000000 m /period glyphshow
13.357422 0.000000 m /one glyphshow
22.264648 0.000000 m /zero glyphshow
grestore
gsave
11.711875 86.537494 translate
90.000000 rotate
0.000000 0.000000 m /p glyphshow
8.886719 0.000000 m /parenleft glyphshow
14.348633 0.000000 m /x glyphshow
22.633789 0.000000 m /parenright glyphshow
grestore
1.500 setlinewidth
2 setlinecap
0.122 0.467 0.706 setrgbcolor
gsave
377.1 130.9 56.79 35.15 clipbox
73.930255 41.102926 m
97.44786 41.287032 l
110.680798 41.602329 l
120.382667 42.047723 l
128.233296 42.624599 l
134.935471 43.335585 l
140.849154 44.183138 l
146.18004 45.168246 l
151.099539 46.301026 l
155.693357 47.585308 l
160.030058 49.026875 l
164.178207 50.639056 l
168.172086 52.42883 l
172.063118 54.416034 l
175.868445 56.608777 l
179.63949 59.039446 l
183.393393 61.725783 l
187.147297 64.687328 l
190.935482 67.960702 l
194.792232 71.588987 l
198.76897 75.639088 l
202.899978 80.167847 l
207.270962 85.295239 l
212.001908 91.19532 l
217.349935 98.23235 l
224.086392 107.488327 l
240.164755 129.72915 l
244.998548 135.94078 l
249.078133 140.83229 l
252.694907 144.831767 l
256.003142 148.165344 l
259.05426 150.930866 l
261.916825 153.23077 l
264.625121 155.125176 l
267.196288 156.656189 l
269.664608 157.870238 l
272.047222 158.79665 l
274.361272 159.45988 l
276.623899 159.879114 l
278.852244 160.068049 l
281.080588 160.033675 l
283.308933 159.776184 l
285.554418 159.292486 l
287.851327 158.567711 l
290.19966 157.590702 l
292.616556 156.342337 l
295.1363 154.787293 l
297.776031 152.892336 l
300.552891 150.620982 l
303.518303 147.901769 l
306.689409 144.686593 l
310.151914 140.852041 l
313.991523 136.25955 l
318.413929 130.610484 l
323.847662 123.289565 l
332.863886 110.701729 l
341.811547 98.347774 l
347.519537 90.844248 l
352.439036 84.736889 l
356.930007 79.5097 l
361.163862 74.918756 l
365.209164 70.856066 l
369.134479 67.225267 l
372.991229 63.95885 l
376.796555 61.025556 l
380.584741 58.384344 l
384.390068 56.001098 l
388.229677 53.857385 l
392.154991 51.920727 l
396.183153 50.182267 l
400.348443 48.627823 l
404.702285 47.241995 l
409.296103 46.015423 l
414.198461 44.939504 l
416.735345 44.465844 l
416.735345 44.465844 l
stroke
grestore
1.000 0.498 0.055 setrgbcolor
gsave
377.1 130.9 56.79 35.15 clipbox
73.930255 44.462821 m
79.124011 45.491033 l
83.940664 46.669274 l
88.448776 47.999211 l
92.734054 49.494527 l
96.83078 51.15878 l
100.790376 53.006601 l
104.647127 55.051117 l
108.435312 57.310445 l
112.189216 59.808521 l
115.943119 62.575733 l
119.714164 65.634773 l
123.51949 69.009976 l
127.410523 72.761082 l
131.421543 76.93992 l
135.621115 81.641319 l
140.077804 86.970034 l
144.963021 93.166781 l
150.585306 100.671037 l
158.281665 111.350809 l
169.937621 127.511169 l
175.114236 134.284457 l
179.382373 139.513159 l
183.119135 143.7487 l
186.495934 147.249364 l
189.615617 150.170531 l
192.529606 152.600222 l
195.272184 154.602855 l
197.877633 156.234812 l
200.363094 157.534478 l
202.762849 158.542541 l
205.094041 159.28337 l
207.373808 159.776184 l
209.619294 160.034792 l
211.847638 160.067448 l
214.075983 159.876797 l
216.321469 159.45988 l
218.601236 158.808188 l
220.932428 157.907784 l
223.332183 156.739504 l
225.817644 155.279289 l
228.423093 153.486055 l
231.165671 151.322637 l
234.062519 148.749569 l
237.16506 145.691471 l
240.541859 142.043039 l
244.261481 137.687825 l
248.478194 132.39754 l
253.534822 125.680442 l
260.665524 115.800915 l
273.315665 98.255429 l
279.006514 90.778538 l
283.908872 84.69567 l
288.399843 79.471178 l
292.616556 74.900864 l
296.661859 70.83954 l
300.587173 67.21009 l
304.426782 63.95885 l
308.232109 61.025556 l
312.020295 58.384344 l
315.825621 56.001098 l
319.66523 53.857385 l
323.590545 51.920727 l
327.618706 50.182267 l
331.783996 48.627823 l
336.137839 47.241995 l
340.731657 46.015423 l
345.634015 44.939504 l
350.930618 44.00791 l
356.758596 43.212831 l
363.289359 42.551087 l
370.831449 42.016661 l
379.881956 41.606477 l
391.452206 41.316154 l
408.079084 41.140283 l
416.735345 41.102979 l
416.735345 41.102979 l
stroke
grestore
0 setlinecap
[5.55 2.4] 0 setdash
0.122 0.467 0.706 setrgbcolor
gsave
377.1 130.9 56.79 35.15 clipbox
211.059147 35.154 m
211.059147 166.030364 l
stroke
grestore
gsave
377.1 130.9 56.79 35.15 clipbox
279.623594 35.154 m
279.623594 166.030364 l
stroke
grestore
0.800 setlinewidth
0 setlinejoin
2 setlinecap
[] 0 setdash
0.000 setgray
gsave
56.79 35.154 m
56.79 166.030364 l
stroke
grestore
gsave
433.8756 35.154 m
433.8756 166.030364 l
stroke
grestore
gsave
56.79 35.154 m
433.8756 35.154 l
stroke
grestore
gsave
56.79 166.030364 m
433.8756 166.030364 l
stroke
grestore

end
showpage
