%!PS-Adobe-3.0 EPSF-3.0
%%Title: class_preds.eps
%%Creator: matplotlib version 2.0.2, http://matplotlib.org/
%%CreationDate: Sun Jul 29 21:20:38 2018
%%Orientation: portrait
%%BoundingBox: -126 252 738 540
%%EndComments
%%BeginProlog
/mpldict 9 dict def
mpldict begin
/m { moveto } bind def
/l { lineto } bind def
/r { rlineto } bind def
/c { curveto } bind def
/cl { closepath } bind def
/box {
m
1 index 0 r
0 exch r
neg 0 r
cl
} bind def
/clipbox {
box
clip
newpath
} bind def
%!PS-Adobe-3.0 Resource-Font
%%Title: DejaVu Sans
%%Copyright: Copyright (c) 2003 by Bitstream, Inc. All Rights Reserved. Copyright (c) 2006 by Tavmjong Bah. All Rights Reserved. DejaVu changes are in public domain 
%%Creator: Converted from TrueType to type 3 by PPR
25 dict begin
/_d{bind def}bind def
/_m{moveto}_d
/_l{lineto}_d
/_cl{closepath eofill}_d
/_c{curveto}_d
/_sc{7 -1 roll{setcachedevice}{pop pop pop pop pop pop}ifelse}_d
/_e{exec}_d
/FontName /DejaVuSans def
/PaintType 0 def
/FontMatrix[.001 0 0 .001 0 0]def
/FontBBox[-1021 -463 1793 1232]def
/FontType 3 def
/Encoding [ /space /parenleft /parenright /period /zero /one /two /four /six /eight /B /C /F /N /U /a /c /e /f /h /i /l /n /o /q /r /s /t /u /w /x /y ] def
/FontInfo 10 dict dup begin
/FamilyName (DejaVu Sans) def
/FullName (DejaVu Sans) def
/Notice (Copyright (c) 2003 by Bitstream, Inc. All Rights Reserved. Copyright (c) 2006 by Tavmjong Bah. All Rights Reserved. DejaVu changes are in public domain ) def
/Weight (Book) def
/Version (Version 2.35) def
/ItalicAngle 0.0 def
/isFixedPitch false def
/UnderlinePosition -130 def
/UnderlineThickness 90 def
end readonly def
/CharStrings 32 dict dup begin
/space{318 0 0 0 0 0 _sc
}_d
/parenleft{390 0 86 -131 310 759 _sc
310 759 _m
266 683 234 609 213 536 _c
191 463 181 389 181 314 _c
181 238 191 164 213 91 _c
234 17 266 -56 310 -131 _c
232 -131 _l
183 -54 146 20 122 94 _c
98 168 86 241 86 314 _c
86 386 98 459 122 533 _c
146 607 182 682 232 759 _c
310 759 _l
_cl}_d
/parenright{390 0 80 -131 304 759 _sc
80 759 _m
158 759 _l
206 682 243 607 267 533 _c
291 459 304 386 304 314 _c
304 241 291 168 267 94 _c
243 20 206 -54 158 -131 _c
80 -131 _l
123 -56 155 17 177 91 _c
198 164 209 238 209 314 _c
209 389 198 463 177 536 _c
155 609 123 683 80 759 _c
_cl}_d
/period{318 0 107 0 210 124 _sc
107 124 _m
210 124 _l
210 0 _l
107 0 _l
107 124 _l
_cl}_d
/zero{636 0 66 -13 570 742 _sc
318 664 _m
267 664 229 639 203 589 _c
177 539 165 464 165 364 _c
165 264 177 189 203 139 _c
229 89 267 64 318 64 _c
369 64 407 89 433 139 _c
458 189 471 264 471 364 _c
471 464 458 539 433 589 _c
407 639 369 664 318 664 _c
318 742 _m
399 742 461 709 505 645 _c
548 580 570 486 570 364 _c
570 241 548 147 505 83 _c
461 19 399 -13 318 -13 _c
236 -13 173 19 130 83 _c
87 147 66 241 66 364 _c
66 486 87 580 130 645 _c
173 709 236 742 318 742 _c
_cl}_d
/one{636 0 110 0 544 729 _sc
124 83 _m
285 83 _l
285 639 _l
110 604 _l
110 694 _l
284 729 _l
383 729 _l
383 83 _l
544 83 _l
544 0 _l
124 0 _l
124 83 _l
_cl}_d
/two{{636 0 73 0 536 742 _sc
192 83 _m
536 83 _l
536 0 _l
73 0 _l
73 83 _l
110 121 161 173 226 239 _c
290 304 331 346 348 365 _c
380 400 402 430 414 455 _c
426 479 433 504 433 528 _c
433 566 419 598 392 622 _c
365 646 330 659 286 659 _c
255 659 222 653 188 643 _c
154 632 117 616 78 594 _c
78 694 _l
118 710 155 722 189 730 _c
223 738 255 742 284 742 _c
}_e{359 742 419 723 464 685 _c
509 647 532 597 532 534 _c
532 504 526 475 515 449 _c
504 422 484 390 454 354 _c
446 344 420 317 376 272 _c
332 227 271 164 192 83 _c
_cl}_e}_d
/four{636 0 49 0 580 729 _sc
378 643 _m
129 254 _l
378 254 _l
378 643 _l
352 729 _m
476 729 _l
476 254 _l
580 254 _l
580 172 _l
476 172 _l
476 0 _l
378 0 _l
378 172 _l
49 172 _l
49 267 _l
352 729 _l
_cl}_d
/six{{636 0 70 -13 573 742 _sc
330 404 _m
286 404 251 388 225 358 _c
199 328 186 286 186 234 _c
186 181 199 139 225 109 _c
251 79 286 64 330 64 _c
374 64 409 79 435 109 _c
461 139 474 181 474 234 _c
474 286 461 328 435 358 _c
409 388 374 404 330 404 _c
526 713 _m
526 623 _l
501 635 476 644 451 650 _c
425 656 400 659 376 659 _c
310 659 260 637 226 593 _c
}_e{192 549 172 482 168 394 _c
187 422 211 444 240 459 _c
269 474 301 482 336 482 _c
409 482 467 459 509 415 _c
551 371 573 310 573 234 _c
573 159 550 99 506 54 _c
462 9 403 -13 330 -13 _c
246 -13 181 19 137 83 _c
92 147 70 241 70 364 _c
70 479 97 571 152 639 _c
206 707 280 742 372 742 _c
396 742 421 739 447 735 _c
472 730 498 723 526 713 _c
_cl}_e}_d
/eight{{636 0 68 -13 568 742 _sc
318 346 _m
271 346 234 333 207 308 _c
180 283 167 249 167 205 _c
167 161 180 126 207 101 _c
234 76 271 64 318 64 _c
364 64 401 76 428 102 _c
455 127 469 161 469 205 _c
469 249 455 283 429 308 _c
402 333 365 346 318 346 _c
219 388 _m
177 398 144 418 120 447 _c
96 476 85 511 85 553 _c
85 611 105 657 147 691 _c
188 725 245 742 318 742 _c
}_e{390 742 447 725 489 691 _c
530 657 551 611 551 553 _c
551 511 539 476 515 447 _c
491 418 459 398 417 388 _c
464 377 501 355 528 323 _c
554 291 568 251 568 205 _c
568 134 546 80 503 43 _c
459 5 398 -13 318 -13 _c
237 -13 175 5 132 43 _c
89 80 68 134 68 205 _c
68 251 81 291 108 323 _c
134 355 171 377 219 388 _c
183 544 _m
183 506 194 476 218 455 _c
}_e{242 434 275 424 318 424 _c
360 424 393 434 417 455 _c
441 476 453 506 453 544 _c
453 582 441 611 417 632 _c
393 653 360 664 318 664 _c
275 664 242 653 218 632 _c
194 611 183 582 183 544 _c
_cl}_e}_d
/B{{686 0 98 0 615 729 _sc
197 348 _m
197 81 _l
355 81 _l
408 81 447 92 473 114 _c
498 136 511 169 511 215 _c
511 260 498 293 473 315 _c
447 337 408 348 355 348 _c
197 348 _l
197 648 _m
197 428 _l
343 428 _l
391 428 426 437 450 455 _c
474 473 486 500 486 538 _c
486 574 474 602 450 620 _c
426 638 391 648 343 648 _c
197 648 _l
98 729 _m
350 729 _l
}_e{425 729 483 713 524 682 _c
564 650 585 606 585 549 _c
585 504 574 468 553 442 _c
532 416 502 399 462 393 _c
510 382 548 360 575 327 _c
601 294 615 253 615 204 _c
615 138 592 88 548 53 _c
504 17 441 0 360 0 _c
98 0 _l
98 729 _l
_cl}_e}_d
/C{{698 0 56 -13 644 742 _sc
644 673 _m
644 569 _l
610 599 575 622 537 638 _c
499 653 460 661 418 661 _c
334 661 270 635 226 584 _c
182 533 160 460 160 364 _c
160 268 182 194 226 143 _c
270 92 334 67 418 67 _c
460 67 499 74 537 90 _c
575 105 610 128 644 159 _c
644 56 _l
609 32 572 15 534 4 _c
496 -7 455 -13 412 -13 _c
302 -13 215 20 151 87 _c
}_e{87 154 56 246 56 364 _c
56 481 87 573 151 641 _c
215 708 302 742 412 742 _c
456 742 497 736 535 725 _c
573 713 610 696 644 673 _c
_cl}_e}_d
/F{575 0 98 0 517 729 _sc
98 729 _m
517 729 _l
517 646 _l
197 646 _l
197 431 _l
486 431 _l
486 348 _l
197 348 _l
197 0 _l
98 0 _l
98 729 _l
_cl}_d
/N{748 0 98 0 650 729 _sc
98 729 _m
231 729 _l
554 119 _l
554 729 _l
650 729 _l
650 0 _l
517 0 _l
194 610 _l
194 0 _l
98 0 _l
98 729 _l
_cl}_d
/U{732 0 87 -13 645 729 _sc
87 729 _m
186 729 _l
186 286 _l
186 208 200 151 228 117 _c
256 83 302 66 366 66 _c
429 66 475 83 503 117 _c
531 151 546 208 546 286 _c
546 729 _l
645 729 _l
645 274 _l
645 178 621 107 574 59 _c
527 11 458 -13 366 -13 _c
274 -13 204 11 157 59 _c
110 107 87 178 87 274 _c
87 729 _l
_cl}_d
/a{{613 0 60 -13 522 560 _sc
343 275 _m
270 275 220 266 192 250 _c
164 233 150 205 150 165 _c
150 133 160 107 181 89 _c
202 70 231 61 267 61 _c
317 61 357 78 387 114 _c
417 149 432 196 432 255 _c
432 275 _l
343 275 _l
522 312 _m
522 0 _l
432 0 _l
432 83 _l
411 49 385 25 355 10 _c
325 -5 287 -13 243 -13 _c
187 -13 142 2 109 33 _c
76 64 60 106 60 159 _c
}_e{60 220 80 266 122 298 _c
163 329 224 345 306 345 _c
432 345 _l
432 354 _l
432 395 418 427 391 450 _c
364 472 326 484 277 484 _c
245 484 215 480 185 472 _c
155 464 127 453 100 439 _c
100 522 _l
132 534 164 544 195 550 _c
226 556 256 560 286 560 _c
365 560 424 539 463 498 _c
502 457 522 395 522 312 _c
_cl}_e}_d
/c{{550 0 55 -13 488 560 _sc
488 526 _m
488 442 _l
462 456 437 466 411 473 _c
385 480 360 484 334 484 _c
276 484 230 465 198 428 _c
166 391 150 339 150 273 _c
150 206 166 154 198 117 _c
230 80 276 62 334 62 _c
360 62 385 65 411 72 _c
437 79 462 90 488 104 _c
488 21 _l
462 9 436 0 410 -5 _c
383 -10 354 -13 324 -13 _c
242 -13 176 12 128 64 _c
}_e{79 115 55 185 55 273 _c
55 362 79 432 128 483 _c
177 534 244 560 330 560 _c
358 560 385 557 411 551 _c
437 545 463 537 488 526 _c
_cl}_e}_d
/e{{615 0 55 -13 562 560 _sc
562 296 _m
562 252 _l
149 252 _l
153 190 171 142 205 110 _c
238 78 284 62 344 62 _c
378 62 412 66 444 74 _c
476 82 509 95 541 113 _c
541 28 _l
509 14 476 3 442 -3 _c
408 -9 373 -13 339 -13 _c
251 -13 182 12 131 62 _c
80 112 55 181 55 268 _c
55 357 79 428 127 481 _c
175 533 241 560 323 560 _c
397 560 455 536 498 489 _c
}_e{540 441 562 377 562 296 _c
472 322 _m
471 371 457 410 431 440 _c
404 469 368 484 324 484 _c
274 484 234 469 204 441 _c
174 413 156 373 152 322 _c
472 322 _l
_cl}_e}_d
/f{352 0 23 0 371 760 _sc
371 760 _m
371 685 _l
285 685 _l
253 685 230 678 218 665 _c
205 652 199 629 199 595 _c
199 547 _l
347 547 _l
347 477 _l
199 477 _l
199 0 _l
109 0 _l
109 477 _l
23 477 _l
23 547 _l
109 547 _l
109 585 _l
109 645 123 690 151 718 _c
179 746 224 760 286 760 _c
371 760 _l
_cl}_d
/h{634 0 91 0 549 760 _sc
549 330 _m
549 0 _l
459 0 _l
459 327 _l
459 379 448 417 428 443 _c
408 469 378 482 338 482 _c
289 482 251 466 223 435 _c
195 404 181 362 181 309 _c
181 0 _l
91 0 _l
91 760 _l
181 760 _l
181 462 _l
202 494 227 519 257 535 _c
286 551 320 560 358 560 _c
420 560 468 540 500 501 _c
532 462 549 405 549 330 _c
_cl}_d
/i{278 0 94 0 184 760 _sc
94 547 _m
184 547 _l
184 0 _l
94 0 _l
94 547 _l
94 760 _m
184 760 _l
184 646 _l
94 646 _l
94 760 _l
_cl}_d
/l{278 0 94 0 184 760 _sc
94 760 _m
184 760 _l
184 0 _l
94 0 _l
94 760 _l
_cl}_d
/n{634 0 91 0 549 560 _sc
549 330 _m
549 0 _l
459 0 _l
459 327 _l
459 379 448 417 428 443 _c
408 469 378 482 338 482 _c
289 482 251 466 223 435 _c
195 404 181 362 181 309 _c
181 0 _l
91 0 _l
91 547 _l
181 547 _l
181 462 _l
202 494 227 519 257 535 _c
286 551 320 560 358 560 _c
420 560 468 540 500 501 _c
532 462 549 405 549 330 _c
_cl}_d
/o{612 0 55 -13 557 560 _sc
306 484 _m
258 484 220 465 192 427 _c
164 389 150 338 150 273 _c
150 207 163 156 191 118 _c
219 80 257 62 306 62 _c
354 62 392 80 420 118 _c
448 156 462 207 462 273 _c
462 337 448 389 420 427 _c
392 465 354 484 306 484 _c
306 560 _m
384 560 445 534 490 484 _c
534 433 557 363 557 273 _c
557 183 534 113 490 63 _c
445 12 384 -13 306 -13 _c
227 -13 165 12 121 63 _c
77 113 55 183 55 273 _c
55 363 77 433 121 484 _c
165 534 227 560 306 560 _c
_cl}_d
/q{{635 0 55 -207 544 560 _sc
148 273 _m
148 207 161 155 188 117 _c
215 79 253 61 301 61 _c
348 61 385 79 413 117 _c
440 155 454 207 454 273 _c
454 339 440 390 413 428 _c
385 466 348 485 301 485 _c
253 485 215 466 188 428 _c
161 390 148 339 148 273 _c
454 82 _m
435 49 411 25 382 10 _c
353 -5 319 -13 279 -13 _c
213 -13 159 13 117 65 _c
75 117 55 187 55 273 _c
}_e{55 359 75 428 117 481 _c
159 533 213 560 279 560 _c
319 560 353 552 382 536 _c
411 520 435 496 454 464 _c
454 547 _l
544 547 _l
544 -207 _l
454 -207 _l
454 82 _l
_cl}_e}_d
/r{411 0 91 0 411 560 _sc
411 463 _m
401 469 390 473 378 476 _c
366 478 353 480 339 480 _c
288 480 249 463 222 430 _c
194 397 181 350 181 288 _c
181 0 _l
91 0 _l
91 547 _l
181 547 _l
181 462 _l
199 495 224 520 254 536 _c
284 552 321 560 365 560 _c
371 560 378 559 386 559 _c
393 558 401 557 411 555 _c
411 463 _l
_cl}_d
/s{{521 0 54 -13 472 560 _sc
443 531 _m
443 446 _l
417 458 391 468 364 475 _c
336 481 308 485 279 485 _c
234 485 200 478 178 464 _c
156 450 145 430 145 403 _c
145 382 153 366 169 354 _c
185 342 217 330 265 320 _c
296 313 _l
360 299 405 279 432 255 _c
458 230 472 195 472 151 _c
472 100 452 60 412 31 _c
372 1 316 -13 246 -13 _c
216 -13 186 -10 154 -5 _c
}_e{122 0 89 8 54 20 _c
54 113 _l
87 95 120 82 152 74 _c
184 65 216 61 248 61 _c
290 61 323 68 346 82 _c
368 96 380 117 380 144 _c
380 168 371 187 355 200 _c
339 213 303 226 247 238 _c
216 245 _l
160 257 119 275 95 299 _c
70 323 58 356 58 399 _c
58 450 76 490 112 518 _c
148 546 200 560 268 560 _c
301 560 332 557 362 552 _c
391 547 418 540 443 531 _c
}_e{_cl}_e}_d
/t{392 0 27 0 368 702 _sc
183 702 _m
183 547 _l
368 547 _l
368 477 _l
183 477 _l
183 180 _l
183 135 189 106 201 94 _c
213 81 238 75 276 75 _c
368 75 _l
368 0 _l
276 0 _l
206 0 158 13 132 39 _c
106 65 93 112 93 180 _c
93 477 _l
27 477 _l
27 547 _l
93 547 _l
93 702 _l
183 702 _l
_cl}_d
/u{634 0 85 -13 543 560 _sc
85 216 _m
85 547 _l
175 547 _l
175 219 _l
175 167 185 129 205 103 _c
225 77 255 64 296 64 _c
344 64 383 79 411 110 _c
439 141 453 183 453 237 _c
453 547 _l
543 547 _l
543 0 _l
453 0 _l
453 84 _l
431 50 405 26 377 10 _c
348 -5 315 -13 277 -13 _c
214 -13 166 6 134 45 _c
101 83 85 140 85 216 _c
311 560 _m
311 560 _l
_cl}_d
/w{818 0 42 0 776 547 _sc
42 547 _m
132 547 _l
244 120 _l
356 547 _l
462 547 _l
574 120 _l
686 547 _l
776 547 _l
633 0 _l
527 0 _l
409 448 _l
291 0 _l
185 0 _l
42 547 _l
_cl}_d
/x{592 0 29 0 559 547 _sc
549 547 _m
351 281 _l
559 0 _l
453 0 _l
294 215 _l
135 0 _l
29 0 _l
241 286 _l
47 547 _l
153 547 _l
298 352 _l
443 547 _l
549 547 _l
_cl}_d
/y{592 0 30 -207 562 547 _sc
322 -50 _m
296 -114 271 -157 247 -177 _c
223 -197 191 -207 151 -207 _c
79 -207 _l
79 -132 _l
132 -132 _l
156 -132 175 -126 189 -114 _c
203 -102 218 -75 235 -31 _c
251 9 _l
30 547 _l
125 547 _l
296 119 _l
467 547 _l
562 547 _l
322 -50 _l
_cl}_d
end readonly def

/BuildGlyph
 {exch begin
 CharStrings exch
 2 copy known not{pop /.notdef}if
 true 3 1 roll get exec
 end}_d

/BuildChar {
 1 index /Encoding get exch get
 1 index /BuildGlyph get exec
}_d

FontName currentdict end definefont pop
%!PS-Adobe-3.0 Resource-Font
%%Title: DejaVu Sans Oblique
%%Copyright: Copyright (c) 2003 by Bitstream, Inc. All Rights Reserved. Copyright (c) 2006 by Tavmjong Bah. All Rights Reserved. DejaVu changes are in public domain 
%%Creator: Converted from TrueType to type 3 by PPR
25 dict begin
/_d{bind def}bind def
/_m{moveto}_d
/_l{lineto}_d
/_cl{closepath eofill}_d
/_c{curveto}_d
/_sc{7 -1 roll{setcachedevice}{pop pop pop pop pop pop}ifelse}_d
/_e{exec}_d
/FontName /DejaVuSans-Oblique def
/PaintType 0 def
/FontMatrix[.001 0 0 .001 0 0]def
/FontBBox[-1016 -350 1659 1068]def
/FontType 3 def
/Encoding [ /x /sigma ] def
/FontInfo 10 dict dup begin
/FamilyName (DejaVu Sans) def
/FullName (DejaVu Sans Oblique) def
/Notice (Copyright (c) 2003 by Bitstream, Inc. All Rights Reserved. Copyright (c) 2006 by Tavmjong Bah. All Rights Reserved. DejaVu changes are in public domain ) def
/Weight (Oblique) def
/Version (Version 2.35) def
/ItalicAngle -11.0 def
/isFixedPitch false def
/UnderlinePosition -130 def
/UnderlineThickness 90 def
end readonly def
/CharStrings 2 dict dup begin
/x{592 0 -25 0 600 547 _sc
600 547 _m
349 279 _l
503 0 _l
400 0 _l
284 217 _l
83 0 _l
-25 0 _l
243 288 _l
100 547 _l
203 547 _l
308 349 _l
491 547 _l
600 547 _l
_cl}_d
/sigma{{634 0 57 -13 659 547 _sc
347 476 _m
297 476 255 458 222 422 _c
186 384 163 335 151 273 _c
138 207 142 156 163 118 _c
183 80 218 62 267 62 _c
314 62 355 81 391 119 _c
426 156 450 207 463 273 _c
474 332 470 382 450 422 _c
431 458 397 476 347 476 _c
361 547 _m
659 547 _l
642 457 _l
541 457 _l
566 406 572 345 559 273 _c
541 183 505 113 451 63 _c
396 12 329 -13 251 -13 _c
}_e{173 -13 116 12 82 63 _c
47 113 39 183 57 273 _c
74 363 110 433 164 484 _c
209 526 275 547 361 547 _c
_cl}_e}_d
end readonly def

/BuildGlyph
 {exch begin
 CharStrings exch
 2 copy known not{pop /.notdef}if
 true 3 1 roll get exec
 end}_d

/BuildChar {
 1 index /Encoding get exch get
 1 index /BuildGlyph get exec
}_d

FontName currentdict end definefont pop
end
%%EndProlog
mpldict begin
-126 252 translate
864 288 0 0 clipbox
gsave
0 0 m
864 0 l
864 288 l
0 288 l
cl
1.000 setgray
fill
grestore
gsave
86.4 43.2 m
386.921739 43.2 l
386.921739 259.2 l
86.4 259.2 l
cl
1.000 setgray
fill
grestore
0.800 setlinewidth
1 setlinejoin
0 setlinecap
[] 0 setdash
0.000 setgray
gsave
/o {
gsave
newpath
translate
0.8 setlinewidth
1 setlinejoin
0 setlinecap
0 0 m
0 -3.5 l

gsave
0.000 setgray
fill
grestore
stroke
grestore
} bind def
86.4 43.2 o
grestore
/DejaVuSans findfont
14.000 scalefont
setfont
gsave
75.267188 25.559375 translate
0.000000 rotate
0.000000 0.000000 m /zero glyphshow
8.907227 0.000000 m /period glyphshow
13.357422 0.000000 m /zero glyphshow
grestore
gsave
/o {
gsave
newpath
translate
0.8 setlinewidth
1 setlinejoin
0 setlinecap
0 0 m
0 -3.5 l

gsave
0.000 setgray
fill
grestore
stroke
grestore
} bind def
141.04 43.2 o
grestore
gsave
129.907504 25.559375 translate
0.000000 rotate
0.000000 0.000000 m /zero glyphshow
8.907227 0.000000 m /period glyphshow
13.357422 0.000000 m /two glyphshow
grestore
gsave
/o {
gsave
newpath
translate
0.8 setlinewidth
1 setlinejoin
0 setlinecap
0 0 m
0 -3.5 l

gsave
0.000 setgray
fill
grestore
stroke
grestore
} bind def
195.681 43.2 o
grestore
gsave
184.547820 25.559375 translate
0.000000 rotate
0.000000 0.000000 m /zero glyphshow
8.907227 0.000000 m /period glyphshow
13.357422 0.000000 m /four glyphshow
grestore
gsave
/o {
gsave
newpath
translate
0.8 setlinewidth
1 setlinejoin
0 setlinecap
0 0 m
0 -3.5 l

gsave
0.000 setgray
fill
grestore
stroke
grestore
} bind def
250.321 43.2 o
grestore
gsave
239.188136 25.559375 translate
0.000000 rotate
0.000000 0.000000 m /zero glyphshow
8.907227 0.000000 m /period glyphshow
13.357422 0.000000 m /six glyphshow
grestore
gsave
/o {
gsave
newpath
translate
0.8 setlinewidth
1 setlinejoin
0 setlinecap
0 0 m
0 -3.5 l

gsave
0.000 setgray
fill
grestore
stroke
grestore
} bind def
304.961 43.2 o
grestore
gsave
293.828452 25.559375 translate
0.000000 rotate
0.000000 0.000000 m /zero glyphshow
8.907227 0.000000 m /period glyphshow
13.357422 0.000000 m /eight glyphshow
grestore
gsave
/o {
gsave
newpath
translate
0.8 setlinewidth
1 setlinejoin
0 setlinecap
0 0 m
0 -3.5 l

gsave
0.000 setgray
fill
grestore
stroke
grestore
} bind def
359.602 43.2 o
grestore
gsave
355.148456 25.559375 translate
0.000000 rotate
0.000000 0.000000 m /one glyphshow
grestore
gsave
232.520245 8.012500 translate
0.000000 rotate
0.000000 0.000000 m /x glyphshow
grestore
gsave
/o {
gsave
newpath
translate
0.8 setlinewidth
1 setlinejoin
0 setlinecap
0 0 m
-3.5 0 l

gsave
0.000 setgray
fill
grestore
stroke
grestore
} bind def
86.4 53.0182 o
grestore
gsave
57.134375 47.697859 translate
0.000000 rotate
0.000000 0.000000 m /zero glyphshow
8.907227 0.000000 m /period glyphshow
13.357422 0.000000 m /zero glyphshow
grestore
gsave
/o {
gsave
newpath
translate
0.8 setlinewidth
1 setlinejoin
0 setlinecap
0 0 m
-3.5 0 l

gsave
0.000 setgray
fill
grestore
stroke
grestore
} bind def
86.4 92.2909 o
grestore
gsave
57.134375 86.970588 translate
0.000000 rotate
0.000000 0.000000 m /zero glyphshow
8.907227 0.000000 m /period glyphshow
13.357422 0.000000 m /two glyphshow
grestore
gsave
/o {
gsave
newpath
translate
0.8 setlinewidth
1 setlinejoin
0 setlinecap
0 0 m
-3.5 0 l

gsave
0.000 setgray
fill
grestore
stroke
grestore
} bind def
86.4 131.564 o
grestore
gsave
57.134375 126.243317 translate
0.000000 rotate
0.000000 0.000000 m /zero glyphshow
8.907227 0.000000 m /period glyphshow
13.357422 0.000000 m /four glyphshow
grestore
gsave
/o {
gsave
newpath
translate
0.8 setlinewidth
1 setlinejoin
0 setlinecap
0 0 m
-3.5 0 l

gsave
0.000 setgray
fill
grestore
stroke
grestore
} bind def
86.4 170.836 o
grestore
gsave
57.134375 165.516047 translate
0.000000 rotate
0.000000 0.000000 m /zero glyphshow
8.907227 0.000000 m /period glyphshow
13.357422 0.000000 m /six glyphshow
grestore
gsave
/o {
gsave
newpath
translate
0.8 setlinewidth
1 setlinejoin
0 setlinecap
0 0 m
-3.5 0 l

gsave
0.000 setgray
fill
grestore
stroke
grestore
} bind def
86.4 210.109 o
grestore
gsave
57.134375 204.788776 translate
0.000000 rotate
0.000000 0.000000 m /zero glyphshow
8.907227 0.000000 m /period glyphshow
13.357422 0.000000 m /eight glyphshow
grestore
gsave
/o {
gsave
newpath
translate
0.8 setlinewidth
1 setlinejoin
0 setlinecap
0 0 m
-3.5 0 l

gsave
0.000 setgray
fill
grestore
stroke
grestore
} bind def
86.4 249.382 o
grestore
gsave
57.134375 244.061506 translate
0.000000 rotate
0.000000 0.000000 m /one glyphshow
8.907227 0.000000 m /period glyphshow
13.357422 0.000000 m /zero glyphshow
grestore
gsave
50.228125 136.700000 translate
90.000000 rotate
/DejaVuSans-Oblique findfont
14.0 scalefont
setfont
0.000000 0.375000 moveto
/sigma glyphshow

/DejaVuSans findfont
14.0 scalefont
setfont
8.873047 0.375000 moveto
/parenleft glyphshow

/DejaVuSans-Oblique findfont
14.0 scalefont
setfont
14.334961 0.375000 moveto
/x glyphshow

/DejaVuSans findfont
14.0 scalefont
setfont
22.620117 0.375000 moveto
/parenright glyphshow


grestore
1.000 setlinewidth
2 setlinecap
gsave
300.5 216 86.4 43.2 clipbox
106.890119 53.018288 m
120.550198 53.018288 l
120.550198 53.018604 l
106.890119 53.018604 l
106.890119 53.018288 l
stroke
grestore
gsave
300.5 216 86.4 43.2 clipbox
113.720158 53.018288 m
113.720158 53.018182 l
stroke
grestore
gsave
300.5 216 86.4 43.2 clipbox
113.720158 53.018604 m
113.720158 53.019073 l
stroke
grestore
gsave
300.5 216 86.4 43.2 clipbox
110.305138 53.018182 m
117.135178 53.018182 l
stroke
grestore
gsave
300.5 216 86.4 43.2 clipbox
110.305138 53.019073 m
117.135178 53.019073 l
stroke
grestore
0 setlinecap
gsave
300.5 216 86.4 43.2 clipbox
/o {
gsave
newpath
translate
1.0 setlinewidth
1 setlinejoin
0 setlinecap
0 -3 m
0.795609 -3 1.55874 -2.683901 2.12132 -2.12132 c
2.683901 -1.55874 3 -0.795609 3 0 c
3 0.795609 2.683901 1.55874 2.12132 2.12132 c
1.55874 2.683901 0.795609 3 0 3 c
-0.795609 3 -1.55874 2.683901 -2.12132 2.12132 c
-2.683901 1.55874 -3 0.795609 -3 0 c
-3 -0.795609 -2.683901 -1.55874 -2.12132 -2.12132 c
-1.55874 -2.683901 -0.795609 -3 0 -3 c
cl

stroke
grestore
} bind def
113.72 53.0206 o
113.72 53.0214 o
113.72 53.0204 o
113.72 53.0192 o
113.72 53.0192 o
113.72 53.0191 o
113.72 53.0199 o
grestore
2 setlinecap
gsave
300.5 216 86.4 43.2 clipbox
134.210277 53.019695 m
147.870356 53.019695 l
147.870356 53.023712 l
134.210277 53.023712 l
134.210277 53.019695 l
stroke
grestore
gsave
300.5 216 86.4 43.2 clipbox
141.040316 53.019695 m
141.040316 53.018391 l
stroke
grestore
gsave
300.5 216 86.4 43.2 clipbox
141.040316 53.023712 m
141.040316 53.028372 l
stroke
grestore
gsave
300.5 216 86.4 43.2 clipbox
137.625296 53.018391 m
144.455336 53.018391 l
stroke
grestore
gsave
300.5 216 86.4 43.2 clipbox
137.625296 53.028372 m
144.455336 53.028372 l
stroke
grestore
0 setlinecap
gsave
300.5 216 86.4 43.2 clipbox
/o {
gsave
newpath
translate
1.0 setlinewidth
1 setlinejoin
0 setlinecap
0 -3 m
0.795609 -3 1.55874 -2.683901 2.12132 -2.12132 c
2.683901 -1.55874 3 -0.795609 3 0 c
3 0.795609 2.683901 1.55874 2.12132 2.12132 c
1.55874 2.683901 0.795609 3 0 3 c
-0.795609 3 -1.55874 2.683901 -2.12132 2.12132 c
-2.683901 1.55874 -3 0.795609 -3 0 c
-3 -0.795609 -2.683901 -1.55874 -2.12132 -2.12132 c
-1.55874 -2.683901 -0.795609 -3 0 -3 c
cl

stroke
grestore
} bind def
141.04 53.0507 o
141.04 53.065 o
141.04 53.059 o
141.04 53.0299 o
141.04 53.033 o
141.04 53.0309 o
141.04 53.0412 o
grestore
2 setlinecap
gsave
300.5 216 86.4 43.2 clipbox
161.530435 53.042275 m
175.190514 53.042275 l
175.190514 53.12938 l
161.530435 53.12938 l
161.530435 53.042275 l
stroke
grestore
gsave
300.5 216 86.4 43.2 clipbox
168.360474 53.042275 m
168.360474 53.023416 l
stroke
grestore
gsave
300.5 216 86.4 43.2 clipbox
168.360474 53.12938 m
168.360474 53.214566 l
stroke
grestore
gsave
300.5 216 86.4 43.2 clipbox
164.945455 53.023416 m
171.775494 53.023416 l
stroke
grestore
gsave
300.5 216 86.4 43.2 clipbox
164.945455 53.214566 m
171.775494 53.214566 l
stroke
grestore
0 setlinecap
gsave
300.5 216 86.4 43.2 clipbox
/o {
gsave
newpath
translate
1.0 setlinewidth
1 setlinejoin
0 setlinecap
0 -3 m
0.795609 -3 1.55874 -2.683901 2.12132 -2.12132 c
2.683901 -1.55874 3 -0.795609 3 0 c
3 0.795609 2.683901 1.55874 2.12132 2.12132 c
1.55874 2.683901 0.795609 3 0 3 c
-0.795609 3 -1.55874 2.683901 -2.12132 2.12132 c
-2.683901 1.55874 -3 0.795609 -3 0 c
-3 -0.795609 -2.683901 -1.55874 -2.12132 -2.12132 c
-1.55874 -2.683901 -0.795609 -3 0 -3 c
cl

stroke
grestore
} bind def
168.36 53.2631 o
168.36 53.7582 o
168.36 53.9412 o
168.36 53.9219 o
168.36 53.3244 o
168.36 53.2755 o
168.36 53.2862 o
168.36 53.3828 o
168.36 53.4255 o
grestore
2 setlinecap
gsave
300.5 216 86.4 43.2 clipbox
188.850593 53.575996 m
202.510672 53.575996 l
202.510672 55.689699 l
188.850593 55.689699 l
188.850593 53.575996 l
stroke
grestore
gsave
300.5 216 86.4 43.2 clipbox
195.680632 53.575996 m
195.680632 53.152585 l
stroke
grestore
gsave
300.5 216 86.4 43.2 clipbox
195.680632 55.689699 m
195.680632 57.96688 l
stroke
grestore
gsave
300.5 216 86.4 43.2 clipbox
192.265613 53.152585 m
199.095652 53.152585 l
stroke
grestore
gsave
300.5 216 86.4 43.2 clipbox
192.265613 57.96688 m
199.095652 57.96688 l
stroke
grestore
0 setlinecap
gsave
300.5 216 86.4 43.2 clipbox
/o {
gsave
newpath
translate
1.0 setlinewidth
1 setlinejoin
0 setlinecap
0 -3 m
0.795609 -3 1.55874 -2.683901 2.12132 -2.12132 c
2.683901 -1.55874 3 -0.795609 3 0 c
3 0.795609 2.683901 1.55874 2.12132 2.12132 c
1.55874 2.683901 0.795609 3 0 3 c
-0.795609 3 -1.55874 2.683901 -2.12132 2.12132 c
-2.683901 1.55874 -3 0.795609 -3 0 c
-3 -0.795609 -2.683901 -1.55874 -2.12132 -2.12132 c
-1.55874 -2.683901 -0.795609 -3 0 -3 c
cl

stroke
grestore
} bind def
195.681 59.9142 o
195.681 72.7491 o
195.681 76.3206 o
195.681 74.041 o
195.681 63.2545 o
195.681 61.0433 o
195.681 60.2851 o
195.681 63.7626 o
195.681 67.8396 o
195.681 61.7993 o
grestore
2 setlinecap
gsave
300.5 216 86.4 43.2 clipbox
216.170751 69.283874 m
229.83083 69.283874 l
229.83083 114.490455 l
216.170751 114.490455 l
216.170751 69.283874 l
stroke
grestore
gsave
300.5 216 86.4 43.2 clipbox
223.000791 69.283874 m
223.000791 57.740778 l
stroke
grestore
gsave
300.5 216 86.4 43.2 clipbox
223.000791 114.490455 m
223.000791 180.943186 l
stroke
grestore
gsave
300.5 216 86.4 43.2 clipbox
219.585771 57.740778 m
226.41581 57.740778 l
stroke
grestore
gsave
300.5 216 86.4 43.2 clipbox
219.585771 180.943186 m
226.41581 180.943186 l
stroke
grestore
0 setlinecap
gsave
300.5 216 86.4 43.2 clipbox
/o {
gsave
newpath
translate
1.0 setlinewidth
1 setlinejoin
0 setlinecap
0 -3 m
0.795609 -3 1.55874 -2.683901 2.12132 -2.12132 c
2.683901 -1.55874 3 -0.795609 3 0 c
3 0.795609 2.683901 1.55874 2.12132 2.12132 c
1.55874 2.683901 0.795609 3 0 3 c
-0.795609 3 -1.55874 2.683901 -2.12132 2.12132 c
-2.683901 1.55874 -3 0.795609 -3 0 c
-3 -0.795609 -2.683901 -1.55874 -2.12132 -2.12132 c
-1.55874 -2.683901 -0.795609 -3 0 -3 c
cl

stroke
grestore
} bind def
223.001 212.931 o
223.001 216.683 o
223.001 205.514 o
223.001 189.087 o
223.001 200.513 o
223.001 210.055 o
grestore
2 setlinecap
gsave
300.5 216 86.4 43.2 clipbox
243.490909 199.887879 m
257.150988 199.887879 l
257.150988 238.019767 l
243.490909 238.019767 l
243.490909 199.887879 l
stroke
grestore
gsave
300.5 216 86.4 43.2 clipbox
250.320949 199.887879 m
250.320949 143.579593 l
stroke
grestore
gsave
300.5 216 86.4 43.2 clipbox
250.320949 238.019767 m
250.320949 248.372051 l
stroke
grestore
gsave
300.5 216 86.4 43.2 clipbox
246.905929 143.579593 m
253.735968 143.579593 l
stroke
grestore
gsave
300.5 216 86.4 43.2 clipbox
246.905929 248.372051 m
253.735968 248.372051 l
stroke
grestore
0 setlinecap
gsave
300.5 216 86.4 43.2 clipbox
/o {
gsave
newpath
translate
1.0 setlinewidth
1 setlinejoin
0 setlinecap
0 -3 m
0.795609 -3 1.55874 -2.683901 2.12132 -2.12132 c
2.683901 -1.55874 3 -0.795609 3 0 c
3 0.795609 2.683901 1.55874 2.12132 2.12132 c
1.55874 2.683901 0.795609 3 0 3 c
-0.795609 3 -1.55874 2.683901 -2.12132 2.12132 c
-2.683901 1.55874 -3 0.795609 -3 0 c
-3 -0.795609 -2.683901 -1.55874 -2.12132 -2.12132 c
-1.55874 -2.683901 -0.795609 -3 0 -3 c
cl

stroke
grestore
} bind def
250.321 138.983 o
250.321 128.562 o
250.321 127.867 o
grestore
2 setlinecap
gsave
300.5 216 86.4 43.2 clipbox
270.811067 247.229217 m
284.471146 247.229217 l
284.471146 249.012882 l
270.811067 249.012882 l
270.811067 247.229217 l
stroke
grestore
gsave
300.5 216 86.4 43.2 clipbox
277.641107 247.229217 m
277.641107 244.77168 l
stroke
grestore
gsave
300.5 216 86.4 43.2 clipbox
277.641107 249.012882 m
277.641107 249.356444 l
stroke
grestore
gsave
300.5 216 86.4 43.2 clipbox
274.226087 244.77168 m
281.056126 244.77168 l
stroke
grestore
gsave
300.5 216 86.4 43.2 clipbox
274.226087 249.356444 m
281.056126 249.356444 l
stroke
grestore
0 setlinecap
gsave
300.5 216 86.4 43.2 clipbox
/o {
gsave
newpath
translate
1.0 setlinewidth
1 setlinejoin
0 setlinecap
0 -3 m
0.795609 -3 1.55874 -2.683901 2.12132 -2.12132 c
2.683901 -1.55874 3 -0.795609 3 0 c
3 0.795609 2.683901 1.55874 2.12132 2.12132 c
1.55874 2.683901 0.795609 3 0 3 c
-0.795609 3 -1.55874 2.683901 -2.12132 2.12132 c
-2.683901 1.55874 -3 0.795609 -3 0 c
-3 -0.795609 -2.683901 -1.55874 -2.12132 -2.12132 c
-1.55874 -2.683901 -0.795609 -3 0 -3 c
cl

stroke
grestore
} bind def
277.641 242.09 o
277.641 236.855 o
277.641 243.959 o
277.641 239.839 o
277.641 243.965 o
277.641 244.006 o
277.641 243.517 o
277.641 240.139 o
277.641 233.821 o
277.641 241.782 o
277.641 234.123 o
277.641 243.727 o
277.641 243.533 o
grestore
2 setlinecap
gsave
300.5 216 86.4 43.2 clipbox
298.131225 249.256613 m
311.791304 249.256613 l
311.791304 249.365052 l
298.131225 249.365052 l
298.131225 249.256613 l
stroke
grestore
gsave
300.5 216 86.4 43.2 clipbox
304.961265 249.256613 m
304.961265 249.11199 l
stroke
grestore
gsave
300.5 216 86.4 43.2 clipbox
304.961265 249.365052 m
304.961265 249.380858 l
stroke
grestore
gsave
300.5 216 86.4 43.2 clipbox
301.546245 249.11199 m
308.376285 249.11199 l
stroke
grestore
gsave
300.5 216 86.4 43.2 clipbox
301.546245 249.380858 m
308.376285 249.380858 l
stroke
grestore
0 setlinecap
gsave
300.5 216 86.4 43.2 clipbox
/o {
gsave
newpath
translate
1.0 setlinewidth
1 setlinejoin
0 setlinecap
0 -3 m
0.795609 -3 1.55874 -2.683901 2.12132 -2.12132 c
2.683901 -1.55874 3 -0.795609 3 0 c
3 0.795609 2.683901 1.55874 2.12132 2.12132 c
1.55874 2.683901 0.795609 3 0 3 c
-0.795609 3 -1.55874 2.683901 -2.12132 2.12132 c
-2.683901 1.55874 -3 0.795609 -3 0 c
-3 -0.795609 -2.683901 -1.55874 -2.12132 -2.12132 c
-1.55874 -2.683901 -0.795609 -3 0 -3 c
cl

stroke
grestore
} bind def
304.961 249.023 o
304.961 248.487 o
304.961 248.771 o
304.961 249.075 o
304.961 248.909 o
304.961 248.224 o
304.961 248.841 o
304.961 248.516 o
304.961 249.056 o
grestore
2 setlinecap
gsave
300.5 216 86.4 43.2 clipbox
325.451383 249.373274 m
339.111462 249.373274 l
339.111462 249.380607 l
325.451383 249.380607 l
325.451383 249.373274 l
stroke
grestore
gsave
300.5 216 86.4 43.2 clipbox
332.281423 249.373274 m
332.281423 249.363045 l
stroke
grestore
gsave
300.5 216 86.4 43.2 clipbox
332.281423 249.380607 m
332.281423 249.381771 l
stroke
grestore
gsave
300.5 216 86.4 43.2 clipbox
328.866403 249.363045 m
335.696443 249.363045 l
stroke
grestore
gsave
300.5 216 86.4 43.2 clipbox
328.866403 249.381771 m
335.696443 249.381771 l
stroke
grestore
0 setlinecap
gsave
300.5 216 86.4 43.2 clipbox
/o {
gsave
newpath
translate
1.0 setlinewidth
1 setlinejoin
0 setlinecap
0 -3 m
0.795609 -3 1.55874 -2.683901 2.12132 -2.12132 c
2.683901 -1.55874 3 -0.795609 3 0 c
3 0.795609 2.683901 1.55874 2.12132 2.12132 c
1.55874 2.683901 0.795609 3 0 3 c
-0.795609 3 -1.55874 2.683901 -2.12132 2.12132 c
-2.683901 1.55874 -3 0.795609 -3 0 c
-3 -0.795609 -2.683901 -1.55874 -2.12132 -2.12132 c
-1.55874 -2.683901 -0.795609 -3 0 -3 c
cl

stroke
grestore
} bind def
332.281 249.361 o
332.281 249.349 o
332.281 249.315 o
332.281 249.34 o
332.281 249.357 o
332.281 249.341 o
332.281 249.286 o
332.281 249.332 o
332.281 249.326 o
332.281 249.344 o
grestore
2 setlinecap
gsave
300.5 216 86.4 43.2 clipbox
352.771542 249.381022 m
366.431621 249.381022 l
366.431621 249.381707 l
352.771542 249.381707 l
352.771542 249.381022 l
stroke
grestore
gsave
300.5 216 86.4 43.2 clipbox
359.601581 249.381022 m
359.601581 249.380109 l
stroke
grestore
gsave
300.5 216 86.4 43.2 clipbox
359.601581 249.381707 m
359.601581 249.381818 l
stroke
grestore
gsave
300.5 216 86.4 43.2 clipbox
356.186561 249.380109 m
363.016601 249.380109 l
stroke
grestore
gsave
300.5 216 86.4 43.2 clipbox
356.186561 249.381818 m
363.016601 249.381818 l
stroke
grestore
0 setlinecap
gsave
300.5 216 86.4 43.2 clipbox
/o {
gsave
newpath
translate
1.0 setlinewidth
1 setlinejoin
0 setlinecap
0 -3 m
0.795609 -3 1.55874 -2.683901 2.12132 -2.12132 c
2.683901 -1.55874 3 -0.795609 3 0 c
3 0.795609 2.683901 1.55874 2.12132 2.12132 c
1.55874 2.683901 0.795609 3 0 3 c
-0.795609 3 -1.55874 2.683901 -2.12132 2.12132 c
-2.683901 1.55874 -3 0.795609 -3 0 c
-3 -0.795609 -2.683901 -1.55874 -2.12132 -2.12132 c
-1.55874 -2.683901 -0.795609 -3 0 -3 c
cl

stroke
grestore
} bind def
359.602 249.38 o
359.602 249.378 o
359.602 249.375 o
359.602 249.378 o
359.602 249.38 o
359.602 249.38 o
359.602 249.379 o
359.602 249.377 o
359.602 249.371 o
359.602 249.376 o
359.602 249.378 o
359.602 249.376 o
grestore
2 setlinecap
1.000 0.498 0.055 setrgbcolor
gsave
300.5 216 86.4 43.2 clipbox
106.890119 53.018377 m
120.550198 53.018377 l
stroke
grestore
gsave
300.5 216 86.4 43.2 clipbox
134.210277 53.02098 m
147.870356 53.02098 l
stroke
grestore
gsave
300.5 216 86.4 43.2 clipbox
161.530435 53.071881 m
175.190514 53.071881 l
stroke
grestore
gsave
300.5 216 86.4 43.2 clipbox
188.850593 54.294139 m
202.510672 54.294139 l
stroke
grestore
gsave
300.5 216 86.4 43.2 clipbox
216.170751 84.911285 m
229.83083 84.911285 l
stroke
grestore
gsave
300.5 216 86.4 43.2 clipbox
243.490909 224.431146 m
257.150988 224.431146 l
stroke
grestore
gsave
300.5 216 86.4 43.2 clipbox
270.811067 248.420635 m
284.471146 248.420635 l
stroke
grestore
gsave
300.5 216 86.4 43.2 clipbox
298.131225 249.335329 m
311.791304 249.335329 l
stroke
grestore
gsave
300.5 216 86.4 43.2 clipbox
325.451383 249.378623 m
339.111462 249.378623 l
stroke
grestore
gsave
300.5 216 86.4 43.2 clipbox
352.771542 249.381537 m
366.431621 249.381537 l
stroke
grestore
0.800 setlinewidth
0 setlinejoin
[] 0 setdash
0.000 setgray
gsave
86.4 43.2 m
86.4 259.2 l
stroke
grestore
gsave
386.921739 43.2 m
386.921739 259.2 l
stroke
grestore
gsave
86.4 43.2 m
386.921739 43.2 l
stroke
grestore
gsave
86.4 259.2 m
386.921739 259.2 l
stroke
grestore
gsave
477.078261 43.2 m
777.6 43.2 l
777.6 259.2 l
477.078261 259.2 l
cl
1.000 setgray
fill
grestore
gsave
300.5 216 477.1 43.2 clipbox
490.73834 43.2 m
496.276885 43.2 l
496.276885 45.342857 l
490.73834 45.342857 l
cl
0.122 0.467 0.706 setrgbcolor
fill
grestore
gsave
300.5 216 477.1 43.2 clipbox
496.276885 43.2 m
501.81543 43.2 l
501.81543 45.342857 l
496.276885 45.342857 l
cl
0.122 0.467 0.706 setrgbcolor
fill
grestore
gsave
300.5 216 477.1 43.2 clipbox
501.81543 43.2 m
507.353974 43.2 l
507.353974 43.2 l
501.81543 43.2 l
cl
0.122 0.467 0.706 setrgbcolor
fill
grestore
gsave
300.5 216 477.1 43.2 clipbox
507.353974 43.2 m
512.892519 43.2 l
512.892519 43.2 l
507.353974 43.2 l
cl
0.122 0.467 0.706 setrgbcolor
fill
grestore
gsave
300.5 216 477.1 43.2 clipbox
512.892519 43.2 m
518.431064 43.2 l
518.431064 49.628571 l
512.892519 49.628571 l
cl
0.122 0.467 0.706 setrgbcolor
fill
grestore
gsave
300.5 216 477.1 43.2 clipbox
518.431064 43.2 m
523.969609 43.2 l
523.969609 53.914286 l
518.431064 53.914286 l
cl
0.122 0.467 0.706 setrgbcolor
fill
grestore
gsave
300.5 216 477.1 43.2 clipbox
523.969609 43.2 m
529.508154 43.2 l
529.508154 64.628571 l
523.969609 64.628571 l
cl
0.122 0.467 0.706 setrgbcolor
fill
grestore
gsave
300.5 216 477.1 43.2 clipbox
529.508154 43.2 m
535.046699 43.2 l
535.046699 73.2 l
529.508154 73.2 l
cl
0.122 0.467 0.706 setrgbcolor
fill
grestore
gsave
300.5 216 477.1 43.2 clipbox
535.046699 43.2 m
540.585243 43.2 l
540.585243 90.342857 l
535.046699 90.342857 l
cl
0.122 0.467 0.706 setrgbcolor
fill
grestore
gsave
300.5 216 477.1 43.2 clipbox
540.585243 43.2 m
546.123788 43.2 l
546.123788 98.914286 l
540.585243 98.914286 l
cl
0.122 0.467 0.706 setrgbcolor
fill
grestore
gsave
300.5 216 477.1 43.2 clipbox
546.123788 43.2 m
551.662333 43.2 l
551.662333 158.914286 l
546.123788 158.914286 l
cl
0.122 0.467 0.706 setrgbcolor
fill
grestore
gsave
300.5 216 477.1 43.2 clipbox
551.662333 43.2 m
557.200878 43.2 l
557.200878 176.057143 l
551.662333 176.057143 l
cl
0.122 0.467 0.706 setrgbcolor
fill
grestore
gsave
300.5 216 477.1 43.2 clipbox
557.200878 43.2 m
562.739423 43.2 l
562.739423 171.771429 l
557.200878 171.771429 l
cl
0.122 0.467 0.706 setrgbcolor
fill
grestore
gsave
300.5 216 477.1 43.2 clipbox
562.739423 43.2 m
568.277968 43.2 l
568.277968 231.771429 l
562.739423 231.771429 l
cl
0.122 0.467 0.706 setrgbcolor
fill
grestore
gsave
300.5 216 477.1 43.2 clipbox
568.277968 43.2 m
573.816512 43.2 l
573.816512 214.628571 l
568.277968 214.628571 l
cl
0.122 0.467 0.706 setrgbcolor
fill
grestore
gsave
300.5 216 477.1 43.2 clipbox
573.816512 43.2 m
579.355057 43.2 l
579.355057 248.914286 l
573.816512 248.914286 l
cl
0.122 0.467 0.706 setrgbcolor
fill
grestore
gsave
300.5 216 477.1 43.2 clipbox
579.355057 43.2 m
584.893602 43.2 l
584.893602 221.057143 l
579.355057 221.057143 l
cl
0.122 0.467 0.706 setrgbcolor
fill
grestore
gsave
300.5 216 477.1 43.2 clipbox
584.893602 43.2 m
590.432147 43.2 l
590.432147 197.485714 l
584.893602 197.485714 l
cl
0.122 0.467 0.706 setrgbcolor
fill
grestore
gsave
300.5 216 477.1 43.2 clipbox
590.432147 43.2 m
595.970692 43.2 l
595.970692 221.057143 l
590.432147 221.057143 l
cl
0.122 0.467 0.706 setrgbcolor
fill
grestore
gsave
300.5 216 477.1 43.2 clipbox
595.970692 43.2 m
601.509237 43.2 l
601.509237 171.771429 l
595.970692 171.771429 l
cl
0.122 0.467 0.706 setrgbcolor
fill
grestore
gsave
300.5 216 477.1 43.2 clipbox
601.509237 43.2 m
607.047781 43.2 l
607.047781 131.057143 l
601.509237 131.057143 l
cl
0.122 0.467 0.706 setrgbcolor
fill
grestore
gsave
300.5 216 477.1 43.2 clipbox
607.047781 43.2 m
612.586326 43.2 l
612.586326 133.2 l
607.047781 133.2 l
cl
0.122 0.467 0.706 setrgbcolor
fill
grestore
gsave
300.5 216 477.1 43.2 clipbox
612.586326 43.2 m
618.124871 43.2 l
618.124871 103.2 l
612.586326 103.2 l
cl
0.122 0.467 0.706 setrgbcolor
fill
grestore
gsave
300.5 216 477.1 43.2 clipbox
618.124871 43.2 m
623.663416 43.2 l
623.663416 79.628571 l
618.124871 79.628571 l
cl
0.122 0.467 0.706 setrgbcolor
fill
grestore
gsave
300.5 216 477.1 43.2 clipbox
623.663416 43.2 m
629.201961 43.2 l
629.201961 81.771429 l
623.663416 81.771429 l
cl
0.122 0.467 0.706 setrgbcolor
fill
grestore
gsave
300.5 216 477.1 43.2 clipbox
629.201961 43.2 m
634.740506 43.2 l
634.740506 75.342857 l
629.201961 75.342857 l
cl
0.122 0.467 0.706 setrgbcolor
fill
grestore
gsave
300.5 216 477.1 43.2 clipbox
634.740506 43.2 m
640.279051 43.2 l
640.279051 60.342857 l
634.740506 60.342857 l
cl
0.122 0.467 0.706 setrgbcolor
fill
grestore
gsave
300.5 216 477.1 43.2 clipbox
640.279051 43.2 m
645.817595 43.2 l
645.817595 58.2 l
640.279051 58.2 l
cl
0.122 0.467 0.706 setrgbcolor
fill
grestore
gsave
300.5 216 477.1 43.2 clipbox
645.817595 43.2 m
651.35614 43.2 l
651.35614 45.342857 l
645.817595 45.342857 l
cl
0.122 0.467 0.706 setrgbcolor
fill
grestore
gsave
300.5 216 477.1 43.2 clipbox
651.35614 43.2 m
656.894685 43.2 l
656.894685 49.628571 l
651.35614 49.628571 l
cl
0.122 0.467 0.706 setrgbcolor
fill
grestore
gsave
300.5 216 477.1 43.2 clipbox
613.385406 43.2 m
618.40389 43.2 l
618.40389 51.771429 l
613.385406 51.771429 l
cl
1.000 0.498 0.055 setrgbcolor
fill
grestore
gsave
300.5 216 477.1 43.2 clipbox
618.40389 43.2 m
623.422374 43.2 l
623.422374 45.342857 l
618.40389 45.342857 l
cl
1.000 0.498 0.055 setrgbcolor
fill
grestore
gsave
300.5 216 477.1 43.2 clipbox
623.422374 43.2 m
628.440857 43.2 l
628.440857 49.628571 l
623.422374 49.628571 l
cl
1.000 0.498 0.055 setrgbcolor
fill
grestore
gsave
300.5 216 477.1 43.2 clipbox
628.440857 43.2 m
633.459341 43.2 l
633.459341 64.628571 l
628.440857 64.628571 l
cl
1.000 0.498 0.055 setrgbcolor
fill
grestore
gsave
300.5 216 477.1 43.2 clipbox
633.459341 43.2 m
638.477825 43.2 l
638.477825 73.2 l
633.459341 73.2 l
cl
1.000 0.498 0.055 setrgbcolor
fill
grestore
gsave
300.5 216 477.1 43.2 clipbox
638.477825 43.2 m
643.496309 43.2 l
643.496309 75.342857 l
638.477825 75.342857 l
cl
1.000 0.498 0.055 setrgbcolor
fill
grestore
gsave
300.5 216 477.1 43.2 clipbox
643.496309 43.2 m
648.514793 43.2 l
648.514793 83.914286 l
643.496309 83.914286 l
cl
1.000 0.498 0.055 setrgbcolor
fill
grestore
gsave
300.5 216 477.1 43.2 clipbox
648.514793 43.2 m
653.533277 43.2 l
653.533277 101.057143 l
648.514793 101.057143 l
cl
1.000 0.498 0.055 setrgbcolor
fill
grestore
gsave
300.5 216 477.1 43.2 clipbox
653.533277 43.2 m
658.55176 43.2 l
658.55176 120.342857 l
653.533277 120.342857 l
cl
1.000 0.498 0.055 setrgbcolor
fill
grestore
gsave
300.5 216 477.1 43.2 clipbox
658.55176 43.2 m
663.570244 43.2 l
663.570244 139.628571 l
658.55176 139.628571 l
cl
1.000 0.498 0.055 setrgbcolor
fill
grestore
gsave
300.5 216 477.1 43.2 clipbox
663.570244 43.2 m
668.588728 43.2 l
668.588728 133.2 l
663.570244 133.2 l
cl
1.000 0.498 0.055 setrgbcolor
fill
grestore
gsave
300.5 216 477.1 43.2 clipbox
668.588728 43.2 m
673.607212 43.2 l
673.607212 199.628571 l
668.588728 199.628571 l
cl
1.000 0.498 0.055 setrgbcolor
fill
grestore
gsave
300.5 216 477.1 43.2 clipbox
673.607212 43.2 m
678.625696 43.2 l
678.625696 208.2 l
673.607212 208.2 l
cl
1.000 0.498 0.055 setrgbcolor
fill
grestore
gsave
300.5 216 477.1 43.2 clipbox
678.625696 43.2 m
683.64418 43.2 l
683.64418 212.485714 l
678.625696 212.485714 l
cl
1.000 0.498 0.055 setrgbcolor
fill
grestore
gsave
300.5 216 477.1 43.2 clipbox
683.64418 43.2 m
688.662663 43.2 l
688.662663 238.2 l
683.64418 238.2 l
cl
1.000 0.498 0.055 setrgbcolor
fill
grestore
gsave
300.5 216 477.1 43.2 clipbox
688.662663 43.2 m
693.681147 43.2 l
693.681147 218.914286 l
688.662663 218.914286 l
cl
1.000 0.498 0.055 setrgbcolor
fill
grestore
gsave
300.5 216 477.1 43.2 clipbox
693.681147 43.2 m
698.699631 43.2 l
698.699631 191.057143 l
693.681147 191.057143 l
cl
1.000 0.498 0.055 setrgbcolor
fill
grestore
gsave
300.5 216 477.1 43.2 clipbox
698.699631 43.2 m
703.718115 43.2 l
703.718115 216.771429 l
698.699631 216.771429 l
cl
1.000 0.498 0.055 setrgbcolor
fill
grestore
gsave
300.5 216 477.1 43.2 clipbox
703.718115 43.2 m
708.736599 43.2 l
708.736599 148.2 l
703.718115 148.2 l
cl
1.000 0.498 0.055 setrgbcolor
fill
grestore
gsave
300.5 216 477.1 43.2 clipbox
708.736599 43.2 m
713.755083 43.2 l
713.755083 116.057143 l
708.736599 116.057143 l
cl
1.000 0.498 0.055 setrgbcolor
fill
grestore
gsave
300.5 216 477.1 43.2 clipbox
713.755083 43.2 m
718.773566 43.2 l
718.773566 122.485714 l
713.755083 122.485714 l
cl
1.000 0.498 0.055 setrgbcolor
fill
grestore
gsave
300.5 216 477.1 43.2 clipbox
718.773566 43.2 m
723.79205 43.2 l
723.79205 111.771429 l
718.773566 111.771429 l
cl
1.000 0.498 0.055 setrgbcolor
fill
grestore
gsave
300.5 216 477.1 43.2 clipbox
723.79205 43.2 m
728.810534 43.2 l
728.810534 94.628571 l
723.79205 94.628571 l
cl
1.000 0.498 0.055 setrgbcolor
fill
grestore
gsave
300.5 216 477.1 43.2 clipbox
728.810534 43.2 m
733.829018 43.2 l
733.829018 75.342857 l
728.810534 75.342857 l
cl
1.000 0.498 0.055 setrgbcolor
fill
grestore
gsave
300.5 216 477.1 43.2 clipbox
733.829018 43.2 m
738.847502 43.2 l
738.847502 86.057143 l
733.829018 86.057143 l
cl
1.000 0.498 0.055 setrgbcolor
fill
grestore
gsave
300.5 216 477.1 43.2 clipbox
738.847502 43.2 m
743.865986 43.2 l
743.865986 64.628571 l
738.847502 64.628571 l
cl
1.000 0.498 0.055 setrgbcolor
fill
grestore
gsave
300.5 216 477.1 43.2 clipbox
743.865986 43.2 m
748.884469 43.2 l
748.884469 56.057143 l
743.865986 56.057143 l
cl
1.000 0.498 0.055 setrgbcolor
fill
grestore
gsave
300.5 216 477.1 43.2 clipbox
748.884469 43.2 m
753.902953 43.2 l
753.902953 45.342857 l
748.884469 45.342857 l
cl
1.000 0.498 0.055 setrgbcolor
fill
grestore
gsave
300.5 216 477.1 43.2 clipbox
753.902953 43.2 m
758.921437 43.2 l
758.921437 45.342857 l
753.902953 45.342857 l
cl
1.000 0.498 0.055 setrgbcolor
fill
grestore
gsave
300.5 216 477.1 43.2 clipbox
758.921437 43.2 m
763.939921 43.2 l
763.939921 49.628571 l
758.921437 49.628571 l
cl
1.000 0.498 0.055 setrgbcolor
fill
grestore
1 setlinejoin
0 setlinecap
[] 0 setdash
gsave
/o {
gsave
newpath
translate
0.8 setlinewidth
1 setlinejoin
0 setlinecap
0 0 m
0 -3.5 l

gsave
0.000 setgray
fill
grestore
stroke
grestore
} bind def
525.553 43.2 o
grestore
gsave
514.420532 25.559375 translate
0.000000 rotate
0.000000 0.000000 m /zero glyphshow
8.907227 0.000000 m /period glyphshow
13.357422 0.000000 m /two glyphshow
grestore
gsave
/o {
gsave
newpath
translate
0.8 setlinewidth
1 setlinejoin
0 setlinecap
0 0 m
0 -3.5 l

gsave
0.000 setgray
fill
grestore
stroke
grestore
} bind def
597.645 43.2 o
grestore
gsave
586.512052 25.559375 translate
0.000000 rotate
0.000000 0.000000 m /zero glyphshow
8.907227 0.000000 m /period glyphshow
13.357422 0.000000 m /four glyphshow
grestore
gsave
/o {
gsave
newpath
translate
0.8 setlinewidth
1 setlinejoin
0 setlinecap
0 0 m
0 -3.5 l

gsave
0.000 setgray
fill
grestore
stroke
grestore
} bind def
669.736 43.2 o
grestore
gsave
658.603571 25.559375 translate
0.000000 rotate
0.000000 0.000000 m /zero glyphshow
8.907227 0.000000 m /period glyphshow
13.357422 0.000000 m /six glyphshow
grestore
gsave
/o {
gsave
newpath
translate
0.8 setlinewidth
1 setlinejoin
0 setlinecap
0 0 m
0 -3.5 l

gsave
0.000 setgray
fill
grestore
stroke
grestore
} bind def
741.828 43.2 o
grestore
gsave
730.695091 25.559375 translate
0.000000 rotate
0.000000 0.000000 m /zero glyphshow
8.907227 0.000000 m /period glyphshow
13.357422 0.000000 m /eight glyphshow
grestore
gsave
623.198505 8.012500 translate
0.000000 rotate
0.000000 0.000000 m /x glyphshow
grestore
gsave
/o {
gsave
newpath
translate
0.8 setlinewidth
1 setlinejoin
0 setlinecap
0 0 m
-3.5 0 l

gsave
0.000 setgray
fill
grestore
stroke
grestore
} bind def
477.078 43.2 o
grestore
gsave
461.172011 37.879688 translate
0.000000 rotate
0.000000 0.000000 m /zero glyphshow
grestore
gsave
/o {
gsave
newpath
translate
0.8 setlinewidth
1 setlinejoin
0 setlinecap
0 0 m
-3.5 0 l

gsave
0.000 setgray
fill
grestore
stroke
grestore
} bind def
477.078 86.0571 o
grestore
gsave
452.265761 80.736830 translate
0.000000 rotate
0.000000 0.000000 m /two glyphshow
8.907227 0.000000 m /zero glyphshow
grestore
gsave
/o {
gsave
newpath
translate
0.8 setlinewidth
1 setlinejoin
0 setlinecap
0 0 m
-3.5 0 l

gsave
0.000 setgray
fill
grestore
stroke
grestore
} bind def
477.078 128.914 o
grestore
gsave
452.265761 123.593973 translate
0.000000 rotate
0.000000 0.000000 m /four glyphshow
8.907227 0.000000 m /zero glyphshow
grestore
gsave
/o {
gsave
newpath
translate
0.8 setlinewidth
1 setlinejoin
0 setlinecap
0 0 m
-3.5 0 l

gsave
0.000 setgray
fill
grestore
stroke
grestore
} bind def
477.078 171.771 o
grestore
gsave
452.265761 166.451116 translate
0.000000 rotate
0.000000 0.000000 m /six glyphshow
8.907227 0.000000 m /zero glyphshow
grestore
gsave
/o {
gsave
newpath
translate
0.8 setlinewidth
1 setlinejoin
0 setlinecap
0 0 m
-3.5 0 l

gsave
0.000 setgray
fill
grestore
stroke
grestore
} bind def
477.078 214.629 o
grestore
gsave
452.265761 209.308259 translate
0.000000 rotate
0.000000 0.000000 m /eight glyphshow
8.907227 0.000000 m /zero glyphshow
grestore
gsave
/o {
gsave
newpath
translate
0.8 setlinewidth
1 setlinejoin
0 setlinecap
0 0 m
-3.5 0 l

gsave
0.000 setgray
fill
grestore
stroke
grestore
} bind def
477.078 257.486 o
grestore
gsave
443.359511 252.165402 translate
0.000000 rotate
0.000000 0.000000 m /one glyphshow
8.907227 0.000000 m /zero glyphshow
17.814453 0.000000 m /zero glyphshow
grestore
gsave
436.453261 114.387500 translate
90.000000 rotate
0.000000 0.000000 m /F glyphshow
8.037109 0.000000 m /r glyphshow
13.792969 0.000000 m /e glyphshow
22.406250 0.000000 m /q glyphshow
31.292969 0.000000 m /u glyphshow
40.166016 0.000000 m /e glyphshow
48.779297 0.000000 m /n glyphshow
57.652344 0.000000 m /c glyphshow
65.349609 0.000000 m /y glyphshow
grestore
0 setlinejoin
2 setlinecap
[] 0 setdash
gsave
477.078261 43.2 m
477.078261 259.2 l
stroke
grestore
gsave
777.6 43.2 m
777.6 259.2 l
stroke
grestore
gsave
477.078261 43.2 m
777.6 43.2 l
stroke
grestore
gsave
477.078261 259.2 m
777.6 259.2 l
stroke
grestore
/DejaVuSans findfont
16.000 scalefont
setfont
gsave
252.070312 270.083750 translate
0.000000 rotate
0.000000 0.000000 m /U glyphshow
11.710938 0.000000 m /n glyphshow
21.851562 0.000000 m /c glyphshow
30.648438 0.000000 m /e glyphshow
40.492188 0.000000 m /r glyphshow
47.070312 0.000000 m /t glyphshow
53.343750 0.000000 m /a glyphshow
63.148438 0.000000 m /i glyphshow
67.593750 0.000000 m /n glyphshow
77.734375 0.000000 m /t glyphshow
84.007812 0.000000 m /y glyphshow
93.476562 0.000000 m /space glyphshow
98.562500 0.000000 m /i glyphshow
103.007812 0.000000 m /n glyphshow
113.148438 0.000000 m /space glyphshow
118.234375 0.000000 m /B glyphshow
129.210938 0.000000 m /i glyphshow
133.656250 0.000000 m /n glyphshow
143.796875 0.000000 m /a glyphshow
153.601562 0.000000 m /r glyphshow
160.179688 0.000000 m /y glyphshow
169.648438 0.000000 m /space glyphshow
174.734375 0.000000 m /C glyphshow
185.906250 0.000000 m /l glyphshow
190.351562 0.000000 m /a glyphshow
200.156250 0.000000 m /s glyphshow
208.492188 0.000000 m /s glyphshow
216.828125 0.000000 m /i glyphshow
221.273438 0.000000 m /f glyphshow
226.906250 0.000000 m /i glyphshow
231.351562 0.000000 m /c glyphshow
240.148438 0.000000 m /a glyphshow
249.953125 0.000000 m /t glyphshow
256.226562 0.000000 m /i glyphshow
260.671875 0.000000 m /o glyphshow
270.460938 0.000000 m /n glyphshow
280.601562 0.000000 m /space glyphshow
285.687500 0.000000 m /w glyphshow
298.773438 0.000000 m /i glyphshow
303.218750 0.000000 m /t glyphshow
309.492188 0.000000 m /h glyphshow
319.632812 0.000000 m /space glyphshow
324.718750 0.000000 m /B glyphshow
335.695312 0.000000 m /N glyphshow
347.664062 0.000000 m /N glyphshow
grestore

end
showpage
