%!PS-Adobe-3.0 EPSF-3.0
%%Title: class_preds.eps
%%Creator: matplotlib version 2.0.2, http://matplotlib.org/
%%CreationDate: Sun Jul 29 22:01:32 2018
%%Orientation: portrait
%%BoundingBox: -126 252 738 540
%%EndComments
%%BeginProlog
/mpldict 9 dict def
mpldict begin
/m { moveto } bind def
/l { lineto } bind def
/r { rlineto } bind def
/c { curveto } bind def
/cl { closepath } bind def
/box {
m
1 index 0 r
0 exch r
neg 0 r
cl
} bind def
/clipbox {
box
clip
newpath
} bind def
%!PS-Adobe-3.0 Resource-Font
%%Title: DejaVu Sans
%%Copyright: Copyright (c) 2003 by Bitstream, Inc. All Rights Reserved. Copyright (c) 2006 by Tavmjong Bah. All Rights Reserved. DejaVu changes are in public domain 
%%Creator: Converted from TrueType to type 3 by PPR
25 dict begin
/_d{bind def}bind def
/_m{moveto}_d
/_l{lineto}_d
/_cl{closepath eofill}_d
/_c{curveto}_d
/_sc{7 -1 roll{setcachedevice}{pop pop pop pop pop pop}ifelse}_d
/_e{exec}_d
/FontName /DejaVuSans def
/PaintType 0 def
/FontMatrix[.001 0 0 .001 0 0]def
/FontBBox[-1021 -463 1793 1232]def
/FontType 3 def
/Encoding [ /space /parenleft /parenright /period /zero /one /two /four /six /eight /B /C /F /N /U /a /c /e /f /h /i /l /n /o /q /r /s /t /u /w /x /y ] def
/FontInfo 10 dict dup begin
/FamilyName (DejaVu Sans) def
/FullName (DejaVu Sans) def
/Notice (Copyright (c) 2003 by Bitstream, Inc. All Rights Reserved. Copyright (c) 2006 by Tavmjong Bah. All Rights Reserved. DejaVu changes are in public domain ) def
/Weight (Book) def
/Version (Version 2.35) def
/ItalicAngle 0.0 def
/isFixedPitch false def
/UnderlinePosition -130 def
/UnderlineThickness 90 def
end readonly def
/CharStrings 32 dict dup begin
/space{318 0 0 0 0 0 _sc
}_d
/parenleft{390 0 86 -131 310 759 _sc
310 759 _m
266 683 234 609 213 536 _c
191 463 181 389 181 314 _c
181 238 191 164 213 91 _c
234 17 266 -56 310 -131 _c
232 -131 _l
183 -54 146 20 122 94 _c
98 168 86 241 86 314 _c
86 386 98 459 122 533 _c
146 607 182 682 232 759 _c
310 759 _l
_cl}_d
/parenright{390 0 80 -131 304 759 _sc
80 759 _m
158 759 _l
206 682 243 607 267 533 _c
291 459 304 386 304 314 _c
304 241 291 168 267 94 _c
243 20 206 -54 158 -131 _c
80 -131 _l
123 -56 155 17 177 91 _c
198 164 209 238 209 314 _c
209 389 198 463 177 536 _c
155 609 123 683 80 759 _c
_cl}_d
/period{318 0 107 0 210 124 _sc
107 124 _m
210 124 _l
210 0 _l
107 0 _l
107 124 _l
_cl}_d
/zero{636 0 66 -13 570 742 _sc
318 664 _m
267 664 229 639 203 589 _c
177 539 165 464 165 364 _c
165 264 177 189 203 139 _c
229 89 267 64 318 64 _c
369 64 407 89 433 139 _c
458 189 471 264 471 364 _c
471 464 458 539 433 589 _c
407 639 369 664 318 664 _c
318 742 _m
399 742 461 709 505 645 _c
548 580 570 486 570 364 _c
570 241 548 147 505 83 _c
461 19 399 -13 318 -13 _c
236 -13 173 19 130 83 _c
87 147 66 241 66 364 _c
66 486 87 580 130 645 _c
173 709 236 742 318 742 _c
_cl}_d
/one{636 0 110 0 544 729 _sc
124 83 _m
285 83 _l
285 639 _l
110 604 _l
110 694 _l
284 729 _l
383 729 _l
383 83 _l
544 83 _l
544 0 _l
124 0 _l
124 83 _l
_cl}_d
/two{{636 0 73 0 536 742 _sc
192 83 _m
536 83 _l
536 0 _l
73 0 _l
73 83 _l
110 121 161 173 226 239 _c
290 304 331 346 348 365 _c
380 400 402 430 414 455 _c
426 479 433 504 433 528 _c
433 566 419 598 392 622 _c
365 646 330 659 286 659 _c
255 659 222 653 188 643 _c
154 632 117 616 78 594 _c
78 694 _l
118 710 155 722 189 730 _c
223 738 255 742 284 742 _c
}_e{359 742 419 723 464 685 _c
509 647 532 597 532 534 _c
532 504 526 475 515 449 _c
504 422 484 390 454 354 _c
446 344 420 317 376 272 _c
332 227 271 164 192 83 _c
_cl}_e}_d
/four{636 0 49 0 580 729 _sc
378 643 _m
129 254 _l
378 254 _l
378 643 _l
352 729 _m
476 729 _l
476 254 _l
580 254 _l
580 172 _l
476 172 _l
476 0 _l
378 0 _l
378 172 _l
49 172 _l
49 267 _l
352 729 _l
_cl}_d
/six{{636 0 70 -13 573 742 _sc
330 404 _m
286 404 251 388 225 358 _c
199 328 186 286 186 234 _c
186 181 199 139 225 109 _c
251 79 286 64 330 64 _c
374 64 409 79 435 109 _c
461 139 474 181 474 234 _c
474 286 461 328 435 358 _c
409 388 374 404 330 404 _c
526 713 _m
526 623 _l
501 635 476 644 451 650 _c
425 656 400 659 376 659 _c
310 659 260 637 226 593 _c
}_e{192 549 172 482 168 394 _c
187 422 211 444 240 459 _c
269 474 301 482 336 482 _c
409 482 467 459 509 415 _c
551 371 573 310 573 234 _c
573 159 550 99 506 54 _c
462 9 403 -13 330 -13 _c
246 -13 181 19 137 83 _c
92 147 70 241 70 364 _c
70 479 97 571 152 639 _c
206 707 280 742 372 742 _c
396 742 421 739 447 735 _c
472 730 498 723 526 713 _c
_cl}_e}_d
/eight{{636 0 68 -13 568 742 _sc
318 346 _m
271 346 234 333 207 308 _c
180 283 167 249 167 205 _c
167 161 180 126 207 101 _c
234 76 271 64 318 64 _c
364 64 401 76 428 102 _c
455 127 469 161 469 205 _c
469 249 455 283 429 308 _c
402 333 365 346 318 346 _c
219 388 _m
177 398 144 418 120 447 _c
96 476 85 511 85 553 _c
85 611 105 657 147 691 _c
188 725 245 742 318 742 _c
}_e{390 742 447 725 489 691 _c
530 657 551 611 551 553 _c
551 511 539 476 515 447 _c
491 418 459 398 417 388 _c
464 377 501 355 528 323 _c
554 291 568 251 568 205 _c
568 134 546 80 503 43 _c
459 5 398 -13 318 -13 _c
237 -13 175 5 132 43 _c
89 80 68 134 68 205 _c
68 251 81 291 108 323 _c
134 355 171 377 219 388 _c
183 544 _m
183 506 194 476 218 455 _c
}_e{242 434 275 424 318 424 _c
360 424 393 434 417 455 _c
441 476 453 506 453 544 _c
453 582 441 611 417 632 _c
393 653 360 664 318 664 _c
275 664 242 653 218 632 _c
194 611 183 582 183 544 _c
_cl}_e}_d
/B{{686 0 98 0 615 729 _sc
197 348 _m
197 81 _l
355 81 _l
408 81 447 92 473 114 _c
498 136 511 169 511 215 _c
511 260 498 293 473 315 _c
447 337 408 348 355 348 _c
197 348 _l
197 648 _m
197 428 _l
343 428 _l
391 428 426 437 450 455 _c
474 473 486 500 486 538 _c
486 574 474 602 450 620 _c
426 638 391 648 343 648 _c
197 648 _l
98 729 _m
350 729 _l
}_e{425 729 483 713 524 682 _c
564 650 585 606 585 549 _c
585 504 574 468 553 442 _c
532 416 502 399 462 393 _c
510 382 548 360 575 327 _c
601 294 615 253 615 204 _c
615 138 592 88 548 53 _c
504 17 441 0 360 0 _c
98 0 _l
98 729 _l
_cl}_e}_d
/C{{698 0 56 -13 644 742 _sc
644 673 _m
644 569 _l
610 599 575 622 537 638 _c
499 653 460 661 418 661 _c
334 661 270 635 226 584 _c
182 533 160 460 160 364 _c
160 268 182 194 226 143 _c
270 92 334 67 418 67 _c
460 67 499 74 537 90 _c
575 105 610 128 644 159 _c
644 56 _l
609 32 572 15 534 4 _c
496 -7 455 -13 412 -13 _c
302 -13 215 20 151 87 _c
}_e{87 154 56 246 56 364 _c
56 481 87 573 151 641 _c
215 708 302 742 412 742 _c
456 742 497 736 535 725 _c
573 713 610 696 644 673 _c
_cl}_e}_d
/F{575 0 98 0 517 729 _sc
98 729 _m
517 729 _l
517 646 _l
197 646 _l
197 431 _l
486 431 _l
486 348 _l
197 348 _l
197 0 _l
98 0 _l
98 729 _l
_cl}_d
/N{748 0 98 0 650 729 _sc
98 729 _m
231 729 _l
554 119 _l
554 729 _l
650 729 _l
650 0 _l
517 0 _l
194 610 _l
194 0 _l
98 0 _l
98 729 _l
_cl}_d
/U{732 0 87 -13 645 729 _sc
87 729 _m
186 729 _l
186 286 _l
186 208 200 151 228 117 _c
256 83 302 66 366 66 _c
429 66 475 83 503 117 _c
531 151 546 208 546 286 _c
546 729 _l
645 729 _l
645 274 _l
645 178 621 107 574 59 _c
527 11 458 -13 366 -13 _c
274 -13 204 11 157 59 _c
110 107 87 178 87 274 _c
87 729 _l
_cl}_d
/a{{613 0 60 -13 522 560 _sc
343 275 _m
270 275 220 266 192 250 _c
164 233 150 205 150 165 _c
150 133 160 107 181 89 _c
202 70 231 61 267 61 _c
317 61 357 78 387 114 _c
417 149 432 196 432 255 _c
432 275 _l
343 275 _l
522 312 _m
522 0 _l
432 0 _l
432 83 _l
411 49 385 25 355 10 _c
325 -5 287 -13 243 -13 _c
187 -13 142 2 109 33 _c
76 64 60 106 60 159 _c
}_e{60 220 80 266 122 298 _c
163 329 224 345 306 345 _c
432 345 _l
432 354 _l
432 395 418 427 391 450 _c
364 472 326 484 277 484 _c
245 484 215 480 185 472 _c
155 464 127 453 100 439 _c
100 522 _l
132 534 164 544 195 550 _c
226 556 256 560 286 560 _c
365 560 424 539 463 498 _c
502 457 522 395 522 312 _c
_cl}_e}_d
/c{{550 0 55 -13 488 560 _sc
488 526 _m
488 442 _l
462 456 437 466 411 473 _c
385 480 360 484 334 484 _c
276 484 230 465 198 428 _c
166 391 150 339 150 273 _c
150 206 166 154 198 117 _c
230 80 276 62 334 62 _c
360 62 385 65 411 72 _c
437 79 462 90 488 104 _c
488 21 _l
462 9 436 0 410 -5 _c
383 -10 354 -13 324 -13 _c
242 -13 176 12 128 64 _c
}_e{79 115 55 185 55 273 _c
55 362 79 432 128 483 _c
177 534 244 560 330 560 _c
358 560 385 557 411 551 _c
437 545 463 537 488 526 _c
_cl}_e}_d
/e{{615 0 55 -13 562 560 _sc
562 296 _m
562 252 _l
149 252 _l
153 190 171 142 205 110 _c
238 78 284 62 344 62 _c
378 62 412 66 444 74 _c
476 82 509 95 541 113 _c
541 28 _l
509 14 476 3 442 -3 _c
408 -9 373 -13 339 -13 _c
251 -13 182 12 131 62 _c
80 112 55 181 55 268 _c
55 357 79 428 127 481 _c
175 533 241 560 323 560 _c
397 560 455 536 498 489 _c
}_e{540 441 562 377 562 296 _c
472 322 _m
471 371 457 410 431 440 _c
404 469 368 484 324 484 _c
274 484 234 469 204 441 _c
174 413 156 373 152 322 _c
472 322 _l
_cl}_e}_d
/f{352 0 23 0 371 760 _sc
371 760 _m
371 685 _l
285 685 _l
253 685 230 678 218 665 _c
205 652 199 629 199 595 _c
199 547 _l
347 547 _l
347 477 _l
199 477 _l
199 0 _l
109 0 _l
109 477 _l
23 477 _l
23 547 _l
109 547 _l
109 585 _l
109 645 123 690 151 718 _c
179 746 224 760 286 760 _c
371 760 _l
_cl}_d
/h{634 0 91 0 549 760 _sc
549 330 _m
549 0 _l
459 0 _l
459 327 _l
459 379 448 417 428 443 _c
408 469 378 482 338 482 _c
289 482 251 466 223 435 _c
195 404 181 362 181 309 _c
181 0 _l
91 0 _l
91 760 _l
181 760 _l
181 462 _l
202 494 227 519 257 535 _c
286 551 320 560 358 560 _c
420 560 468 540 500 501 _c
532 462 549 405 549 330 _c
_cl}_d
/i{278 0 94 0 184 760 _sc
94 547 _m
184 547 _l
184 0 _l
94 0 _l
94 547 _l
94 760 _m
184 760 _l
184 646 _l
94 646 _l
94 760 _l
_cl}_d
/l{278 0 94 0 184 760 _sc
94 760 _m
184 760 _l
184 0 _l
94 0 _l
94 760 _l
_cl}_d
/n{634 0 91 0 549 560 _sc
549 330 _m
549 0 _l
459 0 _l
459 327 _l
459 379 448 417 428 443 _c
408 469 378 482 338 482 _c
289 482 251 466 223 435 _c
195 404 181 362 181 309 _c
181 0 _l
91 0 _l
91 547 _l
181 547 _l
181 462 _l
202 494 227 519 257 535 _c
286 551 320 560 358 560 _c
420 560 468 540 500 501 _c
532 462 549 405 549 330 _c
_cl}_d
/o{612 0 55 -13 557 560 _sc
306 484 _m
258 484 220 465 192 427 _c
164 389 150 338 150 273 _c
150 207 163 156 191 118 _c
219 80 257 62 306 62 _c
354 62 392 80 420 118 _c
448 156 462 207 462 273 _c
462 337 448 389 420 427 _c
392 465 354 484 306 484 _c
306 560 _m
384 560 445 534 490 484 _c
534 433 557 363 557 273 _c
557 183 534 113 490 63 _c
445 12 384 -13 306 -13 _c
227 -13 165 12 121 63 _c
77 113 55 183 55 273 _c
55 363 77 433 121 484 _c
165 534 227 560 306 560 _c
_cl}_d
/q{{635 0 55 -207 544 560 _sc
148 273 _m
148 207 161 155 188 117 _c
215 79 253 61 301 61 _c
348 61 385 79 413 117 _c
440 155 454 207 454 273 _c
454 339 440 390 413 428 _c
385 466 348 485 301 485 _c
253 485 215 466 188 428 _c
161 390 148 339 148 273 _c
454 82 _m
435 49 411 25 382 10 _c
353 -5 319 -13 279 -13 _c
213 -13 159 13 117 65 _c
75 117 55 187 55 273 _c
}_e{55 359 75 428 117 481 _c
159 533 213 560 279 560 _c
319 560 353 552 382 536 _c
411 520 435 496 454 464 _c
454 547 _l
544 547 _l
544 -207 _l
454 -207 _l
454 82 _l
_cl}_e}_d
/r{411 0 91 0 411 560 _sc
411 463 _m
401 469 390 473 378 476 _c
366 478 353 480 339 480 _c
288 480 249 463 222 430 _c
194 397 181 350 181 288 _c
181 0 _l
91 0 _l
91 547 _l
181 547 _l
181 462 _l
199 495 224 520 254 536 _c
284 552 321 560 365 560 _c
371 560 378 559 386 559 _c
393 558 401 557 411 555 _c
411 463 _l
_cl}_d
/s{{521 0 54 -13 472 560 _sc
443 531 _m
443 446 _l
417 458 391 468 364 475 _c
336 481 308 485 279 485 _c
234 485 200 478 178 464 _c
156 450 145 430 145 403 _c
145 382 153 366 169 354 _c
185 342 217 330 265 320 _c
296 313 _l
360 299 405 279 432 255 _c
458 230 472 195 472 151 _c
472 100 452 60 412 31 _c
372 1 316 -13 246 -13 _c
216 -13 186 -10 154 -5 _c
}_e{122 0 89 8 54 20 _c
54 113 _l
87 95 120 82 152 74 _c
184 65 216 61 248 61 _c
290 61 323 68 346 82 _c
368 96 380 117 380 144 _c
380 168 371 187 355 200 _c
339 213 303 226 247 238 _c
216 245 _l
160 257 119 275 95 299 _c
70 323 58 356 58 399 _c
58 450 76 490 112 518 _c
148 546 200 560 268 560 _c
301 560 332 557 362 552 _c
391 547 418 540 443 531 _c
}_e{_cl}_e}_d
/t{392 0 27 0 368 702 _sc
183 702 _m
183 547 _l
368 547 _l
368 477 _l
183 477 _l
183 180 _l
183 135 189 106 201 94 _c
213 81 238 75 276 75 _c
368 75 _l
368 0 _l
276 0 _l
206 0 158 13 132 39 _c
106 65 93 112 93 180 _c
93 477 _l
27 477 _l
27 547 _l
93 547 _l
93 702 _l
183 702 _l
_cl}_d
/u{634 0 85 -13 543 560 _sc
85 216 _m
85 547 _l
175 547 _l
175 219 _l
175 167 185 129 205 103 _c
225 77 255 64 296 64 _c
344 64 383 79 411 110 _c
439 141 453 183 453 237 _c
453 547 _l
543 547 _l
543 0 _l
453 0 _l
453 84 _l
431 50 405 26 377 10 _c
348 -5 315 -13 277 -13 _c
214 -13 166 6 134 45 _c
101 83 85 140 85 216 _c
311 560 _m
311 560 _l
_cl}_d
/w{818 0 42 0 776 547 _sc
42 547 _m
132 547 _l
244 120 _l
356 547 _l
462 547 _l
574 120 _l
686 547 _l
776 547 _l
633 0 _l
527 0 _l
409 448 _l
291 0 _l
185 0 _l
42 547 _l
_cl}_d
/x{592 0 29 0 559 547 _sc
549 547 _m
351 281 _l
559 0 _l
453 0 _l
294 215 _l
135 0 _l
29 0 _l
241 286 _l
47 547 _l
153 547 _l
298 352 _l
443 547 _l
549 547 _l
_cl}_d
/y{592 0 30 -207 562 547 _sc
322 -50 _m
296 -114 271 -157 247 -177 _c
223 -197 191 -207 151 -207 _c
79 -207 _l
79 -132 _l
132 -132 _l
156 -132 175 -126 189 -114 _c
203 -102 218 -75 235 -31 _c
251 9 _l
30 547 _l
125 547 _l
296 119 _l
467 547 _l
562 547 _l
322 -50 _l
_cl}_d
end readonly def

/BuildGlyph
 {exch begin
 CharStrings exch
 2 copy known not{pop /.notdef}if
 true 3 1 roll get exec
 end}_d

/BuildChar {
 1 index /Encoding get exch get
 1 index /BuildGlyph get exec
}_d

FontName currentdict end definefont pop
%!PS-Adobe-3.0 Resource-Font
%%Title: DejaVu Sans Oblique
%%Copyright: Copyright (c) 2003 by Bitstream, Inc. All Rights Reserved. Copyright (c) 2006 by Tavmjong Bah. All Rights Reserved. DejaVu changes are in public domain 
%%Creator: Converted from TrueType to type 3 by PPR
25 dict begin
/_d{bind def}bind def
/_m{moveto}_d
/_l{lineto}_d
/_cl{closepath eofill}_d
/_c{curveto}_d
/_sc{7 -1 roll{setcachedevice}{pop pop pop pop pop pop}ifelse}_d
/_e{exec}_d
/FontName /DejaVuSans-Oblique def
/PaintType 0 def
/FontMatrix[.001 0 0 .001 0 0]def
/FontBBox[-1016 -350 1659 1068]def
/FontType 3 def
/Encoding [ /x /sigma ] def
/FontInfo 10 dict dup begin
/FamilyName (DejaVu Sans) def
/FullName (DejaVu Sans Oblique) def
/Notice (Copyright (c) 2003 by Bitstream, Inc. All Rights Reserved. Copyright (c) 2006 by Tavmjong Bah. All Rights Reserved. DejaVu changes are in public domain ) def
/Weight (Oblique) def
/Version (Version 2.35) def
/ItalicAngle -11.0 def
/isFixedPitch false def
/UnderlinePosition -130 def
/UnderlineThickness 90 def
end readonly def
/CharStrings 2 dict dup begin
/x{592 0 -25 0 600 547 _sc
600 547 _m
349 279 _l
503 0 _l
400 0 _l
284 217 _l
83 0 _l
-25 0 _l
243 288 _l
100 547 _l
203 547 _l
308 349 _l
491 547 _l
600 547 _l
_cl}_d
/sigma{{634 0 57 -13 659 547 _sc
347 476 _m
297 476 255 458 222 422 _c
186 384 163 335 151 273 _c
138 207 142 156 163 118 _c
183 80 218 62 267 62 _c
314 62 355 81 391 119 _c
426 156 450 207 463 273 _c
474 332 470 382 450 422 _c
431 458 397 476 347 476 _c
361 547 _m
659 547 _l
642 457 _l
541 457 _l
566 406 572 345 559 273 _c
541 183 505 113 451 63 _c
396 12 329 -13 251 -13 _c
}_e{173 -13 116 12 82 63 _c
47 113 39 183 57 273 _c
74 363 110 433 164 484 _c
209 526 275 547 361 547 _c
_cl}_e}_d
end readonly def

/BuildGlyph
 {exch begin
 CharStrings exch
 2 copy known not{pop /.notdef}if
 true 3 1 roll get exec
 end}_d

/BuildChar {
 1 index /Encoding get exch get
 1 index /BuildGlyph get exec
}_d

FontName currentdict end definefont pop
end
%%EndProlog
mpldict begin
-126 252 translate
864 288 0 0 clipbox
gsave
0 0 m
864 0 l
864 288 l
0 288 l
cl
1.000 setgray
fill
grestore
gsave
86.4 43.2 m
386.921739 43.2 l
386.921739 259.2 l
86.4 259.2 l
cl
1.000 setgray
fill
grestore
0.800 setlinewidth
1 setlinejoin
0 setlinecap
[] 0 setdash
0.000 setgray
gsave
/o {
gsave
newpath
translate
0.8 setlinewidth
1 setlinejoin
0 setlinecap
0 0 m
0 -3.5 l

gsave
0.000 setgray
fill
grestore
stroke
grestore
} bind def
86.4 43.2 o
grestore
/DejaVuSans findfont
14.000 scalefont
setfont
gsave
75.267188 25.559375 translate
0.000000 rotate
0.000000 0.000000 m /zero glyphshow
8.907227 0.000000 m /period glyphshow
13.357422 0.000000 m /zero glyphshow
grestore
gsave
/o {
gsave
newpath
translate
0.8 setlinewidth
1 setlinejoin
0 setlinecap
0 0 m
0 -3.5 l

gsave
0.000 setgray
fill
grestore
stroke
grestore
} bind def
141.04 43.2 o
grestore
gsave
129.907504 25.559375 translate
0.000000 rotate
0.000000 0.000000 m /zero glyphshow
8.907227 0.000000 m /period glyphshow
13.357422 0.000000 m /two glyphshow
grestore
gsave
/o {
gsave
newpath
translate
0.8 setlinewidth
1 setlinejoin
0 setlinecap
0 0 m
0 -3.5 l

gsave
0.000 setgray
fill
grestore
stroke
grestore
} bind def
195.681 43.2 o
grestore
gsave
184.547820 25.559375 translate
0.000000 rotate
0.000000 0.000000 m /zero glyphshow
8.907227 0.000000 m /period glyphshow
13.357422 0.000000 m /four glyphshow
grestore
gsave
/o {
gsave
newpath
translate
0.8 setlinewidth
1 setlinejoin
0 setlinecap
0 0 m
0 -3.5 l

gsave
0.000 setgray
fill
grestore
stroke
grestore
} bind def
250.321 43.2 o
grestore
gsave
239.188136 25.559375 translate
0.000000 rotate
0.000000 0.000000 m /zero glyphshow
8.907227 0.000000 m /period glyphshow
13.357422 0.000000 m /six glyphshow
grestore
gsave
/o {
gsave
newpath
translate
0.8 setlinewidth
1 setlinejoin
0 setlinecap
0 0 m
0 -3.5 l

gsave
0.000 setgray
fill
grestore
stroke
grestore
} bind def
304.961 43.2 o
grestore
gsave
293.828452 25.559375 translate
0.000000 rotate
0.000000 0.000000 m /zero glyphshow
8.907227 0.000000 m /period glyphshow
13.357422 0.000000 m /eight glyphshow
grestore
gsave
/o {
gsave
newpath
translate
0.8 setlinewidth
1 setlinejoin
0 setlinecap
0 0 m
0 -3.5 l

gsave
0.000 setgray
fill
grestore
stroke
grestore
} bind def
359.602 43.2 o
grestore
gsave
355.148456 25.559375 translate
0.000000 rotate
0.000000 0.000000 m /one glyphshow
grestore
gsave
232.520245 8.012500 translate
0.000000 rotate
0.000000 0.000000 m /x glyphshow
grestore
gsave
/o {
gsave
newpath
translate
0.8 setlinewidth
1 setlinejoin
0 setlinecap
0 0 m
-3.5 0 l

gsave
0.000 setgray
fill
grestore
stroke
grestore
} bind def
86.4 53.0182 o
grestore
gsave
57.134375 47.697863 translate
0.000000 rotate
0.000000 0.000000 m /zero glyphshow
8.907227 0.000000 m /period glyphshow
13.357422 0.000000 m /zero glyphshow
grestore
gsave
/o {
gsave
newpath
translate
0.8 setlinewidth
1 setlinejoin
0 setlinecap
0 0 m
-3.5 0 l

gsave
0.000 setgray
fill
grestore
stroke
grestore
} bind def
86.4 92.2909 o
grestore
gsave
57.134375 86.970592 translate
0.000000 rotate
0.000000 0.000000 m /zero glyphshow
8.907227 0.000000 m /period glyphshow
13.357422 0.000000 m /two glyphshow
grestore
gsave
/o {
gsave
newpath
translate
0.8 setlinewidth
1 setlinejoin
0 setlinecap
0 0 m
-3.5 0 l

gsave
0.000 setgray
fill
grestore
stroke
grestore
} bind def
86.4 131.564 o
grestore
gsave
57.134375 126.243320 translate
0.000000 rotate
0.000000 0.000000 m /zero glyphshow
8.907227 0.000000 m /period glyphshow
13.357422 0.000000 m /four glyphshow
grestore
gsave
/o {
gsave
newpath
translate
0.8 setlinewidth
1 setlinejoin
0 setlinecap
0 0 m
-3.5 0 l

gsave
0.000 setgray
fill
grestore
stroke
grestore
} bind def
86.4 170.836 o
grestore
gsave
57.134375 165.516049 translate
0.000000 rotate
0.000000 0.000000 m /zero glyphshow
8.907227 0.000000 m /period glyphshow
13.357422 0.000000 m /six glyphshow
grestore
gsave
/o {
gsave
newpath
translate
0.8 setlinewidth
1 setlinejoin
0 setlinecap
0 0 m
-3.5 0 l

gsave
0.000 setgray
fill
grestore
stroke
grestore
} bind def
86.4 210.109 o
grestore
gsave
57.134375 204.788777 translate
0.000000 rotate
0.000000 0.000000 m /zero glyphshow
8.907227 0.000000 m /period glyphshow
13.357422 0.000000 m /eight glyphshow
grestore
gsave
/o {
gsave
newpath
translate
0.8 setlinewidth
1 setlinejoin
0 setlinecap
0 0 m
-3.5 0 l

gsave
0.000 setgray
fill
grestore
stroke
grestore
} bind def
86.4 249.382 o
grestore
gsave
57.134375 244.061506 translate
0.000000 rotate
0.000000 0.000000 m /one glyphshow
8.907227 0.000000 m /period glyphshow
13.357422 0.000000 m /zero glyphshow
grestore
gsave
50.228125 136.700000 translate
90.000000 rotate
/DejaVuSans-Oblique findfont
14.0 scalefont
setfont
0.000000 0.375000 moveto
/sigma glyphshow

/DejaVuSans findfont
14.0 scalefont
setfont
8.873047 0.375000 moveto
/parenleft glyphshow

/DejaVuSans-Oblique findfont
14.0 scalefont
setfont
14.334961 0.375000 moveto
/x glyphshow

/DejaVuSans findfont
14.0 scalefont
setfont
22.620117 0.375000 moveto
/parenright glyphshow


grestore
1.000 setlinewidth
2 setlinecap
gsave
300.5 216 86.4 43.2 clipbox
106.890119 53.018229 m
120.550198 53.018229 l
120.550198 53.018507 l
106.890119 53.018507 l
106.890119 53.018229 l
stroke
grestore
gsave
300.5 216 86.4 43.2 clipbox
113.720158 53.018229 m
113.720158 53.018182 l
stroke
grestore
gsave
300.5 216 86.4 43.2 clipbox
113.720158 53.018507 m
113.720158 53.018884 l
stroke
grestore
gsave
300.5 216 86.4 43.2 clipbox
110.305138 53.018182 m
117.135178 53.018182 l
stroke
grestore
gsave
300.5 216 86.4 43.2 clipbox
110.305138 53.018884 m
117.135178 53.018884 l
stroke
grestore
0 setlinecap
gsave
300.5 216 86.4 43.2 clipbox
/o {
gsave
newpath
translate
1.0 setlinewidth
1 setlinejoin
0 setlinecap
0 -3 m
0.795609 -3 1.55874 -2.683901 2.12132 -2.12132 c
2.683901 -1.55874 3 -0.795609 3 0 c
3 0.795609 2.683901 1.55874 2.12132 2.12132 c
1.55874 2.683901 0.795609 3 0 3 c
-0.795609 3 -1.55874 2.683901 -2.12132 2.12132 c
-2.683901 1.55874 -3 0.795609 -3 0 c
-3 -0.795609 -2.683901 -1.55874 -2.12132 -2.12132 c
-1.55874 -2.683901 -0.795609 -3 0 -3 c
cl

stroke
grestore
} bind def
113.72 53.019 o
113.72 53.0193 o
113.72 53.02 o
113.72 53.0209 o
113.72 53.0207 o
113.72 53.0205 o
113.72 53.019 o
113.72 53.0191 o
113.72 53.0196 o
113.72 53.0197 o
113.72 53.0196 o
113.72 53.0201 o
grestore
2 setlinecap
gsave
300.5 216 86.4 43.2 clipbox
134.210277 53.018934 m
147.870356 53.018934 l
147.870356 53.023705 l
134.210277 53.023705 l
134.210277 53.018934 l
stroke
grestore
gsave
300.5 216 86.4 43.2 clipbox
141.040316 53.018934 m
141.040316 53.018264 l
stroke
grestore
gsave
300.5 216 86.4 43.2 clipbox
141.040316 53.023705 m
141.040316 53.029563 l
stroke
grestore
gsave
300.5 216 86.4 43.2 clipbox
137.625296 53.018264 m
144.455336 53.018264 l
stroke
grestore
gsave
300.5 216 86.4 43.2 clipbox
137.625296 53.029563 m
144.455336 53.029563 l
stroke
grestore
0 setlinecap
gsave
300.5 216 86.4 43.2 clipbox
/o {
gsave
newpath
translate
1.0 setlinewidth
1 setlinejoin
0 setlinecap
0 -3 m
0.795609 -3 1.55874 -2.683901 2.12132 -2.12132 c
2.683901 -1.55874 3 -0.795609 3 0 c
3 0.795609 2.683901 1.55874 2.12132 2.12132 c
1.55874 2.683901 0.795609 3 0 3 c
-0.795609 3 -1.55874 2.683901 -2.12132 2.12132 c
-2.683901 1.55874 -3 0.795609 -3 0 c
-3 -0.795609 -2.683901 -1.55874 -2.12132 -2.12132 c
-1.55874 -2.683901 -0.795609 -3 0 -3 c
cl

stroke
grestore
} bind def
141.04 53.0499 o
141.04 53.0557 o
141.04 53.0684 o
141.04 53.0533 o
141.04 53.0362 o
141.04 53.0399 o
141.04 53.0417 o
141.04 53.041 o
141.04 53.051 o
grestore
2 setlinecap
gsave
300.5 216 86.4 43.2 clipbox
161.530435 53.036665 m
175.190514 53.036665 l
175.190514 53.159951 l
161.530435 53.159951 l
161.530435 53.036665 l
stroke
grestore
gsave
300.5 216 86.4 43.2 clipbox
168.360474 53.036665 m
168.360474 53.019984 l
stroke
grestore
gsave
300.5 216 86.4 43.2 clipbox
168.360474 53.159951 m
168.360474 53.314228 l
stroke
grestore
gsave
300.5 216 86.4 43.2 clipbox
164.945455 53.019984 m
171.775494 53.019984 l
stroke
grestore
gsave
300.5 216 86.4 43.2 clipbox
164.945455 53.314228 m
171.775494 53.314228 l
stroke
grestore
0 setlinecap
gsave
300.5 216 86.4 43.2 clipbox
/o {
gsave
newpath
translate
1.0 setlinewidth
1 setlinejoin
0 setlinecap
0 -3 m
0.795609 -3 1.55874 -2.683901 2.12132 -2.12132 c
2.683901 -1.55874 3 -0.795609 3 0 c
3 0.795609 2.683901 1.55874 2.12132 2.12132 c
1.55874 2.683901 0.795609 3 0 3 c
-0.795609 3 -1.55874 2.683901 -2.12132 2.12132 c
-2.683901 1.55874 -3 0.795609 -3 0 c
-3 -0.795609 -2.683901 -1.55874 -2.12132 -2.12132 c
-1.55874 -2.683901 -0.795609 -3 0 -3 c
cl

stroke
grestore
} bind def
168.36 53.7338 o
168.36 53.6867 o
168.36 54.6918 o
168.36 53.606 o
168.36 53.6047 o
168.36 53.442 o
168.36 53.4944 o
168.36 53.4245 o
168.36 53.7963 o
grestore
2 setlinecap
gsave
300.5 216 86.4 43.2 clipbox
188.850593 53.546405 m
202.510672 53.546405 l
202.510672 57.442886 l
188.850593 57.442886 l
188.850593 53.546405 l
stroke
grestore
gsave
300.5 216 86.4 43.2 clipbox
195.680632 53.546405 m
195.680632 53.071274 l
stroke
grestore
gsave
300.5 216 86.4 43.2 clipbox
195.680632 57.442886 m
195.680632 61.912977 l
stroke
grestore
gsave
300.5 216 86.4 43.2 clipbox
192.265613 53.071274 m
199.095652 53.071274 l
stroke
grestore
gsave
300.5 216 86.4 43.2 clipbox
192.265613 61.912977 m
199.095652 61.912977 l
stroke
grestore
0 setlinecap
gsave
300.5 216 86.4 43.2 clipbox
/o {
gsave
newpath
translate
1.0 setlinewidth
1 setlinejoin
0 setlinecap
0 -3 m
0.795609 -3 1.55874 -2.683901 2.12132 -2.12132 c
2.683901 -1.55874 3 -0.795609 3 0 c
3 0.795609 2.683901 1.55874 2.12132 2.12132 c
1.55874 2.683901 0.795609 3 0 3 c
-0.795609 3 -1.55874 2.683901 -2.12132 2.12132 c
-2.683901 1.55874 -3 0.795609 -3 0 c
-3 -0.795609 -2.683901 -1.55874 -2.12132 -2.12132 c
-1.55874 -2.683901 -0.795609 -3 0 -3 c
cl

stroke
grestore
} bind def
195.681 74.103 o
195.681 70.1832 o
195.681 100.337 o
195.681 65.5875 o
195.681 72.9342 o
195.681 65.2451 o
195.681 65.2897 o
195.681 63.4748 o
195.681 65.712 o
195.681 73.0955 o
grestore
2 setlinecap
gsave
300.5 216 86.4 43.2 clipbox
216.170751 72.058143 m
229.83083 72.058143 l
229.83083 141.438158 l
216.170751 141.438158 l
216.170751 72.058143 l
stroke
grestore
gsave
300.5 216 86.4 43.2 clipbox
223.000791 72.058143 m
223.000791 55.34324 l
stroke
grestore
gsave
300.5 216 86.4 43.2 clipbox
223.000791 141.438158 m
223.000791 235.090083 l
stroke
grestore
gsave
300.5 216 86.4 43.2 clipbox
219.585771 55.34324 m
226.41581 55.34324 l
stroke
grestore
gsave
300.5 216 86.4 43.2 clipbox
219.585771 235.090083 m
226.41581 235.090083 l
stroke
grestore
gsave
300.5 216 86.4 43.2 clipbox
243.490909 210.579861 m
257.150988 210.579861 l
257.150988 243.666989 l
243.490909 243.666989 l
243.490909 210.579861 l
stroke
grestore
gsave
300.5 216 86.4 43.2 clipbox
250.320949 210.579861 m
250.320949 165.267222 l
stroke
grestore
gsave
300.5 216 86.4 43.2 clipbox
250.320949 243.666989 m
250.320949 248.966331 l
stroke
grestore
gsave
300.5 216 86.4 43.2 clipbox
246.905929 165.267222 m
253.735968 165.267222 l
stroke
grestore
gsave
300.5 216 86.4 43.2 clipbox
246.905929 248.966331 m
253.735968 248.966331 l
stroke
grestore
0 setlinecap
gsave
300.5 216 86.4 43.2 clipbox
/o {
gsave
newpath
translate
1.0 setlinewidth
1 setlinejoin
0 setlinecap
0 -3 m
0.795609 -3 1.55874 -2.683901 2.12132 -2.12132 c
2.683901 -1.55874 3 -0.795609 3 0 c
3 0.795609 2.683901 1.55874 2.12132 2.12132 c
1.55874 2.683901 0.795609 3 0 3 c
-0.795609 3 -1.55874 2.683901 -2.12132 2.12132 c
-2.683901 1.55874 -3 0.795609 -3 0 c
-3 -0.795609 -2.683901 -1.55874 -2.12132 -2.12132 c
-1.55874 -2.683901 -0.795609 -3 0 -3 c
cl

stroke
grestore
} bind def
250.321 144.6 o
250.321 100.168 o
250.321 147.148 o
250.321 151.376 o
250.321 142.029 o
250.321 118.77 o
grestore
2 setlinecap
gsave
300.5 216 86.4 43.2 clipbox
270.811067 247.806496 m
284.471146 247.806496 l
284.471146 249.200029 l
270.811067 249.200029 l
270.811067 247.806496 l
stroke
grestore
gsave
300.5 216 86.4 43.2 clipbox
277.641107 247.806496 m
277.641107 245.767004 l
stroke
grestore
gsave
300.5 216 86.4 43.2 clipbox
277.641107 249.200029 m
277.641107 249.368452 l
stroke
grestore
gsave
300.5 216 86.4 43.2 clipbox
274.226087 245.767004 m
281.056126 245.767004 l
stroke
grestore
gsave
300.5 216 86.4 43.2 clipbox
274.226087 249.368452 m
281.056126 249.368452 l
stroke
grestore
0 setlinecap
gsave
300.5 216 86.4 43.2 clipbox
/o {
gsave
newpath
translate
1.0 setlinewidth
1 setlinejoin
0 setlinecap
0 -3 m
0.795609 -3 1.55874 -2.683901 2.12132 -2.12132 c
2.683901 -1.55874 3 -0.795609 3 0 c
3 0.795609 2.683901 1.55874 2.12132 2.12132 c
1.55874 2.683901 0.795609 3 0 3 c
-0.795609 3 -1.55874 2.683901 -2.12132 2.12132 c
-2.683901 1.55874 -3 0.795609 -3 0 c
-3 -0.795609 -2.683901 -1.55874 -2.12132 -2.12132 c
-1.55874 -2.683901 -0.795609 -3 0 -3 c
cl

stroke
grestore
} bind def
277.641 239.134 o
277.641 243.859 o
277.641 226.087 o
277.641 236.583 o
277.641 243.35 o
277.641 245.411 o
277.641 244.574 o
277.641 245.606 o
277.641 245.479 o
277.641 234.661 o
277.641 245.456 o
277.641 244.542 o
grestore
2 setlinecap
gsave
300.5 216 86.4 43.2 clipbox
298.131225 249.315824 m
311.791304 249.315824 l
311.791304 249.374702 l
298.131225 249.374702 l
298.131225 249.315824 l
stroke
grestore
gsave
300.5 216 86.4 43.2 clipbox
304.961265 249.315824 m
304.961265 249.239671 l
stroke
grestore
gsave
300.5 216 86.4 43.2 clipbox
304.961265 249.374702 m
304.961265 249.381163 l
stroke
grestore
gsave
300.5 216 86.4 43.2 clipbox
301.546245 249.239671 m
308.376285 249.239671 l
stroke
grestore
gsave
300.5 216 86.4 43.2 clipbox
301.546245 249.381163 m
308.376285 249.381163 l
stroke
grestore
0 setlinecap
gsave
300.5 216 86.4 43.2 clipbox
/o {
gsave
newpath
translate
1.0 setlinewidth
1 setlinejoin
0 setlinecap
0 -3 m
0.795609 -3 1.55874 -2.683901 2.12132 -2.12132 c
2.683901 -1.55874 3 -0.795609 3 0 c
3 0.795609 2.683901 1.55874 2.12132 2.12132 c
1.55874 2.683901 0.795609 3 0 3 c
-0.795609 3 -1.55874 2.683901 -2.12132 2.12132 c
-2.683901 1.55874 -3 0.795609 -3 0 c
-3 -0.795609 -2.683901 -1.55874 -2.12132 -2.12132 c
-1.55874 -2.683901 -0.795609 -3 0 -3 c
cl

stroke
grestore
} bind def
304.961 248.792 o
304.961 249.022 o
304.961 248.197 o
304.961 248.443 o
304.961 249.133 o
304.961 249.223 o
304.961 249.136 o
304.961 248.462 o
304.961 249.217 o
304.961 249.173 o
grestore
2 setlinecap
gsave
300.5 216 86.4 43.2 clipbox
325.451383 249.37833 m
339.111462 249.37833 l
339.111462 249.381332 l
325.451383 249.381332 l
325.451383 249.37833 l
stroke
grestore
gsave
300.5 216 86.4 43.2 clipbox
332.281423 249.37833 m
332.281423 249.37407 l
stroke
grestore
gsave
300.5 216 86.4 43.2 clipbox
332.281423 249.381332 m
332.281423 249.381771 l
stroke
grestore
gsave
300.5 216 86.4 43.2 clipbox
328.866403 249.37407 m
335.696443 249.37407 l
stroke
grestore
gsave
300.5 216 86.4 43.2 clipbox
328.866403 249.381771 m
335.696443 249.381771 l
stroke
grestore
0 setlinecap
gsave
300.5 216 86.4 43.2 clipbox
/o {
gsave
newpath
translate
1.0 setlinewidth
1 setlinejoin
0 setlinecap
0 -3 m
0.795609 -3 1.55874 -2.683901 2.12132 -2.12132 c
2.683901 -1.55874 3 -0.795609 3 0 c
3 0.795609 2.683901 1.55874 2.12132 2.12132 c
1.55874 2.683901 0.795609 3 0 3 c
-0.795609 3 -1.55874 2.683901 -2.12132 2.12132 c
-2.683901 1.55874 -3 0.795609 -3 0 c
-3 -0.795609 -2.683901 -1.55874 -2.12132 -2.12132 c
-1.55874 -2.683901 -0.795609 -3 0 -3 c
cl

stroke
grestore
} bind def
332.281 249.347 o
332.281 249.355 o
332.281 249.31 o
332.281 249.316 o
332.281 249.368 o
332.281 249.366 o
332.281 249.317 o
332.281 249.372 o
332.281 249.37 o
grestore
2 setlinecap
gsave
300.5 216 86.4 43.2 clipbox
352.771542 249.381584 m
366.431621 249.381584 l
366.431621 249.381795 l
352.771542 249.381795 l
352.771542 249.381584 l
stroke
grestore
gsave
300.5 216 86.4 43.2 clipbox
359.601581 249.381584 m
359.601581 249.381327 l
stroke
grestore
gsave
300.5 216 86.4 43.2 clipbox
359.601581 249.381795 m
359.601581 249.381818 l
stroke
grestore
gsave
300.5 216 86.4 43.2 clipbox
356.186561 249.381327 m
363.016601 249.381327 l
stroke
grestore
gsave
300.5 216 86.4 43.2 clipbox
356.186561 249.381818 m
363.016601 249.381818 l
stroke
grestore
0 setlinecap
gsave
300.5 216 86.4 43.2 clipbox
/o {
gsave
newpath
translate
1.0 setlinewidth
1 setlinejoin
0 setlinecap
0 -3 m
0.795609 -3 1.55874 -2.683901 2.12132 -2.12132 c
2.683901 -1.55874 3 -0.795609 3 0 c
3 0.795609 2.683901 1.55874 2.12132 2.12132 c
1.55874 2.683901 0.795609 3 0 3 c
-0.795609 3 -1.55874 2.683901 -2.12132 2.12132 c
-2.683901 1.55874 -3 0.795609 -3 0 c
-3 -0.795609 -2.683901 -1.55874 -2.12132 -2.12132 c
-1.55874 -2.683901 -0.795609 -3 0 -3 c
cl

stroke
grestore
} bind def
359.602 249.38 o
359.602 249.379 o
359.602 249.377 o
359.602 249.375 o
359.602 249.381 o
359.602 249.381 o
359.602 249.381 o
359.602 249.381 o
359.602 249.381 o
359.602 249.381 o
359.602 249.381 o
359.602 249.376 o
359.602 249.381 o
359.602 249.381 o
grestore
2 setlinecap
1.000 0.498 0.055 setrgbcolor
gsave
300.5 216 86.4 43.2 clipbox
106.890119 53.018307 m
120.550198 53.018307 l
stroke
grestore
gsave
300.5 216 86.4 43.2 clipbox
134.210277 53.020053 m
147.870356 53.020053 l
stroke
grestore
gsave
300.5 216 86.4 43.2 clipbox
161.530435 53.062218 m
175.190514 53.062218 l
stroke
grestore
gsave
300.5 216 86.4 43.2 clipbox
188.850593 54.388038 m
202.510672 54.388038 l
stroke
grestore
gsave
300.5 216 86.4 43.2 clipbox
216.170751 96.692716 m
229.83083 96.692716 l
stroke
grestore
gsave
300.5 216 86.4 43.2 clipbox
243.490909 232.25375 m
257.150988 232.25375 l
stroke
grestore
gsave
300.5 216 86.4 43.2 clipbox
270.811067 248.80513 m
284.471146 248.80513 l
stroke
grestore
gsave
300.5 216 86.4 43.2 clipbox
298.131225 249.358141 m
311.791304 249.358141 l
stroke
grestore
gsave
300.5 216 86.4 43.2 clipbox
325.451383 249.380496 m
339.111462 249.380496 l
stroke
grestore
gsave
300.5 216 86.4 43.2 clipbox
352.771542 249.381725 m
366.431621 249.381725 l
stroke
grestore
0.800 setlinewidth
0 setlinejoin
[] 0 setdash
0.000 setgray
gsave
86.4 43.2 m
86.4 259.2 l
stroke
grestore
gsave
386.921739 43.2 m
386.921739 259.2 l
stroke
grestore
gsave
86.4 43.2 m
386.921739 43.2 l
stroke
grestore
gsave
86.4 259.2 m
386.921739 259.2 l
stroke
grestore
gsave
477.078261 43.2 m
777.6 43.2 l
777.6 259.2 l
477.078261 259.2 l
cl
1.000 setgray
fill
grestore
gsave
300.5 216 477.1 43.2 clipbox
490.73834 43.2 m
496.452992 43.2 l
496.452992 47.118367 l
490.73834 47.118367 l
cl
0.122 0.467 0.706 setrgbcolor
fill
grestore
gsave
300.5 216 477.1 43.2 clipbox
496.452992 43.2 m
502.167645 43.2 l
502.167645 49.077551 l
496.452992 49.077551 l
cl
0.122 0.467 0.706 setrgbcolor
fill
grestore
gsave
300.5 216 477.1 43.2 clipbox
502.167645 43.2 m
507.882297 43.2 l
507.882297 51.036735 l
502.167645 51.036735 l
cl
0.122 0.467 0.706 setrgbcolor
fill
grestore
gsave
300.5 216 477.1 43.2 clipbox
507.882297 43.2 m
513.59695 43.2 l
513.59695 60.832653 l
507.882297 60.832653 l
cl
0.122 0.467 0.706 setrgbcolor
fill
grestore
gsave
300.5 216 477.1 43.2 clipbox
513.59695 43.2 m
519.311602 43.2 l
519.311602 62.791837 l
513.59695 62.791837 l
cl
0.122 0.467 0.706 setrgbcolor
fill
grestore
gsave
300.5 216 477.1 43.2 clipbox
519.311602 43.2 m
525.026255 43.2 l
525.026255 76.506122 l
519.311602 76.506122 l
cl
0.122 0.467 0.706 setrgbcolor
fill
grestore
gsave
300.5 216 477.1 43.2 clipbox
525.026255 43.2 m
530.740907 43.2 l
530.740907 103.934694 l
525.026255 103.934694 l
cl
0.122 0.467 0.706 setrgbcolor
fill
grestore
gsave
300.5 216 477.1 43.2 clipbox
530.740907 43.2 m
536.45556 43.2 l
536.45556 148.995918 l
530.740907 148.995918 l
cl
0.122 0.467 0.706 setrgbcolor
fill
grestore
gsave
300.5 216 477.1 43.2 clipbox
536.45556 43.2 m
542.170212 43.2 l
542.170212 137.240816 l
536.45556 137.240816 l
cl
0.122 0.467 0.706 setrgbcolor
fill
grestore
gsave
300.5 216 477.1 43.2 clipbox
542.170212 43.2 m
547.884864 43.2 l
547.884864 152.914286 l
542.170212 152.914286 l
cl
0.122 0.467 0.706 setrgbcolor
fill
grestore
gsave
300.5 216 477.1 43.2 clipbox
547.884864 43.2 m
553.599517 43.2 l
553.599517 190.138776 l
547.884864 190.138776 l
cl
0.122 0.467 0.706 setrgbcolor
fill
grestore
gsave
300.5 216 477.1 43.2 clipbox
553.599517 43.2 m
559.314169 43.2 l
559.314169 197.97551 l
553.599517 197.97551 l
cl
0.122 0.467 0.706 setrgbcolor
fill
grestore
gsave
300.5 216 477.1 43.2 clipbox
559.314169 43.2 m
565.028822 43.2 l
565.028822 213.64898 l
559.314169 213.64898 l
cl
0.122 0.467 0.706 setrgbcolor
fill
grestore
gsave
300.5 216 477.1 43.2 clipbox
565.028822 43.2 m
570.743474 43.2 l
570.743474 197.97551 l
565.028822 197.97551 l
cl
0.122 0.467 0.706 setrgbcolor
fill
grestore
gsave
300.5 216 477.1 43.2 clipbox
570.743474 43.2 m
576.458127 43.2 l
576.458127 223.444898 l
570.743474 223.444898 l
cl
0.122 0.467 0.706 setrgbcolor
fill
grestore
gsave
300.5 216 477.1 43.2 clipbox
576.458127 43.2 m
582.172779 43.2 l
582.172779 178.383673 l
576.458127 178.383673 l
cl
0.122 0.467 0.706 setrgbcolor
fill
grestore
gsave
300.5 216 477.1 43.2 clipbox
582.172779 43.2 m
587.887432 43.2 l
587.887432 178.383673 l
582.172779 178.383673 l
cl
0.122 0.467 0.706 setrgbcolor
fill
grestore
gsave
300.5 216 477.1 43.2 clipbox
587.887432 43.2 m
593.602084 43.2 l
593.602084 156.832653 l
587.887432 156.832653 l
cl
0.122 0.467 0.706 setrgbcolor
fill
grestore
gsave
300.5 216 477.1 43.2 clipbox
593.602084 43.2 m
599.316736 43.2 l
599.316736 133.322449 l
593.602084 133.322449 l
cl
0.122 0.467 0.706 setrgbcolor
fill
grestore
gsave
300.5 216 477.1 43.2 clipbox
599.316736 43.2 m
605.031389 43.2 l
605.031389 103.934694 l
599.316736 103.934694 l
cl
0.122 0.467 0.706 setrgbcolor
fill
grestore
gsave
300.5 216 477.1 43.2 clipbox
605.031389 43.2 m
610.746041 43.2 l
610.746041 100.016327 l
605.031389 100.016327 l
cl
0.122 0.467 0.706 setrgbcolor
fill
grestore
gsave
300.5 216 477.1 43.2 clipbox
610.746041 43.2 m
616.460694 43.2 l
616.460694 84.342857 l
610.746041 84.342857 l
cl
0.122 0.467 0.706 setrgbcolor
fill
grestore
gsave
300.5 216 477.1 43.2 clipbox
616.460694 43.2 m
622.175346 43.2 l
622.175346 62.791837 l
616.460694 62.791837 l
cl
0.122 0.467 0.706 setrgbcolor
fill
grestore
gsave
300.5 216 477.1 43.2 clipbox
622.175346 43.2 m
627.889999 43.2 l
627.889999 60.832653 l
622.175346 60.832653 l
cl
0.122 0.467 0.706 setrgbcolor
fill
grestore
gsave
300.5 216 477.1 43.2 clipbox
627.889999 43.2 m
633.604651 43.2 l
633.604651 52.995918 l
627.889999 52.995918 l
cl
0.122 0.467 0.706 setrgbcolor
fill
grestore
gsave
300.5 216 477.1 43.2 clipbox
633.604651 43.2 m
639.319304 43.2 l
639.319304 51.036735 l
633.604651 51.036735 l
cl
0.122 0.467 0.706 setrgbcolor
fill
grestore
gsave
300.5 216 477.1 43.2 clipbox
639.319304 43.2 m
645.033956 43.2 l
645.033956 47.118367 l
639.319304 47.118367 l
cl
0.122 0.467 0.706 setrgbcolor
fill
grestore
gsave
300.5 216 477.1 43.2 clipbox
645.033956 43.2 m
650.748608 43.2 l
650.748608 43.2 l
645.033956 43.2 l
cl
0.122 0.467 0.706 setrgbcolor
fill
grestore
gsave
300.5 216 477.1 43.2 clipbox
650.748608 43.2 m
656.463261 43.2 l
656.463261 43.2 l
650.748608 43.2 l
cl
0.122 0.467 0.706 setrgbcolor
fill
grestore
gsave
300.5 216 477.1 43.2 clipbox
656.463261 43.2 m
662.177913 43.2 l
662.177913 45.159184 l
656.463261 45.159184 l
cl
0.122 0.467 0.706 setrgbcolor
fill
grestore
gsave
300.5 216 477.1 43.2 clipbox
594.399824 43.2 m
600.051161 43.2 l
600.051161 45.159184 l
594.399824 45.159184 l
cl
1.000 0.498 0.055 setrgbcolor
fill
grestore
gsave
300.5 216 477.1 43.2 clipbox
600.051161 43.2 m
605.702497 43.2 l
605.702497 45.159184 l
600.051161 45.159184 l
cl
1.000 0.498 0.055 setrgbcolor
fill
grestore
gsave
300.5 216 477.1 43.2 clipbox
605.702497 43.2 m
611.353834 43.2 l
611.353834 49.077551 l
605.702497 49.077551 l
cl
1.000 0.498 0.055 setrgbcolor
fill
grestore
gsave
300.5 216 477.1 43.2 clipbox
611.353834 43.2 m
617.005171 43.2 l
617.005171 52.995918 l
611.353834 52.995918 l
cl
1.000 0.498 0.055 setrgbcolor
fill
grestore
gsave
300.5 216 477.1 43.2 clipbox
617.005171 43.2 m
622.656507 43.2 l
622.656507 56.914286 l
617.005171 56.914286 l
cl
1.000 0.498 0.055 setrgbcolor
fill
grestore
gsave
300.5 216 477.1 43.2 clipbox
622.656507 43.2 m
628.307844 43.2 l
628.307844 64.75102 l
622.656507 64.75102 l
cl
1.000 0.498 0.055 setrgbcolor
fill
grestore
gsave
300.5 216 477.1 43.2 clipbox
628.307844 43.2 m
633.95918 43.2 l
633.95918 68.669388 l
628.307844 68.669388 l
cl
1.000 0.498 0.055 setrgbcolor
fill
grestore
gsave
300.5 216 477.1 43.2 clipbox
633.95918 43.2 m
639.610517 43.2 l
639.610517 90.220408 l
633.95918 90.220408 l
cl
1.000 0.498 0.055 setrgbcolor
fill
grestore
gsave
300.5 216 477.1 43.2 clipbox
639.610517 43.2 m
645.261853 43.2 l
645.261853 127.444898 l
639.610517 127.444898 l
cl
1.000 0.498 0.055 setrgbcolor
fill
grestore
gsave
300.5 216 477.1 43.2 clipbox
645.261853 43.2 m
650.91319 43.2 l
650.91319 131.363265 l
645.261853 131.363265 l
cl
1.000 0.498 0.055 setrgbcolor
fill
grestore
gsave
300.5 216 477.1 43.2 clipbox
650.91319 43.2 m
656.564526 43.2 l
656.564526 154.873469 l
650.91319 154.873469 l
cl
1.000 0.498 0.055 setrgbcolor
fill
grestore
gsave
300.5 216 477.1 43.2 clipbox
656.564526 43.2 m
662.215863 43.2 l
662.215863 156.832653 l
656.564526 156.832653 l
cl
1.000 0.498 0.055 setrgbcolor
fill
grestore
gsave
300.5 216 477.1 43.2 clipbox
662.215863 43.2 m
667.8672 43.2 l
667.8672 194.057143 l
662.215863 194.057143 l
cl
1.000 0.498 0.055 setrgbcolor
fill
grestore
gsave
300.5 216 477.1 43.2 clipbox
667.8672 43.2 m
673.518536 43.2 l
673.518536 190.138776 l
667.8672 190.138776 l
cl
1.000 0.498 0.055 setrgbcolor
fill
grestore
gsave
300.5 216 477.1 43.2 clipbox
673.518536 43.2 m
679.169873 43.2 l
679.169873 192.097959 l
673.518536 192.097959 l
cl
1.000 0.498 0.055 setrgbcolor
fill
grestore
gsave
300.5 216 477.1 43.2 clipbox
679.169873 43.2 m
684.821209 43.2 l
684.821209 196.016327 l
679.169873 196.016327 l
cl
1.000 0.498 0.055 setrgbcolor
fill
grestore
gsave
300.5 216 477.1 43.2 clipbox
684.821209 43.2 m
690.472546 43.2 l
690.472546 248.914286 l
684.821209 248.914286 l
cl
1.000 0.498 0.055 setrgbcolor
fill
grestore
gsave
300.5 216 477.1 43.2 clipbox
690.472546 43.2 m
696.123882 43.2 l
696.123882 192.097959 l
690.472546 192.097959 l
cl
1.000 0.498 0.055 setrgbcolor
fill
grestore
gsave
300.5 216 477.1 43.2 clipbox
696.123882 43.2 m
701.775219 43.2 l
701.775219 182.302041 l
696.123882 182.302041 l
cl
1.000 0.498 0.055 setrgbcolor
fill
grestore
gsave
300.5 216 477.1 43.2 clipbox
701.775219 43.2 m
707.426555 43.2 l
707.426555 111.771429 l
701.775219 111.771429 l
cl
1.000 0.498 0.055 setrgbcolor
fill
grestore
gsave
300.5 216 477.1 43.2 clipbox
707.426555 43.2 m
713.077892 43.2 l
713.077892 139.2 l
707.426555 139.2 l
cl
1.000 0.498 0.055 setrgbcolor
fill
grestore
gsave
300.5 216 477.1 43.2 clipbox
713.077892 43.2 m
718.729229 43.2 l
718.729229 98.057143 l
713.077892 98.057143 l
cl
1.000 0.498 0.055 setrgbcolor
fill
grestore
gsave
300.5 216 477.1 43.2 clipbox
718.729229 43.2 m
724.380565 43.2 l
724.380565 84.342857 l
718.729229 84.342857 l
cl
1.000 0.498 0.055 setrgbcolor
fill
grestore
gsave
300.5 216 477.1 43.2 clipbox
724.380565 43.2 m
730.031902 43.2 l
730.031902 74.546939 l
724.380565 74.546939 l
cl
1.000 0.498 0.055 setrgbcolor
fill
grestore
gsave
300.5 216 477.1 43.2 clipbox
730.031902 43.2 m
735.683238 43.2 l
735.683238 72.587755 l
730.031902 72.587755 l
cl
1.000 0.498 0.055 setrgbcolor
fill
grestore
gsave
300.5 216 477.1 43.2 clipbox
735.683238 43.2 m
741.334575 43.2 l
741.334575 49.077551 l
735.683238 49.077551 l
cl
1.000 0.498 0.055 setrgbcolor
fill
grestore
gsave
300.5 216 477.1 43.2 clipbox
741.334575 43.2 m
746.985911 43.2 l
746.985911 49.077551 l
741.334575 49.077551 l
cl
1.000 0.498 0.055 setrgbcolor
fill
grestore
gsave
300.5 216 477.1 43.2 clipbox
746.985911 43.2 m
752.637248 43.2 l
752.637248 47.118367 l
746.985911 47.118367 l
cl
1.000 0.498 0.055 setrgbcolor
fill
grestore
gsave
300.5 216 477.1 43.2 clipbox
752.637248 43.2 m
758.288584 43.2 l
758.288584 45.159184 l
752.637248 45.159184 l
cl
1.000 0.498 0.055 setrgbcolor
fill
grestore
gsave
300.5 216 477.1 43.2 clipbox
758.288584 43.2 m
763.939921 43.2 l
763.939921 45.159184 l
758.288584 45.159184 l
cl
1.000 0.498 0.055 setrgbcolor
fill
grestore
1 setlinejoin
0 setlinecap
[] 0 setdash
gsave
/o {
gsave
newpath
translate
0.8 setlinewidth
1 setlinejoin
0 setlinecap
0 0 m
0 -3.5 l

gsave
0.000 setgray
fill
grestore
stroke
grestore
} bind def
510.485 43.2 o
grestore
gsave
499.352470 25.559375 translate
0.000000 rotate
0.000000 0.000000 m /zero glyphshow
8.907227 0.000000 m /period glyphshow
13.357422 0.000000 m /two glyphshow
grestore
gsave
/o {
gsave
newpath
translate
0.8 setlinewidth
1 setlinejoin
0 setlinecap
0 0 m
0 -3.5 l

gsave
0.000 setgray
fill
grestore
stroke
grestore
} bind def
585.469 43.2 o
grestore
gsave
574.336298 25.559375 translate
0.000000 rotate
0.000000 0.000000 m /zero glyphshow
8.907227 0.000000 m /period glyphshow
13.357422 0.000000 m /four glyphshow
grestore
gsave
/o {
gsave
newpath
translate
0.8 setlinewidth
1 setlinejoin
0 setlinecap
0 0 m
0 -3.5 l

gsave
0.000 setgray
fill
grestore
stroke
grestore
} bind def
660.453 43.2 o
grestore
gsave
649.320126 25.559375 translate
0.000000 rotate
0.000000 0.000000 m /zero glyphshow
8.907227 0.000000 m /period glyphshow
13.357422 0.000000 m /six glyphshow
grestore
gsave
/o {
gsave
newpath
translate
0.8 setlinewidth
1 setlinejoin
0 setlinecap
0 0 m
0 -3.5 l

gsave
0.000 setgray
fill
grestore
stroke
grestore
} bind def
735.437 43.2 o
grestore
gsave
724.303955 25.559375 translate
0.000000 rotate
0.000000 0.000000 m /zero glyphshow
8.907227 0.000000 m /period glyphshow
13.357422 0.000000 m /eight glyphshow
grestore
gsave
623.198505 8.012500 translate
0.000000 rotate
0.000000 0.000000 m /x glyphshow
grestore
gsave
/o {
gsave
newpath
translate
0.8 setlinewidth
1 setlinejoin
0 setlinecap
0 0 m
-3.5 0 l

gsave
0.000 setgray
fill
grestore
stroke
grestore
} bind def
477.078 43.2 o
grestore
gsave
461.172011 37.879688 translate
0.000000 rotate
0.000000 0.000000 m /zero glyphshow
grestore
gsave
/o {
gsave
newpath
translate
0.8 setlinewidth
1 setlinejoin
0 setlinecap
0 0 m
-3.5 0 l

gsave
0.000 setgray
fill
grestore
stroke
grestore
} bind def
477.078 82.3837 o
grestore
gsave
452.265761 77.063361 translate
0.000000 rotate
0.000000 0.000000 m /two glyphshow
8.907227 0.000000 m /zero glyphshow
grestore
gsave
/o {
gsave
newpath
translate
0.8 setlinewidth
1 setlinejoin
0 setlinecap
0 0 m
-3.5 0 l

gsave
0.000 setgray
fill
grestore
stroke
grestore
} bind def
477.078 121.567 o
grestore
gsave
452.265761 116.247034 translate
0.000000 rotate
0.000000 0.000000 m /four glyphshow
8.907227 0.000000 m /zero glyphshow
grestore
gsave
/o {
gsave
newpath
translate
0.8 setlinewidth
1 setlinejoin
0 setlinecap
0 0 m
-3.5 0 l

gsave
0.000 setgray
fill
grestore
stroke
grestore
} bind def
477.078 160.751 o
grestore
gsave
452.265761 155.430708 translate
0.000000 rotate
0.000000 0.000000 m /six glyphshow
8.907227 0.000000 m /zero glyphshow
grestore
gsave
/o {
gsave
newpath
translate
0.8 setlinewidth
1 setlinejoin
0 setlinecap
0 0 m
-3.5 0 l

gsave
0.000 setgray
fill
grestore
stroke
grestore
} bind def
477.078 199.935 o
grestore
gsave
452.265761 194.614381 translate
0.000000 rotate
0.000000 0.000000 m /eight glyphshow
8.907227 0.000000 m /zero glyphshow
grestore
gsave
/o {
gsave
newpath
translate
0.8 setlinewidth
1 setlinejoin
0 setlinecap
0 0 m
-3.5 0 l

gsave
0.000 setgray
fill
grestore
stroke
grestore
} bind def
477.078 239.118 o
grestore
gsave
443.359511 233.798055 translate
0.000000 rotate
0.000000 0.000000 m /one glyphshow
8.907227 0.000000 m /zero glyphshow
17.814453 0.000000 m /zero glyphshow
grestore
gsave
436.453261 114.387500 translate
90.000000 rotate
0.000000 0.000000 m /F glyphshow
8.037109 0.000000 m /r glyphshow
13.792969 0.000000 m /e glyphshow
22.406250 0.000000 m /q glyphshow
31.292969 0.000000 m /u glyphshow
40.166016 0.000000 m /e glyphshow
48.779297 0.000000 m /n glyphshow
57.652344 0.000000 m /c glyphshow
65.349609 0.000000 m /y glyphshow
grestore
0 setlinejoin
2 setlinecap
[] 0 setdash
gsave
477.078261 43.2 m
477.078261 259.2 l
stroke
grestore
gsave
777.6 43.2 m
777.6 259.2 l
stroke
grestore
gsave
477.078261 43.2 m
777.6 43.2 l
stroke
grestore
gsave
477.078261 259.2 m
777.6 259.2 l
stroke
grestore
/DejaVuSans findfont
16.000 scalefont
setfont
gsave
252.070312 270.083750 translate
0.000000 rotate
0.000000 0.000000 m /U glyphshow
11.710938 0.000000 m /n glyphshow
21.851562 0.000000 m /c glyphshow
30.648438 0.000000 m /e glyphshow
40.492188 0.000000 m /r glyphshow
47.070312 0.000000 m /t glyphshow
53.343750 0.000000 m /a glyphshow
63.148438 0.000000 m /i glyphshow
67.593750 0.000000 m /n glyphshow
77.734375 0.000000 m /t glyphshow
84.007812 0.000000 m /y glyphshow
93.476562 0.000000 m /space glyphshow
98.562500 0.000000 m /i glyphshow
103.007812 0.000000 m /n glyphshow
113.148438 0.000000 m /space glyphshow
118.234375 0.000000 m /B glyphshow
129.210938 0.000000 m /i glyphshow
133.656250 0.000000 m /n glyphshow
143.796875 0.000000 m /a glyphshow
153.601562 0.000000 m /r glyphshow
160.179688 0.000000 m /y glyphshow
169.648438 0.000000 m /space glyphshow
174.734375 0.000000 m /C glyphshow
185.906250 0.000000 m /l glyphshow
190.351562 0.000000 m /a glyphshow
200.156250 0.000000 m /s glyphshow
208.492188 0.000000 m /s glyphshow
216.828125 0.000000 m /i glyphshow
221.273438 0.000000 m /f glyphshow
226.906250 0.000000 m /i glyphshow
231.351562 0.000000 m /c glyphshow
240.148438 0.000000 m /a glyphshow
249.953125 0.000000 m /t glyphshow
256.226562 0.000000 m /i glyphshow
260.671875 0.000000 m /o glyphshow
270.460938 0.000000 m /n glyphshow
280.601562 0.000000 m /space glyphshow
285.687500 0.000000 m /w glyphshow
298.773438 0.000000 m /i glyphshow
303.218750 0.000000 m /t glyphshow
309.492188 0.000000 m /h glyphshow
319.632812 0.000000 m /space glyphshow
324.718750 0.000000 m /B glyphshow
335.695312 0.000000 m /N glyphshow
347.664062 0.000000 m /N glyphshow
grestore

end
showpage
