%!PS-Adobe-3.0 EPSF-3.0
%%Title: ..\Results_and_figs\WINE_traintest_losses.eps
%%Creator: matplotlib version 2.1.2, http://matplotlib.org/
%%CreationDate: Thu Aug  2 11:45:55 2018
%%Orientation: portrait
%%BoundingBox: 54 180 558 612
%%EndComments
%%BeginProlog
/mpldict 8 dict def
mpldict begin
/m { moveto } bind def
/l { lineto } bind def
/r { rlineto } bind def
/c { curveto } bind def
/cl { closepath } bind def
/box {
m
1 index 0 r
0 exch r
neg 0 r
cl
} bind def
/clipbox {
box
clip
newpath
} bind def
%!PS-Adobe-3.0 Resource-Font
%%Title: DejaVu Sans
%%Copyright: Copyright (c) 2003 by Bitstream, Inc. All Rights Reserved. Copyright (c) 2006 by Tavmjong Bah. All Rights Reserved. DejaVu changes are in public domain 
%%Creator: Converted from TrueType to type 3 by PPR
25 dict begin
/_d{bind def}bind def
/_m{moveto}_d
/_l{lineto}_d
/_cl{closepath eofill}_d
/_c{curveto}_d
/_sc{7 -1 roll{setcachedevice}{pop pop pop pop pop pop}ifelse}_d
/_e{exec}_d
/FontName /DejaVuSans def
/PaintType 0 def
/FontMatrix[.001 0 0 .001 0 0]def
/FontBBox[-1021 -463 1793 1232]def
/FontType 3 def
/Encoding [ /space /period /zero /one /two /three /four /five /six /seven /eight /nine /A /B /C /E /F /K /M /N /S /T /V /W /a /c /d /e /g /h /i /l /m /n /o /p /q /r /s /t /u /y ] def
/FontInfo 10 dict dup begin
/FamilyName (DejaVu Sans) def
/FullName (DejaVu Sans) def
/Notice (Copyright (c) 2003 by Bitstream, Inc. All Rights Reserved. Copyright (c) 2006 by Tavmjong Bah. All Rights Reserved. DejaVu changes are in public domain ) def
/Weight (Book) def
/Version (Version 2.35) def
/ItalicAngle 0.0 def
/isFixedPitch false def
/UnderlinePosition -130 def
/UnderlineThickness 90 def
end readonly def
/CharStrings 43 dict dup begin
/.notdef 0 def
/space{318 0 0 0 0 0 _sc
}_d
/period{318 0 107 0 210 124 _sc
107 124 _m
210 124 _l
210 0 _l
107 0 _l
107 124 _l
_cl}_d
/zero{636 0 66 -13 570 742 _sc
318 664 _m
267 664 229 639 203 589 _c
177 539 165 464 165 364 _c
165 264 177 189 203 139 _c
229 89 267 64 318 64 _c
369 64 407 89 433 139 _c
458 189 471 264 471 364 _c
471 464 458 539 433 589 _c
407 639 369 664 318 664 _c
318 742 _m
399 742 461 709 505 645 _c
548 580 570 486 570 364 _c
570 241 548 147 505 83 _c
461 19 399 -13 318 -13 _c
236 -13 173 19 130 83 _c
87 147 66 241 66 364 _c
66 486 87 580 130 645 _c
173 709 236 742 318 742 _c
_cl}_d
/one{636 0 110 0 544 729 _sc
124 83 _m
285 83 _l
285 639 _l
110 604 _l
110 694 _l
284 729 _l
383 729 _l
383 83 _l
544 83 _l
544 0 _l
124 0 _l
124 83 _l
_cl}_d
/two{{636 0 73 0 536 742 _sc
192 83 _m
536 83 _l
536 0 _l
73 0 _l
73 83 _l
110 121 161 173 226 239 _c
290 304 331 346 348 365 _c
380 400 402 430 414 455 _c
426 479 433 504 433 528 _c
433 566 419 598 392 622 _c
365 646 330 659 286 659 _c
255 659 222 653 188 643 _c
154 632 117 616 78 594 _c
78 694 _l
118 710 155 722 189 730 _c
223 738 255 742 284 742 _c
}_e{359 742 419 723 464 685 _c
509 647 532 597 532 534 _c
532 504 526 475 515 449 _c
504 422 484 390 454 354 _c
446 344 420 317 376 272 _c
332 227 271 164 192 83 _c
_cl}_e}_d
/three{{636 0 76 -13 556 742 _sc
406 393 _m
453 383 490 362 516 330 _c
542 298 556 258 556 212 _c
556 140 531 84 482 45 _c
432 6 362 -13 271 -13 _c
240 -13 208 -10 176 -4 _c
144 1 110 10 76 22 _c
76 117 _l
103 101 133 89 166 81 _c
198 73 232 69 268 69 _c
330 69 377 81 409 105 _c
441 129 458 165 458 212 _c
458 254 443 288 413 312 _c
383 336 341 349 287 349 _c
}_e{202 349 _l
202 430 _l
291 430 _l
339 430 376 439 402 459 _c
428 478 441 506 441 543 _c
441 580 427 609 401 629 _c
374 649 336 659 287 659 _c
260 659 231 656 200 650 _c
169 644 135 635 98 623 _c
98 711 _l
135 721 170 729 203 734 _c
235 739 266 742 296 742 _c
370 742 429 725 473 691 _c
517 657 539 611 539 553 _c
539 513 527 479 504 451 _c
481 423 448 403 406 393 _c
_cl}_e}_d
/four{636 0 49 0 580 729 _sc
378 643 _m
129 254 _l
378 254 _l
378 643 _l
352 729 _m
476 729 _l
476 254 _l
580 254 _l
580 172 _l
476 172 _l
476 0 _l
378 0 _l
378 172 _l
49 172 _l
49 267 _l
352 729 _l
_cl}_d
/five{{636 0 77 -13 549 729 _sc
108 729 _m
495 729 _l
495 646 _l
198 646 _l
198 467 _l
212 472 227 476 241 478 _c
255 480 270 482 284 482 _c
365 482 429 459 477 415 _c
525 370 549 310 549 234 _c
549 155 524 94 475 51 _c
426 8 357 -13 269 -13 _c
238 -13 207 -10 175 -6 _c
143 -1 111 6 77 17 _c
77 116 _l
106 100 136 88 168 80 _c
199 72 232 69 267 69 _c
}_e{323 69 368 83 401 113 _c
433 143 450 183 450 234 _c
450 284 433 324 401 354 _c
368 384 323 399 267 399 _c
241 399 214 396 188 390 _c
162 384 135 375 108 363 _c
108 729 _l
_cl}_e}_d
/six{{636 0 70 -13 573 742 _sc
330 404 _m
286 404 251 388 225 358 _c
199 328 186 286 186 234 _c
186 181 199 139 225 109 _c
251 79 286 64 330 64 _c
374 64 409 79 435 109 _c
461 139 474 181 474 234 _c
474 286 461 328 435 358 _c
409 388 374 404 330 404 _c
526 713 _m
526 623 _l
501 635 476 644 451 650 _c
425 656 400 659 376 659 _c
310 659 260 637 226 593 _c
}_e{192 549 172 482 168 394 _c
187 422 211 444 240 459 _c
269 474 301 482 336 482 _c
409 482 467 459 509 415 _c
551 371 573 310 573 234 _c
573 159 550 99 506 54 _c
462 9 403 -13 330 -13 _c
246 -13 181 19 137 83 _c
92 147 70 241 70 364 _c
70 479 97 571 152 639 _c
206 707 280 742 372 742 _c
396 742 421 739 447 735 _c
472 730 498 723 526 713 _c
_cl}_e}_d
/seven{636 0 82 0 551 729 _sc
82 729 _m
551 729 _l
551 687 _l
286 0 _l
183 0 _l
432 646 _l
82 646 _l
82 729 _l
_cl}_d
/eight{{636 0 68 -13 568 742 _sc
318 346 _m
271 346 234 333 207 308 _c
180 283 167 249 167 205 _c
167 161 180 126 207 101 _c
234 76 271 64 318 64 _c
364 64 401 76 428 102 _c
455 127 469 161 469 205 _c
469 249 455 283 429 308 _c
402 333 365 346 318 346 _c
219 388 _m
177 398 144 418 120 447 _c
96 476 85 511 85 553 _c
85 611 105 657 147 691 _c
188 725 245 742 318 742 _c
}_e{390 742 447 725 489 691 _c
530 657 551 611 551 553 _c
551 511 539 476 515 447 _c
491 418 459 398 417 388 _c
464 377 501 355 528 323 _c
554 291 568 251 568 205 _c
568 134 546 80 503 43 _c
459 5 398 -13 318 -13 _c
237 -13 175 5 132 43 _c
89 80 68 134 68 205 _c
68 251 81 291 108 323 _c
134 355 171 377 219 388 _c
183 544 _m
183 506 194 476 218 455 _c
}_e{242 434 275 424 318 424 _c
360 424 393 434 417 455 _c
441 476 453 506 453 544 _c
453 582 441 611 417 632 _c
393 653 360 664 318 664 _c
275 664 242 653 218 632 _c
194 611 183 582 183 544 _c
_cl}_e}_d
/nine{{636 0 63 -13 566 742 _sc
110 15 _m
110 105 _l
134 93 159 84 185 78 _c
210 72 235 69 260 69 _c
324 69 374 90 408 134 _c
442 178 462 244 468 334 _c
448 306 424 284 396 269 _c
367 254 335 247 300 247 _c
226 247 168 269 126 313 _c
84 357 63 417 63 494 _c
63 568 85 628 129 674 _c
173 719 232 742 306 742 _c
390 742 455 709 499 645 _c
543 580 566 486 566 364 _c
}_e{566 248 538 157 484 89 _c
429 21 356 -13 264 -13 _c
239 -13 214 -10 189 -6 _c
163 -2 137 5 110 15 _c
306 324 _m
350 324 385 339 411 369 _c
437 399 450 441 450 494 _c
450 546 437 588 411 618 _c
385 648 350 664 306 664 _c
262 664 227 648 201 618 _c
175 588 162 546 162 494 _c
162 441 175 399 201 369 _c
227 339 262 324 306 324 _c
_cl}_e}_d
/A{684 0 8 0 676 729 _sc
342 632 _m
208 269 _l
476 269 _l
342 632 _l
286 729 _m
398 729 _l
676 0 _l
573 0 _l
507 187 _l
178 187 _l
112 0 _l
8 0 _l
286 729 _l
_cl}_d
/B{{686 0 98 0 615 729 _sc
197 348 _m
197 81 _l
355 81 _l
408 81 447 92 473 114 _c
498 136 511 169 511 215 _c
511 260 498 293 473 315 _c
447 337 408 348 355 348 _c
197 348 _l
197 648 _m
197 428 _l
343 428 _l
391 428 426 437 450 455 _c
474 473 486 500 486 538 _c
486 574 474 602 450 620 _c
426 638 391 648 343 648 _c
197 648 _l
98 729 _m
350 729 _l
}_e{425 729 483 713 524 682 _c
564 650 585 606 585 549 _c
585 504 574 468 553 442 _c
532 416 502 399 462 393 _c
510 382 548 360 575 327 _c
601 294 615 253 615 204 _c
615 138 592 88 548 53 _c
504 17 441 0 360 0 _c
98 0 _l
98 729 _l
_cl}_e}_d
/C{{698 0 56 -13 644 742 _sc
644 673 _m
644 569 _l
610 599 575 622 537 638 _c
499 653 460 661 418 661 _c
334 661 270 635 226 584 _c
182 533 160 460 160 364 _c
160 268 182 194 226 143 _c
270 92 334 67 418 67 _c
460 67 499 74 537 90 _c
575 105 610 128 644 159 _c
644 56 _l
609 32 572 15 534 4 _c
496 -7 455 -13 412 -13 _c
302 -13 215 20 151 87 _c
}_e{87 154 56 246 56 364 _c
56 481 87 573 151 641 _c
215 708 302 742 412 742 _c
456 742 497 736 535 725 _c
573 713 610 696 644 673 _c
_cl}_e}_d
/E{632 0 98 0 568 729 _sc
98 729 _m
559 729 _l
559 646 _l
197 646 _l
197 430 _l
544 430 _l
544 347 _l
197 347 _l
197 83 _l
568 83 _l
568 0 _l
98 0 _l
98 729 _l
_cl}_d
/F{575 0 98 0 517 729 _sc
98 729 _m
517 729 _l
517 646 _l
197 646 _l
197 431 _l
486 431 _l
486 348 _l
197 348 _l
197 0 _l
98 0 _l
98 729 _l
_cl}_d
/K{656 0 98 0 677 729 _sc
98 729 _m
197 729 _l
197 421 _l
524 729 _l
651 729 _l
289 389 _l
677 0 _l
547 0 _l
197 351 _l
197 0 _l
98 0 _l
98 729 _l
_cl}_d
/M{863 0 98 0 765 729 _sc
98 729 _m
245 729 _l
431 233 _l
618 729 _l
765 729 _l
765 0 _l
669 0 _l
669 640 _l
481 140 _l
382 140 _l
194 640 _l
194 0 _l
98 0 _l
98 729 _l
_cl}_d
/N{748 0 98 0 650 729 _sc
98 729 _m
231 729 _l
554 119 _l
554 729 _l
650 729 _l
650 0 _l
517 0 _l
194 610 _l
194 0 _l
98 0 _l
98 729 _l
_cl}_d
/S{{635 0 66 -13 579 742 _sc
535 705 _m
535 609 _l
497 627 462 640 429 649 _c
395 657 363 662 333 662 _c
279 662 237 651 208 631 _c
179 610 165 580 165 542 _c
165 510 174 485 194 469 _c
213 452 250 439 304 429 _c
364 417 _l
437 403 491 378 526 343 _c
561 307 579 260 579 201 _c
579 130 555 77 508 41 _c
460 5 391 -13 300 -13 _c
265 -13 228 -9 189 -2 _c
}_e{150 5 110 16 69 32 _c
69 134 _l
109 111 148 94 186 83 _c
224 71 262 66 300 66 _c
356 66 399 77 430 99 _c
460 121 476 152 476 194 _c
476 230 465 258 443 278 _c
421 298 385 313 335 323 _c
275 335 _l
201 349 148 372 115 404 _c
82 435 66 478 66 534 _c
66 598 88 649 134 686 _c
179 723 242 742 322 742 _c
356 742 390 739 426 733 _c
461 727 497 717 535 705 _c
}_e{_cl}_e}_d
/T{611 0 -2 0 614 729 _sc
-2 729 _m
614 729 _l
614 646 _l
355 646 _l
355 0 _l
256 0 _l
256 646 _l
-2 646 _l
-2 729 _l
_cl}_d
/V{684 0 8 0 676 729 _sc
286 0 _m
8 729 _l
111 729 _l
342 115 _l
573 729 _l
676 729 _l
398 0 _l
286 0 _l
_cl}_d
/W{989 0 33 0 956 729 _sc
33 729 _m
133 729 _l
286 113 _l
439 729 _l
550 729 _l
703 113 _l
856 729 _l
956 729 _l
773 0 _l
649 0 _l
495 633 _l
340 0 _l
216 0 _l
33 729 _l
_cl}_d
/a{{613 0 60 -13 522 560 _sc
343 275 _m
270 275 220 266 192 250 _c
164 233 150 205 150 165 _c
150 133 160 107 181 89 _c
202 70 231 61 267 61 _c
317 61 357 78 387 114 _c
417 149 432 196 432 255 _c
432 275 _l
343 275 _l
522 312 _m
522 0 _l
432 0 _l
432 83 _l
411 49 385 25 355 10 _c
325 -5 287 -13 243 -13 _c
187 -13 142 2 109 33 _c
76 64 60 106 60 159 _c
}_e{60 220 80 266 122 298 _c
163 329 224 345 306 345 _c
432 345 _l
432 354 _l
432 395 418 427 391 450 _c
364 472 326 484 277 484 _c
245 484 215 480 185 472 _c
155 464 127 453 100 439 _c
100 522 _l
132 534 164 544 195 550 _c
226 556 256 560 286 560 _c
365 560 424 539 463 498 _c
502 457 522 395 522 312 _c
_cl}_e}_d
/c{{550 0 55 -13 488 560 _sc
488 526 _m
488 442 _l
462 456 437 466 411 473 _c
385 480 360 484 334 484 _c
276 484 230 465 198 428 _c
166 391 150 339 150 273 _c
150 206 166 154 198 117 _c
230 80 276 62 334 62 _c
360 62 385 65 411 72 _c
437 79 462 90 488 104 _c
488 21 _l
462 9 436 0 410 -5 _c
383 -10 354 -13 324 -13 _c
242 -13 176 12 128 64 _c
}_e{79 115 55 185 55 273 _c
55 362 79 432 128 483 _c
177 534 244 560 330 560 _c
358 560 385 557 411 551 _c
437 545 463 537 488 526 _c
_cl}_e}_d
/d{{635 0 55 -13 544 760 _sc
454 464 _m
454 760 _l
544 760 _l
544 0 _l
454 0 _l
454 82 _l
435 49 411 25 382 10 _c
353 -5 319 -13 279 -13 _c
213 -13 159 13 117 65 _c
75 117 55 187 55 273 _c
55 359 75 428 117 481 _c
159 533 213 560 279 560 _c
319 560 353 552 382 536 _c
411 520 435 496 454 464 _c
148 273 _m
148 207 161 155 188 117 _c
215 79 253 61 301 61 _c
}_e{348 61 385 79 413 117 _c
440 155 454 207 454 273 _c
454 339 440 390 413 428 _c
385 466 348 485 301 485 _c
253 485 215 466 188 428 _c
161 390 148 339 148 273 _c
_cl}_e}_d
/e{{615 0 55 -13 562 560 _sc
562 296 _m
562 252 _l
149 252 _l
153 190 171 142 205 110 _c
238 78 284 62 344 62 _c
378 62 412 66 444 74 _c
476 82 509 95 541 113 _c
541 28 _l
509 14 476 3 442 -3 _c
408 -9 373 -13 339 -13 _c
251 -13 182 12 131 62 _c
80 112 55 181 55 268 _c
55 357 79 428 127 481 _c
175 533 241 560 323 560 _c
397 560 455 536 498 489 _c
}_e{540 441 562 377 562 296 _c
472 322 _m
471 371 457 410 431 440 _c
404 469 368 484 324 484 _c
274 484 234 469 204 441 _c
174 413 156 373 152 322 _c
472 322 _l
_cl}_e}_d
/g{{635 0 55 -207 544 560 _sc
454 280 _m
454 344 440 395 414 431 _c
387 467 349 485 301 485 _c
253 485 215 467 188 431 _c
161 395 148 344 148 280 _c
148 215 161 165 188 129 _c
215 93 253 75 301 75 _c
349 75 387 93 414 129 _c
440 165 454 215 454 280 _c
544 68 _m
544 -24 523 -93 482 -139 _c
440 -184 377 -207 292 -207 _c
260 -207 231 -204 203 -200 _c
175 -195 147 -188 121 -178 _c
}_e{121 -91 _l
147 -105 173 -115 199 -122 _c
225 -129 251 -133 278 -133 _c
336 -133 380 -117 410 -87 _c
439 -56 454 -10 454 52 _c
454 96 _l
435 64 411 40 382 24 _c
353 8 319 0 279 0 _c
211 0 157 25 116 76 _c
75 127 55 195 55 280 _c
55 364 75 432 116 483 _c
157 534 211 560 279 560 _c
319 560 353 552 382 536 _c
411 520 435 496 454 464 _c
454 547 _l
544 547 _l
}_e{544 68 _l
_cl}_e}_d
/h{634 0 91 0 549 760 _sc
549 330 _m
549 0 _l
459 0 _l
459 327 _l
459 379 448 417 428 443 _c
408 469 378 482 338 482 _c
289 482 251 466 223 435 _c
195 404 181 362 181 309 _c
181 0 _l
91 0 _l
91 760 _l
181 760 _l
181 462 _l
202 494 227 519 257 535 _c
286 551 320 560 358 560 _c
420 560 468 540 500 501 _c
532 462 549 405 549 330 _c
_cl}_d
/i{278 0 94 0 184 760 _sc
94 547 _m
184 547 _l
184 0 _l
94 0 _l
94 547 _l
94 760 _m
184 760 _l
184 646 _l
94 646 _l
94 760 _l
_cl}_d
/l{278 0 94 0 184 760 _sc
94 760 _m
184 760 _l
184 0 _l
94 0 _l
94 760 _l
_cl}_d
/m{{974 0 91 0 889 560 _sc
520 442 _m
542 482 569 511 600 531 _c
631 550 668 560 711 560 _c
767 560 811 540 842 500 _c
873 460 889 403 889 330 _c
889 0 _l
799 0 _l
799 327 _l
799 379 789 418 771 444 _c
752 469 724 482 686 482 _c
639 482 602 466 575 435 _c
548 404 535 362 535 309 _c
535 0 _l
445 0 _l
445 327 _l
445 379 435 418 417 444 _c
398 469 369 482 331 482 _c
}_e{285 482 248 466 221 435 _c
194 404 181 362 181 309 _c
181 0 _l
91 0 _l
91 547 _l
181 547 _l
181 462 _l
201 495 226 520 255 536 _c
283 552 317 560 357 560 _c
397 560 430 550 458 530 _c
486 510 506 480 520 442 _c
_cl}_e}_d
/n{634 0 91 0 549 560 _sc
549 330 _m
549 0 _l
459 0 _l
459 327 _l
459 379 448 417 428 443 _c
408 469 378 482 338 482 _c
289 482 251 466 223 435 _c
195 404 181 362 181 309 _c
181 0 _l
91 0 _l
91 547 _l
181 547 _l
181 462 _l
202 494 227 519 257 535 _c
286 551 320 560 358 560 _c
420 560 468 540 500 501 _c
532 462 549 405 549 330 _c
_cl}_d
/o{612 0 55 -13 557 560 _sc
306 484 _m
258 484 220 465 192 427 _c
164 389 150 338 150 273 _c
150 207 163 156 191 118 _c
219 80 257 62 306 62 _c
354 62 392 80 420 118 _c
448 156 462 207 462 273 _c
462 337 448 389 420 427 _c
392 465 354 484 306 484 _c
306 560 _m
384 560 445 534 490 484 _c
534 433 557 363 557 273 _c
557 183 534 113 490 63 _c
445 12 384 -13 306 -13 _c
227 -13 165 12 121 63 _c
77 113 55 183 55 273 _c
55 363 77 433 121 484 _c
165 534 227 560 306 560 _c
_cl}_d
/p{{635 0 91 -207 580 560 _sc
181 82 _m
181 -207 _l
91 -207 _l
91 547 _l
181 547 _l
181 464 _l
199 496 223 520 252 536 _c
281 552 316 560 356 560 _c
422 560 476 533 518 481 _c
559 428 580 359 580 273 _c
580 187 559 117 518 65 _c
476 13 422 -13 356 -13 _c
316 -13 281 -5 252 10 _c
223 25 199 49 181 82 _c
487 273 _m
487 339 473 390 446 428 _c
418 466 381 485 334 485 _c
}_e{286 485 249 466 222 428 _c
194 390 181 339 181 273 _c
181 207 194 155 222 117 _c
249 79 286 61 334 61 _c
381 61 418 79 446 117 _c
473 155 487 207 487 273 _c
_cl}_e}_d
/q{{635 0 55 -207 544 560 _sc
148 273 _m
148 207 161 155 188 117 _c
215 79 253 61 301 61 _c
348 61 385 79 413 117 _c
440 155 454 207 454 273 _c
454 339 440 390 413 428 _c
385 466 348 485 301 485 _c
253 485 215 466 188 428 _c
161 390 148 339 148 273 _c
454 82 _m
435 49 411 25 382 10 _c
353 -5 319 -13 279 -13 _c
213 -13 159 13 117 65 _c
75 117 55 187 55 273 _c
}_e{55 359 75 428 117 481 _c
159 533 213 560 279 560 _c
319 560 353 552 382 536 _c
411 520 435 496 454 464 _c
454 547 _l
544 547 _l
544 -207 _l
454 -207 _l
454 82 _l
_cl}_e}_d
/r{411 0 91 0 411 560 _sc
411 463 _m
401 469 390 473 378 476 _c
366 478 353 480 339 480 _c
288 480 249 463 222 430 _c
194 397 181 350 181 288 _c
181 0 _l
91 0 _l
91 547 _l
181 547 _l
181 462 _l
199 495 224 520 254 536 _c
284 552 321 560 365 560 _c
371 560 378 559 386 559 _c
393 558 401 557 411 555 _c
411 463 _l
_cl}_d
/s{{521 0 54 -13 472 560 _sc
443 531 _m
443 446 _l
417 458 391 468 364 475 _c
336 481 308 485 279 485 _c
234 485 200 478 178 464 _c
156 450 145 430 145 403 _c
145 382 153 366 169 354 _c
185 342 217 330 265 320 _c
296 313 _l
360 299 405 279 432 255 _c
458 230 472 195 472 151 _c
472 100 452 60 412 31 _c
372 1 316 -13 246 -13 _c
216 -13 186 -10 154 -5 _c
}_e{122 0 89 8 54 20 _c
54 113 _l
87 95 120 82 152 74 _c
184 65 216 61 248 61 _c
290 61 323 68 346 82 _c
368 96 380 117 380 144 _c
380 168 371 187 355 200 _c
339 213 303 226 247 238 _c
216 245 _l
160 257 119 275 95 299 _c
70 323 58 356 58 399 _c
58 450 76 490 112 518 _c
148 546 200 560 268 560 _c
301 560 332 557 362 552 _c
391 547 418 540 443 531 _c
}_e{_cl}_e}_d
/t{392 0 27 0 368 702 _sc
183 702 _m
183 547 _l
368 547 _l
368 477 _l
183 477 _l
183 180 _l
183 135 189 106 201 94 _c
213 81 238 75 276 75 _c
368 75 _l
368 0 _l
276 0 _l
206 0 158 13 132 39 _c
106 65 93 112 93 180 _c
93 477 _l
27 477 _l
27 547 _l
93 547 _l
93 702 _l
183 702 _l
_cl}_d
/u{634 0 85 -13 543 560 _sc
85 216 _m
85 547 _l
175 547 _l
175 219 _l
175 167 185 129 205 103 _c
225 77 255 64 296 64 _c
344 64 383 79 411 110 _c
439 141 453 183 453 237 _c
453 547 _l
543 547 _l
543 0 _l
453 0 _l
453 84 _l
431 50 405 26 377 10 _c
348 -5 315 -13 277 -13 _c
214 -13 166 6 134 45 _c
101 83 85 140 85 216 _c
311 560 _m
311 560 _l
_cl}_d
/y{592 0 30 -207 562 547 _sc
322 -50 _m
296 -114 271 -157 247 -177 _c
223 -197 191 -207 151 -207 _c
79 -207 _l
79 -132 _l
132 -132 _l
156 -132 175 -126 189 -114 _c
203 -102 218 -75 235 -31 _c
251 9 _l
30 547 _l
125 547 _l
296 119 _l
467 547 _l
562 547 _l
322 -50 _l
_cl}_d
end readonly def

/BuildGlyph
 {exch begin
 CharStrings exch
 2 copy known not{pop /.notdef}if
 true 3 1 roll get exec
 end}_d

/BuildChar {
 1 index /Encoding get exch get
 1 index /BuildGlyph get exec
}_d

FontName currentdict end definefont pop
end
%%EndProlog
mpldict begin
54 180 translate
504 432 0 0 clipbox
gsave
0 0 m
504 0 l
504 432 l
0 432 l
cl
1.000 setgray
fill
grestore
gsave
33.675 258 m
485.2625 258 l
485.2625 417.2 l
33.675 417.2 l
cl
1.000 setgray
fill
grestore
0.800 setlinewidth
1 setlinejoin
0 setlinecap
[] 0 setdash
0.000 setgray
gsave
/o {
gsave
newpath
translate
0.8 setlinewidth
1 setlinejoin
0 setlinecap
0 0 m
0 -3.5 l

gsave
0.000 setgray
fill
grestore
stroke
grestore
} bind def
52.5474 258 o
grestore
/DejaVuSans findfont
10.000 scalefont
setfont
gsave
49.367726 243.406250 translate
0.000000 rotate
0.000000 0.000000 m /zero glyphshow
grestore
gsave
/o {
gsave
newpath
translate
0.8 setlinewidth
1 setlinejoin
0 setlinecap
0 0 m
0 -3.5 l

gsave
0.000 setgray
fill
grestore
stroke
grestore
} bind def
135.205 258 o
grestore
gsave
128.845138 243.406250 translate
0.000000 rotate
0.000000 0.000000 m /one glyphshow
6.362305 0.000000 m /zero glyphshow
grestore
gsave
/o {
gsave
newpath
translate
0.8 setlinewidth
1 setlinejoin
0 setlinecap
0 0 m
0 -3.5 l

gsave
0.000 setgray
fill
grestore
stroke
grestore
} bind def
217.862 258 o
grestore
gsave
211.502238 243.406250 translate
0.000000 rotate
0.000000 0.000000 m /two glyphshow
6.362305 0.000000 m /zero glyphshow
grestore
gsave
/o {
gsave
newpath
translate
0.8 setlinewidth
1 setlinejoin
0 setlinecap
0 0 m
0 -3.5 l

gsave
0.000 setgray
fill
grestore
stroke
grestore
} bind def
300.519 258 o
grestore
gsave
294.159338 243.406250 translate
0.000000 rotate
0.000000 0.000000 m /three glyphshow
6.362305 0.000000 m /zero glyphshow
grestore
gsave
/o {
gsave
newpath
translate
0.8 setlinewidth
1 setlinejoin
0 setlinecap
0 0 m
0 -3.5 l

gsave
0.000 setgray
fill
grestore
stroke
grestore
} bind def
383.176 258 o
grestore
gsave
376.816437 243.406250 translate
0.000000 rotate
0.000000 0.000000 m /four glyphshow
6.362305 0.000000 m /zero glyphshow
grestore
gsave
/o {
gsave
newpath
translate
0.8 setlinewidth
1 setlinejoin
0 setlinecap
0 0 m
0 -3.5 l

gsave
0.000 setgray
fill
grestore
stroke
grestore
} bind def
465.833 258 o
grestore
gsave
459.473537 243.406250 translate
0.000000 rotate
0.000000 0.000000 m /five glyphshow
6.362305 0.000000 m /zero glyphshow
grestore
/DejaVuSans findfont
14.000 scalefont
setfont
gsave
234.382812 226.687500 translate
0.000000 rotate
0.000000 0.000000 m /E glyphshow
8.845703 0.000000 m /p glyphshow
17.732422 0.000000 m /o glyphshow
26.297852 0.000000 m /c glyphshow
33.995117 0.000000 m /h glyphshow
42.868164 0.000000 m /s glyphshow
grestore
gsave
/o {
gsave
newpath
translate
0.8 setlinewidth
1 setlinejoin
0 setlinecap
0 0 m
-3.5 0 l

gsave
0.000 setgray
fill
grestore
stroke
grestore
} bind def
33.675 259.585 o
grestore
/DejaVuSans findfont
10.000 scalefont
setfont
gsave
10.768750 255.788608 translate
0.000000 rotate
0.000000 0.000000 m /zero glyphshow
6.362305 0.000000 m /period glyphshow
9.541016 0.000000 m /four glyphshow
grestore
gsave
/o {
gsave
newpath
translate
0.8 setlinewidth
1 setlinejoin
0 setlinecap
0 0 m
-3.5 0 l

gsave
0.000 setgray
fill
grestore
stroke
grestore
} bind def
33.675 293.371 o
grestore
gsave
10.768750 289.573955 translate
0.000000 rotate
0.000000 0.000000 m /zero glyphshow
6.362305 0.000000 m /period glyphshow
9.541016 0.000000 m /six glyphshow
grestore
gsave
/o {
gsave
newpath
translate
0.8 setlinewidth
1 setlinejoin
0 setlinecap
0 0 m
-3.5 0 l

gsave
0.000 setgray
fill
grestore
stroke
grestore
} bind def
33.675 327.156 o
grestore
gsave
10.768750 323.359302 translate
0.000000 rotate
0.000000 0.000000 m /zero glyphshow
6.362305 0.000000 m /period glyphshow
9.541016 0.000000 m /eight glyphshow
grestore
gsave
/o {
gsave
newpath
translate
0.8 setlinewidth
1 setlinejoin
0 setlinecap
0 0 m
-3.5 0 l

gsave
0.000 setgray
fill
grestore
stroke
grestore
} bind def
33.675 360.942 o
grestore
gsave
10.768750 357.144649 translate
0.000000 rotate
0.000000 0.000000 m /one glyphshow
6.362305 0.000000 m /period glyphshow
9.541016 0.000000 m /zero glyphshow
grestore
gsave
/o {
gsave
newpath
translate
0.8 setlinewidth
1 setlinejoin
0 setlinecap
0 0 m
-3.5 0 l

gsave
0.000 setgray
fill
grestore
stroke
grestore
} bind def
33.675 394.727 o
grestore
gsave
10.768750 390.929996 translate
0.000000 rotate
0.000000 0.000000 m /one glyphshow
6.362305 0.000000 m /period glyphshow
9.541016 0.000000 m /two glyphshow
grestore
/DejaVuSans findfont
14.000 scalefont
setfont
gsave
3.862500 288.428125 translate
90.000000 rotate
0.000000 0.000000 m /M glyphshow
12.079102 0.000000 m /S glyphshow
20.965820 0.000000 m /E glyphshow
29.811523 0.000000 m /space glyphshow
34.261719 0.000000 m /t glyphshow
39.750977 0.000000 m /r glyphshow
45.506836 0.000000 m /a glyphshow
54.085938 0.000000 m /i glyphshow
57.975586 0.000000 m /n glyphshow
66.848633 0.000000 m /space glyphshow
71.298828 0.000000 m /l glyphshow
75.188477 0.000000 m /o glyphshow
83.753906 0.000000 m /s glyphshow
91.047852 0.000000 m /s glyphshow
grestore
1.500 setlinewidth
[9.6 2.4 1.5 2.4] 0 setdash
0.122 0.467 0.706 setrgbcolor
gsave
451.6 159.2 33.68 258 clipbox
57.877906 397.880933 m
59.716007 409.963636 l
62.467415 356.182079 l
64.305515 368.455325 l
66.143616 381.495094 l
67.981717 369.221826 l
70.733124 399.419993 l
72.571225 387.692165 l
74.409326 366.536303 l
76.247427 336.918463 l
78.998834 348.805342 l
80.836935 337.677577 l
82.675036 321.602741 l
84.513137 356.000228 l
87.264544 347.146792 l
89.102645 343.552604 l
90.940746 333.305447 l
92.778847 306.850984 l
95.530254 314.043717 l
97.368355 314.828627 l
99.206456 325.433851 l
101.044557 356.983895 l
103.795964 332.424107 l
105.634065 338.2544 l
107.472166 314.849859 l
109.310267 293.417351 l
112.061674 310.455475 l
113.899775 319.997133 l
115.737876 307.895567 l
117.575977 316.176096 l
120.327384 321.226666 l
124.003586 299.543589 l
125.841687 314.069188 l
128.593094 319.48855 l
130.431195 322.050535 l
132.269296 302.550284 l
134.107397 301.903567 l
136.858804 316.628812 l
138.696905 300.145395 l
140.535006 313.102474 l
142.373107 311.253273 l
145.124514 306.157903 l
146.962615 311.997876 l
148.800716 299.2889 l
150.638817 313.911926 l
153.390224 315.166784 l
155.228325 324.363375 l
157.066426 304.498488 l
158.904527 298.519027 l
161.655934 312.626574 l
163.494035 293.368424 l
165.332136 305.30765 l
167.170237 303.583336 l
169.921644 301.866268 l
171.759745 305.855464 l
173.597846 300.410857 l
175.435947 302.230037 l
178.187354 317.364991 l
180.025455 318.608627 l
181.863556 307.986375 l
183.701657 298.187624 l
186.453064 309.984917 l
188.291165 314.997517 l
190.129266 299.56147 l
191.967367 277.922373 l
194.718774 293.305283 l
196.556875 307.738929 l
198.394976 311.890303 l
200.233077 306.798002 l
202.984484 284.621156 l
204.822585 300.880751 l
206.660686 305.689112 l
208.498787 301.593809 l
211.250194 309.293789 l
213.088295 299.05462 l
214.926396 314.206298 l
216.764497 312.825459 l
219.515904 294.649999 l
221.354005 306.597428 l
223.192106 306.536617 l
225.030207 312.214054 l
227.781614 330.255707 l
229.619715 310.246275 l
231.457816 291.519239 l
233.295916 290.0285 l
236.047324 314.337208 l
237.885425 296.917181 l
239.723526 301.044536 l
241.561626 294.992847 l
246.151135 309.94519 l
247.989236 297.976713 l
249.827336 309.990133 l
252.578744 328.992163 l
254.416845 298.497639 l
256.254945 303.241231 l
258.093046 292.379616 l
260.844454 290.429583 l
262.682555 317.102642 l
264.520655 296.920408 l
266.358756 311.365251 l
269.110164 305.021946 l
270.948264 298.819875 l
272.786365 300.986075 l
274.624466 321.286159 l
277.375874 308.274146 l
279.213974 283.97673 l
281.052075 307.143533 l
282.890176 312.714473 l
285.641584 308.102957 l
287.479684 314.095826 l
289.317785 295.590491 l
291.155886 310.531507 l
293.907293 308.225417 l
295.745394 308.16677 l
297.583495 303.342356 l
299.421596 299.755893 l
302.173003 288.383771 l
304.011104 316.821101 l
307.687306 298.680956 l
310.438713 296.55578 l
312.276814 304.013405 l
314.114915 301.476415 l
315.953016 305.105282 l
318.704423 295.769226 l
320.542524 303.945875 l
322.380625 310.272881 l
324.218726 296.59704 l
326.970133 299.086853 l
328.808234 306.265755 l
330.646335 297.875867 l
332.484436 293.356629 l
335.235843 302.057003 l
337.073944 306.444762 l
338.912045 299.487611 l
340.750146 305.768536 l
343.501553 302.460725 l
345.339654 317.708112 l
347.177755 304.925521 l
349.015856 316.089469 l
351.767263 312.103663 l
353.605364 297.204538 l
355.443465 314.902644 l
357.281566 296.432321 l
360.032973 291.743545 l
361.871074 301.746188 l
363.709175 310.141653 l
365.547276 316.673844 l
368.298683 302.5195 l
370.136784 320.171259 l
371.974885 313.95892 l
373.812986 298.457407 l
376.564393 301.500351 l
378.402494 319.825503 l
380.240595 308.45757 l
382.078696 306.399352 l
384.830103 305.371043 l
386.668204 287.190607 l
388.506305 307.963536 l
390.344406 322.025045 l
393.095813 292.403685 l
394.933914 301.14071 l
396.772015 299.705248 l
398.610116 327.741494 l
401.361523 318.266732 l
403.199624 306.924527 l
405.037725 302.353483 l
406.875826 299.114344 l
409.627233 308.466655 l
411.465334 302.913083 l
413.303435 317.384029 l
415.141536 314.900768 l
417.892943 305.090698 l
419.731044 294.42049 l
421.569145 302.031441 l
423.407246 319.720047 l
426.158653 310.600124 l
427.996754 311.111832 l
429.834855 323.03935 l
431.672956 311.247934 l
434.424363 302.109703 l
436.262464 308.33904 l
438.100565 311.47876 l
439.938666 320.713177 l
442.690073 318.548608 l
444.528174 309.171963 l
446.366275 298.687262 l
448.204376 311.21211 l
450.955783 300.937437 l
452.793884 306.650681 l
454.631985 320.02345 l
456.470085 293.514932 l
459.221493 312.856736 l
461.059594 297.472903 l
462.897695 319.776353 l
464.735795 305.073507 l
464.735795 305.073507 l
stroke
grestore
[5.55 2.4] 0 setdash
1.000 0.498 0.055 setrgbcolor
gsave
451.6 159.2 33.68 258 clipbox
54.201705 367.420583 m
56.039805 395.985733 l
57.877906 382.759379 l
59.716007 361.634305 l
62.467415 372.671054 l
64.305515 368.605991 l
66.143616 390.587452 l
67.981717 368.86246 l
70.733124 396.250011 l
72.571225 361.71833 l
74.409326 356.138871 l
76.247427 372.406481 l
78.998834 373.646776 l
80.836935 375.127149 l
82.675036 347.28867 l
84.513137 377.939597 l
87.264544 359.772527 l
89.102645 373.928132 l
90.940746 369.792077 l
92.778847 346.588776 l
95.530254 343.201878 l
97.368355 348.70362 l
99.206456 363.970657 l
101.044557 371.690229 l
103.795964 344.397683 l
105.634065 361.64714 l
107.472166 374.871013 l
109.310267 325.42436 l
112.061674 345.223492 l
113.899775 342.913695 l
115.737876 344.33808 l
117.575977 355.725998 l
120.327384 350.951991 l
122.165485 343.218153 l
124.003586 341.979192 l
125.841687 336.633881 l
128.593094 359.78072 l
130.431195 341.112467 l
132.269296 328.729489 l
134.107397 332.661049 l
136.858804 334.305349 l
138.696905 327.184106 l
140.535006 340.790598 l
142.373107 338.920114 l
145.124514 323.988391 l
146.962615 328.358698 l
148.800716 335.401231 l
150.638817 349.316379 l
153.390224 321.304112 l
155.228325 346.843985 l
157.066426 327.580193 l
158.904527 320.866958 l
161.655934 341.30772 l
163.494035 315.109847 l
165.332136 319.08571 l
167.170237 324.280388 l
169.921644 322.181663 l
171.759745 325.921029 l
173.597846 321.152531 l
175.435947 314.198861 l
178.187354 323.957504 l
180.025455 320.470009 l
181.863556 303.023073 l
183.701657 311.452188 l
186.453064 322.163704 l
188.291165 335.187137 l
190.129266 310.719786 l
191.967367 302.688602 l
194.718774 308.603819 l
196.556875 318.789023 l
198.394976 319.627658 l
200.233077 307.692931 l
202.984484 300.113619 l
204.822585 306.457191 l
206.660686 317.090713 l
208.498787 323.133107 l
211.250194 318.56617 l
213.088295 311.259875 l
214.926396 314.473924 l
216.764497 310.608227 l
219.515904 298.19804 l
221.354005 317.722653 l
223.192106 303.108859 l
225.030207 310.938035 l
227.781614 333.763249 l
229.619715 318.755818 l
231.457816 291.522665 l
233.295916 290.111161 l
236.047324 323.669293 l
237.885425 293.322484 l
239.723526 315.388196 l
241.561626 300.361651 l
244.313034 309.778627 l
246.151135 313.056723 l
247.989236 301.786201 l
249.827336 300.792825 l
252.578744 324.483117 l
254.416845 305.356572 l
256.254945 299.510454 l
258.093046 297.622118 l
260.844454 296.591421 l
262.682555 311.201806 l
264.520655 303.843052 l
266.358756 307.912031 l
269.110164 300.465054 l
270.948264 292.406526 l
272.786365 297.918091 l
274.624466 323.540073 l
277.375874 313.650218 l
279.213974 289.276272 l
281.052075 310.410244 l
282.890176 297.467072 l
285.641584 303.879329 l
287.479684 313.797042 l
289.317785 290.135647 l
291.155886 305.542695 l
293.907293 310.150682 l
295.745394 301.17633 l
297.583495 297.479703 l
299.421596 304.051868 l
302.173003 291.681083 l
304.011104 304.983875 l
305.849205 306.770251 l
307.687306 300.101223 l
310.438713 294.834039 l
312.276814 310.830934 l
314.114915 300.390928 l
315.953016 301.28718 l
318.704423 304.268569 l
320.542524 317.169284 l
322.380625 306.039792 l
324.218726 292.428923 l
326.970133 298.05855 l
328.808234 310.168731 l
330.646335 299.36056 l
332.484436 294.948535 l
335.235843 296.229899 l
337.073944 306.466342 l
338.912045 303.300493 l
340.750146 307.628075 l
343.501553 292.617917 l
345.339654 307.343071 l
347.177755 303.105391 l
349.015856 318.453207 l
351.767263 310.135475 l
353.605364 297.241378 l
355.443465 310.034123 l
357.281566 300.947888 l
360.032973 285.488309 l
361.871074 311.283539 l
363.709175 303.209156 l
365.547276 297.954963 l
368.298683 297.686524 l
370.136784 310.599741 l
371.974885 306.336866 l
373.812986 294.817723 l
376.564393 290.018906 l
378.402494 315.405592 l
380.240595 301.606909 l
382.078696 300.489472 l
384.830103 300.725243 l
386.668204 283.726792 l
388.506305 299.856069 l
390.344406 313.00514 l
393.095813 294.961036 l
394.933914 294.513235 l
396.772015 294.231498 l
398.610116 317.893077 l
401.361523 307.513032 l
403.199624 314.595304 l
405.037725 286.345901 l
406.875826 297.383905 l
409.627233 303.785117 l
411.465334 300.025612 l
413.303435 295.630002 l
415.141536 312.266172 l
417.892943 305.517464 l
419.731044 291.091386 l
421.569145 295.791083 l
423.407246 309.249229 l
426.158653 297.775444 l
427.996754 290.754781 l
429.834855 306.251318 l
431.672956 303.947047 l
434.424363 302.65677 l
436.262464 301.992924 l
438.100565 313.895944 l
439.938666 302.918404 l
442.690073 298.519879 l
444.528174 296.011436 l
446.366275 300.793536 l
448.204376 297.89871 l
450.955783 299.783089 l
452.793884 310.564773 l
454.631985 305.112802 l
456.470085 293.035497 l
459.221493 312.004601 l
461.059594 288.713294 l
462.897695 311.874828 l
464.735795 303.179465 l
464.735795 303.179465 l
stroke
grestore
[1.5 2.475] 0 setdash
0.173 0.627 0.173 setrgbcolor
gsave
451.6 159.2 33.68 258 clipbox
54.201705 358.064355 m
56.039805 374.324402 l
57.877906 378.315076 l
59.716007 346.38068 l
62.467415 357.840952 l
64.305515 347.13473 l
66.143616 383.043597 l
67.981717 354.435151 l
70.733124 377.872591 l
72.571225 344.057615 l
74.409326 329.731588 l
76.247427 337.247812 l
78.998834 341.449282 l
80.836935 356.308462 l
82.675036 317.55226 l
84.513137 350.19638 l
87.264544 338.870399 l
89.102645 343.183939 l
90.940746 340.219139 l
92.778847 329.668278 l
95.530254 320.799206 l
97.368355 344.513883 l
99.206456 334.600797 l
101.044557 350.291581 l
103.795964 342.444579 l
105.634065 347.248765 l
107.472166 344.293079 l
109.310267 311.529587 l
112.061674 324.59966 l
113.899775 320.41359 l
115.737876 331.309647 l
117.575977 340.718315 l
120.327384 373.789625 l
122.165485 345.038706 l
124.003586 325.30344 l
125.841687 324.321935 l
128.593094 339.950197 l
130.431195 322.617357 l
132.269296 353.129302 l
134.107397 316.818495 l
136.858804 353.924112 l
138.696905 346.262975 l
140.535006 330.204119 l
142.373107 336.775129 l
145.124514 318.694074 l
146.962615 348.81036 l
148.800716 341.660822 l
150.638817 374.48727 l
153.390224 331.722878 l
155.228325 364.144606 l
157.066426 346.347206 l
158.904527 337.773452 l
161.655934 340.91407 l
163.494035 316.105632 l
165.332136 335.658779 l
167.170237 335.936465 l
169.921644 322.011185 l
173.597846 366.954217 l
175.435947 317.489311 l
178.187354 315.275736 l
180.025455 354.665175 l
181.863556 330.733972 l
183.701657 320.522943 l
186.453064 351.234866 l
188.291165 348.848694 l
190.129266 316.914948 l
191.967367 334.605264 l
194.718774 328.674085 l
196.556875 330.169487 l
198.394976 366.090367 l
200.233077 334.023937 l
202.984484 306.937936 l
204.822585 317.219926 l
206.660686 349.80914 l
208.498787 347.545647 l
211.250194 354.030696 l
213.088295 334.889403 l
214.926396 336.949413 l
216.764497 325.604694 l
219.515904 315.927748 l
221.354005 345.509232 l
223.192106 329.318844 l
225.030207 332.512348 l
227.781614 376.125778 l
229.619715 335.590952 l
231.457816 333.144752 l
233.295916 306.792461 l
236.047324 349.839287 l
237.885425 322.205093 l
239.723526 343.312778 l
241.561626 328.840979 l
244.313034 336.890357 l
246.151135 339.959 l
247.989236 333.131397 l
249.827336 337.802044 l
252.578744 365.246758 l
254.416845 328.427819 l
256.254945 321.045096 l
258.093046 319.301328 l
260.844454 303.485391 l
262.682555 328.774805 l
264.520655 327.754707 l
266.358756 323.631655 l
269.110164 338.241555 l
270.948264 313.958832 l
272.786365 336.06354 l
274.624466 333.424735 l
277.375874 342.653215 l
279.213974 304.18603 l
281.052075 345.098646 l
282.890176 345.406865 l
285.641584 337.24159 l
287.479684 358.286751 l
289.317785 322.391825 l
291.155886 332.089632 l
293.907293 329.578445 l
297.583495 316.562718 l
299.421596 336.62001 l
302.173003 311.946735 l
304.011104 337.56757 l
305.849205 320.13168 l
307.687306 322.800431 l
310.438713 311.020777 l
312.276814 347.775889 l
314.114915 340.753419 l
315.953016 333.256062 l
318.704423 324.039966 l
320.542524 351.158833 l
322.380625 329.20587 l
324.218726 310.755605 l
326.970133 309.51956 l
328.808234 322.705552 l
330.646335 320.704001 l
332.484436 321.474895 l
335.235843 318.381538 l
337.073944 322.796596 l
338.912045 335.124846 l
340.750146 341.756789 l
343.501553 331.534579 l
345.339654 329.855164 l
347.177755 344.58408 l
349.015856 354.486008 l
351.767263 323.277739 l
353.605364 322.629477 l
355.443465 334.49969 l
357.281566 319.55272 l
360.032973 324.092597 l
361.871074 343.360298 l
363.709175 341.640827 l
365.547276 345.992408 l
368.298683 326.127085 l
370.136784 343.114284 l
371.974885 345.01506 l
373.812986 311.360079 l
376.564393 321.349137 l
378.402494 355.801075 l
380.240595 314.306842 l
382.078696 327.817859 l
384.830103 321.175931 l
386.668204 319.785843 l
388.506305 317.413709 l
390.344406 349.557369 l
393.095813 325.468035 l
394.933914 323.16301 l
396.772015 319.581318 l
398.610116 354.372674 l
401.361523 331.966944 l
403.199624 336.546539 l
405.037725 309.045874 l
406.875826 315.113433 l
409.627233 346.21331 l
411.465334 325.39041 l
413.303435 324.781738 l
415.141536 340.686839 l
417.892943 317.340114 l
419.731044 314.639387 l
421.569145 321.035133 l
423.407246 330.06306 l
426.158653 336.231533 l
427.996754 325.622641 l
429.834855 329.921157 l
431.672956 331.377289 l
434.424363 337.134307 l
436.262464 323.042449 l
438.100565 345.207907 l
439.938666 323.350468 l
442.690073 331.276745 l
444.528174 327.409002 l
446.366275 326.907901 l
448.204376 344.478132 l
450.955783 336.861384 l
452.793884 325.077571 l
454.631985 337.68283 l
456.470085 345.901144 l
459.221493 330.670647 l
461.059594 326.217977 l
462.897695 341.722534 l
464.735795 319.659084 l
464.735795 319.659084 l
stroke
grestore
2 setlinecap
[] 0 setdash
0.839 0.153 0.157 setrgbcolor
gsave
451.6 159.2 33.68 258 clipbox
54.201705 346.670827 m
56.039805 356.065642 l
57.877906 339.106929 l
59.716007 314.030121 l
62.467415 303.914007 l
64.305515 299.331195 l
66.143616 322.118923 l
67.981717 305.329105 l
70.733124 325.31023 l
72.571225 291.599494 l
74.409326 285.933547 l
76.247427 296.202595 l
78.998834 293.661461 l
80.836935 303.737297 l
82.675036 298.768548 l
84.513137 298.494393 l
87.264544 289.438165 l
89.102645 302.36552 l
90.940746 302.698693 l
92.778847 285.839003 l
95.530254 286.447939 l
97.368355 289.26463 l
99.206456 296.646195 l
101.044557 310.994346 l
103.795964 299.78864 l
105.634065 288.983579 l
107.472166 297.270431 l
109.310267 282.574214 l
112.061674 288.806978 l
113.899775 297.835241 l
115.737876 290.956886 l
117.575977 296.81542 l
120.327384 300.621572 l
122.165485 285.1053 l
124.003586 294.040542 l
125.841687 282.301141 l
128.593094 299.932505 l
130.431195 296.772989 l
132.269296 290.086031 l
134.107397 282.308194 l
136.858804 292.508309 l
138.696905 292.366773 l
140.535006 290.93428 l
142.373107 291.458515 l
145.124514 288.45973 l
146.962615 293.631457 l
148.800716 283.513093 l
150.638817 303.118818 l
153.390224 285.856398 l
155.228325 304.03057 l
157.066426 292.916097 l
158.904527 282.614646 l
161.655934 300.908333 l
163.494035 278.101941 l
165.332136 289.167093 l
167.170237 288.709862 l
169.921644 288.169999 l
171.759745 291.404317 l
173.597846 286.073871 l
175.435947 284.963242 l
178.187354 292.111367 l
180.025455 294.231018 l
181.863556 282.778257 l
183.701657 276.906727 l
186.453064 305.515133 l
188.291165 299.200023 l
190.129266 284.139013 l
191.967367 267.431658 l
194.718774 278.014228 l
196.556875 288.028758 l
198.394976 294.805379 l
202.984484 275.111551 l
204.822585 290.118045 l
206.660686 293.178484 l
211.250194 291.927136 l
213.088295 280.649139 l
214.926396 292.495164 l
216.764497 295.850651 l
219.515904 279.906802 l
221.354005 290.49644 l
223.192106 287.826282 l
225.030207 289.389545 l
227.781614 308.775134 l
229.619715 294.173287 l
231.457816 278.516868 l
233.295916 279.223073 l
236.047324 301.565648 l
237.885425 279.525421 l
239.723526 284.807776 l
241.561626 282.426538 l
244.313034 288.556413 l
246.151135 291.340364 l
247.989236 282.46674 l
249.827336 286.556519 l
252.578744 299.606537 l
254.416845 286.688612 l
256.254945 277.169728 l
258.093046 282.321928 l
260.844454 277.472757 l
262.682555 294.046531 l
264.520655 279.172425 l
266.358756 285.595661 l
269.110164 284.795649 l
270.948264 275.943161 l
272.786365 287.170082 l
274.624466 296.66492 l
277.375874 292.386323 l
279.213974 269.709365 l
281.052075 289.222629 l
282.890176 288.369848 l
285.641584 287.887397 l
287.479684 295.241179 l
289.317785 276.9138 l
291.155886 286.26343 l
293.907293 290.907661 l
295.745394 281.775889 l
297.583495 285.420235 l
299.421596 287.526356 l
302.173003 275.862261 l
304.011104 285.966368 l
305.849205 291.059692 l
307.687306 283.160502 l
310.438713 277.455734 l
312.276814 288.49464 l
314.114915 290.303764 l
315.953016 285.159823 l
318.704423 287.096411 l
320.542524 291.5757 l
322.380625 284.896596 l
324.218726 279.159196 l
326.970133 277.511605 l
328.808234 293.314402 l
330.646335 282.310423 l
332.484436 279.778433 l
335.235843 283.834418 l
337.073944 285.47303 l
338.912045 287.431072 l
340.750146 286.533438 l
343.501553 276.06825 l
345.339654 295.423014 l
347.177755 282.769535 l
349.015856 297.330126 l
351.767263 289.426966 l
353.605364 276.318945 l
355.443465 293.048015 l
357.281566 285.571258 l
360.032973 275.541668 l
361.871074 283.887113 l
363.709175 292.894561 l
365.547276 285.845398 l
368.298683 276.781176 l
370.136784 291.995732 l
371.974885 290.669045 l
373.812986 276.592976 l
376.564393 278.97835 l
378.402494 293.297437 l
380.240595 284.430723 l
382.078696 283.510284 l
384.830103 282.390724 l
386.668204 265.236364 l
388.506305 288.742304 l
390.344406 295.672954 l
393.095813 276.711414 l
394.933914 279.295739 l
396.772015 277.134053 l
398.610116 301.961786 l
401.361523 285.104036 l
403.199624 291.875081 l
405.037725 271.521483 l
406.875826 284.826418 l
409.627233 282.915321 l
411.465334 282.233894 l
413.303435 279.71834 l
415.141536 295.17252 l
417.892943 283.073736 l
419.731044 271.883016 l
421.569145 284.693002 l
423.407246 286.67893 l
426.158653 285.340534 l
427.996754 278.159087 l
429.834855 287.143852 l
431.672956 283.062408 l
434.424363 278.690607 l
436.262464 283.298824 l
438.100565 286.86575 l
439.938666 296.366173 l
442.690073 284.173318 l
444.528174 278.480942 l
446.366275 279.105993 l
448.204376 282.271098 l
450.955783 279.184501 l
452.793884 289.675953 l
454.631985 286.441918 l
456.470085 277.418664 l
459.221493 292.512869 l
461.059594 272.475317 l
462.897695 295.059438 l
464.735795 282.903989 l
464.735795 282.903989 l
stroke
grestore
0 setlinecap
[9.6 2.4 1.5 2.4] 0 setdash
0.580 0.404 0.741 setrgbcolor
gsave
451.6 159.2 33.68 258 clipbox
54.201705 365.786732 m
56.039805 362.988048 l
57.877906 335.52343 l
59.716007 317.674629 l
62.467415 317.62674 l
64.305515 307.284731 l
66.143616 325.445967 l
67.981717 314.19202 l
70.733124 333.201129 l
72.571225 302.42035 l
74.409326 291.498652 l
76.247427 305.158037 l
78.998834 312.429936 l
80.836935 315.70791 l
82.675036 303.624615 l
84.513137 300.478834 l
87.264544 292.077238 l
89.102645 314.408687 l
90.940746 317.436676 l
92.778847 300.648097 l
95.530254 293.445821 l
97.368355 293.144822 l
101.044557 312.611315 l
103.795964 306.938786 l
105.634065 296.618007 l
107.472166 303.091134 l
109.310267 291.637304 l
112.061674 294.935256 l
113.899775 306.791117 l
115.737876 297.034123 l
117.575977 306.070275 l
120.327384 311.152535 l
122.165485 294.176974 l
124.003586 298.688629 l
125.841687 292.189637 l
128.593094 307.626124 l
130.431195 297.964558 l
132.269296 297.910614 l
134.107397 291.425513 l
136.858804 305.542032 l
138.696905 294.31241 l
140.535006 294.479509 l
142.373107 297.507583 l
145.124514 291.351709 l
146.962615 300.012316 l
148.800716 287.671319 l
150.638817 310.189577 l
153.390224 292.821676 l
155.228325 312.494125 l
157.066426 295.340172 l
158.904527 285.551851 l
161.655934 305.983835 l
163.494035 283.442739 l
165.332136 293.446352 l
167.170237 294.183985 l
169.921644 297.378911 l
171.759745 297.438383 l
173.597846 300.459271 l
175.435947 293.931457 l
178.187354 297.258331 l
180.025455 306.073888 l
181.863556 288.131984 l
183.701657 281.000572 l
186.453064 312.621122 l
188.291165 304.293593 l
190.129266 292.398691 l
191.967367 279.099443 l
194.718774 283.476284 l
196.556875 297.32166 l
198.394976 298.089818 l
200.233077 287.859586 l
202.984484 275.86292 l
204.822585 294.925585 l
206.660686 299.981352 l
208.498787 304.24983 l
211.250194 296.263449 l
213.088295 292.627674 l
214.926396 304.412175 l
216.764497 299.15349 l
219.515904 287.338299 l
221.354005 297.788337 l
223.192106 291.847101 l
225.030207 296.945628 l
227.781614 316.021333 l
229.619715 298.352383 l
231.457816 287.906964 l
233.295916 290.909414 l
236.047324 314.052913 l
237.885425 282.753045 l
239.723526 293.324168 l
241.561626 286.792965 l
244.313034 293.261768 l
246.151135 296.104171 l
247.989236 296.500802 l
249.827336 298.936811 l
252.578744 305.836695 l
254.416845 293.727445 l
256.254945 285.019022 l
258.093046 292.084214 l
260.844454 287.721911 l
262.682555 299.719402 l
264.520655 284.086897 l
266.358756 294.433651 l
269.110164 291.596779 l
270.948264 277.952448 l
272.786365 301.591107 l
274.624466 298.554134 l
277.375874 304.106967 l
279.213974 275.805561 l
281.052075 296.313871 l
282.890176 297.285895 l
285.641584 298.323889 l
287.479684 311.217598 l
289.317785 289.672724 l
291.155886 295.351597 l
293.907293 297.945443 l
297.583495 295.981909 l
299.421596 297.852353 l
302.173003 285.264678 l
304.011104 297.750775 l
305.849205 295.002922 l
307.687306 288.887289 l
310.438713 284.719409 l
312.276814 295.175057 l
314.114915 298.880607 l
315.953016 297.002689 l
318.704423 295.147558 l
320.542524 303.284909 l
322.380625 296.109949 l
324.218726 290.679814 l
326.970133 284.859839 l
328.808234 300.462079 l
330.646335 291.477362 l
332.484436 296.514102 l
335.235843 294.074159 l
337.073944 291.016426 l
338.912045 296.625407 l
340.750146 295.130752 l
343.501553 284.330115 l
345.339654 305.369324 l
347.177755 290.034526 l
349.015856 304.252146 l
351.767263 296.909234 l
353.605364 286.846813 l
355.443465 300.890258 l
357.281566 294.348774 l
360.032973 286.004074 l
361.871074 292.977643 l
363.709175 300.581605 l
365.547276 301.059908 l
368.298683 294.974257 l
370.136784 303.825239 l
371.974885 297.992656 l
373.812986 287.69986 l
376.564393 288.657 l
378.402494 308.034022 l
380.240595 295.016906 l
382.078696 296.955639 l
384.830103 296.097533 l
386.668204 276.131457 l
388.506305 296.641277 l
390.344406 314.31087 l
393.095813 290.101827 l
394.933914 297.687295 l
396.772015 284.126386 l
398.610116 316.135672 l
401.361523 293.800817 l
403.199624 307.404225 l
405.037725 281.337638 l
406.875826 298.369404 l
409.627233 294.593474 l
411.465334 299.667503 l
413.303435 290.780114 l
415.141536 303.159982 l
417.892943 292.720435 l
419.731044 284.597601 l
421.569145 293.769429 l
423.407246 294.155174 l
426.158653 299.535562 l
427.996754 287.537011 l
429.834855 302.462883 l
431.672956 301.242783 l
434.424363 292.006379 l
436.262464 284.859873 l
438.100565 303.189585 l
439.938666 303.064236 l
442.690073 294.082168 l
444.528174 290.086786 l
446.366275 289.877103 l
448.204376 294.262009 l
450.955783 290.602931 l
452.793884 304.480504 l
454.631985 299.217809 l
456.470085 284.034976 l
459.221493 299.683626 l
461.059594 280.227472 l
462.897695 307.949399 l
464.735795 295.298989 l
464.735795 295.298989 l
stroke
grestore
0.800 setlinewidth
0 setlinejoin
2 setlinecap
[] 0 setdash
0.000 setgray
gsave
33.675 258 m
33.675 417.2 l
stroke
grestore
gsave
485.2625 258 m
485.2625 417.2 l
stroke
grestore
gsave
33.675 258 m
485.2625 258 l
stroke
grestore
gsave
33.675 417.2 m
485.2625 417.2 l
stroke
grestore
gsave
83.296875 423.200000 translate
0.000000 rotate
0.000000 0.000000 m /M glyphshow
12.079102 0.000000 m /e glyphshow
20.692383 0.000000 m /a glyphshow
29.271484 0.000000 m /n glyphshow
38.144531 0.000000 m /space glyphshow
42.594727 0.000000 m /S glyphshow
51.481445 0.000000 m /q glyphshow
60.368164 0.000000 m /u glyphshow
69.241211 0.000000 m /a glyphshow
77.820312 0.000000 m /r glyphshow
83.576172 0.000000 m /e glyphshow
92.189453 0.000000 m /d glyphshow
101.076172 0.000000 m /space glyphshow
105.526367 0.000000 m /E glyphshow
114.372070 0.000000 m /r glyphshow
120.127930 0.000000 m /r glyphshow
125.883789 0.000000 m /o glyphshow
134.449219 0.000000 m /r glyphshow
140.205078 0.000000 m /space glyphshow
144.655273 0.000000 m /T glyphshow
153.175781 0.000000 m /r glyphshow
158.931641 0.000000 m /a glyphshow
167.510742 0.000000 m /i glyphshow
171.400391 0.000000 m /n glyphshow
180.273438 0.000000 m /i glyphshow
184.163086 0.000000 m /n glyphshow
193.036133 0.000000 m /g glyphshow
201.922852 0.000000 m /space glyphshow
206.373047 0.000000 m /l glyphshow
210.262695 0.000000 m /o glyphshow
218.828125 0.000000 m /s glyphshow
226.122070 0.000000 m /s glyphshow
233.416016 0.000000 m /space glyphshow
237.866211 0.000000 m /o glyphshow
246.431641 0.000000 m /n glyphshow
255.304688 0.000000 m /space glyphshow
259.754883 0.000000 m /W glyphshow
273.597656 0.000000 m /i glyphshow
277.487305 0.000000 m /n glyphshow
286.360352 0.000000 m /e glyphshow
294.973633 0.000000 m /space glyphshow
299.423828 0.000000 m /d glyphshow
308.310547 0.000000 m /a glyphshow
316.889648 0.000000 m /t glyphshow
322.378906 0.000000 m /a glyphshow
330.958008 0.000000 m /s glyphshow
338.251953 0.000000 m /e glyphshow
346.865234 0.000000 m /t glyphshow
grestore
1.000 setlinewidth
0 setlinecap
0.800 setgray
gsave
386.48125 335.840625 m
478.2625 335.840625 l
479.595833 335.840625 480.2625 336.507292 480.2625 337.840625 c
480.2625 410.2 l
480.2625 411.533333 479.595833 412.2 478.2625 412.2 c
386.48125 412.2 l
385.147917 412.2 384.48125 411.533333 384.48125 410.2 c
384.48125 337.840625 l
384.48125 336.507292 385.147917 335.840625 386.48125 335.840625 c
cl
gsave
1.000 setgray
fill
grestore
stroke
grestore
1.500 setlinewidth
1 setlinejoin
[9.6 2.4 1.5 2.4] 0 setdash
0.122 0.467 0.706 setrgbcolor
gsave
388.48125 404.10625 m
408.48125 404.10625 l
stroke
grestore
0.000 setgray
/DejaVuSans findfont
10.000 scalefont
setfont
gsave
416.481250 400.606250 translate
0.000000 rotate
0.000000 0.000000 m /N glyphshow
7.480469 0.000000 m /o glyphshow
13.598633 0.000000 m /i glyphshow
16.376953 0.000000 m /s glyphshow
21.586914 0.000000 m /y glyphshow
27.504883 0.000000 m /space glyphshow
30.683594 0.000000 m /K glyphshow
37.241211 0.000000 m /F glyphshow
42.993164 0.000000 m /A glyphshow
49.833984 0.000000 m /C glyphshow
grestore
[5.55 2.4] 0 setdash
1.000 0.498 0.055 setrgbcolor
gsave
388.48125 389.434375 m
408.48125 389.434375 l
stroke
grestore
0.000 setgray
gsave
416.481250 385.934375 translate
0.000000 rotate
0.000000 0.000000 m /N glyphshow
7.480469 0.000000 m /o glyphshow
13.598633 0.000000 m /i glyphshow
16.376953 0.000000 m /s glyphshow
21.586914 0.000000 m /y glyphshow
27.504883 0.000000 m /space glyphshow
30.683594 0.000000 m /A glyphshow
37.524414 0.000000 m /d glyphshow
43.872070 0.000000 m /a glyphshow
50.000000 0.000000 m /m glyphshow
grestore
[1.5 2.475] 0 setdash
0.173 0.627 0.173 setrgbcolor
gsave
388.48125 374.7625 m
408.48125 374.7625 l
stroke
grestore
0.000 setgray
gsave
416.481250 371.262500 translate
0.000000 rotate
0.000000 0.000000 m /V glyphshow
6.840820 0.000000 m /p glyphshow
13.188477 0.000000 m /r glyphshow
17.299805 0.000000 m /o glyphshow
23.417969 0.000000 m /p glyphshow
grestore
2 setlinecap
[] 0 setdash
0.839 0.153 0.157 setrgbcolor
gsave
388.48125 360.090625 m
408.48125 360.090625 l
stroke
grestore
0.000 setgray
gsave
416.481250 356.590625 translate
0.000000 rotate
0.000000 0.000000 m /A glyphshow
6.840820 0.000000 m /d glyphshow
13.188477 0.000000 m /a glyphshow
19.316406 0.000000 m /m glyphshow
grestore
0 setlinecap
[9.6 2.4 1.5 2.4] 0 setdash
0.580 0.404 0.741 setrgbcolor
gsave
388.48125 345.41875 m
408.48125 345.41875 l
stroke
grestore
0.000 setgray
gsave
416.481250 341.918750 translate
0.000000 rotate
0.000000 0.000000 m /B glyphshow
6.860352 0.000000 m /B glyphshow
13.720703 0.000000 m /B glyphshow
grestore
gsave
33.675 27.8 m
485.2625 27.8 l
485.2625 187 l
33.675 187 l
cl
1.000 setgray
fill
grestore
0.800 setlinewidth
[] 0 setdash
gsave
/o {
gsave
newpath
translate
0.8 setlinewidth
1 setlinejoin
0 setlinecap
0 0 m
0 -3.5 l

gsave
0.000 setgray
fill
grestore
stroke
grestore
} bind def
52.5474 27.8 o
grestore
gsave
49.367726 13.206250 translate
0.000000 rotate
0.000000 0.000000 m /zero glyphshow
grestore
gsave
/o {
gsave
newpath
translate
0.8 setlinewidth
1 setlinejoin
0 setlinecap
0 0 m
0 -3.5 l

gsave
0.000 setgray
fill
grestore
stroke
grestore
} bind def
135.205 27.8 o
grestore
gsave
128.845138 13.206250 translate
0.000000 rotate
0.000000 0.000000 m /one glyphshow
6.362305 0.000000 m /zero glyphshow
grestore
gsave
/o {
gsave
newpath
translate
0.8 setlinewidth
1 setlinejoin
0 setlinecap
0 0 m
0 -3.5 l

gsave
0.000 setgray
fill
grestore
stroke
grestore
} bind def
217.862 27.8 o
grestore
gsave
211.502238 13.206250 translate
0.000000 rotate
0.000000 0.000000 m /two glyphshow
6.362305 0.000000 m /zero glyphshow
grestore
gsave
/o {
gsave
newpath
translate
0.8 setlinewidth
1 setlinejoin
0 setlinecap
0 0 m
0 -3.5 l

gsave
0.000 setgray
fill
grestore
stroke
grestore
} bind def
300.519 27.8 o
grestore
gsave
294.159338 13.206250 translate
0.000000 rotate
0.000000 0.000000 m /three glyphshow
6.362305 0.000000 m /zero glyphshow
grestore
gsave
/o {
gsave
newpath
translate
0.8 setlinewidth
1 setlinejoin
0 setlinecap
0 0 m
0 -3.5 l

gsave
0.000 setgray
fill
grestore
stroke
grestore
} bind def
383.176 27.8 o
grestore
gsave
376.816437 13.206250 translate
0.000000 rotate
0.000000 0.000000 m /four glyphshow
6.362305 0.000000 m /zero glyphshow
grestore
gsave
/o {
gsave
newpath
translate
0.8 setlinewidth
1 setlinejoin
0 setlinecap
0 0 m
0 -3.5 l

gsave
0.000 setgray
fill
grestore
stroke
grestore
} bind def
465.833 27.8 o
grestore
gsave
459.473537 13.206250 translate
0.000000 rotate
0.000000 0.000000 m /five glyphshow
6.362305 0.000000 m /zero glyphshow
grestore
/DejaVuSans findfont
14.000 scalefont
setfont
gsave
234.382812 -3.512500 translate
0.000000 rotate
0.000000 0.000000 m /E glyphshow
8.845703 0.000000 m /p glyphshow
17.732422 0.000000 m /o glyphshow
26.297852 0.000000 m /c glyphshow
33.995117 0.000000 m /h glyphshow
42.868164 0.000000 m /s glyphshow
grestore
gsave
/o {
gsave
newpath
translate
0.8 setlinewidth
1 setlinejoin
0 setlinecap
0 0 m
-3.5 0 l

gsave
0.000 setgray
fill
grestore
stroke
grestore
} bind def
33.675 45.2485 o
grestore
/DejaVuSans findfont
10.000 scalefont
setfont
gsave
10.768750 41.451617 translate
0.000000 rotate
0.000000 0.000000 m /zero glyphshow
6.362305 0.000000 m /period glyphshow
9.541016 0.000000 m /six glyphshow
grestore
gsave
/o {
gsave
newpath
translate
0.8 setlinewidth
1 setlinejoin
0 setlinecap
0 0 m
-3.5 0 l

gsave
0.000 setgray
fill
grestore
stroke
grestore
} bind def
33.675 78.9025 o
grestore
gsave
10.768750 75.105628 translate
0.000000 rotate
0.000000 0.000000 m /zero glyphshow
6.362305 0.000000 m /period glyphshow
9.541016 0.000000 m /seven glyphshow
grestore
gsave
/o {
gsave
newpath
translate
0.8 setlinewidth
1 setlinejoin
0 setlinecap
0 0 m
-3.5 0 l

gsave
0.000 setgray
fill
grestore
stroke
grestore
} bind def
33.675 112.557 o
grestore
gsave
10.768750 108.759639 translate
0.000000 rotate
0.000000 0.000000 m /zero glyphshow
6.362305 0.000000 m /period glyphshow
9.541016 0.000000 m /eight glyphshow
grestore
gsave
/o {
gsave
newpath
translate
0.8 setlinewidth
1 setlinejoin
0 setlinecap
0 0 m
-3.5 0 l

gsave
0.000 setgray
fill
grestore
stroke
grestore
} bind def
33.675 146.211 o
grestore
gsave
10.768750 142.413649 translate
0.000000 rotate
0.000000 0.000000 m /zero glyphshow
6.362305 0.000000 m /period glyphshow
9.541016 0.000000 m /nine glyphshow
grestore
gsave
/o {
gsave
newpath
translate
0.8 setlinewidth
1 setlinejoin
0 setlinecap
0 0 m
-3.5 0 l

gsave
0.000 setgray
fill
grestore
stroke
grestore
} bind def
33.675 179.865 o
grestore
gsave
10.768750 176.067660 translate
0.000000 rotate
0.000000 0.000000 m /one glyphshow
6.362305 0.000000 m /period glyphshow
9.541016 0.000000 m /zero glyphshow
grestore
/DejaVuSans findfont
14.000 scalefont
setfont
gsave
3.862500 61.079688 translate
90.000000 rotate
0.000000 0.000000 m /M glyphshow
12.079102 0.000000 m /S glyphshow
20.965820 0.000000 m /E glyphshow
29.811523 0.000000 m /space glyphshow
34.261719 0.000000 m /t glyphshow
39.750977 0.000000 m /e glyphshow
48.364258 0.000000 m /s glyphshow
55.658203 0.000000 m /t glyphshow
61.147461 0.000000 m /space glyphshow
65.597656 0.000000 m /l glyphshow
69.487305 0.000000 m /o glyphshow
78.052734 0.000000 m /s glyphshow
85.346680 0.000000 m /s glyphshow
grestore
1.500 setlinewidth
[9.6 2.4 1.5 2.4] 0 setdash
0.122 0.467 0.706 setrgbcolor
gsave
451.6 159.2 33.68 27.8 clipbox
54.201705 163.527395 m
59.716007 163.047796 l
62.467415 148.965809 l
64.305515 145.574213 l
66.143616 146.349628 l
67.981717 145.399938 l
70.733124 147.047372 l
72.571225 103.029749 l
74.409326 80.33921 l
76.247427 69.964191 l
78.998834 59.124999 l
80.836935 58.080388 l
82.675036 60.719136 l
84.513137 55.909064 l
87.264544 56.452211 l
89.102645 53.655295 l
90.940746 53.514719 l
92.778847 51.900583 l
95.530254 52.850975 l
97.368355 53.059633 l
99.206456 52.923209 l
101.044557 54.391654 l
103.795964 53.049021 l
107.472166 55.836549 l
109.310267 55.172585 l
112.061674 54.693166 l
113.899775 54.88369 l
117.575977 54.550103 l
120.327384 56.821303 l
122.165485 53.313564 l
124.003586 53.062601 l
125.841687 51.079233 l
128.593094 50.832924 l
130.431195 50.786547 l
132.269296 50.587257 l
134.107397 48.962229 l
136.858804 49.184547 l
138.696905 48.140217 l
140.535006 49.150285 l
142.373107 51.782293 l
145.124514 49.969349 l
146.962615 50.519336 l
148.800716 51.885318 l
150.638817 52.000659 l
153.390224 50.765866 l
155.228325 51.21678 l
157.066426 49.88512 l
158.904527 49.262798 l
161.655934 49.791021 l
163.494035 49.986239 l
165.332136 48.664769 l
167.170237 49.193192 l
169.921644 48.453082 l
171.759745 48.946121 l
173.597846 50.764281 l
175.435947 50.649361 l
178.187354 49.318984 l
180.025455 48.733151 l
181.863556 49.187154 l
183.701657 49.061041 l
186.453064 47.919764 l
190.129266 47.902513 l
191.967367 47.330862 l
194.718774 48.751565 l
200.233077 47.947647 l
202.984484 47.903998 l
204.822585 48.010814 l
206.660686 47.845525 l
208.498787 47.159956 l
211.250194 48.059698 l
213.088295 48.273411 l
214.926396 48.083047 l
216.764497 46.164491 l
219.515904 46.203646 l
221.354005 44.657391 l
223.192106 44.518821 l
225.030207 45.414291 l
229.619715 46.2759 l
231.457816 45.797786 l
236.047324 45.132316 l
239.723526 45.028389 l
241.561626 45.257968 l
244.313034 44.966245 l
246.151135 44.261841 l
247.989236 44.661784 l
249.827336 44.746214 l
252.578744 44.417361 l
254.416845 45.184712 l
256.254945 44.611174 l
260.844454 43.988913 l
262.682555 45.608646 l
266.358756 47.053962 l
269.110164 46.02576 l
270.948264 46.744888 l
274.624466 45.121866 l
281.052075 44.032161 l
282.890176 42.523578 l
285.641584 42.224633 l
287.479684 42.50087 l
289.317785 41.728605 l
291.155886 41.151357 l
293.907293 41.877967 l
295.745394 41.085181 l
297.583495 40.495978 l
299.421596 41.002156 l
302.173003 40.570519 l
304.011104 40.161288 l
305.849205 40.500511 l
307.687306 40.576456 l
310.438713 40.88529 l
312.276814 40.886875 l
314.114915 41.235466 l
315.953016 40.985627 l
318.704423 41.342202 l
320.542524 41.944504 l
324.218726 40.842564 l
326.970133 40.971425 l
328.808234 41.778112 l
332.484436 42.464402 l
335.235843 42.823385 l
337.073944 42.778211 l
338.912045 42.856623 l
340.750146 42.501151 l
343.501553 42.986046 l
345.339654 42.989957 l
349.015856 44.421092 l
351.767263 44.179517 l
353.605364 43.479867 l
355.443465 43.764529 l
357.281566 43.308841 l
360.032973 41.886151 l
361.871074 41.088772 l
363.709175 41.28403 l
368.298683 43.317507 l
370.136784 44.685535 l
371.974885 45.676988 l
373.812986 44.782642 l
376.564393 45.649186 l
378.402494 44.370302 l
382.078696 44.375256 l
384.830103 42.962958 l
386.668204 44.021891 l
388.506305 43.205415 l
390.344406 43.994028 l
393.095813 45.692113 l
394.933914 45.60654 l
396.772015 45.046061 l
398.610116 45.988289 l
401.361523 47.545156 l
403.199624 46.716524 l
405.037725 47.165452 l
406.875826 46.038297 l
409.627233 45.83309 l
411.465334 46.084735 l
413.303435 45.856981 l
415.141536 46.2895 l
417.892943 45.93437 l
419.731044 46.08642 l
421.569145 44.950137 l
423.407246 45.012743 l
426.158653 45.421332 l
427.996754 46.305628 l
429.834855 48.540501 l
431.672956 48.237444 l
436.262464 47.176445 l
438.100565 45.802199 l
439.938666 44.259053 l
442.690073 46.303361 l
444.528174 46.509832 l
446.366275 47.885683 l
448.204376 46.844503 l
452.793884 45.068367 l
454.631985 45.470858 l
456.470085 45.470979 l
459.221493 46.040805 l
461.059594 46.823922 l
462.897695 45.80928 l
464.735795 44.489053 l
464.735795 44.489053 l
stroke
grestore
[5.55 2.4] 0 setdash
1.000 0.498 0.055 setrgbcolor
gsave
451.6 159.2 33.68 27.8 clipbox
54.201705 179.763636 m
56.039805 179.130884 l
59.716007 177.511934 l
62.467415 175.993401 l
67.981717 172.363661 l
72.571225 168.932608 l
76.247427 166.016239 l
84.513137 158.882351 l
92.778847 151.314839 l
97.368355 147.434117 l
101.044557 143.982002 l
109.310267 136.112156 l
113.899775 132.195447 l
117.575977 129.001717 l
120.327384 126.457609 l
124.003586 123.37569 l
130.431195 117.640741 l
134.107397 114.95355 l
138.696905 111.179824 l
142.373107 108.418634 l
146.962615 104.837859 l
153.390224 100.227537 l
157.066426 97.841558 l
158.904527 96.574348 l
163.494035 93.914879 l
165.332136 92.953033 l
171.759745 88.822431 l
173.597846 87.791641 l
178.187354 85.529688 l
180.025455 84.519359 l
183.701657 82.861734 l
191.967367 79.207702 l
202.984484 75.012649 l
206.660686 73.854101 l
214.926396 71.316453 l
216.764497 70.595098 l
219.515904 69.860725 l
223.192106 68.482046 l
229.619715 67.092575 l
231.457816 66.615322 l
233.295916 66.396996 l
236.047324 65.698791 l
237.885425 65.103288 l
239.723526 64.842156 l
241.561626 64.693857 l
244.313034 64.30615 l
246.151135 63.859408 l
249.827336 63.762461 l
252.578744 63.696987 l
254.416845 63.402396 l
256.254945 63.362738 l
260.844454 62.749123 l
262.682555 62.396118 l
270.948264 61.312432 l
272.786365 61.360855 l
274.624466 61.172317 l
279.213974 59.795222 l
285.641584 59.241925 l
289.317785 59.20303 l
293.907293 58.311793 l
295.745394 58.308724 l
297.583495 58.052767 l
299.421596 58.352534 l
302.173003 58.301122 l
304.011104 57.915661 l
305.849205 57.923544 l
307.687306 57.744936 l
310.438713 57.772578 l
312.276814 57.478768 l
315.953016 57.237815 l
318.704423 56.900016 l
320.542524 56.948941 l
322.380625 56.519069 l
324.218726 55.90108 l
326.970133 56.116899 l
328.808234 55.741067 l
330.646335 55.517164 l
332.484436 55.611664 l
335.235843 55.95526 l
337.073944 55.591905 l
338.912045 55.599227 l
343.501553 55.303251 l
345.339654 55.287204 l
347.177755 55.061275 l
349.015856 54.990305 l
351.767263 54.743555 l
353.605364 54.725903 l
357.281566 55.059931 l
360.032973 54.531407 l
361.871074 53.941021 l
371.974885 53.668594 l
373.812986 53.857654 l
376.564393 54.487818 l
380.240595 54.967799 l
382.078696 54.843732 l
384.830103 54.268148 l
386.668204 53.707831 l
388.506305 53.888987 l
393.095813 53.728512 l
394.933914 54.033775 l
405.037725 52.069122 l
406.875826 51.435507 l
409.627233 51.162479 l
411.465334 51.169179 l
413.303435 51.486317 l
415.141536 52.157263 l
419.731044 52.226106 l
426.158653 50.989908 l
427.996754 50.782515 l
431.672956 51.645809 l
434.424363 51.504551 l
436.262464 50.823797 l
442.690073 50.131689 l
444.528174 49.790058 l
446.366275 49.709139 l
448.204376 49.320669 l
454.631985 48.968788 l
456.470085 49.5946 l
459.221493 49.165049 l
461.059594 49.237222 l
462.897695 48.910456 l
464.735795 48.971677 l
464.735795 48.971677 l
stroke
grestore
[1.5 2.475] 0 setdash
0.173 0.627 0.173 setrgbcolor
gsave
451.6 159.2 33.68 27.8 clipbox
54.201705 171.146539 m
56.039805 167.003661 l
57.877906 162.144744 l
59.716007 158.590267 l
62.467415 151.916339 l
64.305515 147.844832 l
66.143616 142.941905 l
67.981717 138.775216 l
70.733124 133.165879 l
72.571225 129.040071 l
78.998834 117.329801 l
80.836935 113.474935 l
82.675036 110.495259 l
84.513137 107.931232 l
87.264544 103.237684 l
90.940746 98.625236 l
92.778847 94.652281 l
95.530254 90.569841 l
97.368355 86.972256 l
99.206456 85.198949 l
101.044557 84.959681 l
103.795964 81.360311 l
105.634065 78.025564 l
109.310267 75.042337 l
112.061674 73.98894 l
113.899775 71.821527 l
115.737876 74.228469 l
117.575977 73.421481 l
120.327384 70.500117 l
122.165485 69.516868 l
124.003586 69.208275 l
125.841687 67.846806 l
128.593094 66.576849 l
130.431195 66.165311 l
132.269296 66.952159 l
134.107397 64.499502 l
136.858804 64.902354 l
138.696905 61.479386 l
140.535006 61.516716 l
142.373107 60.574167 l
145.124514 58.38507 l
146.962615 59.94296 l
148.800716 60.171014 l
150.638817 61.800536 l
153.390224 62.413048 l
155.228325 59.593486 l
157.066426 57.910686 l
158.904527 57.703092 l
161.655934 56.783772 l
163.494035 56.866216 l
165.332136 55.90118 l
167.170237 57.407417 l
169.921644 56.097963 l
171.759745 54.634693 l
173.597846 56.92515 l
175.435947 58.254764 l
178.187354 56.711939 l
180.025455 54.891272 l
181.863556 55.116739 l
183.701657 56.29304 l
186.453064 54.625586 l
188.291165 54.567374 l
190.129266 53.202214 l
191.967367 53.763776 l
194.718774 52.991671 l
196.556875 54.181031 l
198.394976 56.4892 l
200.233077 56.391933 l
202.984484 54.098727 l
204.822585 51.726448 l
206.660686 53.728592 l
208.498787 56.829768 l
211.250194 60.111739 l
213.088295 58.099084 l
214.926396 59.20632 l
216.764497 56.352375 l
219.515904 55.320462 l
221.354005 55.438832 l
223.192106 55.228229 l
225.030207 56.138503 l
227.781614 54.422806 l
229.619715 55.346961 l
231.457816 53.874905 l
233.295916 53.774528 l
236.047324 52.016366 l
237.885425 52.574317 l
239.723526 54.462082 l
241.561626 55.502581 l
244.313034 55.461118 l
246.151135 55.158944 l
247.989236 54.583662 l
249.827336 54.319641 l
252.578744 54.249293 l
254.416845 55.76237 l
258.093046 56.272499 l
260.844454 56.127791 l
262.682555 54.531829 l
264.520655 53.277116 l
266.358756 53.246967 l
270.948264 52.144665 l
272.786365 54.360141 l
274.624466 53.366781 l
277.375874 53.910751 l
279.213974 53.637302 l
281.052075 53.128175 l
282.890176 52.295652 l
285.641584 52.029906 l
287.479684 50.907485 l
289.317785 50.722457 l
291.155886 52.150222 l
293.907293 52.422487 l
295.745394 51.253829 l
297.583495 50.950652 l
299.421596 52.339201 l
302.173003 53.360804 l
304.011104 55.094614 l
305.849205 54.78897 l
307.687306 55.134713 l
310.438713 56.176395 l
312.276814 54.018068 l
314.114915 56.128453 l
315.953016 54.435203 l
318.704423 52.404093 l
320.542524 53.437611 l
322.380625 54.632186 l
324.218726 51.954523 l
326.970133 50.539476 l
328.808234 50.457353 l
330.646335 51.336835 l
332.484436 51.836333 l
335.235843 52.161615 l
337.073944 51.384636 l
338.912045 53.050165 l
340.750146 56.400759 l
343.501553 56.071926 l
345.339654 53.52527 l
347.177755 52.562341 l
349.015856 52.272483 l
351.767263 55.354062 l
353.605364 52.850253 l
357.281566 52.135358 l
360.032973 50.451897 l
361.871074 51.259446 l
363.709175 52.24777 l
365.547276 50.92969 l
368.298683 49.294512 l
370.136784 50.720511 l
371.974885 50.060178 l
373.812986 51.368428 l
378.402494 52.289373 l
380.240595 54.248631 l
382.078696 55.111343 l
384.830103 53.674492 l
386.668204 51.829974 l
388.506305 52.403993 l
390.344406 51.801209 l
393.095813 55.952452 l
394.933914 55.24889 l
396.772015 50.678989 l
398.610116 50.475185 l
401.361523 49.370136 l
403.199624 50.505034 l
405.037725 50.973901 l
406.875826 50.42927 l
409.627233 52.008743 l
411.465334 50.42269 l
413.303435 50.839905 l
415.141536 52.650662 l
417.892943 51.668697 l
419.731044 50.076867 l
421.569145 49.837519 l
423.407246 49.917114 l
426.158653 52.418475 l
427.996754 51.479337 l
429.834855 51.932498 l
431.672956 51.820947 l
434.424363 53.765541 l
436.262464 52.705725 l
438.100565 53.814346 l
439.938666 52.701914 l
442.690073 55.264236 l
444.528174 55.403588 l
448.204376 56.161451 l
450.955783 52.619891 l
452.793884 53.406278 l
454.631985 52.877514 l
456.470085 52.694733 l
459.221493 53.811638 l
461.059594 55.44483 l
462.897695 52.26456 l
464.735795 52.418275 l
464.735795 52.418275 l
stroke
grestore
2 setlinecap
[] 0 setdash
0.839 0.153 0.157 setrgbcolor
gsave
451.6 159.2 33.68 27.8 clipbox
54.201705 133.807678 m
56.039805 113.680965 l
57.877906 98.073604 l
59.716007 87.199348 l
62.467415 75.694567 l
66.143616 63.541046 l
67.981717 59.591901 l
70.733124 56.73908 l
72.571225 55.202573 l
74.409326 55.670418 l
76.247427 54.479333 l
78.998834 54.59664 l
80.836935 55.623719 l
82.675036 51.441645 l
84.513137 49.380707 l
87.264544 50.280289 l
89.102645 50.677203 l
90.940746 50.65257 l
92.778847 51.254832 l
95.530254 46.902454 l
97.368355 46.20495 l
99.206456 47.947286 l
101.044557 49.530049 l
103.795964 50.708576 l
105.634065 48.703202 l
107.472166 48.356657 l
109.310267 48.642382 l
112.061674 49.235618 l
113.899775 48.35762 l
115.737876 47.693254 l
117.575977 48.125974 l
120.327384 49.973641 l
122.165485 49.308353 l
124.003586 48.940043 l
125.841687 48.77351 l
128.593094 47.805225 l
130.431195 47.388211 l
132.269296 46.237888 l
134.107397 46.562027 l
136.858804 47.243744 l
138.696905 46.734297 l
140.535006 46.375154 l
142.373107 48.519037 l
146.962615 44.488993 l
148.800716 44.700118 l
150.638817 47.532458 l
153.390224 48.440184 l
155.228325 50.565192 l
157.066426 48.973061 l
158.904527 45.298448 l
161.655934 44.370663 l
163.494035 44.867352 l
165.332136 46.436576 l
167.170237 45.424842 l
169.921644 45.528128 l
171.759745 43.753838 l
173.597846 44.59601 l
175.435947 45.124132 l
178.187354 44.350383 l
180.025455 44.083934 l
181.863556 45.329259 l
183.701657 46.818686 l
186.453064 46.89443 l
188.291165 46.291968 l
190.129266 44.010918 l
191.967367 43.891686 l
194.718774 46.47525 l
196.556875 47.903616 l
198.394976 44.693598 l
200.233077 43.945084 l
202.984484 43.957581 l
206.660686 43.410562 l
208.498787 44.621004 l
211.250194 46.650047 l
213.088295 47.444558 l
214.926396 49.12822 l
216.764497 45.503033 l
219.515904 42.815602 l
223.192106 42.510098 l
225.030207 44.54199 l
227.781614 45.361294 l
231.457816 44.198674 l
233.295916 44.883901 l
236.047324 42.844668 l
237.885425 41.956921 l
239.723526 43.187382 l
241.561626 45.723145 l
244.313034 45.088968 l
246.151135 45.075609 l
247.989236 44.586261 l
249.827336 44.475954 l
252.578744 43.449718 l
254.416845 43.96737 l
256.254945 44.716486 l
258.093046 44.235904 l
260.844454 42.291852 l
262.682555 42.98412 l
264.520655 44.73819 l
266.358756 45.239273 l
269.110164 44.38338 l
270.948264 44.49802 l
272.786365 44.142387 l
274.624466 44.145537 l
277.375874 41.578441 l
279.213974 41.377306 l
281.052075 44.310485 l
282.890176 44.606802 l
285.641584 43.857344 l
287.479684 44.139519 l
289.317785 43.391445 l
291.155886 41.037942 l
293.907293 40.399834 l
295.745394 42.236528 l
297.583495 42.830987 l
299.421596 44.88677 l
302.173003 44.542812 l
304.011104 44.88687 l
305.849205 44.003597 l
307.687306 41.59848 l
310.438713 42.929719 l
312.276814 41.902841 l
314.114915 42.500329 l
315.953016 44.042572 l
318.704423 43.088228 l
322.380625 43.803505 l
324.218726 42.010118 l
326.970133 44.316282 l
328.808234 41.063878 l
330.646335 40.958727 l
332.484436 42.364066 l
335.235843 43.22722 l
337.073944 41.5915 l
340.750146 41.772796 l
343.501553 43.812953 l
345.339654 45.461531 l
347.177755 42.529234 l
349.015856 40.859433 l
351.767263 43.674724 l
353.605364 43.658094 l
357.281566 41.12528 l
360.032973 40.369404 l
361.871074 41.347297 l
363.709175 41.707182 l
365.547276 40.985607 l
368.298683 41.223832 l
370.136784 41.0914 l
371.974885 43.702887 l
373.812986 43.623612 l
376.564393 43.127344 l
378.402494 42.148568 l
380.240595 43.035151 l
382.078696 41.792193 l
384.830103 39.730573 l
386.668204 40.553408 l
388.506305 41.761021 l
390.344406 41.945547 l
393.095813 42.697733 l
394.933914 45.804225 l
396.772015 45.627722 l
398.610116 41.929841 l
401.361523 41.370305 l
403.199624 41.478425 l
405.037725 40.407737 l
406.875826 39.658159 l
409.627233 42.587446 l
411.465334 42.337828 l
413.303435 39.273481 l
415.141536 39.958468 l
417.892943 43.394053 l
419.731044 43.001291 l
421.569145 40.447515 l
423.407246 39.975237 l
426.158653 41.552143 l
427.996754 42.431224 l
429.834855 43.149149 l
431.672956 42.242727 l
434.424363 39.225318 l
436.262464 37.757014 l
439.938666 40.830388 l
442.690073 41.924304 l
444.528174 41.962718 l
446.366275 44.723046 l
448.204376 43.226698 l
450.955783 39.332836 l
452.793884 40.34778 l
454.631985 44.646359 l
456.470085 40.248967 l
459.221493 40.383405 l
461.059594 41.079164 l
462.897695 40.198418 l
464.735795 40.487533 l
464.735795 40.487533 l
stroke
grestore
0 setlinecap
[9.6 2.4 1.5 2.4] 0 setdash
0.580 0.404 0.741 setrgbcolor
gsave
451.6 159.2 33.68 27.8 clipbox
54.201705 115.059143 m
56.039805 97.424564 l
57.877906 84.84775 l
59.716007 76.326938 l
62.467415 67.177406 l
66.143616 58.130697 l
67.981717 55.834804 l
70.733124 54.70809 l
72.571225 52.652388 l
74.409326 52.232184 l
76.247427 51.242596 l
78.998834 51.985916 l
80.836935 53.388024 l
82.675036 50.037069 l
84.513137 47.120519 l
87.264544 46.790884 l
89.102645 47.206855 l
90.940746 46.552679 l
92.778847 46.740054 l
95.530254 43.374616 l
97.368355 43.294739 l
99.206456 44.014389 l
101.044557 45.628364 l
103.795964 46.058076 l
105.634065 42.841358 l
107.472166 42.173 l
109.310267 42.147364 l
112.061674 42.717311 l
113.899775 42.305492 l
115.737876 42.028533 l
117.575977 43.564477 l
120.327384 45.518178 l
122.165485 43.985423 l
124.003586 43.527368 l
125.841687 42.495194 l
128.593094 39.970082 l
130.431195 39.116677 l
132.269296 39.395622 l
134.107397 42.237351 l
136.858804 42.006167 l
138.696905 41.210231 l
140.535006 41.058342 l
142.373107 45.085057 l
145.124514 40.746499 l
146.962615 38.25601 l
148.800716 37.802047 l
150.638817 39.732258 l
153.390224 42.321319 l
155.228325 44.26493 l
157.066426 41.846273 l
158.904527 38.154329 l
161.655934 37.07634 l
163.494035 38.715831 l
165.332136 40.842985 l
167.170237 39.950685 l
169.921644 40.393455 l
171.759745 38.880137 l
173.597846 40.155711 l
175.435947 38.089417 l
178.187354 36.692624 l
180.025455 36.315529 l
181.863556 39.245859 l
183.701657 41.832071 l
186.453064 44.132799 l
188.291165 45.152917 l
190.129266 41.83506 l
191.967367 39.658981 l
194.718774 40.831431 l
196.556875 41.22323 l
198.394976 38.042178 l
200.233077 36.07269 l
202.984484 36.603802 l
204.822585 37.838074 l
206.660686 37.888503 l
208.498787 37.791797 l
211.250194 39.237916 l
213.088295 38.433355 l
214.926396 40.48659 l
216.764497 38.113067 l
219.515904 35.934962 l
221.354005 36.428282 l
223.192106 36.589218 l
225.030207 37.976684 l
227.781614 37.842667 l
229.619715 38.996642 l
231.457816 39.947535 l
233.295916 38.956964 l
236.047324 36.978129 l
237.885425 37.25569 l
239.723526 38.479672 l
244.313034 40.676312 l
246.151135 42.65294 l
249.827336 41.034191 l
252.578744 39.173545 l
254.416845 39.633947 l
256.254945 40.28361 l
258.093046 40.042376 l
260.844454 37.333862 l
262.682555 36.718842 l
266.358756 39.174267 l
269.110164 38.342586 l
270.948264 38.111442 l
272.786365 38.49586 l
274.624466 38.999691 l
279.213974 36.399678 l
281.052075 38.551184 l
282.890176 38.093088 l
285.641584 37.59694 l
287.479684 39.480554 l
289.317785 38.924889 l
291.155886 37.744958 l
293.907293 36.297515 l
295.745394 37.682674 l
297.583495 37.766783 l
299.421596 39.214486 l
302.173003 40.386594 l
304.011104 40.930684 l
305.849205 40.40553 l
307.687306 37.437127 l
310.438713 38.102195 l
312.276814 38.064544 l
314.114915 39.383888 l
315.953016 40.115833 l
318.704423 39.196333 l
320.542524 39.238878 l
322.380625 38.164199 l
324.218726 36.714369 l
326.970133 40.417205 l
328.808234 38.532428 l
330.646335 37.79284 l
332.484436 40.828863 l
335.235843 40.452509 l
338.912045 39.210133 l
340.750146 39.623456 l
343.501553 45.363982 l
345.339654 45.600261 l
347.177755 41.381298 l
349.015856 39.010924 l
351.767263 39.765075 l
353.605364 39.595173 l
355.443465 38.977164 l
357.281566 37.952272 l
363.709175 36.55935 l
365.547276 37.25549 l
368.298683 38.551625 l
370.136784 37.708631 l
371.974885 39.341442 l
373.812986 39.432531 l
376.564393 40.634207 l
378.402494 40.491465 l
380.240595 43.803384 l
384.830103 36.967999 l
386.668204 36.317173 l
388.506305 38.524164 l
390.344406 40.145321 l
393.095813 41.308382 l
394.933914 44.811206 l
396.772015 45.105076 l
398.610116 43.310245 l
403.199624 36.654993 l
405.037725 35.073193 l
406.875826 35.138847 l
409.627233 41.313256 l
411.465334 42.08171 l
413.303435 36.04567 l
415.141536 35.036364 l
417.892943 35.457189 l
419.731044 38.436183 l
421.569145 39.269168 l
423.407246 39.13808 l
426.158653 38.691499 l
427.996754 38.804694 l
429.834855 41.124077 l
431.672956 42.678135 l
434.424363 43.184874 l
436.262464 40.263029 l
438.100565 38.629114 l
439.938666 38.614772 l
442.690073 39.673986 l
444.528174 40.906051 l
446.366275 43.179338 l
448.204376 44.405185 l
450.955783 41.093326 l
452.793884 40.404467 l
454.631985 39.567411 l
459.221493 36.898092 l
461.059594 39.316769 l
462.897695 40.418709 l
464.735795 41.098862 l
464.735795 41.098862 l
stroke
grestore
0.800 setlinewidth
0 setlinejoin
2 setlinecap
[] 0 setdash
0.000 setgray
gsave
33.675 27.8 m
33.675 187 l
stroke
grestore
gsave
485.2625 27.8 m
485.2625 187 l
stroke
grestore
gsave
33.675 27.8 m
485.2625 27.8 l
stroke
grestore
gsave
33.675 187 m
485.2625 187 l
stroke
grestore
gsave
96.976562 193.000000 translate
0.000000 rotate
0.000000 0.000000 m /M glyphshow
12.079102 0.000000 m /e glyphshow
20.692383 0.000000 m /a glyphshow
29.271484 0.000000 m /n glyphshow
38.144531 0.000000 m /space glyphshow
42.594727 0.000000 m /S glyphshow
51.481445 0.000000 m /q glyphshow
60.368164 0.000000 m /u glyphshow
69.241211 0.000000 m /a glyphshow
77.820312 0.000000 m /r glyphshow
83.576172 0.000000 m /e glyphshow
92.189453 0.000000 m /d glyphshow
101.076172 0.000000 m /space glyphshow
105.526367 0.000000 m /E glyphshow
114.372070 0.000000 m /r glyphshow
120.127930 0.000000 m /r glyphshow
125.883789 0.000000 m /o glyphshow
134.449219 0.000000 m /r glyphshow
140.205078 0.000000 m /space glyphshow
144.655273 0.000000 m /T glyphshow
153.175781 0.000000 m /e glyphshow
161.789062 0.000000 m /s glyphshow
169.083008 0.000000 m /t glyphshow
174.572266 0.000000 m /space glyphshow
179.022461 0.000000 m /l glyphshow
182.912109 0.000000 m /o glyphshow
191.477539 0.000000 m /s glyphshow
198.771484 0.000000 m /s glyphshow
206.065430 0.000000 m /space glyphshow
210.515625 0.000000 m /o glyphshow
219.081055 0.000000 m /n glyphshow
227.954102 0.000000 m /space glyphshow
232.404297 0.000000 m /W glyphshow
246.247070 0.000000 m /i glyphshow
250.136719 0.000000 m /n glyphshow
259.009766 0.000000 m /e glyphshow
267.623047 0.000000 m /space glyphshow
272.073242 0.000000 m /d glyphshow
280.959961 0.000000 m /a glyphshow
289.539062 0.000000 m /t glyphshow
295.028320 0.000000 m /a glyphshow
303.607422 0.000000 m /s glyphshow
310.901367 0.000000 m /e glyphshow
319.514648 0.000000 m /t glyphshow
grestore
1.000 setlinewidth
0 setlinecap
0.800 setgray
gsave
386.48125 105.640625 m
478.2625 105.640625 l
479.595833 105.640625 480.2625 106.307292 480.2625 107.640625 c
480.2625 180 l
480.2625 181.333333 479.595833 182 478.2625 182 c
386.48125 182 l
385.147917 182 384.48125 181.333333 384.48125 180 c
384.48125 107.640625 l
384.48125 106.307292 385.147917 105.640625 386.48125 105.640625 c
cl
gsave
1.000 setgray
fill
grestore
stroke
grestore
1.500 setlinewidth
1 setlinejoin
[9.6 2.4 1.5 2.4] 0 setdash
0.122 0.467 0.706 setrgbcolor
gsave
388.48125 173.90625 m
408.48125 173.90625 l
stroke
grestore
0.000 setgray
/DejaVuSans findfont
10.000 scalefont
setfont
gsave
416.481250 170.406250 translate
0.000000 rotate
0.000000 0.000000 m /N glyphshow
7.480469 0.000000 m /o glyphshow
13.598633 0.000000 m /i glyphshow
16.376953 0.000000 m /s glyphshow
21.586914 0.000000 m /y glyphshow
27.504883 0.000000 m /space glyphshow
30.683594 0.000000 m /K glyphshow
37.241211 0.000000 m /F glyphshow
42.993164 0.000000 m /A glyphshow
49.833984 0.000000 m /C glyphshow
grestore
[5.55 2.4] 0 setdash
1.000 0.498 0.055 setrgbcolor
gsave
388.48125 159.234375 m
408.48125 159.234375 l
stroke
grestore
0.000 setgray
gsave
416.481250 155.734375 translate
0.000000 rotate
0.000000 0.000000 m /N glyphshow
7.480469 0.000000 m /o glyphshow
13.598633 0.000000 m /i glyphshow
16.376953 0.000000 m /s glyphshow
21.586914 0.000000 m /y glyphshow
27.504883 0.000000 m /space glyphshow
30.683594 0.000000 m /A glyphshow
37.524414 0.000000 m /d glyphshow
43.872070 0.000000 m /a glyphshow
50.000000 0.000000 m /m glyphshow
grestore
[1.5 2.475] 0 setdash
0.173 0.627 0.173 setrgbcolor
gsave
388.48125 144.5625 m
408.48125 144.5625 l
stroke
grestore
0.000 setgray
gsave
416.481250 141.062500 translate
0.000000 rotate
0.000000 0.000000 m /V glyphshow
6.840820 0.000000 m /p glyphshow
13.188477 0.000000 m /r glyphshow
17.299805 0.000000 m /o glyphshow
23.417969 0.000000 m /p glyphshow
grestore
2 setlinecap
[] 0 setdash
0.839 0.153 0.157 setrgbcolor
gsave
388.48125 129.890625 m
408.48125 129.890625 l
stroke
grestore
0.000 setgray
gsave
416.481250 126.390625 translate
0.000000 rotate
0.000000 0.000000 m /A glyphshow
6.840820 0.000000 m /d glyphshow
13.188477 0.000000 m /a glyphshow
19.316406 0.000000 m /m glyphshow
grestore
0 setlinecap
[9.6 2.4 1.5 2.4] 0 setdash
0.580 0.404 0.741 setrgbcolor
gsave
388.48125 115.21875 m
408.48125 115.21875 l
stroke
grestore
0.000 setgray
gsave
416.481250 111.718750 translate
0.000000 rotate
0.000000 0.000000 m /B glyphshow
6.860352 0.000000 m /B glyphshow
13.720703 0.000000 m /B glyphshow
grestore

end
showpage
