%!PS-Adobe-3.0 EPSF-3.0
%%Title: wine_pred.eps
%%Creator: matplotlib version 2.0.2, http://matplotlib.org/
%%CreationDate: Sat Jul 28 19:32:34 2018
%%Orientation: portrait
%%BoundingBox: -126 252 738 540
%%EndComments
%%BeginProlog
/mpldict 8 dict def
mpldict begin
/m { moveto } bind def
/l { lineto } bind def
/r { rlineto } bind def
/c { curveto } bind def
/cl { closepath } bind def
/box {
m
1 index 0 r
0 exch r
neg 0 r
cl
} bind def
/clipbox {
box
clip
newpath
} bind def
%!PS-Adobe-3.0 Resource-Font
%%Title: DejaVu Sans
%%Copyright: Copyright (c) 2003 by Bitstream, Inc. All Rights Reserved. Copyright (c) 2006 by Tavmjong Bah. All Rights Reserved. DejaVu changes are in public domain 
%%Creator: Converted from TrueType to type 3 by PPR
25 dict begin
/_d{bind def}bind def
/_m{moveto}_d
/_l{lineto}_d
/_cl{closepath eofill}_d
/_c{curveto}_d
/_sc{7 -1 roll{setcachedevice}{pop pop pop pop pop pop}ifelse}_d
/_e{exec}_d
/FontName /DejaVuSans def
/PaintType 0 def
/FontMatrix[.001 0 0 .001 0 0]def
/FontBBox[-1021 -463 1793 1232]def
/FontType 3 def
/Encoding [ /zero /one /two /minus ] def
/FontInfo 10 dict dup begin
/FamilyName (DejaVu Sans) def
/FullName (DejaVu Sans) def
/Notice (Copyright (c) 2003 by Bitstream, Inc. All Rights Reserved. Copyright (c) 2006 by Tavmjong Bah. All Rights Reserved. DejaVu changes are in public domain ) def
/Weight (Book) def
/Version (Version 2.35) def
/ItalicAngle 0.0 def
/isFixedPitch false def
/UnderlinePosition -130 def
/UnderlineThickness 90 def
end readonly def
/CharStrings 4 dict dup begin
/zero{636 0 66 -13 570 742 _sc
318 664 _m
267 664 229 639 203 589 _c
177 539 165 464 165 364 _c
165 264 177 189 203 139 _c
229 89 267 64 318 64 _c
369 64 407 89 433 139 _c
458 189 471 264 471 364 _c
471 464 458 539 433 589 _c
407 639 369 664 318 664 _c
318 742 _m
399 742 461 709 505 645 _c
548 580 570 486 570 364 _c
570 241 548 147 505 83 _c
461 19 399 -13 318 -13 _c
236 -13 173 19 130 83 _c
87 147 66 241 66 364 _c
66 486 87 580 130 645 _c
173 709 236 742 318 742 _c
_cl}_d
/one{636 0 110 0 544 729 _sc
124 83 _m
285 83 _l
285 639 _l
110 604 _l
110 694 _l
284 729 _l
383 729 _l
383 83 _l
544 83 _l
544 0 _l
124 0 _l
124 83 _l
_cl}_d
/two{{636 0 73 0 536 742 _sc
192 83 _m
536 83 _l
536 0 _l
73 0 _l
73 83 _l
110 121 161 173 226 239 _c
290 304 331 346 348 365 _c
380 400 402 430 414 455 _c
426 479 433 504 433 528 _c
433 566 419 598 392 622 _c
365 646 330 659 286 659 _c
255 659 222 653 188 643 _c
154 632 117 616 78 594 _c
78 694 _l
118 710 155 722 189 730 _c
223 738 255 742 284 742 _c
}_e{359 742 419 723 464 685 _c
509 647 532 597 532 534 _c
532 504 526 475 515 449 _c
504 422 484 390 454 354 _c
446 344 420 317 376 272 _c
332 227 271 164 192 83 _c
_cl}_e}_d
/minus{838 0 106 272 732 355 _sc
106 355 _m
732 355 _l
732 272 _l
106 272 _l
106 355 _l
_cl}_d
end readonly def

/BuildGlyph
 {exch begin
 CharStrings exch
 2 copy known not{pop /.notdef}if
 true 3 1 roll get exec
 end}_d

/BuildChar {
 1 index /Encoding get exch get
 1 index /BuildGlyph get exec
}_d

FontName currentdict end definefont pop
end
%%EndProlog
mpldict begin
-126 252 translate
864 288 0 0 clipbox
gsave
0 0 m
864 0 l
864 288 l
0 288 l
cl
1.000 setgray
fill
grestore
gsave
108 36 m
777.6 36 l
777.6 253.44 l
108 253.44 l
cl
1.000 setgray
fill
grestore
1.000 setlinewidth
1 setlinejoin
0 setlinecap
[] 0 setdash
0.122 0.467 0.706 setrgbcolor
gsave
669.6 217.4 108 36 clipbox
/o {
gsave
newpath
translate
1.0 setlinewidth
1 setlinejoin
0 setlinecap
0 -2.738613 m
0.726289 -2.738613 1.422928 -2.450055 1.936492 -1.936492 c
2.450055 -1.422928 2.738613 -0.726289 2.738613 0 c
2.738613 0.726289 2.450055 1.422928 1.936492 1.936492 c
1.422928 2.450055 0.726289 2.738613 0 2.738613 c
-0.726289 2.738613 -1.422928 2.450055 -1.936492 1.936492 c
-2.450055 1.422928 -2.738613 0.726289 -2.738613 0 c
-2.738613 -0.726289 -2.450055 -1.422928 -1.936492 -1.936492 c
-1.422928 -2.450055 -0.726289 -2.738613 0 -2.738613 c
cl

gsave
0.122 0.467 0.706 setrgbcolor
fill
grestore
stroke
grestore
} bind def
119.16 167.222 o
141.48 107.135 o
163.8 227.309 o
186.12 167.222 o
208.44 107.135 o
230.76 167.222 o
253.08 107.135 o
275.4 167.222 o
297.72 47.0484 o
320.04 107.135 o
342.36 107.135 o
364.68 107.135 o
387 167.222 o
409.32 107.135 o
431.64 167.222 o
453.96 167.222 o
476.28 227.309 o
498.6 107.135 o
520.92 107.135 o
543.24 47.0484 o
565.56 227.309 o
587.88 167.222 o
610.2 167.222 o
632.52 47.0484 o
654.84 167.222 o
677.16 107.135 o
699.48 107.135 o
721.8 227.309 o
744.12 107.135 o
766.44 167.222 o
grestore
0.800 setlinewidth
0.000 setgray
gsave
/o {
gsave
newpath
translate
0.8 setlinewidth
1 setlinejoin
0 setlinecap
0 0 m
-3.5 0 l

gsave
0.000 setgray
fill
grestore
stroke
grestore
} bind def
108 48.0111 o
grestore
/DejaVuSans findfont
14.000 scalefont
setfont
gsave
80.359375 42.690769 translate
0.000000 rotate
0.000000 0.000000 m /minus glyphshow
11.730469 0.000000 m /two glyphshow
grestore
gsave
/o {
gsave
newpath
translate
0.8 setlinewidth
1 setlinejoin
0 setlinecap
0 0 m
-3.5 0 l

gsave
0.000 setgray
fill
grestore
stroke
grestore
} bind def
108 96.7392 o
grestore
gsave
80.359375 91.418886 translate
0.000000 rotate
0.000000 0.000000 m /minus glyphshow
11.730469 0.000000 m /one glyphshow
grestore
gsave
/o {
gsave
newpath
translate
0.8 setlinewidth
1 setlinejoin
0 setlinecap
0 0 m
-3.5 0 l

gsave
0.000 setgray
fill
grestore
stroke
grestore
} bind def
108 145.467 o
grestore
gsave
92.093750 140.147002 translate
0.000000 rotate
0.000000 0.000000 m /zero glyphshow
grestore
gsave
/o {
gsave
newpath
translate
0.8 setlinewidth
1 setlinejoin
0 setlinecap
0 0 m
-3.5 0 l

gsave
0.000 setgray
fill
grestore
stroke
grestore
} bind def
108 194.195 o
grestore
gsave
92.093750 188.875119 translate
0.000000 rotate
0.000000 0.000000 m /one glyphshow
grestore
gsave
/o {
gsave
newpath
translate
0.8 setlinewidth
1 setlinejoin
0 setlinecap
0 0 m
-3.5 0 l

gsave
0.000 setgray
fill
grestore
stroke
grestore
} bind def
108 242.924 o
grestore
gsave
92.093750 237.603236 translate
0.000000 rotate
0.000000 0.000000 m /two glyphshow
grestore
1.000 setlinewidth
2 setlinecap
gsave
669.6 217.4 108 36 clipbox
113.58 138.895952 m
124.74 138.895952 l
124.74 147.127382 l
113.58 147.127382 l
113.58 138.895952 l
stroke
grestore
gsave
669.6 217.4 108 36 clipbox
119.16 138.895952 m
119.16 127.383307 l
stroke
grestore
gsave
669.6 217.4 108 36 clipbox
119.16 147.127382 m
119.16 159.377026 l
stroke
grestore
gsave
669.6 217.4 108 36 clipbox
116.37 127.383307 m
121.95 127.383307 l
stroke
grestore
gsave
669.6 217.4 108 36 clipbox
116.37 159.377026 m
121.95 159.377026 l
stroke
grestore
gsave
669.6 217.4 108 36 clipbox
135.9 94.889275 m
147.06 94.889275 l
147.06 105.448153 l
135.9 105.448153 l
135.9 94.889275 l
stroke
grestore
gsave
669.6 217.4 108 36 clipbox
141.48 94.889275 m
141.48 83.112759 l
stroke
grestore
gsave
669.6 217.4 108 36 clipbox
141.48 105.448153 m
141.48 121.142853 l
stroke
grestore
gsave
669.6 217.4 108 36 clipbox
138.69 83.112759 m
144.27 83.112759 l
stroke
grestore
gsave
669.6 217.4 108 36 clipbox
138.69 121.142853 m
144.27 121.142853 l
stroke
grestore
gsave
669.6 217.4 108 36 clipbox
158.22 193.268605 m
169.38 193.268605 l
169.38 202.865811 l
158.22 202.865811 l
158.22 193.268605 l
stroke
grestore
gsave
669.6 217.4 108 36 clipbox
163.8 193.268605 m
163.8 181.935215 l
stroke
grestore
gsave
669.6 217.4 108 36 clipbox
163.8 202.865811 m
163.8 216.987012 l
stroke
grestore
gsave
669.6 217.4 108 36 clipbox
161.01 181.935215 m
166.59 181.935215 l
stroke
grestore
gsave
669.6 217.4 108 36 clipbox
161.01 216.987012 m
166.59 216.987012 l
stroke
grestore
gsave
669.6 217.4 108 36 clipbox
180.54 111.913466 m
191.7 111.913466 l
191.7 122.821595 l
180.54 122.821595 l
180.54 111.913466 l
stroke
grestore
gsave
669.6 217.4 108 36 clipbox
186.12 111.913466 m
186.12 96.521756 l
stroke
grestore
gsave
669.6 217.4 108 36 clipbox
186.12 122.821595 m
186.12 139.181441 l
stroke
grestore
gsave
669.6 217.4 108 36 clipbox
183.33 96.521756 m
188.91 96.521756 l
stroke
grestore
gsave
669.6 217.4 108 36 clipbox
183.33 139.181441 m
188.91 139.181441 l
stroke
grestore
gsave
669.6 217.4 108 36 clipbox
202.86 154.27205 m
214.02 154.27205 l
214.02 167.865024 l
202.86 167.865024 l
202.86 154.27205 l
stroke
grestore
gsave
669.6 217.4 108 36 clipbox
208.44 154.27205 m
208.44 136.021867 l
stroke
grestore
gsave
669.6 217.4 108 36 clipbox
208.44 167.865024 m
208.44 185.877739 l
stroke
grestore
gsave
669.6 217.4 108 36 clipbox
205.65 136.021867 m
211.23 136.021867 l
stroke
grestore
gsave
669.6 217.4 108 36 clipbox
205.65 185.877739 m
211.23 185.877739 l
stroke
grestore
gsave
669.6 217.4 108 36 clipbox
225.18 104.631975 m
236.34 104.631975 l
236.34 112.536514 l
225.18 112.536514 l
225.18 104.631975 l
stroke
grestore
gsave
669.6 217.4 108 36 clipbox
230.76 104.631975 m
230.76 93.512072 l
stroke
grestore
gsave
669.6 217.4 108 36 clipbox
230.76 112.536514 m
230.76 124.112206 l
stroke
grestore
gsave
669.6 217.4 108 36 clipbox
227.97 93.512072 m
233.55 93.512072 l
stroke
grestore
gsave
669.6 217.4 108 36 clipbox
227.97 124.112206 m
233.55 124.112206 l
stroke
grestore
gsave
669.6 217.4 108 36 clipbox
247.5 117.798196 m
258.66 117.798196 l
258.66 125.868918 l
247.5 125.868918 l
247.5 117.798196 l
stroke
grestore
gsave
669.6 217.4 108 36 clipbox
253.08 117.798196 m
253.08 106.023991 l
stroke
grestore
gsave
669.6 217.4 108 36 clipbox
253.08 125.868918 m
253.08 137.344721 l
stroke
grestore
gsave
669.6 217.4 108 36 clipbox
250.29 106.023991 m
255.87 106.023991 l
stroke
grestore
gsave
669.6 217.4 108 36 clipbox
250.29 137.344721 m
255.87 137.344721 l
stroke
grestore
gsave
669.6 217.4 108 36 clipbox
269.82 154.84668 m
280.98 154.84668 l
280.98 164.227719 l
269.82 164.227719 l
269.82 154.84668 l
stroke
grestore
gsave
669.6 217.4 108 36 clipbox
275.4 154.84668 m
275.4 141.99144 l
stroke
grestore
gsave
669.6 217.4 108 36 clipbox
275.4 164.227719 m
275.4 176.342716 l
stroke
grestore
gsave
669.6 217.4 108 36 clipbox
272.61 141.99144 m
278.19 141.99144 l
stroke
grestore
gsave
669.6 217.4 108 36 clipbox
272.61 176.342716 m
278.19 176.342716 l
stroke
grestore
gsave
669.6 217.4 108 36 clipbox
292.14 83.379156 m
303.3 83.379156 l
303.3 95.560158 l
292.14 95.560158 l
292.14 83.379156 l
stroke
grestore
gsave
669.6 217.4 108 36 clipbox
297.72 83.379156 m
297.72 68.409802 l
stroke
grestore
gsave
669.6 217.4 108 36 clipbox
297.72 95.560158 m
297.72 110.869281 l
stroke
grestore
gsave
669.6 217.4 108 36 clipbox
294.93 68.409802 m
300.51 68.409802 l
stroke
grestore
gsave
669.6 217.4 108 36 clipbox
294.93 110.869281 m
300.51 110.869281 l
stroke
grestore
gsave
669.6 217.4 108 36 clipbox
314.46 106.16487 m
325.62 106.16487 l
325.62 113.577879 l
314.46 113.577879 l
314.46 106.16487 l
stroke
grestore
gsave
669.6 217.4 108 36 clipbox
320.04 106.16487 m
320.04 97.418092 l
stroke
grestore
gsave
669.6 217.4 108 36 clipbox
320.04 113.577879 m
320.04 123.504383 l
stroke
grestore
gsave
669.6 217.4 108 36 clipbox
317.25 97.418092 m
322.83 97.418092 l
stroke
grestore
gsave
669.6 217.4 108 36 clipbox
317.25 123.504383 m
322.83 123.504383 l
stroke
grestore
gsave
669.6 217.4 108 36 clipbox
336.78 121.703297 m
347.94 121.703297 l
347.94 129.900446 l
336.78 129.900446 l
336.78 121.703297 l
stroke
grestore
gsave
669.6 217.4 108 36 clipbox
342.36 121.703297 m
342.36 109.544708 l
stroke
grestore
gsave
669.6 217.4 108 36 clipbox
342.36 129.900446 m
342.36 141.907415 l
stroke
grestore
gsave
669.6 217.4 108 36 clipbox
339.57 109.544708 m
345.15 109.544708 l
stroke
grestore
gsave
669.6 217.4 108 36 clipbox
339.57 141.907415 m
345.15 141.907415 l
stroke
grestore
gsave
669.6 217.4 108 36 clipbox
359.1 119.606255 m
370.26 119.606255 l
370.26 128.142702 l
359.1 128.142702 l
359.1 119.606255 l
stroke
grestore
gsave
669.6 217.4 108 36 clipbox
364.68 119.606255 m
364.68 107.674223 l
stroke
grestore
gsave
669.6 217.4 108 36 clipbox
364.68 128.142702 m
364.68 140.503504 l
stroke
grestore
gsave
669.6 217.4 108 36 clipbox
361.89 107.674223 m
367.47 107.674223 l
stroke
grestore
gsave
669.6 217.4 108 36 clipbox
361.89 140.503504 m
367.47 140.503504 l
stroke
grestore
gsave
669.6 217.4 108 36 clipbox
381.42 141.542429 m
392.58 141.542429 l
392.58 149.471728 l
381.42 149.471728 l
381.42 141.542429 l
stroke
grestore
gsave
669.6 217.4 108 36 clipbox
387 141.542429 m
387 129.677418 l
stroke
grestore
gsave
669.6 217.4 108 36 clipbox
387 149.471728 m
387 161.238898 l
stroke
grestore
gsave
669.6 217.4 108 36 clipbox
384.21 129.677418 m
389.79 129.677418 l
stroke
grestore
gsave
669.6 217.4 108 36 clipbox
384.21 161.238898 m
389.79 161.238898 l
stroke
grestore
gsave
669.6 217.4 108 36 clipbox
403.74 129.496948 m
414.9 129.496948 l
414.9 145.320819 l
403.74 145.320819 l
403.74 129.496948 l
stroke
grestore
gsave
669.6 217.4 108 36 clipbox
409.32 129.496948 m
409.32 106.409832 l
stroke
grestore
gsave
669.6 217.4 108 36 clipbox
409.32 145.320819 m
409.32 168.882201 l
stroke
grestore
gsave
669.6 217.4 108 36 clipbox
406.53 106.409832 m
412.11 106.409832 l
stroke
grestore
gsave
669.6 217.4 108 36 clipbox
406.53 168.882201 m
412.11 168.882201 l
stroke
grestore
gsave
669.6 217.4 108 36 clipbox
426.06 143.309723 m
437.22 143.309723 l
437.22 150.628838 l
426.06 150.628838 l
426.06 143.309723 l
stroke
grestore
gsave
669.6 217.4 108 36 clipbox
431.64 143.309723 m
431.64 132.679208 l
stroke
grestore
gsave
669.6 217.4 108 36 clipbox
431.64 150.628838 m
431.64 161.568319 l
stroke
grestore
gsave
669.6 217.4 108 36 clipbox
428.85 132.679208 m
434.43 132.679208 l
stroke
grestore
gsave
669.6 217.4 108 36 clipbox
428.85 161.568319 m
434.43 161.568319 l
stroke
grestore
gsave
669.6 217.4 108 36 clipbox
448.38 177.30002 m
459.54 177.30002 l
459.54 187.536162 l
448.38 187.536162 l
448.38 177.30002 l
stroke
grestore
gsave
669.6 217.4 108 36 clipbox
453.96 177.30002 m
453.96 162.43899 l
stroke
grestore
gsave
669.6 217.4 108 36 clipbox
453.96 187.536162 m
453.96 202.856987 l
stroke
grestore
gsave
669.6 217.4 108 36 clipbox
451.17 162.43899 m
456.75 162.43899 l
stroke
grestore
gsave
669.6 217.4 108 36 clipbox
451.17 202.856987 m
456.75 202.856987 l
stroke
grestore
gsave
669.6 217.4 108 36 clipbox
470.7 211.197523 m
481.86 211.197523 l
481.86 224.380244 l
470.7 224.380244 l
470.7 211.197523 l
stroke
grestore
gsave
669.6 217.4 108 36 clipbox
476.28 211.197523 m
476.28 193.563967 l
stroke
grestore
gsave
669.6 217.4 108 36 clipbox
476.28 224.380244 m
476.28 243.556364 l
stroke
grestore
gsave
669.6 217.4 108 36 clipbox
473.49 193.563967 m
479.07 193.563967 l
stroke
grestore
gsave
669.6 217.4 108 36 clipbox
473.49 243.556364 m
479.07 243.556364 l
stroke
grestore
gsave
669.6 217.4 108 36 clipbox
493.02 142.303367 m
504.18 142.303367 l
504.18 151.795722 l
493.02 151.795722 l
493.02 142.303367 l
stroke
grestore
gsave
669.6 217.4 108 36 clipbox
498.6 142.303367 m
498.6 128.887487 l
stroke
grestore
gsave
669.6 217.4 108 36 clipbox
498.6 151.795722 m
498.6 165.30301 l
stroke
grestore
gsave
669.6 217.4 108 36 clipbox
495.81 128.887487 m
501.39 128.887487 l
stroke
grestore
gsave
669.6 217.4 108 36 clipbox
495.81 165.30301 m
501.39 165.30301 l
stroke
grestore
gsave
669.6 217.4 108 36 clipbox
515.34 159.68632 m
526.5 159.68632 l
526.5 171.151264 l
515.34 171.151264 l
515.34 159.68632 l
stroke
grestore
gsave
669.6 217.4 108 36 clipbox
520.92 159.68632 m
520.92 143.012506 l
stroke
grestore
gsave
669.6 217.4 108 36 clipbox
520.92 171.151264 m
520.92 187.291795 l
stroke
grestore
gsave
669.6 217.4 108 36 clipbox
518.13 143.012506 m
523.71 143.012506 l
stroke
grestore
gsave
669.6 217.4 108 36 clipbox
518.13 187.291795 m
523.71 187.291795 l
stroke
grestore
gsave
669.6 217.4 108 36 clipbox
537.66 109.511373 m
548.82 109.511373 l
548.82 117.419701 l
537.66 117.419701 l
537.66 109.511373 l
stroke
grestore
gsave
669.6 217.4 108 36 clipbox
543.24 109.511373 m
543.24 99.284082 l
stroke
grestore
gsave
669.6 217.4 108 36 clipbox
543.24 117.419701 m
543.24 128.142751 l
stroke
grestore
gsave
669.6 217.4 108 36 clipbox
540.45 99.284082 m
546.03 99.284082 l
stroke
grestore
gsave
669.6 217.4 108 36 clipbox
540.45 128.142751 m
546.03 128.142751 l
stroke
grestore
gsave
669.6 217.4 108 36 clipbox
559.98 169.817384 m
571.14 169.817384 l
571.14 182.179463 l
559.98 182.179463 l
559.98 169.817384 l
stroke
grestore
gsave
669.6 217.4 108 36 clipbox
565.56 169.817384 m
565.56 152.779738 l
stroke
grestore
gsave
669.6 217.4 108 36 clipbox
565.56 182.179463 m
565.56 199.849145 l
stroke
grestore
gsave
669.6 217.4 108 36 clipbox
562.77 152.779738 m
568.35 152.779738 l
stroke
grestore
gsave
669.6 217.4 108 36 clipbox
562.77 199.849145 m
568.35 199.849145 l
stroke
grestore
gsave
669.6 217.4 108 36 clipbox
582.3 119.101623 m
593.46 119.101623 l
593.46 128.935352 l
582.3 128.935352 l
582.3 119.101623 l
stroke
grestore
gsave
669.6 217.4 108 36 clipbox
587.88 119.101623 m
587.88 105.053138 l
stroke
grestore
gsave
669.6 217.4 108 36 clipbox
587.88 128.935352 m
587.88 142.812068 l
stroke
grestore
gsave
669.6 217.4 108 36 clipbox
585.09 105.053138 m
590.67 105.053138 l
stroke
grestore
gsave
669.6 217.4 108 36 clipbox
585.09 142.812068 m
590.67 142.812068 l
stroke
grestore
gsave
669.6 217.4 108 36 clipbox
604.62 138.272986 m
615.78 138.272986 l
615.78 143.895052 l
604.62 143.895052 l
604.62 138.272986 l
stroke
grestore
gsave
669.6 217.4 108 36 clipbox
610.2 138.272986 m
610.2 129.870304 l
stroke
grestore
gsave
669.6 217.4 108 36 clipbox
610.2 143.895052 m
610.2 151.852266 l
stroke
grestore
gsave
669.6 217.4 108 36 clipbox
607.41 129.870304 m
612.99 129.870304 l
stroke
grestore
gsave
669.6 217.4 108 36 clipbox
607.41 151.852266 m
612.99 151.852266 l
stroke
grestore
gsave
669.6 217.4 108 36 clipbox
626.94 134.310753 m
638.1 134.310753 l
638.1 162.124818 l
626.94 162.124818 l
626.94 134.310753 l
stroke
grestore
gsave
669.6 217.4 108 36 clipbox
632.52 134.310753 m
632.52 98.836435 l
stroke
grestore
gsave
669.6 217.4 108 36 clipbox
632.52 162.124818 m
632.52 199.072247 l
stroke
grestore
gsave
669.6 217.4 108 36 clipbox
629.73 98.836435 m
635.31 98.836435 l
stroke
grestore
gsave
669.6 217.4 108 36 clipbox
629.73 199.072247 m
635.31 199.072247 l
stroke
grestore
gsave
669.6 217.4 108 36 clipbox
649.26 126.356552 m
660.42 126.356552 l
660.42 133.597654 l
649.26 133.597654 l
649.26 126.356552 l
stroke
grestore
gsave
669.6 217.4 108 36 clipbox
654.84 126.356552 m
654.84 116.289026 l
stroke
grestore
gsave
669.6 217.4 108 36 clipbox
654.84 133.597654 m
654.84 142.98915 l
stroke
grestore
gsave
669.6 217.4 108 36 clipbox
652.05 116.289026 m
657.63 116.289026 l
stroke
grestore
gsave
669.6 217.4 108 36 clipbox
652.05 142.98915 m
657.63 142.98915 l
stroke
grestore
gsave
669.6 217.4 108 36 clipbox
671.58 106.998432 m
682.74 106.998432 l
682.74 118.451357 l
671.58 118.451357 l
671.58 106.998432 l
stroke
grestore
gsave
669.6 217.4 108 36 clipbox
677.16 106.998432 m
677.16 90.133334 l
stroke
grestore
gsave
669.6 217.4 108 36 clipbox
677.16 118.451357 m
677.16 134.463193 l
stroke
grestore
gsave
669.6 217.4 108 36 clipbox
674.37 90.133334 m
679.95 90.133334 l
stroke
grestore
gsave
669.6 217.4 108 36 clipbox
674.37 134.463193 m
679.95 134.463193 l
stroke
grestore
gsave
669.6 217.4 108 36 clipbox
693.9 116.155154 m
705.06 116.155154 l
705.06 123.638073 l
693.9 123.638073 l
693.9 116.155154 l
stroke
grestore
gsave
669.6 217.4 108 36 clipbox
699.48 116.155154 m
699.48 105.438985 l
stroke
grestore
gsave
669.6 217.4 108 36 clipbox
699.48 123.638073 m
699.48 134.074978 l
stroke
grestore
gsave
669.6 217.4 108 36 clipbox
696.69 105.438985 m
702.27 105.438985 l
stroke
grestore
gsave
669.6 217.4 108 36 clipbox
696.69 134.074978 m
702.27 134.074978 l
stroke
grestore
gsave
669.6 217.4 108 36 clipbox
716.22 187.997519 m
727.38 187.997519 l
727.38 196.726601 l
716.22 196.726601 l
716.22 187.997519 l
stroke
grestore
gsave
669.6 217.4 108 36 clipbox
721.8 187.997519 m
721.8 176.419924 l
stroke
grestore
gsave
669.6 217.4 108 36 clipbox
721.8 196.726601 m
721.8 209.229046 l
stroke
grestore
gsave
669.6 217.4 108 36 clipbox
719.01 176.419924 m
724.59 176.419924 l
stroke
grestore
gsave
669.6 217.4 108 36 clipbox
719.01 209.229046 m
724.59 209.229046 l
stroke
grestore
gsave
669.6 217.4 108 36 clipbox
738.54 124.734738 m
749.7 124.734738 l
749.7 134.426254 l
738.54 134.426254 l
738.54 124.734738 l
stroke
grestore
gsave
669.6 217.4 108 36 clipbox
744.12 124.734738 m
744.12 111.889439 l
stroke
grestore
gsave
669.6 217.4 108 36 clipbox
744.12 134.426254 m
744.12 148.546161 l
stroke
grestore
gsave
669.6 217.4 108 36 clipbox
741.33 111.889439 m
746.91 111.889439 l
stroke
grestore
gsave
669.6 217.4 108 36 clipbox
741.33 148.546161 m
746.91 148.546161 l
stroke
grestore
gsave
669.6 217.4 108 36 clipbox
760.86 170.457628 m
772.02 170.457628 l
772.02 187.635072 l
760.86 187.635072 l
760.86 170.457628 l
stroke
grestore
gsave
669.6 217.4 108 36 clipbox
766.44 170.457628 m
766.44 147.160455 l
stroke
grestore
gsave
669.6 217.4 108 36 clipbox
766.44 187.635072 m
766.44 212.997225 l
stroke
grestore
gsave
669.6 217.4 108 36 clipbox
763.65 147.160455 m
769.23 147.160455 l
stroke
grestore
gsave
669.6 217.4 108 36 clipbox
763.65 212.997225 m
769.23 212.997225 l
stroke
grestore
1.000 0.498 0.055 setrgbcolor
gsave
669.6 217.4 108 36 clipbox
113.58 142.692455 m
124.74 142.692455 l
stroke
grestore
gsave
669.6 217.4 108 36 clipbox
135.9 100.591319 m
147.06 100.591319 l
stroke
grestore
gsave
669.6 217.4 108 36 clipbox
158.22 198.466843 m
169.38 198.466843 l
stroke
grestore
gsave
669.6 217.4 108 36 clipbox
180.54 117.614957 m
191.7 117.614957 l
stroke
grestore
gsave
669.6 217.4 108 36 clipbox
202.86 161.024379 m
214.02 161.024379 l
stroke
grestore
gsave
669.6 217.4 108 36 clipbox
225.18 108.71627 m
236.34 108.71627 l
stroke
grestore
gsave
669.6 217.4 108 36 clipbox
247.5 122.262455 m
258.66 122.262455 l
stroke
grestore
gsave
669.6 217.4 108 36 clipbox
269.82 159.237712 m
280.98 159.237712 l
stroke
grestore
gsave
669.6 217.4 108 36 clipbox
292.14 89.647273 m
303.3 89.647273 l
stroke
grestore
gsave
669.6 217.4 108 36 clipbox
314.46 110.073089 m
325.62 110.073089 l
stroke
grestore
gsave
669.6 217.4 108 36 clipbox
336.78 126.285995 m
347.94 126.285995 l
stroke
grestore
gsave
669.6 217.4 108 36 clipbox
359.1 124.098522 m
370.26 124.098522 l
stroke
grestore
gsave
669.6 217.4 108 36 clipbox
381.42 145.992106 m
392.58 145.992106 l
stroke
grestore
gsave
669.6 217.4 108 36 clipbox
403.74 137.846273 m
414.9 137.846273 l
stroke
grestore
gsave
669.6 217.4 108 36 clipbox
426.06 147.257097 m
437.22 147.257097 l
stroke
grestore
gsave
669.6 217.4 108 36 clipbox
448.38 182.688869 m
459.54 182.688869 l
stroke
grestore
gsave
669.6 217.4 108 36 clipbox
470.7 217.483024 m
481.86 217.483024 l
stroke
grestore
gsave
669.6 217.4 108 36 clipbox
493.02 147.548033 m
504.18 147.548033 l
stroke
grestore
gsave
669.6 217.4 108 36 clipbox
515.34 165.766592 m
526.5 165.766592 l
stroke
grestore
gsave
669.6 217.4 108 36 clipbox
537.66 113.198008 m
548.82 113.198008 l
stroke
grestore
gsave
669.6 217.4 108 36 clipbox
559.98 175.737184 m
571.14 175.737184 l
stroke
grestore
gsave
669.6 217.4 108 36 clipbox
582.3 124.708592 m
593.46 124.708592 l
stroke
grestore
gsave
669.6 217.4 108 36 clipbox
604.62 141.013665 m
615.78 141.013665 l
stroke
grestore
gsave
669.6 217.4 108 36 clipbox
626.94 147.255185 m
638.1 147.255185 l
stroke
grestore
gsave
669.6 217.4 108 36 clipbox
649.26 130.062757 m
660.42 130.062757 l
stroke
grestore
gsave
669.6 217.4 108 36 clipbox
671.58 112.398744 m
682.74 112.398744 l
stroke
grestore
gsave
669.6 217.4 108 36 clipbox
693.9 119.7791 m
705.06 119.7791 l
stroke
grestore
gsave
669.6 217.4 108 36 clipbox
716.22 192.322047 m
727.38 192.322047 l
stroke
grestore
gsave
669.6 217.4 108 36 clipbox
738.54 129.817348 m
749.7 129.817348 l
stroke
grestore
gsave
669.6 217.4 108 36 clipbox
760.86 179.152398 m
772.02 179.152398 l
stroke
grestore
0.800 setlinewidth
0 setlinejoin
[] 0 setdash
0.000 setgray
gsave
108 36 m
108 253.44 l
stroke
grestore
gsave
777.6 36 m
777.6 253.44 l
stroke
grestore
gsave
108 36 m
777.6 36 l
stroke
grestore
gsave
108 253.44 m
777.6 253.44 l
stroke
grestore

end
showpage
